date,full_path,name,sha
2020-06-06,spip-contrib-extensions/cartes_choroplethes,v1.0.0,7bc0077c65fd479994a842b65e3351b4b3802571
2024-10-07,spip-contrib-extensions/cartes_choroplethes,v1.0.1,a7c0a4fda4b4f12f6d68e2b47cc97ba75507a82c
