date,full_path,name,sha
2019-12-25,spip-contrib-extensions/noie,v1,f2ff012504bad18fa5754fb0e5d2a59e5ad59e15
2020-06-04,spip-contrib-extensions/noie,no_tous_ie,cf29d85269c649167893b08907a630a3281aa5af
2021-11-29,spip-contrib-extensions/noie,master,29f8b46617b7170d78ff327a10e64ebd6d2cc0f8
