date,full_path,name,sha
2019-12-25,spip-contrib-extensions/dame_blanche,v0.2.4,03a339e94ed252ad2ba5cbaf0ddfaf980b42735b
2024-07-13,spip-contrib-extensions/dame_blanche,0.3.0,e6d75b43b68c8491cd8cf56bcbbab7257835fdd6
