date,full_path,name,sha
2020-01-24,spip-contrib-extensions/pdfjs,v0.6.4,909da09aa24f820052dd0eb381da23b1bb0bb6aa
2020-10-21,spip-contrib-extensions/pdfjs,v0.6.5,0fc79f20d1c284714862242212284eed512354b2
2022-01-24,spip-contrib-extensions/pdfjs,v0.6.6,307604d0d5f0fa75c3513cdf91e930c4c7669eef
2022-01-24,spip-contrib-extensions/pdfjs,v0.6.7,a41267d47cbfd221bce9e202c866de546cfcc973
2022-01-24,spip-contrib-extensions/pdfjs,v1.0.0,8967f96b60c29fdc64e0c488d5325d91bfb76ac7
2022-05-04,spip-contrib-extensions/pdfjs,v1.1.1,3e9519511f3ae02276f4873e8064526a53f64684
2023-06-07,spip-contrib-extensions/pdfjs,v1.1.2,91782bf31d4af137e3a08c5dba166c5f116b2285
2024-01-08,spip-contrib-extensions/pdfjs,v1.1.3,df23ccb75b337504c49b161beed821441b939055
2024-07-05,spip-contrib-extensions/pdfjs,1.2.0,0d6d539d9bb29d224c029524af174fb576cc7949
