date,full_path,name,sha
2021-05-16,spip/urls,issue_4784,b50d2e8d51773bfe5814d80e1e8ff6e4fddf5e9b
2022-07-21,spip/urls,4.0,30f53441d4a396c4e6c876ae3d6a1c2f9ca1901d
2024-10-04,spip/urls,dev/issue_4822_deverrouiller,521aa84c5a7ad503b4e7ff12e571c6fc9c64becf
2024-11-27,spip/urls,4.2,db6a39fd81f129d266de34cb6892233bc0257453
2024-12-03,spip/urls,4.1,7750518c2be6c116e9f6864cd8524dca3c030ca3
2025-02-05,spip/urls,master,857ab9ae71c86b417c681cc185cc491afc32462f
