pushed new,Codage,13,Eric,2024-07-01,3239,Project
pushed to,Codage,13,Eric,2024-07-01,3239,Project
pushed new,Codage,6,JamesRezo,2024-07-05,3239,Project
pushed to,Codage,6,JamesRezo,2024-07-05,3239,Project
