date,full_path,name,sha
2017-05-08,spip-contrib-extensions/COG_gps,1.0,ee7113301fbd82e0f1ba13a606617a5a1c4dd6d8
2017-10-24,spip-contrib-extensions/COG_gps,master,9f29c94081e3112c9f66a0d321be3a4ef665ac5a
2024-12-17,spip-contrib-extensions/COG_gps,3.0,ed8b111170600e2549fff2367854c2e2917e9f30
