date,full_path,name,sha
2020-03-25,spip-contrib-themes/spipr_v2_beige,v2.0.1,35d1561d500ca3b92ab39e9d5661c164ec136237
2021-01-25,spip-contrib-themes/spipr_v2_beige,v2.0.2,9fcde4d56b2989ca4636980a5595f853ed40c783
2021-07-12,spip-contrib-themes/spipr_v2_beige,v2.0.3,fe2b74cac71aec8a7562bfc6038fb24baf938711
