date,full_path,name,sha
2017-07-13,23forward/listes_articles_completes,1.0,ab0749f0a6b638e8c1ec4a6918828e5832117a49
2024-07-28,23forward/listes_articles_completes,master,a186694e65cd26e80d8085fa2571947e8d2f556a
