pushed new,Codage,6,JamesRezo,2024-07-05,3250,Project
pushed to,Codage,6,JamesRezo,2024-07-05,3250,Project
pushed to,Codage,6,JamesRezo,2024-07-15,3250,Project
deleted,Codage,562,jo,2024-07-19,3250,Project
pushed new,Codage,562,jo,2024-07-19,3250,Project
pushed new,Codage,562,jo,2024-07-19,3250,Project
pushed to,Codage,562,jo,2024-07-19,3250,Project
pushed to,Codage,562,jo,2024-07-19,3250,Project
