date,full_path,name,sha
2020-02-17,spip-contrib-extensions/interface_traduction_objets,v1.2.2,831d85f0e0994868c1030a15129d8a95eea5d7be
2020-06-06,spip-contrib-extensions/interface_traduction_objets,1.2.3,c6eefb0845f27a1bcd2d039d030a61286236a68d
2021-05-02,spip-contrib-extensions/interface_traduction_objets,v1.3.0,7d2303e97e7909acea10b347080624a2e29f6b97
2021-05-03,spip-contrib-extensions/interface_traduction_objets,v1.3.1,90a4a2eedb314f99f8cc9a906fe562613e75f2d4
2021-05-15,spip-contrib-extensions/interface_traduction_objets,v1.3.2,1f6cdcf19a33cc385f3f19849ef73f507e00e86d
2021-09-05,spip-contrib-extensions/interface_traduction_objets,v2.0.0,5183e7caac0448ee995b1db48a03c40acfb8052d
2021-09-07,spip-contrib-extensions/interface_traduction_objets,v2.0.1,759bb6a6a1057117ab8d31f9f347ef68aa602a00
2022-03-27,spip-contrib-extensions/interface_traduction_objets,v2.0.2,f438b005914c4a766e159337076b802d2f84a104
2022-04-02,spip-contrib-extensions/interface_traduction_objets,v2.0.3,d0b6b85b53de0f2b963f4430115e01c9320c5e74
2022-04-09,spip-contrib-extensions/interface_traduction_objets,v2.0.4,dd3740e669c49481ee09a9863a2a4d972eae5655
2024-07-05,spip-contrib-extensions/interface_traduction_objets,2.2.0,067da1720981ddade5a7f8cd148d2a12786632b8
