date,full_path,name,sha
2020-01-24,spip-contrib-extensions/html5_responsive,v1.11.0,1fb7e287645a4f6a4363fbc8a56cd12a21d8078f
2020-06-01,spip-contrib-extensions/html5_responsive,v1.12.0,c17c663a00e7039fb44681204d8cb524cce38603
2020-06-16,spip-contrib-extensions/html5_responsive,v1.12.1,cfe8ad7e8c0286988964a237ace46167ef9757cc
2020-09-09,spip-contrib-extensions/html5_responsive,v1.13.0,a2de209f872c7de8e5e2a9930bcba7aec5762152
2020-09-09,spip-contrib-extensions/html5_responsive,v1.13.1,6d6026106976414f77914828e689a7c0d5ec4fb9
2021-05-26,spip-contrib-extensions/html5_responsive,v1.14.0,f1c5217acf37edb121062607466b5ab38d019a03
2022-05-06,spip-contrib-extensions/html5_responsive,v1.15.0,7c1333599d5343111ccdb4778bd27237c84af0dc
2022-05-19,spip-contrib-extensions/html5_responsive,v1.15.1,ffe30ae65aa8d5c326992c60e00edb4f28891b28
2022-07-03,spip-contrib-extensions/html5_responsive,v1.16.0,905dd2e85329c604038e300e805ccfa337c85220
2023-05-18,spip-contrib-extensions/html5_responsive,v1.17.0,6d7a716f131460bb97b7378e9b2dd7129e8dd69b
2024-07-05,spip-contrib-extensions/html5_responsive,1.18.0,8c49e18b630e548f68c25a2293c4b8e59da82cab
