date,full_path,name,sha
2019-07-07,spip-contrib-extensions/langonet,v1.5.2,40389e62f4a79b02f4732269b03401e328bbab07
2020-02-06,spip-contrib-extensions/langonet,v0.7.7,d0411f6f413929c92df4da10a9766e7170f30f40
2020-07-06,spip-contrib-extensions/langonet,v1.5.3,d88a1582173032bdbc4bb11a03639285d801143a
2021-02-18,spip-contrib-extensions/langonet,v1.6.0,d1c428c6806252deb5ccf478de362bce460562e5
2021-02-18,spip-contrib-extensions/langonet,v1.6.1,94cb94413dc67845db482a6de08a0611f412a057
2021-02-19,spip-contrib-extensions/langonet,v1.6.2,9f6359d07b89a8c130ae7206c5c283fbb1a98c1d
2021-02-20,spip-contrib-extensions/langonet,v1.6.3,1aaa2e9eaa296b879b24e1c6fa1366828ed65c88
2021-02-20,spip-contrib-extensions/langonet,v1.6.4,cba4973445dc2ca428d61c19c8bd30df1dda6a66
2021-08-15,spip-contrib-extensions/langonet,v2.0.0,692d8e7b2263e75a1d7a0fc209bcdbca50c3b0f4
2022-05-15,spip-contrib-extensions/langonet,v2.1.0,d1f17c26fae15938a951f135f24f8409560249d0
2023-06-09,spip-contrib-extensions/langonet,v2.1.1,8740ff3d7266626de14346a5694b6305957c32bc
2024-07-05,spip-contrib-extensions/langonet,2.2.0,24c335f5ae199e51080440245fa5abe0d04eae91
2024-10-26,spip-contrib-extensions/langonet,v2.3.0,914eb86ebbdfedae770367e54d078b65c6ee9255
