opened,Papotage,430,JLuc,2024-08-31,2636,Issue
pushed to,Codage,430,JLuc,2024-09-16,2636,Project
closed,Papotage,430,JLuc,2024-10-31,2636,Issue
pushed to,Codage,430,JLuc,2024-10-31,2636,Project
closed,Papotage,430,JLuc,2024-11-01,2636,Issue
commented on,Papotage,430,JLuc,2024-11-01,2636,Note
pushed to,Codage,430,JLuc,2024-11-01,2636,Project
pushed to,Codage,430,JLuc,2024-11-03,2636,Project
pushed to,Codage,430,JLuc,2024-11-06,2636,Project
pushed to,Codage,430,JLuc,2024-11-06,2636,Project
pushed to,Codage,430,JLuc,2024-11-23,2636,Project
