date,full_path,name,sha
2020-03-27,spip-contrib-extensions/ckeditor-spip-plugin,ckeditor-4.x,7b0134de671e1b3fca1bc5a7ece5db7ee3f264fe
2024-05-28,spip-contrib-extensions/ckeditor-spip-plugin,master,e6ce5ade31715cb2cc593336b07daf335b246473
