id,iid,labels,milestone_id,project_id
23025,4781,bug,1270,1677
23027,4779,bug,,1677
23028,4776,bug,1270,1677
23029,4774,amélioration,1270,1677
23035,4761,amélioration,1270,1677
23039,4753,amélioration,1270,1677
23043,4746,amélioration,1270,1677
23045,4741,amélioration,1270,1677
23048,4738,amélioration,1270,1677
23054,4063,amélioration,1270,1677
23056,4042,amélioration,1270,1677
23074,2612,bug,1270,1677
23075,2228,amélioration,1270,1677
31164,4788,amélioration,,1677
31299,4790,amélioration,,1677
31669,4791,bug,1270,1677
31815,4792,bug,1270,1677
32168,4793,,,1677
