date,full_path,name,sha
2018-10-05,spip-contrib-extensions/skeleditor,v2.7.11,6a16ebdf220aed5e3a18ae62c604f5980c5a64be
2020-02-07,spip-contrib-extensions/skeleditor,v3.1.0,81dcba657a0cc94472a38016b1ffff8597bcabb7
2021-09-23,spip-contrib-extensions/skeleditor,v4.0.0,537e79b2d6e4ed354baafa6c2a8ad78db097d6a3
2022-05-12,spip-contrib-extensions/skeleditor,v4.0.1,c882796e58cc86f36a4c50076642ff40f88b1363
2023-06-09,spip-contrib-extensions/skeleditor,v4.0.2,ffafe97333a7e2912397c256e11c744f6f62887d
2024-07-05,spip-contrib-extensions/skeleditor,4.1.0,80c2214f6bb5e873cc0e66835cfa61bc4e38abec
