date,full_path,name,sha
2017-04-10,spip-contrib-extensions/flickr_hasard,v0.4.0,9222c0b49e16af9c07dcd8cb954fc0d25327b5ae
2017-10-16,spip-contrib-extensions/flickr_hasard,v1.3.3,8303ea5149d5d436634f02b87df4a60d70d133d3
