date,full_path,name,sha
2018-12-24,spip-contrib-extensions/sympatic,v0,699546e15113c44f5ba61b3fcc8d5813b47ef648
2024-10-10,spip-contrib-extensions/sympatic,master,093a9615e62a21f7c87e4ed3e77252cb3fc2f22b
