date,full_path,name,sha
2022-10-20,spip-contrib-extensions/menu_boutique,V1.0.0,38703ffff1f9a82610ec39a31e36e5bbdf81edbf
2022-10-22,spip-contrib-extensions/menu_boutique,v1.0.1,1c22e9c67f36e5117b4a35f322b0142a5dfacff1
2022-10-23,spip-contrib-extensions/menu_boutique,v1.0.2,9ee07286353bcc8b8120d422cdaca24587d854bf
2022-11-09,spip-contrib-extensions/menu_boutique,v1.0.3,2d5017393ed4c21b6784e842dbf1001f3ab25b9f
2022-12-01,spip-contrib-extensions/menu_boutique,v1.0.4,ffa27a0c2d85ae8c21363202abc3666b862894b5
2022-12-01,spip-contrib-extensions/menu_boutique,v1.0.5,34e4e8bc26fc432234b203a940c7aae2da26ff7f
2022-12-01,spip-contrib-extensions/menu_boutique,v1.0.6,39c44217dab7221ba5fdbe5aa034405a054f7cb0
2024-01-02,spip-contrib-extensions/menu_boutique,v1.0.8,5bf9d3f39546d64667c65ce15338157de37683f7
2024-08-23,spip-contrib-extensions/menu_boutique,v1.0.9,1cef1dff795606d495731faa74628e755a3a9ad8
2024-12-07,spip-contrib-extensions/menu_boutique,v1.0.10,a6bb37c687dd67f65438061d0a9f624a06c00ceb
