date,full_path,name,sha
2018-12-14,spip-contrib-extensions/lister_plugins,v1.2.2,7bb763bcef4f5b7baa75e3c23707628806a616a8
2022-07-09,spip-contrib-extensions/lister_plugins,v1.2.3,ae481e5822fb7d71b0cd98826ca64c9815c94a77
2024-07-05,spip-contrib-extensions/lister_plugins,1.3.0,c469c4fb5d8c9140685e3123b4f508832d1b4ef2
