date,full_path,name,sha
2019-11-28,spip-contrib-extensions/magnet,v0,aae3ac610f5f9f1a07318c1c115b53e47c58233e
2024-07-05,spip-contrib-extensions/magnet,master,378960278bf1fc067876e94568931f1da0a778b5
