date,full_path,name,sha
2017-05-08,spip-contrib-extensions/motpassecomplexe,3.0,bb4c5f1c7ae399d2dbd56e8273cf462445e9f25c
2018-01-11,spip-contrib-extensions/motpassecomplexe,v3,0eaefdfa7575aed44d9180b5fec6abc935b77423
2018-06-28,spip-contrib-extensions/motpassecomplexe,3.1,d0295c31a80d7d2419fc01a58a9346be0a042636
2021-11-08,spip-contrib-extensions/motpassecomplexe,v4.0,2810b192e3ac292097a43475a241830fcefe8ed9
2024-09-16,spip-contrib-extensions/motpassecomplexe,master,f6db7a645dc24530ab5ed3e9d3cabd1a857558a4
