date,full_path,name,sha
2017-05-08,spip-contrib-extensions/motpassecomplexe,v1.0.0,bb4c5f1c7ae399d2dbd56e8273cf462445e9f25c
2018-01-11,spip-contrib-extensions/motpassecomplexe,v1.3.0,0eaefdfa7575aed44d9180b5fec6abc935b77423
2018-06-28,spip-contrib-extensions/motpassecomplexe,v1.1.4,d0295c31a80d7d2419fc01a58a9346be0a042636
2021-11-08,spip-contrib-extensions/motpassecomplexe,v1.4.0,2810b192e3ac292097a43475a241830fcefe8ed9
2023-03-03,spip-contrib-extensions/motpassecomplexe,v1.5.0,6e1a76f75fa3d749d79a5641dfffc1c351c10d86
2024-05-24,spip-contrib-extensions/motpassecomplexe,v1.5.1,0771b9563da507d095259533a00adc89bfec1e2e
2024-07-05,spip-contrib-extensions/motpassecomplexe,1.6.0,e7ccd77684d1b2392b9da3feda7b497f780b5856
2024-09-16,spip-contrib-extensions/motpassecomplexe,v1.7.0,f6db7a645dc24530ab5ed3e9d3cabd1a857558a4
