date,full_path,name,sha
2021-07-02,spip-contrib-extensions/ancres_douces,dev/js_natif,d7c4baf6d0eb35293f15618d02cb5930d2c500df
2021-08-12,spip-contrib-extensions/ancres_douces,v1,ff36298cd7fefdd1dcf564370f18b90ff995601b
2025-01-29,spip-contrib-extensions/ancres_douces,master,fb04f7fb0752c165f4d1812681412e720a8df4b3
