pushed new,Codage,206,pierretux,2024-08-20,2181,Project
commented on,Papotage,4,maieul,2024-10-01,2181,DiffNote
commented on,Papotage,4,maieul,2024-10-01,2181,DiffNote
commented on,Papotage,4,maieul,2024-10-01,2181,DiffNote
commented on,Papotage,468,bricebou,2024-10-01,2181,DiffNote
commented on,Papotage,468,bricebou,2024-10-01,2181,DiffNote
commented on,Papotage,6,JamesRezo,2024-10-01,2181,DiffNote
closed,Papotage,468,bricebou,2024-10-01,2181,Issue
opened,Papotage,468,bricebou,2024-10-01,2181,Issue
opened,Papotage,468,bricebou,2024-10-01,2181,Issue
accepted,Codage,468,bricebou,2024-10-01,2181,MergeRequest
approved,Codage,4,maieul,2024-10-01,2181,MergeRequest
approved,Codage,4,maieul,2024-10-01,2181,MergeRequest
approved,Codage,43,RealET,2024-10-01,2181,MergeRequest
opened,Codage,468,bricebou,2024-10-01,2181,MergeRequest
opened,Codage,468,bricebou,2024-10-01,2181,MergeRequest
commented on,Papotage,4,maieul,2024-10-01,2181,Note
commented on,Papotage,4,maieul,2024-10-01,2181,Note
commented on,Papotage,43,RealET,2024-10-01,2181,Note
deleted,Codage,468,bricebou,2024-10-01,2181,Project
pushed new,Codage,468,bricebou,2024-10-01,2181,Project
pushed new,Codage,468,bricebou,2024-10-01,2181,Project
pushed to,Codage,468,bricebou,2024-10-01,2181,Project
pushed to,Codage,468,bricebou,2024-10-01,2181,Project
commented on,Papotage,4,maieul,2024-12-23,2181,DiffNote
commented on,Papotage,4,maieul,2024-12-23,2181,DiffNote
commented on,Papotage,4,maieul,2024-12-23,2181,DiffNote
commented on,Papotage,4,maieul,2024-12-23,2181,DiscussionNote
approved,Codage,4,maieul,2024-12-23,2181,MergeRequest
opened,Codage,206,pierretux,2024-12-23,2181,MergeRequest
commented on,Papotage,206,pierretux,2024-12-23,2181,Note
commented on,Papotage,4,maieul,2024-12-23,2181,Note
pushed new,Codage,206,pierretux,2024-12-23,2181,Project
pushed to,Codage,206,pierretux,2024-12-23,2181,Project
commented on,Papotage,206,pierretux,2024-12-24,2181,DiscussionNote
pushed to,Codage,206,pierretux,2024-12-24,2181,Project
commented on,Papotage,4,maieul,2024-12-25,2181,DiscussionNote
commented on,Papotage,4,maieul,2024-12-25,2181,DiscussionNote
commented on,Papotage,206,pierretux,2024-12-30,2181,DiscussionNote
commented on,Papotage,4,maieul,2024-12-30,2181,DiscussionNote
closed,Papotage,206,pierretux,2024-12-30,2181,Issue
closed,Papotage,468,bricebou,2024-12-30,2181,Issue
accepted,Codage,206,pierretux,2024-12-30,2181,MergeRequest
accepted,Codage,206,pierretux,2024-12-30,2181,MergeRequest
deleted,Codage,206,pierretux,2024-12-30,2181,Project
deleted,Codage,468,bricebou,2024-12-30,2181,Project
pushed to,Codage,206,pierretux,2024-12-30,2181,Project
pushed to,Codage,206,pierretux,2024-12-30,2181,Project
pushed to,Codage,206,pierretux,2024-12-30,2181,Project
pushed to,Codage,206,pierretux,2024-12-30,2181,Project
pushed new,Codage,206,pierretux,2024-12-31,2181,Project
pushed to,Codage,206,pierretux,2024-12-31,2181,Project
opened,Papotage,12,marcimat,2025-01-13,2181,Issue
closed,Papotage,12,marcimat,2025-01-15,2181,Issue
closed,Papotage,12,marcimat,2025-01-15,2181,Issue
closed,Papotage,12,marcimat,2025-01-15,2181,Issue
opened,Codage,12,marcimat,2025-01-15,2181,MergeRequest
commented on,Papotage,12,marcimat,2025-01-15,2181,Note
commented on,Papotage,12,marcimat,2025-01-15,2181,Note
pushed new,Codage,12,marcimat,2025-01-15,2181,Project
commented on,Papotage,12,marcimat,2025-01-27,2181,DiscussionNote
commented on,Papotage,12,marcimat,2025-01-27,2181,DiscussionNote
commented on,Papotage,43,RealET,2025-01-27,2181,DiscussionNote
commented on,Papotage,43,RealET,2025-01-27,2181,DiscussionNote
approved,Codage,43,RealET,2025-01-27,2181,MergeRequest
commented on,Papotage,12,marcimat,2025-01-27,2181,Note
pushed to,Codage,12,marcimat,2025-01-27,2181,Project
opened,Papotage,43,RealET,2025-01-28,2181,Issue
commented on,Papotage,206,pierretux,2025-01-28,2181,Note
commented on,Papotage,43,RealET,2025-01-29,2181,DiscussionNote
opened,Papotage,43,RealET,2025-02-03,2181,Issue
opened,Papotage,43,RealET,2025-02-03,2181,Issue
accepted,Codage,12,marcimat,2025-02-03,2181,MergeRequest
deleted,Codage,12,marcimat,2025-02-03,2181,Project
deleted,Codage,12,marcimat,2025-02-03,2181,Project
pushed new,Codage,12,marcimat,2025-02-03,2181,Project
pushed new,Codage,12,marcimat,2025-02-03,2181,Project
pushed to,Codage,12,marcimat,2025-02-03,2181,Project
pushed to,Codage,12,marcimat,2025-02-03,2181,Project
