date,full_path,name,sha
2020-02-05,spip-contrib-extensions/linkcheck,v1.5.3,94e8acdcc4011e759b8ae613a89fe38969fb1789
2021-11-22,spip-contrib-extensions/linkcheck,v2.0.0,1307d8fdbc777f538e6f8f307ebd4da37fdfc51b
2021-11-22,spip-contrib-extensions/linkcheck,v2.0.1,ae6d546e513943de24cddcf1fc97d1b3cbfbc41c
2022-02-03,spip-contrib-extensions/linkcheck,v2.0.2,949e9c51c98a03e8ed38bb9299d47050d30a0733
2022-04-28,spip-contrib-extensions/linkcheck,v2.0.3,8320bb984acfb30ecec042c4d7d66a1aebb4f0b5
2022-05-25,spip-contrib-extensions/linkcheck,v2.0.4,1f63c7efe7f5fa2b2dcf26929367a881d56d279d
2023-06-13,spip-contrib-extensions/linkcheck,v2.0.5,ac6ef690bf01fe78f77d7c16f0c4561797622035
2024-02-15,spip-contrib-extensions/linkcheck,v2.0.6,3298f680510e3a5902ffa11643a963a5030b3cd9
2024-07-05,spip-contrib-extensions/linkcheck,2.1.0,fa6036ed1907c64b2b2c5c18367cbc605bf2c20f
2024-07-18,spip-contrib-extensions/linkcheck,v3.0.1,75eff4ab9b14e035a2847a5653e49f51e16d2426
2024-12-31,spip-contrib-extensions/linkcheck,3.0.2,ec555a9c7f616360e7b4979c9974caa4f905e1af
2025-02-03,spip-contrib-extensions/linkcheck,3.0.3,8bbae65329fe95ed525d45fc672f3125e9858c92
