date,full_path,name,sha
2017-04-12,spip-contrib-extensions/spip-bible,spip-bible2,5afd61bcebce54735daf3b705fd266a56ec4ce60
2017-04-12,spip-contrib-extensions/spip-bible,spip-bible3,91af155b1966d41bb06c7e22eb9ab703fa1a7964
2017-04-12,spip-contrib-extensions/spip-bible,spip-bible4,5136c157d45421dd7ee3e8c1aa03b177e05d2987
2021-06-22,spip-contrib-extensions/spip-bible,v5,7ab19c313b10a92e29be1a87a8afd5b932db9784
2023-07-22,spip-contrib-extensions/spip-bible,issue_1,a0f28addcf708ac8d378536a6db5f2e1bfbde59a
2024-07-05,spip-contrib-extensions/spip-bible,master,9fd5336078ccbae962dccdb517718da681d06390
