date,full_path,name,sha
2019-11-27,spip-contrib-extensions/switchcase,v0.4.0,7713465a4a73fc63b5d4779e5e251f3d03b34291
2021-05-16,spip-contrib-extensions/switchcase,v0.4.2,477ff0bdc554529142a698f8730db772a9abcdd2
2022-09-15,spip-contrib-extensions/switchcase,v0.5.0,2be55babb38d806b168b629adf045f646656a580
2023-06-20,spip-contrib-extensions/switchcase,v0.5.1,62343c1ad92def9021dc151f1ef19487fc76ad50
2024-07-05,spip-contrib-extensions/switchcase,0.6.0,c6249226f8584a9a7d21bbf74e90e23a9f27ae8c
