prefix,full_path
dons,spip-contrib-extensions/dons
commandes_abonnements,spip-contrib-extensions/commandes_abonnements
amappca,spip-contrib-extensions/amappca
livraison,spip-contrib-extensions/livraison
coupons,spip-contrib-extensions/coupons
paniers_commandes_quantites_decimal,spip-contrib-extensions/paniers_commandes_quantites_decimal
tutocommerce,spip-contrib-squelettes/tutocommerce
