opened,Codage,172,l.oiseau2nuit,2024-08-26,2170,MergeRequest
pushed new,Codage,172,l.oiseau2nuit,2024-08-26,2170,Project
pushed to,Codage,172,l.oiseau2nuit,2024-08-26,2170,Project
pushed to,Codage,172,l.oiseau2nuit,2024-08-26,2170,Project
pushed to,Codage,172,l.oiseau2nuit,2024-08-26,2170,Project
commented on,Papotage,430,JLuc,2024-08-27,2170,Note
commented on,Papotage,430,JLuc,2024-08-27,2170,Note
commented on,Papotage,172,l.oiseau2nuit,2024-09-01,2170,Note
commented on,Papotage,172,l.oiseau2nuit,2024-09-01,2170,Note
commented on,Papotage,4,maieul,2024-09-01,2170,Note
commented on,Papotage,4,maieul,2024-09-01,2170,Note
commented on,Papotage,172,l.oiseau2nuit,2024-09-02,2170,Note
commented on,Papotage,20,cam.lafit,2024-09-02,2170,Note
commented on,Papotage,20,cam.lafit,2024-09-02,2170,Note
commented on,Papotage,172,l.oiseau2nuit,2024-09-03,2170,Note
commented on,Papotage,20,cam.lafit,2024-09-03,2170,Note
commented on,Papotage,4,maieul,2024-09-03,2170,Note
commented on,Papotage,172,l.oiseau2nuit,2024-09-09,2170,Note
commented on,Papotage,20,cam.lafit,2024-09-09,2170,Note
commented on,Papotage,172,l.oiseau2nuit,2024-10-06,2170,DiscussionNote
opened,Papotage,459,Graphie,2024-10-23,2170,Issue
opened,Codage,459,Graphie,2024-11-06,2170,MergeRequest
commented on,Papotage,20,cam.lafit,2024-11-06,2170,Note
commented on,Papotage,459,Graphie,2024-11-06,2170,Note
pushed new,Codage,459,Graphie,2024-11-06,2170,Project
accepted,Codage,20,cam.lafit,2024-11-14,2170,MergeRequest
commented on,Papotage,20,cam.lafit,2024-11-14,2170,Note
commented on,Papotage,20,cam.lafit,2024-11-14,2170,Note
deleted,Codage,459,Graphie,2024-11-14,2170,Project
pushed to,Codage,20,cam.lafit,2024-11-14,2170,Project
