date,full_path,name,sha
2023-01-19,spip-contrib-extensions/ldjson,v0.0.2,e645c1a7179ac277213b0592955ce0d047d842ec
2023-08-25,spip-contrib-extensions/ldjson,v0.1.0,4f74247d765c4a07c85df2c732661ec88c88c5f0
