date,full_path,name,sha
2017-04-02,spip-contrib-extensions/joindre_auto_zone,v1,58dc64a92d2611eaf1aff209f0a743b29d9352a2
2019-08-31,spip-contrib-extensions/joindre_auto_zone,master,ca152522319741710bbb63ddde8c783fe794f2e0
