date,full_path,name,sha
2022-10-17,spip-contrib-squelettes/sendagi,v3,a42ad8c76e6cb0c8c1f99f7afd63405c9441bd7c
2024-11-03,spip-contrib-squelettes/sendagi,master,b24a678d929ebc784b38acb3daa7621120cd5bea
