date,full_path,name,sha
2020-01-24,spip-contrib-squelettes/sendagi,v1.0.8,88bafca125b5d166106d5a2548f021df96c38da2
2021-03-22,spip-contrib-squelettes/sendagi,v1.0.9,88ed84f6be00e30176b646d5f73123bcaff1614b
2021-06-22,spip-contrib-squelettes/sendagi,v1.1.0,640ed965dab070f316fc599a6037854616b644c9
2021-09-24,spip-contrib-squelettes/sendagi,v1.1.1,d0b3fe4377c3866e7e83423c0a0d598e49fc579f
2022-08-25,spip-contrib-squelettes/sendagi,v1.1.2,a9aaf6fab085e01b147f7e7e7ab2ca8316d49904
2022-10-17,spip-contrib-squelettes/sendagi,v1.1.3,a42ad8c76e6cb0c8c1f99f7afd63405c9441bd7c
2023-02-20,spip-contrib-squelettes/sendagi,v1.2.0,5fd59559b7eabf9155abc2b3b8fe50dc27d9b0ea
2023-06-07,spip-contrib-squelettes/sendagi,v1.2.1,a89cdce6686622d458e5677b43b2706efd3700c8
2024-02-06,spip-contrib-squelettes/sendagi,v1.2.2,0d34a88b07a5eae600b304b853e6c5a90068cf18
2024-07-05,spip-contrib-squelettes/sendagi,1.3.0,632789faa7b20a545539574e8d0582b0b614600e
