date,full_path,name,sha
2024-12-17,spip-contrib-extensions/doc_tech,warning_table_objet_sql_null_arg,4eefea3cdce95dd04395dd0e36d7c50cb0793c93
2025-01-23,spip-contrib-extensions/doc_tech,master,c69f3148d3a1da7ce0e69255c1796729b9efe6a5
