date,full_path,name,sha
2015-06-11,spip-contrib-extensions/doc_tech,0.5.0,d802c49b4eca76f73ec706cd3763c50b9f96e9db
2019-08-31,spip-contrib-extensions/doc_tech,v0.8.0,365250502a26b7026bf27f951ede30b28b62e390
2023-04-14,spip-contrib-extensions/doc_tech,v0.9.0,12e7988050d95f25454abb0ed3ec4a9648293440
