date,full_path,name,sha
2017-10-16,spip-contrib-extensions/mes_abonnes,v0.4.1,76310c2ba2e7cf593304d0db1424d1b359bd06d6
2017-10-16,spip-contrib-extensions/mes_abonnes,v1.0.0,8f51b4f3f6f6bd0037528a1daaef20f2e0d8f949
2023-04-06,spip-contrib-extensions/mes_abonnes,v2.0.0,2994df6d548d174b6e76d6d4033964dd9c53526f
2023-09-06,spip-contrib-extensions/mes_abonnes,v2.1.0,6ff784b63786815889be954481ba7b9b198765f4
2024-07-05,spip-contrib-extensions/mes_abonnes,2.2.0,06e759486b5bdac8acc682f487145ec46605ad0f
