date,full_path,name,sha
2017-10-16,spip-contrib-extensions/fpdf,V1,9de0e2dc0ff38acf0f676d23845846cfd3ad5812
2022-11-17,spip-contrib-extensions/fpdf,V2,648db533fade74d5f4746780909f989c403a278d
2023-03-27,spip-contrib-extensions/fpdf,V2.5,9b7a1f01c7e1694ef41ad65920fb96aa368d0fbf
2024-07-05,spip-contrib-extensions/fpdf,master,c6b460e668406fa62c1859f2eda1cfadf11e4670
