date,full_path,name,sha
2020-05-05,spip-contrib-extensions/groupes_mots_arborescents,issue_3,2c7e40f63cf677f7d651585a2d091439c887648f
2021-11-09,spip-contrib-extensions/groupes_mots_arborescents,v1.2,a24a88cab80b2565a1355b510a8d60bc534965a6
2025-02-08,spip-contrib-extensions/groupes_mots_arborescents,master,8b670407ab78b8c6e48096afceee33a6cf1545f7
2025-02-08,spip-contrib-extensions/groupes_mots_arborescents,touti-patch-1,a8abe02f456f153f9852770c25938ce26ffbb486
