date,full_path,name,sha
2022-05-02,spip-contrib-extensions/porte_plume_intertitres,v1,af28f2a6e79c31839ef3cd0ecbb2875f7a717b58
2024-07-28,spip-contrib-extensions/porte_plume_intertitres,master,5b0d0f431efa7bff54d55a21dc7ce3c44194c4ba
