date,full_path,name,sha
2015-05-08,spip-contrib-extensions/cvt-upload,v0,9c0c44beaecb73fb432a56976fd1f081827b451f
2022-01-07,spip-contrib-extensions/cvt-upload,issue_7,d60f093ac1c67d7d7ebfc676e387e8a178a698a9
2022-03-24,spip-contrib-extensions/cvt-upload,v1,2f1101352cae366ab095dad0939f7a397aafa6d7
2024-10-14,spip-contrib-extensions/cvt-upload,spip5,cc3ef25ed34ff07dd16359ceed3d6b0388e93057
2025-02-09,spip-contrib-extensions/cvt-upload,issue_11,0ebd691179352e58b12ac81895b15f8d640864cb
2025-02-10,spip-contrib-extensions/cvt-upload,master,648dd7c1c7b8a22f4ab58cf4455b4edc0a2eff36
