commented on,Papotage,9,cerdic,2024-08-22,1903,DiscussionNote
closed,Papotage,9,cerdic,2024-08-22,1903,Issue
opened,Papotage,9,cerdic,2024-08-22,1903,Issue
commented on,Papotage,9,cerdic,2024-08-22,1903,Note
commented on,Papotage,9,cerdic,2024-08-22,1903,Note
deleted,Codage,9,cerdic,2024-08-22,1903,Project
deleted,Codage,9,cerdic,2024-08-22,1903,Project
closed,Papotage,4,maieul,2024-10-14,1903,Issue
pushed new,Codage,4,maieul,2024-10-14,1903,Project
commented on,Papotage,17,nicod,2025-02-09,1903,DiscussionNote
commented on,Papotage,17,nicod,2025-02-09,1903,DiscussionNote
commented on,Papotage,17,nicod,2025-02-09,1903,DiscussionNote
commented on,Papotage,17,nicod,2025-02-09,1903,DiscussionNote
commented on,Papotage,17,nicod,2025-02-09,1903,DiscussionNote
commented on,Papotage,4,maieul,2025-02-09,1903,DiscussionNote
commented on,Papotage,4,maieul,2025-02-09,1903,DiscussionNote
commented on,Papotage,4,maieul,2025-02-09,1903,DiscussionNote
commented on,Papotage,4,maieul,2025-02-09,1903,DiscussionNote
commented on,Papotage,4,maieul,2025-02-09,1903,DiscussionNote
accepted,Codage,17,nicod,2025-02-09,1903,MergeRequest
pushed to,Codage,17,nicod,2025-02-09,1903,Project
pushed to,Codage,17,nicod,2025-02-09,1903,Project
pushed new,Codage,17,nicod,2025-02-10,1903,Project
pushed to,Codage,17,nicod,2025-02-10,1903,Project
