prefix,full_path
emplois,spip-contrib-extensions/emplois
bootstrap_scss,spip-contrib-extensions/bootstrap_scss
formidable_imagecrop,spip-contrib-extensions/formidable_imagecrop
uploadhtml5,spip-contrib-extensions/uploadhtml5
territoires_data,spip-contrib-extensions/territoires_data
