date,full_path,name,sha
2020-02-05,spip-contrib-extensions/fusion_spip,v1.3.3,dd82315742b8becfd24fd8ba16834b6d92ff960e
2020-05-18,spip-contrib-extensions/fusion_spip,v1.3.4,90e4b6b9fab114c9a012906f8f0b6423f25aadce
2020-05-22,spip-contrib-extensions/fusion_spip,v1.3.5,d7483bdca71bd7620be6f8a3e692acd2504e49b4
2020-10-22,spip-contrib-extensions/fusion_spip,v1.3.6,84db8fb22bcff7344db7dd1627d611b69e6dedfa
2020-11-01,spip-contrib-extensions/fusion_spip,v1.3.7,d232fb403e23032eb2e9ca93e8409613c58ac6ec
2020-11-03,spip-contrib-extensions/fusion_spip,v1.3.8,85686f16270e0da9ba49666997bec075946f4a38
2022-04-22,spip-contrib-extensions/fusion_spip,v1.3.9,59efd09ab81113f3453c45de9987455b48ec2442
2024-02-17,spip-contrib-extensions/fusion_spip,v2.0.0,93b1e61f405f8ffe5d383b4ee4be6ab68f5eb732
2024-07-05,spip-contrib-extensions/fusion_spip,2.1.0,fcf0d0924e799761700333940b5e05ec34441265
