date,full_path,name,sha
2020-11-27,spip-contrib-extensions/slick,issues_1,e24c6d3924309cb6c1c09bef26fe5ebb9a4f998e
2021-03-20,spip-contrib-extensions/slick,v1,022e0477022a0311d1a2e482f356bd50e98faba4
2024-07-05,spip-contrib-extensions/slick,master,dfbe50ab4bf9138ddb17a245c9d17adf92143f71
