date,full_path,name,sha
2019-08-31,spip-contrib-extensions/livraison,legacy-v1,1b4b97e6de9d4b2a041fc1139a09823b1ea04eb5
2019-09-18,spip-contrib-extensions/livraison,v2,3e57a1a3efbc6f449c917694b7445798eb962fe3
2020-02-03,spip-contrib-extensions/livraison,legacy-master,1e9063644eab489760437c5007ce8a4fd73a9f3f
2021-02-09,spip-contrib-extensions/livraison,issue-2,5f0d45b7a1655e9246bf09aa3d011a5443e48e42
2022-06-08,spip-contrib-extensions/livraison,issue-9-civilite-prenom,a960fa63e73b49711fc93c31c24a015b1e3a0fda
2022-10-07,spip-contrib-extensions/livraison,issue_13,90b876088fd36341c5212e01bdde861c36d9dcf0
2023-02-14,spip-contrib-extensions/livraison,issue_13_bis,c2651cb77bbd52c82adc383fd00ba836496b0e0d
2023-02-22,spip-contrib-extensions/livraison,dev_bons_livraison,310bc1f92bc2326c6a125c82f76922e85a1266c9
2023-03-09,spip-contrib-extensions/livraison,issue-4,4abc64e15c42caf51d3040a9c63ab0d867596a62
2024-07-05,spip-contrib-extensions/livraison,master,f424ad5a0370258a15e31a94fb6b2fbcff5ac8f5
2024-11-26,spip-contrib-extensions/livraison,issue_20__warning_pipeline_copie_locale,d088d16195f71207f93fa9912d6b6fc84772cf9b
2025-02-08,spip-contrib-extensions/livraison,dev/ux_mode_livraison,03e0c0a56babc45407a6b52b1cb41240926d3792
