date,full_path,name,sha
2019-08-31,spip-contrib-extensions/livraison,v1.3.0,1b4b97e6de9d4b2a041fc1139a09823b1ea04eb5
2021-07-30,spip-contrib-extensions/livraison,v3.0.0,fc03a5428b591107a757a8adfe40dbf03e486509
2023-02-14,spip-contrib-extensions/livraison,v3.1.0,37e2b7da363cc7fa6c3db53f6ed2793d974f39d5
2023-02-14,spip-contrib-extensions/livraison,v3.2.0,dff980ea3b7f259ff1cfe413b04168cea369142a
2023-02-14,spip-contrib-extensions/livraison,v3.2.1,3e3d6a4d13975c222132326bbf86c448e47e393a
2024-07-05,spip-contrib-extensions/livraison,3.7.0,f424ad5a0370258a15e31a94fb6b2fbcff5ac8f5
