date,full_path,name,sha
2022-01-07,spip-contrib-extensions/urls_par_numero,v1,38c52a17e5dce21f0c408f3a268e58bd256b87a8
2024-08-14,spip-contrib-extensions/urls_par_numero,master,7bd7cbfcdb0d97e1f24ba9e66016b09f784d1328
