date,full_path,name,sha
2019-12-23,23forward/cesure,v1.1.5,ff55ab214c86df1a57676f99296b54bdd897ed14
2022-05-25,23forward/cesure,v1.1.6,9c4672e7ef7131f75c1ed9c8a978bbcaa79a42e3
2024-07-13,23forward/cesure,1.2.0,c38aa369da1b6b5569e9072d6f08c869a3ecd992
