opened,Papotage,4,maieul,2024-08-20,2032,Issue
opened,Papotage,4,maieul,2024-08-20,2032,Issue
closed,Codage,4,maieul,2024-08-20,2032,MergeRequest
opened,Codage,4,maieul,2024-08-20,2032,MergeRequest
opened,Codage,4,maieul,2024-08-20,2032,MergeRequest
opened,Codage,4,maieul,2024-08-20,2032,MergeRequest
opened,Codage,4,maieul,2024-08-20,2032,MergeRequest
commented on,Papotage,4,maieul,2024-08-20,2032,Note
commented on,Papotage,4,maieul,2024-08-20,2032,Note
commented on,Papotage,4,maieul,2024-08-20,2032,Note
commented on,Papotage,4,maieul,2024-08-20,2032,Note
deleted,Codage,4,maieul,2024-08-20,2032,Project
pushed new,Codage,4,maieul,2024-08-20,2032,Project
pushed new,Codage,4,maieul,2024-08-20,2032,Project
pushed new,Codage,4,maieul,2024-08-20,2032,Project
pushed new,Codage,4,maieul,2024-08-20,2032,Project
pushed to,Codage,4,maieul,2024-08-20,2032,Project
pushed to,Codage,4,maieul,2024-08-20,2032,Project
pushed to,Codage,4,maieul,2024-08-20,2032,Project
pushed to,Codage,4,maieul,2024-08-20,2032,Project
pushed to,Codage,4,maieul,2024-08-20,2032,Project
pushed to,Codage,4,maieul,2024-08-20,2032,Project
closed,Papotage,4,maieul,2024-08-21,2032,Issue
accepted,Codage,4,maieul,2024-08-21,2032,MergeRequest
approved,Codage,17,nicod,2024-08-21,2032,MergeRequest
deleted,Codage,4,maieul,2024-08-21,2032,Project
pushed to,Codage,4,maieul,2024-08-21,2032,Project
pushed to,Codage,4,maieul,2024-08-21,2032,Project
pushed to,Codage,4,maieul,2024-08-21,2032,Project
pushed to,Codage,4,maieul,2024-08-21,2032,Project
commented on,Papotage,4,maieul,2024-08-22,2032,Note
commented on,Papotage,4,maieul,2024-08-22,2032,Note
commented on,Papotage,3,touti,2024-08-23,2032,DiscussionNote
commented on,Papotage,3,touti,2024-08-23,2032,DiscussionNote
commented on,Papotage,3,touti,2024-08-23,2032,DiscussionNote
commented on,Papotage,3,touti,2024-08-23,2032,DiscussionNote
commented on,Papotage,4,maieul,2024-08-23,2032,DiscussionNote
commented on,Papotage,4,maieul,2024-08-23,2032,DiscussionNote
commented on,Papotage,4,maieul,2024-08-23,2032,DiscussionNote
commented on,Papotage,4,maieul,2024-08-23,2032,DiscussionNote
commented on,Papotage,4,maieul,2024-08-23,2032,DiscussionNote
closed,Papotage,4,maieul,2024-08-23,2032,Issue
accepted,Codage,4,maieul,2024-08-23,2032,MergeRequest
accepted,Codage,4,maieul,2024-08-23,2032,MergeRequest
approved,Codage,3,touti,2024-08-23,2032,MergeRequest
approved,Codage,3,touti,2024-08-23,2032,MergeRequest
opened,Codage,4,maieul,2024-08-23,2032,MergeRequest
commented on,Papotage,3,touti,2024-08-23,2032,Note
commented on,Papotage,3,touti,2024-08-23,2032,Note
deleted,Codage,4,maieul,2024-08-23,2032,Project
deleted,Codage,4,maieul,2024-08-23,2032,Project
pushed new,Codage,4,maieul,2024-08-23,2032,Project
pushed to,Codage,4,maieul,2024-08-23,2032,Project
pushed to,Codage,4,maieul,2024-08-23,2032,Project
pushed to,Codage,4,maieul,2024-08-23,2032,Project
pushed to,Codage,4,maieul,2024-08-23,2032,Project
closed,Papotage,4,maieul,2024-08-25,2032,Issue
closed,Papotage,4,maieul,2024-08-25,2032,Issue
closed,Papotage,4,maieul,2024-08-25,2032,Issue
closed,Papotage,4,maieul,2024-08-25,2032,Issue
accepted,Codage,4,maieul,2024-08-25,2032,MergeRequest
approved,Codage,4,maieul,2024-08-25,2032,MergeRequest
approved,Codage,431,Jack31,2024-08-25,2032,MergeRequest
deleted,Codage,4,maieul,2024-08-25,2032,Project
pushed new,Codage,4,maieul,2024-08-25,2032,Project
pushed to,Codage,4,maieul,2024-08-25,2032,Project
pushed to,Codage,4,maieul,2024-08-25,2032,Project
pushed to,Codage,4,maieul,2024-08-25,2032,Project
opened,Papotage,3,touti,2024-08-28,2032,Issue
commented on,Papotage,4,maieul,2024-08-28,2032,Note
commented on,Papotage,17,nicod,2024-08-29,2032,DiscussionNote
opened,Codage,4,maieul,2024-10-05,2032,MergeRequest
pushed new,Codage,4,maieul,2024-10-05,2032,Project
opened,Codage,4,maieul,2024-10-14,2032,MergeRequest
opened,Codage,4,maieul,2024-10-14,2032,MergeRequest
opened,Codage,4,maieul,2024-10-14,2032,MergeRequest
pushed new,Codage,4,maieul,2024-10-14,2032,Project
pushed new,Codage,4,maieul,2024-10-14,2032,Project
pushed new,Codage,4,maieul,2024-10-14,2032,Project
pushed new,Codage,4,maieul,2024-10-14,2032,Project
pushed to,Codage,4,maieul,2024-10-14,2032,Project
pushed to,Codage,4,maieul,2024-10-14,2032,Project
pushed to,Codage,4,maieul,2024-10-14,2032,Project
pushed to,Codage,4,maieul,2024-10-14,2032,Project
pushed to,Codage,4,maieul,2024-10-14,2032,Project
commented on,Papotage,4,maieul,2024-10-20,2032,DiscussionNote
commented on,Papotage,3,touti,2024-10-20,2032,Note
commented on,Papotage,4,maieul,2024-10-20,2032,Note
commented on,Papotage,4,maieul,2024-10-20,2032,Note
commented on,Papotage,4,maieul,2024-10-20,2032,Note
accepted,Codage,4,maieul,2024-10-21,2032,MergeRequest
accepted,Codage,4,maieul,2024-10-21,2032,MergeRequest
accepted,Codage,4,maieul,2024-10-21,2032,MergeRequest
approved,Codage,17,nicod,2024-10-21,2032,MergeRequest
approved,Codage,3,touti,2024-10-21,2032,MergeRequest
approved,Codage,3,touti,2024-10-21,2032,MergeRequest
approved,Codage,3,touti,2024-10-21,2032,MergeRequest
commented on,Papotage,3,touti,2024-10-21,2032,Note
commented on,Papotage,3,touti,2024-10-21,2032,Note
commented on,Papotage,4,maieul,2024-10-21,2032,Note
deleted,Codage,4,maieul,2024-10-21,2032,Project
deleted,Codage,4,maieul,2024-10-21,2032,Project
deleted,Codage,4,maieul,2024-10-21,2032,Project
pushed new,Codage,4,maieul,2024-10-21,2032,Project
pushed to,Codage,4,maieul,2024-10-21,2032,Project
pushed to,Codage,4,maieul,2024-10-21,2032,Project
pushed to,Codage,4,maieul,2024-10-21,2032,Project
pushed to,Codage,4,maieul,2024-10-21,2032,Project
pushed to,Codage,4,maieul,2024-10-21,2032,Project
pushed to,Codage,4,maieul,2024-10-21,2032,Project
commented on,Papotage,4,maieul,2024-11-25,2032,Note
pushed to,Codage,4,maieul,2024-11-25,2032,Project
pushed to,Codage,4,maieul,2024-11-25,2032,Project
opened,Papotage,4,maieul,2024-12-20,2032,Issue
commented on,Papotage,4,maieul,2024-12-20,2032,Note
commented on,Papotage,4,maieul,2024-12-20,2032,Note
commented on,Papotage,107,patrice4,2024-12-21,2032,DiscussionNote
commented on,Papotage,4,maieul,2024-12-25,2032,DiscussionNote
closed,Papotage,4,maieul,2024-12-25,2032,Issue
opened,Codage,4,maieul,2024-12-25,2032,MergeRequest
commented on,Papotage,4,maieul,2024-12-25,2032,Note
commented on,Papotage,4,maieul,2024-12-25,2032,Note
pushed new,Codage,4,maieul,2024-12-25,2032,Project
accepted,Codage,4,maieul,2025-01-22,2032,MergeRequest
accepted,Codage,4,maieul,2025-01-22,2032,MergeRequest
deleted,Codage,4,maieul,2025-01-22,2032,Project
deleted,Codage,4,maieul,2025-01-22,2032,Project
pushed new,Codage,4,maieul,2025-01-22,2032,Project
pushed to,Codage,4,maieul,2025-01-22,2032,Project
pushed to,Codage,4,maieul,2025-01-22,2032,Project
pushed to,Codage,4,maieul,2025-01-22,2032,Project
pushed to,Codage,4,maieul,2025-01-22,2032,Project
pushed new,Codage,4,maieul,2025-01-24,2032,Project
pushed to,Codage,4,maieul,2025-01-24,2032,Project
pushed to,Codage,4,maieul,2025-01-24,2032,Project
opened,Codage,4,maieul,2025-02-16,2032,MergeRequest
opened,Codage,4,maieul,2025-02-16,2032,MergeRequest
pushed new,Codage,4,maieul,2025-02-16,2032,Project
pushed new,Codage,4,maieul,2025-02-16,2032,Project
