date,full_path,name,sha
2020-03-09,spip-contrib-extensions/formidable_participation,v1.9.0,6606166f1c6457d2897e733e5352f92abb572ecd
2021-02-14,spip-contrib-extensions/formidable_participation,v2.0.0,512d9a249a74f391e867f305b953d9e99c80ab3e
2021-07-02,spip-contrib-extensions/formidable_participation,v2.0.1,13fb15d0fed30ad1c1b4ff8244c4e689ef8e067f
2021-09-14,spip-contrib-extensions/formidable_participation,v2.0.2,1c5173ff83a6f6d4b288e25597a6c2802b2bbce9
2022-04-01,spip-contrib-extensions/formidable_participation,v2.0.3,8e0e6d2b7cd2b2b39320f846507697cb33d1391d
2022-05-31,spip-contrib-extensions/formidable_participation,v2.0.4,6545545416af967aeb0a0709df32643236617e7e
2022-09-27,spip-contrib-extensions/formidable_participation,v2.1.0,dbfcf5dc1c546712b417093f3f5151e8a2de2629
2023-04-16,spip-contrib-extensions/formidable_participation,v3.0.0,a3a77d851b236f157beac8a845cd9523e85cae0b
2023-06-15,spip-contrib-extensions/formidable_participation,v3.0.1,a22f1c4def32c6fa6692968b6d76d99b8c66a333
2023-09-22,spip-contrib-extensions/formidable_participation,v3.1.0,d42e8929e71cfbdda605566a3e29d7675f1a0ef1
2023-10-04,spip-contrib-extensions/formidable_participation,v3.1.1,166e32fa826350853c4c7f99602818a592b3b8fd
2023-10-27,spip-contrib-extensions/formidable_participation,v4.0.0,d444750d93ff64ba581e1df8f90ff60a1d4fed35
2023-11-21,spip-contrib-extensions/formidable_participation,v4.0.1,387b1061dc72f5009181f1f96a74c50f038e539f
2023-12-01,spip-contrib-extensions/formidable_participation,v4.0.2,5e6e50b292934ca519db586e85dab850947e09eb
2024-02-22,spip-contrib-extensions/formidable_participation,v4.1.0,8e3f0236685c8613ec23da4bfe1884b70f30c870
2024-05-17,spip-contrib-extensions/formidable_participation,v4.1.1,4372dad57669215c0ec8e7fe3053162f1f1e5079
2024-07-05,spip-contrib-extensions/formidable_participation,4.2.0,a70c6c1ef6fe87a9028d8e62d13caa8718cbe342
2024-08-25,spip-contrib-extensions/formidable_participation,v5.0.0,d3d3d5e41eca092192866021214fb4c6091a9afb
2024-10-14,spip-contrib-extensions/formidable_participation,v5.0.1,f9f583d7ea98f7bec59a2953e381c58d889de176
2024-10-21,spip-contrib-extensions/formidable_participation,v5.0.2,282231dc56ae675f56bfaf83d91ac7640da3b06b
2025-01-22,spip-contrib-extensions/formidable_participation,v6.0.0,e984f3dd8b09f42c943831ccaac250352edf9f89
2025-01-24,spip-contrib-extensions/formidable_participation,v6.0.1,ecf97d03dad6895d53daf0adee4b36bae0f7255a
