date,full_path,name,sha
2019-08-31,spip-contrib-extensions/produits_liens,V1,0037a4291786efeeaee539ae321a8e8c4d226745
2022-10-20,spip-contrib-extensions/produits_liens,dev,d05e8a663c354ac81244372b168ac5a5f0c743c9
2024-07-05,spip-contrib-extensions/produits_liens,master,a30a66b4ff17889c9cf465439d44b03303b36ec7
