date,full_path,name,sha
2024-09-30,spip-contrib-extensions/auth_email,master,8c773e23bb50b26de610c06a632d3c444e97756b
2024-09-30,spip-contrib-extensions/auth_email,v1,58a7b3d591975a9cf0db5d1f36f42fe42b2c00b0
2024-10-01,spip-contrib-extensions/auth_email,fix_compat_spip41,d43fcc997d3d5625e31cd48e4afba7cc39246e05
