created,Codage,4,maieul,2024-09-14,3323,Project
pushed new,Codage,4,maieul,2024-09-14,3323,Project
pushed to,Codage,4,maieul,2024-09-14,3323,Project
pushed to,Codage,4,maieul,2024-09-14,3323,Project
pushed to,Codage,4,maieul,2024-09-14,3323,Project
pushed to,Codage,4,maieul,2024-09-15,3323,Project
commented on,Papotage,4,maieul,2024-09-16,3323,Note
pushed new,Codage,4,maieul,2024-09-16,3323,Project
pushed to,Codage,4,maieul,2024-09-16,3323,Project
pushed to,Codage,68,erational,2024-09-16,3323,Project
pushed to,Codage,4,maieul,2024-09-17,3323,Project
pushed new,Codage,4,maieul,2024-11-16,3323,Project
pushed new,Codage,4,maieul,2024-11-16,3323,Project
pushed to,Codage,4,maieul,2024-11-16,3323,Project
pushed to,Codage,4,maieul,2024-11-16,3323,Project
pushed to,Codage,4,maieul,2024-11-16,3323,Project
