date,full_path,name,sha
2019-08-06,spip-contrib-extensions/partenaires,v1,ef4fa8f0337956d99fd84d7e843dc0faa570817b
2024-09-30,spip-contrib-extensions/partenaires,master,0e065c8de1daafc6d93d1524822dfe234f668f1c
