date,full_path,name,sha
2019-04-17,spip-contrib-extensions/deconnexion_auto,v1.0.0,d9538b2dc2dc32c32faf738ca2fb2b00f50b20b7
2022-12-06,spip-contrib-extensions/deconnexion_auto,v1.0.2,7c12e54d81ef957225d4ab29f81e5a1886c39e8e
2023-06-30,spip-contrib-extensions/deconnexion_auto,v1.1.0,3a1c02e56654a7e6eefd2f398a7127958da1d17f
2024-07-05,spip-contrib-extensions/deconnexion_auto,1.2.0,1d1ca1f34386f47f900ed6bfa94138a31db3093c
