date,full_path,name,sha
2017-12-10,spip-contrib-extensions/auteurs_partout,v0.1.3,6f9451e3fb6696b8f29c2b664d7dafe144a7d74d
2022-02-23,spip-contrib-extensions/auteurs_partout,v1.0.0,9959486596791c762f301c233396339de777d623
2023-07-19,spip-contrib-extensions/auteurs_partout,v1.0.1,c0fa0d6ce7402e27b0850fcc86576ac3c31cfa44
2024-01-30,spip-contrib-extensions/auteurs_partout,v1.0.2,1faa47eb5f70786a0b6d2caa997d7dae1bc5cb5d
2024-07-05,spip-contrib-extensions/auteurs_partout,1.1.0,d7392ca5977a1bf27739f80be86ef4324d24e7eb
