date,full_path,name,sha
2018-12-24,spip-contrib-extensions/podcast,v1,4ee74cd09d6604f3605a6ef0363dfe24b0a791d9
2024-06-28,spip-contrib-extensions/podcast,issue2_titredoc,d93b3c674ffbfe53de96edc0d066d9cdbf53e2a7
2024-06-28,spip-contrib-extensions/podcast,issue3_xslt,357109889da5e2b19fc7f776affae190b14dbab6
2024-07-05,spip-contrib-extensions/podcast,master,5b6049277fc6e401dc4700d911bd8f3616f48e18
