date,full_path,name,sha
2020-01-24,spip-contrib-extensions/langue_preferee,v0,85187c83f12d633b2e8924c1628c37a3004b86ab
2024-07-05,spip-contrib-extensions/langue_preferee,master,f62c8477c2d161b2b44eb9d8a9e928ee98d36c6b
