date,full_path,name,sha
2017-04-02,spip-contrib-extensions/spip_hop,v0_3,565b6d622da412dab552adae0f7ca69ec2056941
2025-02-11,spip-contrib-extensions/spip_hop,master,b708a3c4b51d93d530f10ae7ebc20345ac0f1901
