email,id,username
tranquille.gitspipnet@nursit.net,1,root
goldstein@rezo.net,2,goldstein
ghost@example.com,8,ghost
salvatore@rezo.net,27,salvatore
alert@git-lab.spip.net,549,alert-bot
support@git-lab.spip.net,550,support-bot
cedric.sourcegraph@yterium.com,565,SourceGraph
cedric.testgitlab@yterium.com,567,Cedric.testgitlab
james.hautot+spip@laposte.net,576,LambdaJames
admin-bot@git.spip.net,595,GitLab-Admin-Bot
project_3302_bot_1f77bd31d864225eddcb7c88a86f5134@noreply.git.spip.net,768,project_3302_bot_1f77bd31d864225eddcb7c88a86f5134
nicod2@lerebooteux.fr,825,nicod2
project_3393_bot_c0d3619001fb20a79480ba0a4ea2a4a9@noreply.git.spip.net,1321,project_3393_bot_c0d3619001fb20a79480ba0a4ea2a4a9
