default_branch,file,path_with_namespace,prefix,project_id,state,version,spip_compatibility,sites,spip,last_commit
master,paquet.xml,spip-contrib-extensions/aeres,aeres,1728,stable,2.4.1,[3.2.0;4.0.*],0,N/A,< 2023-02-23
master,paquet.xml,spip-contrib-extensions/basecss,basecss,1781,test,4.0.0,[4.0.0-dev;4.0.*],0,N/A,< 2023-02-23
master,paquet.xml,spip-contrib-extensions/bibliocheck,bibliocheck,1784,stable,1.3.5,[3.2.0;4.0.*],0,N/A,< 2023-02-23
master,paquet.xml,spip-contrib-extensions/bootstrap3_sass,bootstrap3_sass,1797,test,2.0.0,[3.0.2;4.0.*],1,3.2,< 2023-02-23
master,paquet.xml,spip-contrib-extensions/chatbox,chatbox,1830,stable,1.1.1,[3.0.0;4.0.*],1,3.1,< 2023-02-23
master,paquet.xml,spip-contrib-extensions/chiffrer,chiffrer,1833,dev,1.0.0,[4.0.0;4.0.*],0,N/A,< 2023-02-23
master,paquet.xml,spip-contrib-extensions/colorbox,colorbox,1850,test,1.6.4,[4.0.0;4.0.*],0,N/A,< 2023-02-23
master,paquet.xml,spip-contrib-extensions/historique_spip32_html4,historique_spip32_html4,2093,dev,1.0.1,]3.2.999;4.0.*],0,N/A,< 2023-02-23
master,paquet.xml,spip-contrib-extensions/immeubles,immeubles,2114,test,1.0.13,[3.0.0;4.0.*],0,N/A,< 2023-02-23
master,paquet.xml,spip-contrib-extensions/ipset,ipset,2139,dev,1.0.1,[3.2.0;4.0.*],0,N/A,< 2023-02-23
master,paquet.xml,spip-contrib-extensions/jqvmap,jqvmap,2158,stable,0.8.4,[3.0.10;4.0.*],1,3.2,< 2023-02-23
master,paquet.xml,spip-contrib-extensions/location_objets,location_objets,2197,test,1.6.2,[3.0.0;4.0.*],0,N/A,< 2023-02-23
master,paquet.xml,spip-contrib-extensions/opquast,opquast,2316,test,2.0.2,[3.2.0;4.0.*],1,4.0,< 2023-02-23
master,paquet.xml,spip-contrib-extensions/op_elec,op_elec,2319,stable,2.0.0,[4.0.0;4.0.*],0,N/A,< 2023-02-23
master,paquet.xml,spip-contrib-extensions/owncloud,owncloud,2326,dev,1.3.3,[3.1.0;4.0.*],0,N/A,2024-09-12
master,paquet.xml,spip-contrib-extensions/rang_mots,rang_mots,2412,test,1.0.0,]3.3.0-dev;4.0.*],0,N/A,2023-04-09
master,paquet.xml,spip-contrib-extensions/svpcvs,svpcvs,2559,stable,1.0.2,[3.2.0-dev;4.0.*],0,N/A,< 2023-02-23
master,paquet.xml,spip-contrib-extensions/testbuilder,tb,2579,test,1.1.1,[4.0.0-alpha;4.0.*],0,N/A,< 2023-02-23
master,paquet.xml,spip-contrib-extensions/tradsync,tradsync,2599,test,3.0.0,[4.0.0;4.0.*],0,N/A,2025-01-29
master,paquet.xml,spip-contrib-extensions/vimeo,vimeo,2623,test,1.1.5,[3.2.0;4.0.*],1,3.2,< 2023-02-23
master,paquet.xml,spip-contrib-squelettes/historique_dist_html4,historique_dist_html4,2702,dev,1.0.3,]3.2.999;4.0.*],0,N/A,< 2023-02-23
master,paquet.xml,spip-contrib-squelettes/zpip-vide,zvide,2828,dev,3.0.0,[4.0.0;4.0.*],20,3.2;3.1;3.0;2.1,< 2023-02-23
master,paquet.xml,spip-contrib-themes/spipr_v2_beige,theme_bs4blog,2880,stable,2.0.3,[3.2.0;4.0.*],0,N/A,< 2023-02-23
master,paquet.xml,spip-contrib-themes/spipr_v2_journal,theme_bs4journal,2885,stable,2.2.2,[3.2.0;4.0.*],1,4.3,< 2023-02-23
main,paquet.xml,spip-contrib-themes/spipr_v2_kit_de_demarrage,theme_bs4kit_de_demarrage,3256,stable,1.0,[3.2.0;4.0.*],0,N/A,2024-05-09
