default_branch,file,path_with_namespace,prefix,project_id,state,version,spip_compatibility,sites,spip,last_commit
master,paquet.xml,spip-contrib-extensions/abonnements_zones,abozones,1712,stable,1.2.0,[3.0.5;4.*],14,4.3;4.2;4.1;3.2;3.1,2025-01-23
master,paquet.xml,spip-contrib-extensions/acces_restreint_date,accesrestreintdate,1716,dev,1.0.2,[3.0.0;3.2.*],0,N/A,< 2023-02-23
master,paquet.xml,spip-contrib-extensions/acces_restreint_ip,accesrestreintip,1717,stable,1.1.0,[3.0.0;3.2.*],0,N/A,< 2023-02-23
master,paquet.xml,spip-contrib-extensions/acces_restreint_partiel,arp,1719,stable,1.3.0,[3.0.9;4.*],7,4.4;4.2;4.1;3.2;3.0,2021-03-21
master,paquet.xml,spip-contrib-extensions/acces_restreint_videos,accesrestreintvideos,1720,stable,1.2.2,[3.0.5;3.2.*],0,N/A,< 2023-02-23
master,paquet.xml,spip-contrib-extensions/activite_editoriale,activite_editoriale,1723,test,3.0.0,[3.0.0;3.2.*],5,3.2;3.1;2.1,< 2023-02-23
master,paquet.xml,spip-contrib-extensions/afficher_logo,afficher_logo,1729,stable,1.1.0,[3.0.0;4.*],2,4.1;3.2,2024-07-13
master,paquet.xml,spip-contrib-extensions/alertes,alertes,1741,test,2.1.2,[3.0.0;3.2.*],1,3.2,< 2023-02-23
master,paquet.xml,spip-contrib-extensions/alerte_urgence,alerte_urgence,1742,stable,2.5.0,[3.0.0;4.*],27,4.4;4.3;4.2;4.1;3.2;3.1,2024-07-05
master,paquet.xml,spip-contrib-extensions/api_syntaxe,api_syntaxe,1754,test,1.0.1,[3.0.0;3.2.*],0,N/A,< 2023-02-23
master,paquet.xml,spip-contrib-extensions/autolang,autolang,1771,stable,1.1.0,[3.0.0;4.*],9,4.3;4.2;3.2,2024-07-05
master,paquet.xml,spip-contrib-extensions/bannieres,bannieres,1778,dev,1.0.1,[3.0.0;3.2.*],12,4.3;3.2;2.1;2.0;1.9,2021-03-21
master,paquet.xml,spip-contrib-extensions/blocsdepliables,blocsdepliables,1791,stable,1.4.1,[3.0.0;4.*],152,4.4;4.3;4.2;4.1;4.0;3.2;3.1;3.0,2024-12-10
master,paquet.xml,spip-contrib-extensions/bootstrap2,bootstrap,1795,stable,2.2.0,[3.0.2;4.*],0,N/A,2024-07-05
master,paquet.xml,spip-contrib-extensions/bootstrap3,bootstrap3,1796,stable,3.1.0,[3.0.2;4.*],22,4.3;4.2;3.2;3.1,2024-07-05
master,paquet.xml,spip-contrib-extensions/bootstrap3_sass,bootstrap3_sass,1797,test,2.0.0,[3.0.2;4.0.*],1,3.2,< 2023-02-23
master,paquet.xml,spip-contrib-extensions/cachefix,cachefix,1809,test,1.0.1,[3.0.0;3.2.*],0,N/A,< 2023-02-23
master,paquet.xml,spip-contrib-extensions/campagnes,campagnes,1813,stable,1.8.0,[3.0.5;4.*],11,4.3;4.2;3.2,2024-12-04
master,paquet.xml,spip-contrib-extensions/cartes_choroplethes,cartes_choroplethes,1814,test,1.0.1,[3.0.0;3.2.*],0,N/A,2024-10-07
master,paquet.xml,spip-contrib-extensions/cci,cci,1818,test,1.0.0,[3.0.5;],0,N/A,2024-07-01
master,paquet.xml,spip-contrib-extensions/chatbox,chatbox,1830,stable,1.1.1,[3.0.0;4.0.*],1,3.1,< 2023-02-23
master,paquet.xml,spip-contrib-extensions/chats,chats,1831,stable,2.0.4,[3.0.0;3.2.*],0,N/A,< 2023-02-23
master,paquet.xml,spip-contrib-extensions/chosen,chosen,1835,stable,1.9.0,[3.0.0;4.*],33,4.3;4.1;3.2;3.1;3.0,2025-01-29
master,paquet.xml,spip-contrib-extensions/clients,clients,1840,stable,1.1.0,[3.0.0;4.*],2,4.3;3.0,2024-07-13
master,paquet.xml,spip-contrib-extensions/clil,clil,1841,stable,1.1.0,[3.0.18;4.*],4,4.2;3.2,2024-07-13
master,paquet.xml,spip-contrib-extensions/COG,cog,1845,stable,2.3.9,[3.0.0;3.2.*],3,4.0;3.2,< 2023-02-23
master,paquet.xml,spip-contrib-extensions/COG_gps,coggps,1846,stable,2.1.1,[3.0.0;3.2.*],1,4.0,< 2023-02-23
master,paquet.xml,spip-contrib-extensions/collection_json,collectionjson,1847,stable,1.6.0,[3.0.0;4.*],4,4.2;4.1,2024-07-28
master,paquet.xml,spip-contrib-extensions/comarquage,comarquage,1853,stable,1.3.5,[3.0.0;4.*],7,4.3;3.2;3.0;2.1,2025-01-10
master,paquet.xml,spip-contrib-extensions/cookiebar,cookiebar,1872,stable,1.3.0,[3.0.17;4.*],83,4.4;4.3;4.2;4.1;3.2;3.1;3.0;2.1,2024-07-05
master,paquet.xml,spip-contrib-extensions/cookiechoices,cookiechoices,1873,stable,1.2.0,[3.0.17;4.*],37,4.3;4.1;3.2;3.1;3.0,2024-07-13
master,paquet.xml,spip-contrib-extensions/couleurs_spip,couleurs_spip,1879,stable,3.3.0,[3.0.0;4.*],375,4.4;4.3;4.2;4.0;3.2;3.1;3.0;2.1;2.0,2024-07-05
master,paquet.xml,spip-contrib-extensions/couleur_objet,couleur_objet,1880,stable,0.8.0,[3.0.0;4.*],284,4.4;4.3;4.2;4.1;4.0;3.2;3.1;3.0,2024-07-05
master,paquet.xml,23forward/couleur_rubrique,pb_couleur_rubrique,1881,stable,2.5.0,[3.0.0;4.*],82,4.3;4.2;4.1;4.0;3.2;3.1;3.0;2.1;2.0,2024-07-26
master,paquet.xml,spip-contrib-extensions/coup_de_balai,balai,1883,test,0.2.1,[3.0.0;3.2.*],1,3.2,< 2023-02-23
master,paquet.xml,spip-contrib-extensions/courtjus,courtjus,1885,test,1.3.1,[3.0.16;3.2.*],3,3.2,< 2023-02-23
master,paquet.xml,spip-contrib-extensions/critere_mots,critere_mots,1893,stable,4.4.0,[3.0.0;4.*],220,4.4;4.3;4.2;4.1;3.2;3.1;3.0;2.1;2.0,2024-07-05
master,paquet.xml,spip-contrib-extensions/cvt_rechercher,cvt_rechercher,1904,stable,1.3.0,[3.0.0;4.*],4,4.3;4.2;4.0,2024-07-05
master,paquet.xml,spip-contrib-extensions/dame_blanche,dame,1905,stable,0.3.0,[3.0.0;4.*],4,4.4;4.3;3.2,2024-07-13
master,paquet.xml,spip-contrib-extensions/dates_outils,dates_outils,1908,stable,1.2.0,[3.0.0;4.*],2,4.1;3.2,2024-07-13
master,paquet.xml,spip-contrib-extensions/date_creation,date_creation,1910,stable,1.1.0,[3.0.0;4.*],5,4.3;4.2,2024-07-05
master,paquet.xml,spip-contrib-extensions/dd,dd,1915,stable,1.5.0,[3.0.0;4.*],24,4.3;4.2;3.2;3.0;2.1;2.0,2025-02-08
master,paquet.xml,spip-contrib-extensions/declinaisons,declinaisons,1920,stable,2.2.0,[3.0.5;4.*],2,4.3;3.2,2024-07-13
master,paquet.xml,spip-contrib-extensions/devise,devise,1926,test,3.1.0,[3.0.0;3.2.*],0,N/A,< 2023-02-23
master,paquet.xml,spip-contrib-extensions/diagrammes,diagrammes,1927,test,1.0.0,[3.0.0;3.2.*],0,N/A,< 2023-02-23
master,paquet.xml,spip-contrib-extensions/diapo,diapo,1928,stable,2.2.0,[3.0.0;4.*],64,4.4;4.3;4.2;4.0;3.2;3.0;2.1;2.0;1.9,2024-07-05
master,paquet.xml,spip-contrib-extensions/dictionnaires,dictionnaires,1929,stable,1.3.10,[3.0.0;4.*.*],232,4.4;4.3;4.2;4.1;3.2;3.1;3.0,2023-04-04
master,paquet.xml,spip-contrib-extensions/doc2img,doc2img,1942,stable,1.6.0,[3.0.0;4.*],10,4.2;3.2;3.0,2024-07-13
master,paquet.xml,spip-contrib-extensions/docker,docker,1943,dev,0.4.0,[3.0.2;4.1.*],0,N/A,2024-07-24
master,paquet.xml,spip-contrib-extensions/dompdf,dompdf,1946,stable,1.3.0,[3.0.0;4.*],8,4.3;4.0;3.2,2024-09-03
master,paquet.xml,spip-contrib-extensions/edition_directe,edition_directe,1952,stable,3.4.0,[3.0.17;4.*],10,4.3;3.2;3.0,2024-07-13
master,paquet.xml,spip-contrib-extensions/elasticsearch,elasticsearch,1953,dev,2.0.3,[3.0.0;3.2.*],3,4.0;3.2,< 2023-02-23
master,paquet.xml,spip-contrib-extensions/emballe_medias,emballe_medias,1959,test,2.0.14,[3.0.3;3.1.*],10,3.2;3.1;3.0,< 2023-02-23
master,paquet.xml,spip-contrib-extensions/emballe_medias_collections,collections,1960,stable,1.5.2,[3.0.5;3.2.*],2,3.2;3.1,< 2023-02-23
master,paquet.xml,spip-contrib-extensions/emballe_medias_swfupload,swfupload,1963,stable,1.1.3,[3.0.0;3.2.*],26,3.2;3.1;3.0;2.1;2.0;1.9,< 2023-02-23
master,paquet.xml,spip-contrib-extensions/eva-web-mentions,evamentions,1983,stable,4.4.0,[3.0.0;4.*],623,4.4;4.3;4.2;4.1;3.2;3.1;3.0;2.1;2.0,2024-07-13
master,paquet.xml,spip-contrib-extensions/facd,facd,1999,stable,0.5.0,[3.0.0;4.*],15,4.3;4.2;3.2;3.0,2024-07-05
master,paquet.xml,spip-contrib-extensions/facteurmonitoring,facteurmonitoring,2002,stable,1.2.0,[3.0.19;4.*],8,4.3;3.2;3.1,2024-07-13
master,paquet.xml,spip-contrib-extensions/feuillederoute,feuillederoute,2008,stable,1.5.0,[3.0.0;4.*],19,4.3;4.2;3.2;3.1,2024-07-13
master,paquet.xml,spip-contrib-extensions/ffedata,ffedata,2009,stable,0.10.0,[3.0.0;4.*],5,4.4;4.3;3.1,2024-07-05
master,paquet.xml,spip-contrib-extensions/flickr_hasard,flickr_rand,2014,stable,1.3.3,[3.0.5;3.2.*],0,N/A,< 2023-02-23
master,paquet.xml,spip-contrib-extensions/fonctions_images,fonctions_images,2015,stable,0.8.0,[3.0.0;4.*],276,4.3;4.2;4.1;3.2;3.1;3.0;2.1;2.0;1.9,2024-07-05
master,paquet.xml,spip-contrib-extensions/fonds,fonds,2016,stable,2.17.0,[3.0.0;4.*],3,4.3,2024-07-05
master,paquet.xml,spip-contrib-extensions/format_spip,formatspip,2023,stable,1.1.0,[3.0.0;4.*],1,4.3,2024-07-05
master,paquet.xml,spip-contrib-extensions/formidable_fusion,formifusion,2026,test,1.0.11,[3.0.0;4.1.*],1,3.2,2024-07-24
master,paquet.xml,spip-contrib-extensions/formidable_inscription,formidableinscription,2030,stable,1.2.0,[3.0.0;4.*],1,4.3,2024-07-05
master,paquet.xml,spip-contrib-extensions/formidable_quizz,formidable_quizz,2035,test,1.0.1,[3.0.0;3.2.*],0,N/A,< 2023-02-23
master,paquet.xml,spip-contrib-extensions/formidable_reponses_commentees,formidable_reponses_commentees,2036,test,0.1.4,[3.0.0;3.2.*],2,3.2,< 2023-02-23
master,paquet.xml,spip-contrib-extensions/formulaire_upload,formulaireupload,2040,stable,1.1.0,[3.0.0;4.*],24,4.3;4.0;3.2;3.1;3.0;1.9,2024-07-13
master,paquet.xml,spip-contrib-extensions/fusion_mots,fusionmots,2051,test,1.0.2,[3.0.0;3.1.*],1,3.0,2023-04-09
master,paquet.xml,spip-contrib-extensions/gcalendar,gcalendar,2056,dev,2.0.1,[3.0.1;3.2.*],14,3.0;2.1;2.0;1.9,< 2023-02-23
master,paquet.xml,spip-contrib-extensions/geoip,geoip,2058,dev,2.0.4,[3.0.0;3.2.*],1,3.1,< 2023-02-23
master,paquet.xml,spip-contrib-extensions/gestion_ml,gestionml,2059,stable,1.0.3,[3.0.0;3.2.*],0,N/A,< 2023-02-23
master,paquet.xml,spip-contrib-extensions/gisban,gisban,2062,stable,0.0.6,[3.0.0;3.2.*],1,3.2,< 2023-02-23
master,paquet.xml,spip-contrib-extensions/grigri,grigri,2078,stable,1.1.0,[3.0.0;4.*],8,4.3;4.1;3.2,2024-07-05
master,paquet.xml,spip-contrib-extensions/griseus_icones,griseusico,2079,test,0.1.6,[3.0.0;3.2.*],2,3.2;3.0,< 2023-02-23
master,paquet.xml,spip-contrib-extensions/griseus_icones_barre,griseusicobarre,2080,stable,0.1.3,[3.0.0;3.2.*],6,3.2;3.1;3.0,< 2023-02-23
master,paquet.xml,spip-contrib-extensions/griseus_vignettes,griseusvignettes,2081,stable,0.1.4,[3.0.0;3.2.*],2,3.2;3.0,< 2023-02-23
master,paquet.xml,spip-contrib-extensions/gtm,gtm,2083,stable,0.2.0,[3.0.0;4.*],2,4.3;4.2,2024-07-13
master,paquet.xml,spip-contrib-extensions/horloge_flash,horlogeflash,2094,stable,3.1.0,[3.0.0;4.*],0,N/A,2024-07-05
master,paquet.xml,spip-contrib-extensions/Hotspots,hotspots,2095,stable,1.8.1,[3.0.0;4.*],1,4.3,2024-09-26
master,paquet.xml,spip-contrib-extensions/html5_responsive,html5_responsive,2096,stable,1.18.0,[3.0.0;4.*],20,4.4;4.3;4.2;4.1;4.0;3.2;3.1,2024-07-05
master,paquet.xml,spip-contrib-extensions/ieconfig,ieconfig,2105,stable,2.1.0,[3.0.0;4.*],293,4.3;4.2;4.1;4.0;3.2;3.1;3.0;2.1,2024-07-05
master,paquet.xml,spip-contrib-extensions/image_par_defaut,image_par_defaut,2111,test,1.0.3,[3.0.5;3.2.*],0,N/A,< 2023-02-23
master,paquet.xml,23forward/image_responsive,image_responsive,2112,stable,11.3.0,[3.0.0;4.*],211,4.4;4.3;4.2;4.1;4.0;3.3;3.2;3.1;3.0,2025-01-08
master,paquet.xml,spip-contrib-extensions/image_split,image_split,2113,stable,1.0.0,[3.0.0;3.2.*],0,N/A,< 2023-02-23
master,paquet.xml,spip-contrib-extensions/immeubles,immeubles,2114,test,1.0.13,[3.0.0;4.0.*],0,N/A,< 2023-02-23
master,paquet.xml,spip-contrib-extensions/indexer-documents,indexerdoc,2122,test,2.0.4,[3.0.0;3.2.*],0,N/A,< 2023-02-23
master,paquet.xml,spip-contrib-extensions/ingredient,ingredient,2128,dev,1.0.1,[3.0.17;3.2.*],0,N/A,< 2023-02-23
master,paquet.xml,spip-contrib-extensions/intranet,intranet,2136,stable,0.8.0,[3.0.0;4.*],6,4.3;3.2;3.0,2024-07-05
master,paquet.xml,spip-contrib-extensions/joindre_auto_zone,jaz,2146,stable,2.0.2,[3.0.0;3.2.*],0,N/A,< 2023-02-23
master,paquet.xml,spip-contrib-extensions/jquery_file_upload,jfu,2151,test,5.16.9,[3.0.0;3.2.*],10,3.2;3.1;3.0,< 2023-02-23
master,paquet.xml,spip-contrib-extensions/jqvmap,jqvmap,2158,stable,0.8.4,[3.0.10;4.0.*],1,3.2,< 2023-02-23
master,paquet.xml,spip-contrib-extensions/latex,documentation2latex,2167,stable,1.0.1,[3.0.0;3.2.*],0,N/A,< 2023-02-23
master,paquet.xml,spip-contrib-extensions/latexwheel,latexwheel,2168,test,1.0.6,[3.0.0;3.2.*],0,N/A,< 2023-02-23
master,paquet.xml,spip-contrib-extensions/lazysizes,lazysizes,2169,dev,4.1.7.2,[3.0.0;3.2.*],1,3.2,< 2023-02-23
master,paquet.xml,spip-contrib-extensions/liaison_objet,liaison_objet,2176,stable,2.2.0,[3.0.5;4.*],5,4.3;4.2;4.0,2024-07-13
master,paquet.xml,spip-contrib-extensions/liens_contenus,lienscontenus,2179,stable,0.32.0,[3.0.0;4.*],2,4.3;4.2,2025-01-29
master,paquet.xml,23forward/lire_aussi,lire_aussi,2183,stable,1.4.0,[3.0.0;4.*],14,4.3;3.1;2.1;2.0,2024-07-26
master,paquet.xml,spip-contrib-extensions/lister_plugins,lister_plugins,2192,stable,1.3.0,[3.0.0;4.*],19,4.3;4.2;3.2;3.1;3.0,2024-07-05
master,paquet.xml,23forward/listes_articles_completes,listes_articles_completes,2193,stable,1.1.0,[3.0.0;4.*],9,4.3;3.2;3.0;2.1;2.0,2024-07-28
master,paquet.xml,spip-contrib-extensions/location_objets,location_objets,2197,test,1.6.2,[3.0.0;4.0.*],0,N/A,< 2023-02-23
master,paquet.xml,spip-contrib-extensions/macros,macros,2205,stable,1.0.3,[3.0.11;3.2.*],1,4.3,< 2023-02-23
master,paquet.xml,spip-contrib-extensions/maquettes_multiples,maquettes,2213,stable,3.5.1,[3.0.0;4.*],4,4.3,2024-07-24
master,paquet.xml,spip-contrib-extensions/massicot,massicot,2216,stable,0.9.0,[3.0.17;4.*],67,4.3;4.2;3.2;3.1,2024-07-05
master,paquet.xml,spip-contrib-extensions/mediaspip_player,mediaspip_player,2223,stable,1.6.5,[3.0.0;3.2.*],72,4.3;3.2;3.1;3.0,2024-07-29
master,paquet.xml,spip-contrib-extensions/medias_dereferencer,medias_dereferencer,2224,test,1.2.8,[3.0.9;3.2.*],1,3.1,< 2023-02-23
master,paquet.xml,spip-contrib-extensions/medias_logos,medias_logos,2225,stable,0.2.0,[3.0.0;4.*],11,3.2,2024-07-13
master,paquet.xml,23forward/medias_responsive_mod,medias_responsive_mod,2228,stable,1.36.0,[3.0.0;4.*],65,4.4;4.3;4.2;4.1;3.2;3.1,2024-07-27
master,paquet.xml,spip-contrib-extensions/medoc,medoc,2230,stable,2.3.3,[3.0.0;3.2.*],23,4.3;3.2;3.1;3.0,< 2023-02-23
master,paquet.xml,spip-contrib-extensions/menu_accordeon,accordeon,2237,test,3.2.6,[3.0.0;3.2.*],12,3.2;3.0;2.1,< 2023-02-23
master,paquet.xml,spip-contrib-extensions/menu_anime,menu_anime,2238,stable,1.2.0,[3.0.0;4.*],30,4.3;4.2;4.1;3.2;3.1;3.0,2024-07-05
master,paquet.xml,spip-contrib-extensions/mesfavoris_collections,mesfavoris_collections,2243,stable,1.0.7,[3.0.0;3.2.*],0,N/A,< 2023-02-23
master,paquet.xml,spip-contrib-extensions/metadonnees_photo,photo_infos,2248,stable,2.0.4,[3.0.0;3.2.*],15,3.2;3.1;3.0;2.1,< 2023-02-23
master,paquet.xml,spip-contrib-extensions/metas,metas,2249,stable,1.8.0,[3.0.0;4.*],28,4.3;4.2;4.1;3.2;3.0;2.1;2.0,2024-07-13
master,paquet.xml,spip-contrib-extensions/modelexergue,modelexergue,2259,stable,1.1.0,[3.0.0;4.*],19,4.4;4.3;4.2;3.2;3.1,2024-07-05
master,paquet.xml,spip-contrib-extensions/moncompte,moncompte,2261,stable,0.4.0,[3.0.0;4.*],1,4.2,2024-07-05
master,paquet.xml,spip-contrib-extensions/mots_creer,motscreer,2268,stable,1.1.0,[3.0.0;4.*],4,4.3;4.2;3.2,2024-07-05
master,paquet.xml,spip-contrib-extensions/multidomaines,multidomaines,2272,stable,3.3.0,[3.0.0;4.*],18,4.4;4.3;4.2;3.2,2025-01-31
master,paquet.xml,spip-contrib-extensions/mutualisation,mutualisation,2275,stable,1.5.0,[3.0.0;4.*],0,N/A,2024-07-05
master,paquet.xml,spip-contrib-extensions/nemequittepas,nemequittepas,2278,stable,1.2.0,[3.0.0;4.*],52,4.4;4.3;4.1;3.2,2024-07-05
master,paquet.xml,spip-contrib-extensions/noie,noie,2282,stable,2.0.1,[3.0.0;3.2.*],47,3.2;3.1;3.0;2.1;2.0;1.9,< 2023-02-23
master,paquet.xml,spip-contrib-extensions/noizetier_doc,noizetier_doc,2284,test,0.1.2,[3.0.0;3.2.*],0,N/A,< 2023-02-23
master,paquet.xml,spip-contrib-extensions/notifications,notifications,2293,stable,3.7.0,[3.0.0;4.*],470,4.4;4.3;4.2;4.1;4.0;3.2;3.1;3.0;2.1;2.0;1.9,2025-01-29
master,paquet.xml,spip-contrib-extensions/oai,oai,2300,stable,1.1.7,[3.0.0;3.2.*],0,N/A,< 2023-02-23
master,paquet.xml,spip-contrib-extensions/obfuscation_liens,obfuscation_liens,2301,stable,1.5.0,[3.0.0;4.*],3,4.3;4.2;3.2,2024-07-05
master,paquet.xml,spip-contrib-extensions/onglets_texte,onglets_texte,2313,stable,2.1.0,[3.0.0;4.*],125,4.4;4.3;4.2;4.1;3.2;3.1;3.0;2.1;1.9,2024-07-05
master,paquet.xml,spip-contrib-extensions/outils_article,outils_article,2324,stable,1.3.0,[3.0.0;4.*],42,4.3;4.1;3.2;3.1;3.0;2.1;2.0;1.9,2024-07-13
master,paquet.xml,spip-contrib-extensions/owlcarousel,owlcarousel,2325,stable,1.1.0,[3.0.5;4.*],91,4.4;4.3;4.2;4.1;4.0;3.2;3.1;3.0,2024-07-05
main,paquet.xml,spip-contrib-extensions/page_mobiles,pages_mobiles,2328,test,1.0.7,[3.0.4;3.2.*],19,3.2;3.0,< 2023-02-23
master,paquet.xml,spip-contrib-extensions/partageur,partageur,2338,stable,1.2.0,[3.0.5;4.*],24,4.3;4.2;3.2;3.1;3.0,2024-07-05
master,paquet.xml,spip-contrib-extensions/partenaires,partenaires,2339,stable,1.8.0,[3.0.5;4.*],4,4.2;3.2,2021-03-23
master,paquet.xml,spip-contrib-extensions/passe_complexe,passe_complexe,2340,stable,1.2.0,[3.0.0;4.*],0,N/A,2024-07-13
master,paquet.xml,spip-contrib-extensions/periodes,periodes,2347,stable,1.2.0,[3.0.0;4.*],0,N/A,2024-07-20
master,paquet.xml,spip-contrib-extensions/picto,picto,2353,stable,1.2.0,[3.0.0;4.*],63,4.4;4.3;4.2;4.1;3.2;3.0,2024-07-05
master,paquet.xml,spip-contrib-extensions/planning_simple,planning_simple,2356,dev,1.1.4,[3.0.0;3.2.*],1,3.2,< 2023-02-23
master,paquet.xml,spip-contrib-extensions/plantuml,plantuml,2357,stable,0.2.0,[3.0.0;4.*],0,N/A,2024-07-05
master,paquet.xml,spip-contrib-extensions/podcast,podcast,2362,stable,0.5.0,[3.0.0;4.*],8,4.4;4.3;3.2;3.0,2024-07-05
master,paquet.xml,spip-contrib-extensions/polyhierarchie_configurable,polyconf,2365,stable,1.2.0,[3.0.0;4.*],0,N/A,2024-07-05
master,paquet.xml,spip-contrib-extensions/popup,spipopup,2366,stable,2.1.0,[3.0.0;4.*],22,4.3;4.2;3.2;3.1;2.1,2024-07-13
master,paquet.xml,spip-contrib-extensions/porte_plume_blocs,pp_blocs,2368,test,1.0.2,[3.0.0;3.2.*],0,N/A,< 2023-02-23
master,paquet.xml,spip-contrib-extensions/porte_plume_changement_langue,pp_chgt_lg,2369,stable,1.1.0,[3.0.0;4.*],219,4.3;4.2;4.1;3.2;3.1;2.1,2024-07-05
master,paquet.xml,spip-contrib-extensions/typoenluminee,typoenluminee,2373,stable,3.7.1,[3.0.0;4.*],1308,4.4;4.3;4.2;4.1;4.0;3.2;3.1;3.0;2.1;2.0;1.9,2024-10-04
master,paquet.xml,spip-contrib-extensions/portfolio_simple_v2,portfolio_simple_v2,2383,test,0.2.5,[3.0.0;3.2.*],4,3.2;3.0,< 2023-02-23
master,paquet.xml,spip-contrib-extensions/prestashop_api,prestashop_api,2385,test,2.3.1,[3.0.0;3.2.*],0,N/A,2018-08-20
master,paquet.xml,spip-contrib-extensions/prive_fluide,prive_fluide,2390,stable,1.2.4,[3.0.0;3.2.*],16,3.2;3.1;3.0,< 2023-02-23
master,paquet.xml,spip-contrib-extensions/prive_fluide_plus,prive_fluide_plus,2391,dev,0.1.0,[3.0.0;3.2.*],0,N/A,< 2023-02-23
master,paquet.xml,spip-contrib-extensions/prive_fluide_remix,prive_fluide_remix,2392,stable,1.0.25,[3.0.0;3.2.*],7,3.2,< 2023-02-23
master,paquet.xml,spip-contrib-extensions/prix_objets_periodes,prix_objets_periodes,2395,stable,1.2.0,[3.0.0;4.*],0,N/A,2024-07-20
master,paquet.xml,spip-contrib-extensions/qrcode,qrcode,2404,stable,1.2.0,[3.0.15;4.*],78,4.4;4.3;4.2;4.1;3.2;3.1;3.0;2.1,2024-07-05
master,paquet.xml,spip-contrib-extensions/quickflip,quickflip,2406,stable,0.3.0,[3.0.0;4.*],2,4.3;3.2,2024-07-05
master,paquet.xml,spip-contrib-extensions/rao,rao,2413,test,1.0.4,[3.0.0;3.2.*],0,N/A,< 2023-02-23
master,paquet.xml,spip-contrib-extensions/recherche_mots_cles,recherche_sti,2415,test,0.5.4,[3.0.0;3.2.*],2,3.2,< 2023-02-23
master,paquet.xml,spip-contrib-extensions/relecture,relecture,2424,dev,0.2.2,[3.0.0;3.2.*],0,N/A,< 2023-02-23
master,paquet.xml,spip-contrib-extensions/requeteursql,requeteursql,2425,stable,1.4.1,[3.0.0;3.2.*],2,3.2;3.1,2023-09-27
master,paquet.xml,spip-contrib-extensions/reservations_bank,reservation_bank,2426,stable,1.5.0,[3.0.20;4.*],0,N/A,2024-07-20
master,paquet.xml,spip-contrib-extensions/reservations_credits,reservations_credits,2427,stable,1.2.0,[3.0.20;4.*],0,N/A,2024-07-20
master,paquet.xml,spip-contrib-extensions/reservations_multiples,reservations_multiples,2428,stable,1.6.0,[3.0.16;4.*],3,4.1;4.0;3.2,2024-07-13
master,paquet.xml,spip-contrib-extensions/reservation_evenement,reservation_evenement,2430,stable,2.4.0,[3.0.16;4.*],18,4.3;4.2;4.1;4.0;3.2,2024-07-13
master,paquet.xml,spip-contrib-extensions/roles_gis,roles_gis,2439,dev,1.0.1,[3.0.0;3.2.*],0,N/A,< 2023-02-23
master,paquet.xml,spip-contrib-extensions/roles_selections,roles_selections,2440,stable,1.1.0,[3.0.0;4.*],4,4.3;4.2;4.0;3.2,2024-07-05
master,paquet.xml,spip-contrib-extensions/rspip_code_mail,rspipcm,2441,stable,1.3.4,[3.0.0;3.2.*],7,3.2;3.1;3.0;2.1,< 2023-02-23
master,paquet.xml,spip-contrib-extensions/rubriqueur,rubriqueur,2448,stable,2.3.1,[3.0.0;4.*],9,4.4;4.3;3.2;3.1,2024-11-10
master,paquet.xml,spip-contrib-extensions/rubrique_preferee,rubriquepreferee,2450,test,1.0.2,[3.0.0;3.2.*],2,4.2;3.2,< 2023-02-23
master,paquet.xml,spip-contrib-extensions/saisie_liste,saisie_liste,2455,stable,1.4.15,[3.0.10;3.2.*],9,3.2;3.1,< 2023-02-23
master,paquet.xml,spip-contrib-extensions/sale,sale,2457,stable,1.0.0,[3.0.0;4.*],4,4.1;3.2;3.1;2.1,2024-07-31
master,paquet.xml,spip-contrib-extensions/savecfg,savecfg,2459,stable,3.1.0,[3.0.20;4.*],74,4.3;4.2;3.2;3.1;2.1,2024-07-05
master,paquet.xml,spip-contrib-extensions/seances,seances,2464,stable,2.2.0,[3.0.0;3.2.*],8,3.2;3.0;2.1,< 2023-02-23
master,paquet.xml,spip-contrib-extensions/sedna,sedna,2467,stable,1.5.0,[3.0.0;4.*],20,4.4;4.3;3.2;3.0;2.1;2.0;1.9,2024-07-05
master,paquet.xml,spip-contrib-extensions/signalement,signalement,2488,stable,1.2.5,[3.0.0;3.2.*],1,3.1,< 2023-02-23
master,paquet.xml,spip-contrib-extensions/sjcycle,sjcycle,2495,stable,3.6.0,[3.0.0;4.*],710,4.4;4.3;4.2;4.1;3.2;3.1;3.0;2.1;2.0,2024-07-05
master,paquet.xml,spip-contrib-extensions/slick,slick,2498,stable,2.1.0,[3.0.0;4.*],277,4.4;4.3;4.2;4.1;3.2;3.1,2024-07-05
master,paquet.xml,spip-contrib-extensions/sms,sms,2500,stable,1.3.0,[3.0.0;4.*],7,4.3;3.2;3.1,2024-07-05
master,paquet.xml,spip-contrib-extensions/smush_images,smush,2502,stable,0.9.0,[3.0.3;4.*],66,4.3;3.2;3.1;3.0,2024-07-05
master,paquet.xml,spip-contrib-extensions/soap-sympa,soapsympa,2503,stable,3.2.0,[3.0.0;4.*],1,4.3,2024-07-05
master,paquet.xml,spip-contrib-extensions/sommaire,sommaire,2507,stable,1.5.0,[3.0.0;4.*],128,4.4;4.3;4.2;4.1;4.0;3.2;3.1,2024-10-27
master,paquet.xml,spip-contrib-extensions/souhaits,souhaits,2508,stable,1.5.0,[3.0.5;4.*],0,N/A,2024-11-09
master,paquet.xml,spip-contrib-extensions/spipcatchat,spipcatchat,2519,stable,1.4.2,[3.0.0;3.2.*],1,3.0,< 2023-02-23
master,paquet.xml,spip-contrib-extensions/spipmotion,spipmotion,2525,stable,1.8.0,[3.0.0;4.*],11,3.2;3.0;2.0,2021-03-21
master,paquet.xml,spip-contrib-extensions/spip_400,spip_400,2527,stable,1.0.0,[3.0.0;4.*],13,4.3;4.0;3.2;3.1;3.0,2024-07-22
master,paquet.xml,spip-contrib-extensions/spip_proprietaire,spip_proprio,2535,stable,1.71.0,[3.0.0;4.*],164,4.3;4.2;4.0;3.2;3.1;3.0;2.1,2024-07-13
master,paquet.xml,spip-contrib-extensions/squelettes_par_mots_cle,squelettesmots,2541,stable,3.3.0,[3.0.0;4.*],50,4.4;4.3;4.2;4.1;3.2;3.1;3.0;2.1;1.9,2024-07-05
master,paquet.xml,spip-contrib-extensions/statut_articles,statut_articles,2549,stable,1.2.0,[3.0.0;4.*],50,4.3;4.1;4.0;3.2;3.1,2024-07-05
master,paquet.xml,spip-contrib-extensions/styleguide,styleguide,2552,dev,1.0.0,[3.0.0;4.*],0,N/A,2024-05-27
master,paquet.xml,spip-contrib-extensions/suploadhtml5,suploadhtml5,2555,experimental,1.0.5,[3.0.0;3.2.*],2,3.2,< 2023-02-23
master,paquet.xml,spip-contrib-extensions/textes_etendus,textes_etendus,2581,stable,3.1.0,[3.0.0;4.*],4,4.3,2024-07-05
master,paquet.xml,spip-contrib-extensions/tipafriend,tipafriend,2589,stable,1.7.0,[3.0.0;4.*],14,4.3;4.2;4.0;3.2;3.1;3.0;2.1,2024-07-13
master,paquet.xml,spip-contrib-extensions/titre_de_logo,titre_logo,2591,stable,3.2.1,[3.0.0;4.*],20,4.3;4.2;4.1;3.2;3.1;3.0;2.1,2024-09-16
master,paquet.xml,spip-contrib-extensions/tradrub_proposee,tradrub_proposee,2598,test,0.6.0,[3.0.0;3.2.*],1,3.2,< 2023-02-23
master,paquet.xml,spip-contrib-extensions/traduction_articles_autrement,taa,2600,stable,2.0.0,[3.0.0;3.2.*],23,3.2;3.0;2.1,< 2023-02-23
master,paquet.xml,spip-contrib-extensions/traduction_rubriques_autrement,trad_rub,2601,stable,2.0.0,[3.0.10;3.2.*],20,3.2;3.0,< 2023-02-23
master,paquet.xml,spip-contrib-extensions/traduire_texte,traduiretexte,2602,stable,1.2.0,[3.0.0;4.*],3,4.3;3.2,2024-07-05
master,paquet.xml,spip-contrib-extensions/uploadhtml5,uploadhtml5,2609,stable,2.1.0,[3.0.0;4.*],91,4.3;4.2;4.1;4.0;3.3;3.2;3.1;3.0,2024-11-13
master,paquet.xml,spip-contrib-extensions/verifier_plugins,verifier_plugins,2617,stable,1.4.2,[3.0.0;4.*],362,4.4;4.3;4.2;4.1;4.0;3.2;3.1;3.0,2025-02-14
master,paquet.xml,spip-contrib-extensions/vider_rubrique,vider_rubrique,2619,stable,0.4.0,[3.0.0;4.*],21,4.3;4.2;4.1;3.2;3.0,2024-07-05
master,paquet.xml,spip-contrib-extensions/vignettes_oxygen_128,vignettes_oxygen,2620,stable,1.0.1,[3.0.0;3.2.*],1,3.2,< 2023-02-23
master,paquet.xml,spip-contrib-extensions/vignettes_oxygen_52,vignettes_oxygen52,2621,stable,1.0.1,[3.0.0;3.2.*],2,3.2;2.1,< 2023-02-23
master,paquet.xml,spip-contrib-extensions/wp_import,wp_import,2633,test,2.0.0,[3.0.0;3.2.*],0,N/A,< 2023-02-23
master,paquet.xml,spip-contrib-extensions/xiti,xiti,2634,stable,2.3.2,[3.0.0;3.2.*],4,4.2;3.2,< 2023-02-23
master,paquet.xml,spip-contrib-extensions/zen-garden,zengarden,2640,stable,2.11.0,[3.0.0;4.*],564,4.4;4.3;4.2;4.1;4.0;3.2;3.1;3.0;2.1;2.0;1.9,2025-01-29
master,paquet.xml,spip-contrib-extensions/zeroclipboard,zeroclipboard,2641,stable,0.4.4,[3.0.5;3.2.*],1,3.2,< 2023-02-23
master,paquet.xml,spip-contrib-extensions/zinit,zinit,2643,stable,0.7.1,[3.0.9;4.*],13,4.3;4.2;4.1;3.2;3.1,2025-01-20
master,paquet.xml,spip-contrib-extensions/zless,zless,2646,stable,0.4.0,[3.0.0;4.*],0,N/A,2024-07-05
master,paquet.xml,spip-contrib-squelettes/balloons,balloons,2661,stable,1.1.1,[3.0.0;3.2.*],0,N/A,< 2023-02-23
master,paquet.xml,spip-contrib-squelettes/curalicious,curalicious,2676,test,1.0.0,[3.0.0;3.2.*],2,3.2;3.0,< 2023-02-23
master,paquet.xml,spip-contrib-squelettes/documentation,documentation,2684,stable,3.0.12,[3.0.0;3.2.*],1,3.2,< 2023-02-23
master,paquet.xml,spip-contrib-squelettes/html5up_alpha_legacy,alpha,2704,stable,1.4.0,[3.0.0;4.*],19,4.4;4.3;4.2;4.1;3.2;3.0,2024-07-13
master,paquet.xml,spip-contrib-squelettes/html5up_strongly_typed,html5up_strongly_typed,2722,test,1.1.0,[3.0.0;3.2.*],0,N/A,< 2023-02-23
master,paquet.xml,spip-contrib-squelettes/japibas,japibas,2731,stable,1.0.2,[3.0.0;3.2.*],7,3.2;3.1;3.0,< 2023-02-23
master,paquet.xml,spip-contrib-squelettes/median,median,2739,stable,2.0.1,[3.0.0;3.2.*],2,3.2,< 2023-02-23
master,paquet.xml,spip-contrib-squelettes/moodboard,moodboard,2746,test,1.1.0,[3.0.0;3.2.*],1,3.2,< 2023-02-23
master,paquet.xml,spip-contrib-squelettes/parallelism4spip,parallelism,2758,stable,0.6.3,[3.0.1;3.2.*],1,3.2,< 2023-02-23
master,paquet.xml,spip-contrib-squelettes/sarkaspipr,sarkaspipr,2772,stable,4.6.0,[3.0.0;4.*],49,4.4;4.3;4.2;4.1;4.0;3.2;3.1;3.0,2024-07-05
master,paquet.xml,spip-contrib-squelettes/spipr-dane-config,sdc,2791,stable,0.2.0,[3.0.17;4.*],32,4.4;4.2,2024-07-13
master,paquet.xml,spip-contrib-squelettes/spipr-doc,spipr_doc,2794,stable,0.6.0,[3.0.0;4.*],10,4.3;4.1;4.0;3.2;3.1;3.0,2024-07-05
master,paquet.xml,spip-contrib-squelettes/spipr-educ,spipr_educ,2795,stable,0.5.0,[3.0.0;4.*],91,4.3;4.2;3.2,2024-07-13
master,paquet.xml,spip-contrib-squelettes/tutocommerce,tutocommerce,2814,test,1.0.11,[3.0.17;3.2.*],4,4.3;3.2,< 2023-02-23
master,paquet.xml,spip-contrib-squelettes/zoundation,zoundation,2826,stable,1.1.0,[3.0.13;4.*],4,4.2;3.2;3.1,2024-07-05
master,paquet.xml,spip-contrib-squelettes/zpip-dist,zpip,2827,stable,2.1.0,[3.0.0;4.*],28,4.3;4.2;3.2;3.1;3.0,2024-07-05
master,paquet.xml,spip-galaxie/syntaxe.spip.net,syntaxe_spip,3054,stable,1.1.0,[3.0.0;4.*],0,N/A,2024-05-29
main,paquet.xml,spip-contrib-extensions/sync_from_forge,sync_from_forge,3235,dev,0.0.1,[3.0.0;[,1,3.2,2024-09-03
main,paquet.xml,spip-contrib-extensions/debut_fin4,debut_fin,3440,stable,1.4.0,[3.0.0;4.*],2,3.2;3.1,2025-02-10
