default_branch,file,path_with_namespace,prefix,project_id,state,version,spip_compatibility,sites,spip,last_commit
master,paquet.xml,spip-contrib-extensions/adaptive_images,adaptive_images,1724,stable,3.4.0,[3.3.0;4.*],480,4.4;4.3;4.2;4.1;4.0;3.2;3.1;3.0,2024-11-12
master,paquet.xml,spip-contrib-extensions/creat2id,creat2id,1890,stable,2.1.0,[3.3.0-dev;4.*],0,N/A,2024-10-11
master,paquet.xml,spip-contrib-extensions/rang_mots,rang_mots,2412,test,1.0.0,]3.3.0-dev;4.0.*],0,N/A,2023-04-09
