default_branch,file,path_with_namespace,prefix,project_id,state,version,spip_compatibility,sites,spip,last_commit
master,paquet.xml,spip-contrib-extensions/dev,dev,1671,dev,2.2.0-dev,[4.1.0;4.*],6,4.3;4.2;3.2;3.0,2024-12-19
master,paquet.xml,spip-contrib-extensions/grenier,grenier,1678,stable,2.2.0,[4.1.0;4.*],18,4.3;4.2;3.2;3.1;3.0,2024-10-22
master,paquet.xml,spip-contrib-extensions/jquery_ui,jqueryui,1680,dev,1.16.0-dev,[4.1.0;4.*],2129,4.4;4.3;4.2;4.1;4.0;3.3;3.2;3.1;3.0;2.1;2.0;1.9,2025-01-29
master,paquet.xml,spip-contrib-extensions/organiseur,organiseur,1686,stable,3.3.2,[4.1.0;4.*],1980,4.4;4.3;4.2;4.1;4.0;3.3;3.2;3.1;3.0,2025-02-09
master,paquet.xml,spip-contrib-extensions/petitions,petitions,1688,stable,3.3.0,[4.1.0;4.*],1929,4.4;4.3;4.2;4.1;4.0;3.3;3.2;3.1;3.0,2025-02-09
master,paquet.xml,spip-contrib-extensions/squelettes_par_rubrique,squelettes_par_rubrique,1697,stable,2.2.0,[4.1.0;4.*],1977,4.4;4.3;4.2;4.1;4.0;3.3;3.2;3.1;3.0,2025-02-05
master,paquet.xml,spip-contrib-extensions/acces_restreint,accesrestreint,1715,stable,6.2.0,[4.1.0;4.*],1488,4.4;4.3;4.2;4.1;4.0;3.3;3.2;3.1;3.0;2.1;2.0;1.9,2025-02-11
master,paquet.xml,spip-contrib-extensions/agenda,agenda,1731,stable,5.1.0,[4.1.0;4.*],2069,4.4;4.3;4.2;4.1;4.0;3.3;3.2;3.1;3.0;2.1;2.0;1.9,2024-11-24
master,paquet.xml,spip-contrib-extensions/aide_par_objet,aide_par_objet,1737,stable,2.1.0,[4.1.0;4.*],2,4.2;4.1,2024-07-05
master,paquet.xml,spip-contrib-extensions/albums,albums,1740,stable,4.3.3,[4.1.0;4.*],217,4.4;4.3;4.2;4.1;4.0;3.2;3.1;3.0;2.1,2025-02-06
master,paquet.xml,spip-contrib-extensions/ape_naf,ape_naf,1753,stable,1.1.2,[4.1.0;5.0.*],0,N/A,2024-10-17
master,paquet.xml,spip-contrib-extensions/archive_objet,archivage,1758,stable,0.5.5,[4.1.0;4.*.*],57,4.3;2.1,2024-06-23
master,paquet.xml,spip-contrib-extensions/auth_email,auth_email,1769,dev,2.0.0,[4.1.0;4.*],0,N/A,2024-09-30
master,paquet.xml,spip-contrib-extensions/autorite,autorite,1774,stable,2.1.0,[4.1.0;4.*],359,4.4;4.3;4.2;4.1;4.0;3.2;3.1;3.0;2.1;2.0;1.9,2025-01-29
master,paquet.xml,spip-contrib-extensions/badge_don,badge_don,1777,stable,1.2.0,[4.1.0;4.*],23,4.3;3.2;3.1;3.0;2.1,2024-10-11
master,paquet.xml,spip-contrib-extensions/bellespuces,bellespuces,1783,stable,2.0.0,[4.1.0;4.*],157,4.4;4.3;4.2;4.1;4.0;3.2;3.1;3.0;2.1;1.9,2024-10-13
master,paquet.xml,spip-contrib-extensions/bigfoot,bigfoot,1786,stable,1.4.0,[4.1.0;4.*],25,4.4;4.3;4.2;3.2;3.1,2024-10-10
master,paquet.xml,spip-contrib-extensions/bootstrap_scss,bootstrap_scss,1800,test,1.0.1,[4.1.0;4.*.*],0,N/A,2023-12-04
master,paquet.xml,spip-contrib-extensions/breves_vers_articles,breves_vers_articles,1806,stable,2.1.0,[4.1.0;4.*],3,4.3;3.0;2.1,2024-07-05
master,paquet.xml,spip-contrib-extensions/calendrier_mini,calendriermini,1812,stable,4.1.0,[4.1.0;4.*],1860,4.4;4.3;4.2;4.1;4.0;3.3;3.2;3.1;3.0;2.1;2.0;1.9,2025-01-29
master,paquet.xml,spip-contrib-extensions/champs_extras_core,cextras,1822,stable,4.2.1,[4.1.0;4.*],1166,4.4;4.3;4.2;4.1;4.0;3.2;3.1;3.0;2.1;2.0,2024-12-22
master,paquet.xml,spip-contrib-extensions/champs_extras_interface,iextras,1824,stable,4.2.0,[4.1.0;4.*],869,4.4;4.3;4.2;4.1;4.0;3.2;3.1;3.0;2.1;2.0,2024-10-27
master,paquet.xml,spip-contrib-extensions/compositions,compositions,1860,stable,4.1.0,[4.1.0;4.*],861,4.4;4.3;4.2;4.1;4.0;3.2;3.1;3.0;2.1;2.0,2024-07-05
master,paquet.xml,spip-contrib-extensions/contact_libre,contact_libre,1868,stable,2.2.0,[4.1.0;4.*],121,4.3;4.2;4.1;4.0;3.2;3.1;3.0;2.1;2.0,2024-10-10
master,paquet.xml,spip-contrib-extensions/coordonnees,coordonnees,1875,stable,4.3.1,[4.1.0;4.*],66,4.4;4.3;4.2;4.1;3.2;3.1;3.0;2.1,2024-08-15
master,paquet.xml,spip-contrib-extensions/corbeille,corbeille,1876,stable,4.1.0,[4.1.0;4.*],1139,4.4;4.3;4.2;4.1;4.0;3.3;3.2;3.1;3.0;2.1;2.0;1.9,2024-10-25
master,paquet.xml,spip-contrib-extensions/crayons,crayons,1888,stable,3.2.0,[4.1.0;4.*],1904,4.4;4.3;4.2;4.1;4.0;3.3;3.2;3.1;3.0;2.1;2.0;1.9,2025-01-29
master,paquet.xml,spip-contrib-extensions/date_inscription,date_inscription,1911,stable,1.2.0,[4.1.0;4.*],25,4.3;4.0;3.2;3.1;3.0,2024-10-11
master,paquet.xml,spip-contrib-extensions/depublie,depublie,1924,stable,1.5.0,[4.1.0;4.*],312,4.4;4.3;4.2;4.1;4.0;3.2;3.1;3.0,2024-07-05
master,paquet.xml,spip-contrib-extensions/erdv,erdv,1973,stable,1.1.2,[4.1.0;4.*],0,N/A,2024-12-30
master,paquet.xml,spip-contrib-extensions/erdv_dashboard,erdv_dashboard,1974,stable,1.1.0,[4.1.0;4.*],0,N/A,2024-07-05
master,paquet.xml,spip-contrib-extensions/facteur,facteur,2001,stable,5.2.0,[4.1.0;4.*],2117,4.4;4.3;4.2;4.1;4.0;3.3;3.2;3.1;3.0;2.1;2.0,2025-01-29
master,paquet.xml,spip-contrib-extensions/formidable,formidable,2024,stable,7.0.3,[4.1.6;4.*.*],819,4.4;4.3;4.2;4.1;4.0;3.3;3.2;3.1;3.0;2.1,2025-02-12
master,paquet.xml,spip-contrib-extensions/formidable_participation,formidableparticipation,2032,stable,6.0.1,[4.1.0;4.*],27,4.4;4.3;4.2;4.1;4.0;3.2;3.0,2025-01-24
master,paquet.xml,spip-contrib-extensions/formidable_p_ms,formidable_p_ms,2034,stable,1.3.0,[4.1.0;4.*],3,4.4;4.3,2025-01-24
main,paquet.xml,spip-contrib-extensions/formidable_retour_etendu,formidable_retour_etendu,2037,test,1.1.3,[4.1.0;4.*],4,4.4;4.3;4.2,2025-02-07
master,paquet.xml,spip-contrib-extensions/fpdf,fpdf,2046,stable,3.1.0,[4.1.0;4.*],23,4.4;4.3;4.1;3.2;3.1;3.0;2.1,2024-07-05
master,paquet.xml,spip-contrib-extensions/fusion_spip,fusion_spip,2052,stable,2.1.0,[4.1.0;4.*],8,4.3;4.1;3.2;3.0,2024-07-05
master,paquet.xml,spip-contrib-extensions/gis,gis,2061,stable,5.4.0,[4.1.0;4.*],796,4.4;4.3;4.2;4.1;4.0;3.3;3.2;3.1;3.0;2.1;2.0;1.9,2025-02-06
master,paquet.xml,spip-contrib-extensions/gis_geometries,gisgeom,2064,stable,1.13.0,[4.1.0;4.*],44,4.4;4.3;4.2;4.1;4.0;3.2;3.1,2024-10-10
master,paquet.xml,spip-contrib-extensions/google_analytics,googleanalytics,2071,stable,2.1.0,[4.1.0;4.*],181,4.4;4.3;4.2;4.1;4.0;3.2;3.1;3.0;2.1;2.0;1.9,2024-07-05
master,paquet.xml,spip-contrib-extensions/graphes_en_svg,graphes_en_svg,2072,stable,1.1.0,[4.1.0;4.*],0,N/A,2024-10-13
master,paquet.xml,spip-contrib-extensions/icalendar,icalendar,2102,stable,1.1.0,[4.1.0;4.*],35,4.4;4.3;4.2;4.1;3.2;3.0;2.1,2024-07-05
master,paquet.xml,spip-contrib-extensions/imagemap_departements,imapdepart,2107,stable,1.2.0,[4.1.0;4.*],5,3.2;2.1;2.0,2024-07-05
master,paquet.xml,spip-contrib-extensions/import_ics,import_ics,2116,stable,6.2.1,[4.1.0;4.*],15,4.4;4.3;4.2,2025-02-11
master,paquet.xml,23forward/inclure-ajaxload,inclureajaxload,2119,stable,2.1.0,[4.1.0;4.*],8,3.2;3.1;2.1,2024-07-08
master,paquet.xml,spip-contrib-extensions/indexer,indexer,2121,stable,4.0.1,[4.1.0;4.*],12,4.3;4.2;3.2,2025-02-12
master,paquet.xml,spip-contrib-extensions/inserer_modeles,inserer_modeles,2132,stable,2.2.1,[4.1.0;4.*],372,4.4;4.3;4.2;4.1;4.0;3.2;3.1;3.0;2.1,2024-12-10
master,paquet.xml,spip-contrib-extensions/intertitres_hierarchises_et_table_matieres,intertitrestdm,2134,test,1.1.0,[4.1.0;4.3.*],23,3.2;3.1;3.0;2.1;2.0;1.9,2024-05-31
master,paquet.xml,spip-contrib-extensions/itineraires,itineraires,2142,stable,2.2.0,[4.1.0;4.*],2,4.3;2.0,2025-01-04
master,paquet.xml,spip-contrib-extensions/jeux,jeux,2145,stable,4.1.0,[4.1.0;4.*],95,4.4;4.3;4.2;4.1;3.2;3.1;3.0;2.1;2.0;1.9,2024-07-05
master,paquet.xml,spip-contrib-extensions/jquery_masonry,jquerymasonry,2153,stable,3.0.0,[4.1.0;4.*],9,4.3;3.2;3.1;2.1,2024-12-25
master,paquet.xml,spip-contrib-extensions/jquery_menu_superfish,jquerysuperfish,2154,stable,0.8.0,[4.1;4.*],14,4.3;4.2;4.1;3.2;3.1;3.0;2.1,2024-07-13
master,paquet.xml,spip-contrib-extensions/ldjson,ldjson,2170,test,0.1.0,[4.1.0;[,3,4.3,2024-11-06
master,paquet.xml,spip-contrib-extensions/legendes,legendes,2172,stable,3.2.0,[4.1.0;4.*],18,4.3;3.2;3.1;3.0;2.1,2024-10-12
master,paquet.xml,spip-contrib-extensions/links,links,2182,stable,4.1.0,[4.1.0;4.*],114,4.4;4.3;4.2;4.1;4.0;3.2;3.1;3.0;2.1,2024-07-05
master,paquet.xml,spip-contrib-extensions/logosplus,logosplus,2200,dev,1.0.1,[4.1.2;4.*],3,4.3,2024-05-30
master,paquet.xml,spip-contrib-extensions/ma-lettre,malettre,2204,stable,4.3.0,[4.1.0;4.*],43,4.4;4.3;4.2;4.1;3.2;3.1;3.0;2.1;2.0;1.9,2024-07-05
master,paquet.xml,spip-contrib-extensions/mediatheques,mediatheques,2229,stable,1.1.0,[4.1.0;4.*],3,4.3;4.2,2024-07-05
master,paquet.xml,spip-contrib-extensions/mes_abonnes,mesabonnes,2245,stable,2.2.0,[4.1.0;4.*],3,4.3;3.2;2.1,2024-07-05
master,paquet.xml,spip-contrib-extensions/mes_fichiers,mes_fichiers,2246,stable,3.0.3,[4.1.0;4.*.*],117,4.4;4.3;4.2;4.1;3.2;3.1;3.0;2.1;2.0;1.9,2024-06-22
master,paquet.xml,spip-contrib-extensions/minibando,minibando,2253,stable,2.2.0,[4.1.0;4.*],390,4.4;4.3;4.2;4.1;4.0;3.2;3.1;3.0;2.1,2025-01-29
master,paquet.xml,spip-contrib-extensions/modeles_facebook,fb_modeles,2257,stable,1.2.0,[4.1.0;4.*],74,4.4;4.3;4.2;4.1;3.2;3.1;3.0;2.1,2024-07-05
master,paquet.xml,spip-contrib-extensions/moderation_moderee,moderation,2260,stable,4.1.0,[4.1.0;4.*],21,4.4;4.3;3.2;3.1,2024-07-05
master,paquet.xml,spip-contrib-extensions/motpassecomplexe,motpassecomplexe,2265,stable,1.7.0,[4.1.0;4.*],8,4.3;3.2;3.1,2024-09-16
master,paquet.xml,spip-contrib-extensions/motpasseexpirable,motpasseexpirable,2266,stable,1.4.0,[4.1.0;4.*],2,3.2;3.1,2024-07-05
master,paquet.xml,spip-contrib-extensions/newsletters_modeles,newsletters_modeles,2280,stable,0.4.1,[4.1.0;4.*],21,4.3;4.2;4.1;4.0;3.2,2024-10-08
master,paquet.xml,spip-contrib-extensions/oembed,oembed,2310,stable,3.4.0,[4.1.0;4.*],1400,4.4;4.3;4.2;4.1;4.0;3.3;3.2;3.1;3.0,2025-02-15
master,paquet.xml,spip-contrib-extensions/opensearch,opensearch,2315,stable,1.2.0,[4.1.0;4.*],19,4.4;4.3;3.2;3.1;2.1,2025-01-29
master,paquet.xml,spip-contrib-extensions/orgchartjs,orgchartjs,2321,stable,2.1.0,[4.1.0;4.*],2,4.3;4.2,2024-07-05
master,paquet.xml,spip-contrib-extensions/orthotypo,orthotypo,2323,stable,2.2.0,[4.1.0;4.*],338,4.4;4.3;4.2;4.1;4.0;3.2;3.1;3.0,2024-09-12
master,paquet.xml,spip-contrib-extensions/pages,pages,2327,stable,2.2.2,[4.1.0;4.*],694,4.4;4.3;4.2;4.1;4.0;3.2;3.1;3.0;2.1;2.0,2025-01-29
master,paquet.xml,spip-contrib-extensions/paniers_commandes_quantites_decimal,paniers_commandes_quantites_decimal,2333,stable,2.1.0,[4.1.0;4.*],1,4.3,2024-07-05
master,paquet.xml,spip-contrib-extensions/pays,pays,2342,stable,4.1.0,[4.1.0;4.*],117,4.4;4.3;4.2;4.1;3.2;3.1;3.0;2.1,2024-07-05
master,paquet.xml,spip-contrib-extensions/pdform,pdform,2344,stable,2.3.0,[4.1.0;4.*],0,N/A,2025-01-19
master,paquet.xml,spip-contrib-extensions/pensebetes,pensebetes,2346,stable,2.3.0,[4.1.0;5.0.*],9,4.4;4.3;4.0;3.1,2024-10-19
master,paquet.xml,spip-contrib-extensions/profils,profils,2398,stable,2.3.0,[4.1.0;4.*],11,4.3;4.2;3.2,2025-02-12
master,paquet.xml,spip-contrib-extensions/rainette,rainette,2407,stable,4.3.0,[4.1.0;4.*],158,4.4;4.3;4.2;4.1;3.2;3.1;3.0;2.1;2.0;1.9,2025-02-16
master,paquet.xml,spip-contrib-extensions/rainette_histo,rainette_histo,2408,stable,1.2.0,[4.1.0;4.*],0,N/A,2025-02-16
master,paquet.xml,spip-contrib-extensions/rainette_themes,rainette_theme,2409,stable,1.2.0,[4.1.0;4.*],0,N/A,2025-02-16
master,paquet.xml,spip-contrib-extensions/rechremp,rechremp,2416,stable,2.1.0,[4.1.0;4.*],82,4.4;4.3;4.2;4.0;3.2;3.0;1.9,2024-09-30
master,paquet.xml,spip-contrib-extensions/responsivenav,responsivenav,2431,stable,0.3.1,[4.1;4.*],47,4.3;4.2;4.0;3.2;3.1,2024-08-25
master,paquet.xml,spip-contrib-extensions/rezosocios,rezosocios,2435,stable,2.1.1,[4.1.0;4.*],13,4.3;4.2;3.2;3.1;3.0,2024-09-13
master,paquet.xml,spip-contrib-extensions/rss_article,rssarticle,2443,stable,1.5.0,[4.1.0;4.*],39,4.3;4.2;4.1;3.2;3.1;3.0;2.1;2.0,2024-07-05
master,paquet.xml,spip-contrib-extensions/saisies,saisies,2451,stable,5.11.1,[4.1.0;4.*.*],3215,4.4;4.3;4.2;4.1;4.0;3.3;3.2;3.1;3.0;2.1;2.0;1.9,2025-02-12
master,paquet.xml,spip-contrib-extensions/saveauto,saveauto,2458,stable,2.1.0,[4.1.0;4.*],329,4.4;4.3;4.2;4.1;4.0;3.2;3.1;3.0;2.1;2.0;1.9,2025-01-29
master,paquet.xml,spip-contrib-extensions/scssphp,scssphp,2462,stable,3.1.0,[4.1.0;4.*],0,N/A,2025-02-15
master,paquet.xml,seenthis/autoembed,autoembed,2469,dev,3.0.0-dev,[4.1.0;4.*],0,N/A,2024-08-01
master,paquet.xml,seenthis/calcul-date,calcul_date,2470,dev,3.0.0-dev,[4.1.0;4.*],2,2.1,2024-08-01
master,paquet.xml,seenthis/detecter-langue,detecter_langue,2471,dev,3.0.0-dev,[4.1.0;4.*],2,2.1,2024-08-01
master,paquet.xml,seenthis/lien-court,lien_court,2473,dev,3.0.0-dev,[4.1.0;4.*],3,4.3;2.1,2024-08-01
master,paquet.xml,seenthis/microcache,microcache,2474,dev,3.0.0-dev,[4.1.0;4.*],2,2.1,2024-08-01
master,paquet.xml,seenthis/recuperer-favicon,recuperer_favicon,2475,dev,3.0.0-dev,[4.1.0;4.*],2,4.3;2.1,2024-08-01
master,paquet.xml,spip-contrib-extensions/selections_editoriales,selections_editoriales,2479,stable,3.1.1,[4.1.0;4.*],138,4.4;4.3;4.2;4.1;4.0;3.2,2025-01-17
master,paquet.xml,spip-contrib-extensions/show_readme,showreadme,2486,stable,0.1.0,[4.1.0;4.*],4,4.4,2024-07-05
master,paquet.xml,spip-contrib-extensions/sitemap_images,sitemap_images,2492,stable,1.5.0,[4.1.0;4.*],40,4.3;4.2;4.1;4.0;3.2;3.1,2024-07-05
master,paquet.xml,spip-contrib-extensions/skeleditor,skeleditor,2496,stable,4.1.0,[4.1.0;4.*],503,4.4;4.3;4.2;4.1;4.0;3.2;3.1;3.0;2.1;2.0;1.9,2024-07-05
master,paquet.xml,spip-contrib-extensions/sms_avec_listes,sms_avec_listes,2501,stable,1.1.0,[4.1.0;4.*],0,N/A,2024-07-05
master,paquet.xml,spip-contrib-extensions/socialtags,socialtags,2504,stable,4.1.0,[4.1.0;4.*],555,4.4;4.3;4.2;4.1;4.0;3.2;3.1;3.0;2.1;2.0;1.9,2025-01-29
master,paquet.xml,spip-contrib-extensions/soundmanager,sm,2509,stable,3.1.0,[4.1.0;4.*],25,4.4;4.3;4.2;4.0;3.2;2.1;2.0,2024-07-05
master,paquet.xml,spip-contrib-extensions/spip2spip,spip2spip,2518,stable,4.3.0,[4.1.0;4.*],39,4.3;4.2;3.2;3.0;2.1;2.0;1.9,2024-07-05
master,paquet.xml,spip-contrib-extensions/stats_scalp,statsscalp,2548,stable,1.1.0,[4.1.0;4.*],5,4.3;4.2,2024-07-05
master,paquet.xml,spip-contrib-extensions/supprimer_numero,delnum,2556,stable,1.1.0,[4.1.0;4.*],0,N/A,2024-07-05
master,paquet.xml,spip-contrib-extensions/svp_referentiel,svpbase,2561,dev,1.0.0-dev,[4.1.0-dev;4.*.*],0,N/A,2024-07-24
master,paquet.xml,spip-contrib-extensions/sympatic,sympatic,2567,stable,1.2.0,[4.1.0;4.*],1,4.2,2024-10-10
master,paquet.xml,spip-contrib-extensions/tablesorter,tablesorter,2571,stable,4.1.0,[4.1.0;4.*],68,4.4;4.3;4.2;4.0;3.2;3.1;3.0;2.1;2.0,2025-01-29
master,paquet.xml,spip-contrib-extensions/taxonomie,taxonomie,2575,stable,1.2.0,[4.1.0;4.*],2,3.2;3.0,2025-02-16
master,paquet.xml,spip-contrib-extensions/timezone,timezone,2586,stable,0.2.0,[4.1.0;4.*],30,4.3;4.2;4.1;3.2;3.0,2024-07-05
master,paquet.xml,spip-contrib-extensions/urls_pages,urls_pages,2611,stable,1.2.0,[4.1.0;4.*],40,4.3;4.2;4.1;3.2;3.1,2024-07-13
master,paquet.xml,spip-contrib-extensions/urls_par_numero,urls_par_numero,2612,stable,2.2.0,[4.1.0-alpha;4.*],2,4.4,2024-08-14
master,paquet.xml,spip-contrib-extensions/verifier,verifier,2616,stable,3.3.0,[4.1.0;4.*],2096,4.4;4.3;4.2;4.1;4.0;3.3;3.2;3.1;3.0;2.1,2025-01-29
master,paquet.xml,spip-contrib-extensions/vtimeline,vtimeline,2626,stable,1.3.0,[4.1.0;4.*],6,4.3;4.2,2024-07-05
main,paquet.xml,spip-contrib-extensions/vue_vite,vuevite,2627,stable,0.1.0,[4.1.0;4.*],0,N/A,2024-07-05
master,paquet.xml,spip-contrib-squelettes/aoto,aoto,2656,stable,1.5.0,[4.1;4.*],3,4.3;4.2,2024-07-05
master,paquet.xml,spip-contrib-squelettes/aveline,aveline,2659,stable,3.1.0,[4.1.0;4.*],26,3.2;3.1;3.0;2.1,2024-07-05
master,paquet.xml,spip-contrib-squelettes/gribouille_2,gribouille,2698,stable,2.2.0,[4.1.0;4.*],4,4.4,2024-10-07
master,paquet.xml,spip-contrib-squelettes/html5up_alpha,alpha,2703,stable,2.2.1,[4.1.0;4.*],19,4.4;4.3;4.2;4.1;3.2;3.0,2024-10-03
master,paquet.xml,spip-contrib-squelettes/html5up_editorial,html5up_editorial,2706,stable,2.1.0,[4.1.0;4.*],37,4.3;4.2;4.1;3.2,2024-07-05
master,paquet.xml,spip-contrib-squelettes/html5up_escape_velocity,html5up_escape_velocity,2707,stable,1.2.0,[4.1.0;4.*],7,4.3;4.2;3.1,2024-07-05
master,paquet.xml,spip-contrib-squelettes/html5up_forty,html5up_forty,2708,stable,1.1.0,[4.1.0;4.*],9,4.3;4.2;3.2,2024-07-05
master,paquet.xml,spip-contrib-squelettes/html5up_hyperspace,html5up_hyperspace,2710,stable,3.2.0,[4.1.0;4.*],4,4.3;3.2,2024-07-05
master,paquet.xml,spip-contrib-squelettes/html5up_solid_state,html5up_solid_state,2719,stable,3.1.0,[4.1.0;4.*],4,4.3;3.2,2024-07-05
master,paquet.xml,spip-contrib-squelettes/html5up_spectral,html5up_spectral,2720,stable,3.1.0,[4.1.0;4.*],17,4.3;4.2;4.1;4.0;3.2,2024-07-05
master,paquet.xml,spip-contrib-squelettes/html5up_story,html5up_story,2721,stable,1.3.0,[4.1.0;4.*],7,4.3;4.1,2024-07-05
master,paquet.xml,spip-contrib-squelettes/html5up_telephasic,html5up_telephasic,2723,stable,0.5.0,[4.1.0;4.*],4,4.3;4.2,2024-07-05
master,paquet.xml,spip-contrib-squelettes/html5up_twenty,html5up_twenty,2724,stable,1.1.0,[4.1.0;4.*],2,4.2;4.1,2025-01-07
master,paquet.xml,spip-contrib-squelettes/integraal_inclusions,integraal_inclusions,2728,stable,1.1.1,[4.1.0;4.*],1,4.3,2025-01-31
master,paquet.xml,spip-contrib-squelettes/kamakura,kamakura,2732,stable,1.6.1,[4.1.0;4.*],7,4.3;4.2,2025-01-20
master,paquet.xml,spip-contrib-squelettes/odaiba,odaiba,2752,stable,1.2.2,[4.1.0;4.3.*],2,4.3,2024-06-12
master,paquet.xml,spip-contrib-squelettes/scolaspip,scolaspip,2773,stable,5.1.0,[4.1.0;4.*],265,4.3;4.1;3.2;3.1;3.0;2.1;2.0,2024-07-13
master,paquet.xml,spip-contrib-squelettes/sendagi,sendagi,2774,stable,1.3.0,[4.1.0;4.*],7,4.4;4.3;4.2;4.1,2024-11-03
master,paquet.xml,spip-contrib-squelettes/spipr-dane,spipr_dane,2790,stable,2.1.0,[4.1.0;4.*],51,4.4;4.3;4.2;4.1,2024-07-13
master,paquet.xml,spip-contrib-squelettes/ueno,ueno,2816,stable,1.2.0,[4.1.0;4.*],6,4.3;4.0;3.2,2024-07-05
master,paquet.xml,spip-contrib-squelettes/zgala,zgala,2822,stable,1.2.0,[4.1.0;4.*],0,N/A,2025-02-15
master,paquet.xml,spip-galaxie/contrib.spip.net,galactic_contrib,3026,stable,1.13.0,[4.1.0;4.*],4,4.4,2025-02-14
main,paquet.xml,spip-contrib-extensions/dsfr_lib,dsfr_lib,3250,stable,1.12.1,[4.1.0;4.*],0,N/A,2024-07-19
master,paquet.xml,seenthis/seenthis,seenthis,3290,dev,3.0.0-dev,[4.1.0;4.*],2,2.1,2024-12-05
master,paquet.xml,seenthis/squelettes,seenthissq,3291,stable,3.0.0,[4.1.0;4.*],2,2.1,2024-12-05
master,paquet.xml,seenthis/sphinx,seenthissphinx,3292,dev,3.0.0-dev,[4.1.0;4.*],0,N/A,2024-08-02
master,paquet.xml,seenthis/opencalais,seenthisoc,3294,dev,3.0.0-dev,[4.1.0;4.*],0,N/A,2024-08-01
master,paquet.xml,seenthis/importer-flux,seenthis_importer_flux,3295,stable,3.0.0,[4.1.0;4.*],0,N/A,2024-07-12
main,paquet.xml,spip-contrib-extensions/animation_aos,animation_aos,3317,test,1.0.1,[4.1.0;4.*],0,N/A,2024-09-12
master,paquet.xml,spip-contrib-extensions/spip_hal,hal,3321,stable,1.2.0,[4.1.0;4.*],1,4.3,2024-09-12
master,paquet.xml,spip-contrib-extensions/spip_hal_auteurs,hal_auteurs,3322,stable,1.1.0,[4.1.0;4.*],1,4.3,2024-09-12
main,paquet.xml,spip-contrib-extensions/matomo,matomo,3354,test,0.2.0,[4.1.0;],3,4.3,2024-10-16
main,paquet.xml,spip-contrib-extensions/omeka,omeka,3390,test,1.1.0,[4.1.0;4.*],1,4.3,2024-12-22
main,paquet.xml,spip-contrib-extensions/flipbook,flipbook,3411,stable,1.0.0,[4.1.0;4.*],8,4.4;4.3;4.2,2024-12-06
main,paquet.xml,spip-contrib-extensions/miroirsyndic,miroirsyndic,3438,stable,3.0.1,[4.1.0;4.*],0,N/A,2025-02-01
