created_unix,email,last_login_unix,updated_unix,username
2017-01-29T16:16:15Z,kent1@arscenic.info,2023-02-27T13:33:41Z,2023-06-26T08:08:53Z,kent1
2017-05-08T11:22:44Z,mail@onirisproductions.com,2023-11-28T22:10:21Z,2023-11-28T22:10:45Z,acaton
2017-05-09T09:01:26Z,rainer@web-simple.eu,2024-01-26T07:22:45Z,2024-01-26T07:22:45Z,abelass
2017-05-10T06:57:23Z,cyril@cym.fr,2017-05-10T06:57:38Z,2017-05-26T15:36:33Z,cym
2017-05-24T14:53:48Z,fil@rezo.net,2023-10-12T09:19:20Z,2023-10-12T09:53:29Z,Fil
2017-05-26T08:40:37Z,izo@aucuneid.net,never,2020-04-10T16:33:53Z,izo
2017-05-26T08:40:37Z,karim@glums.com,never,2020-04-11T13:39:32Z,karim
2017-05-26T08:40:37Z,pierre.andrews@gmail.com,2021-06-04T12:41:43Z,2021-06-04T12:41:43Z,pierre.andrews
2017-05-26T08:40:38Z,renato@rezo.net,2022-07-19T15:40:23Z,2022-07-19T15:40:23Z,renato
2017-05-26T08:40:38Z,renatoformato@virgilio.it,never,2020-04-10T16:47:09Z,renatoformato
2017-05-26T08:40:39Z,fabrice@ouvaton.org,never,2020-04-10T16:32:48Z,fabrice
2017-05-26T08:40:39Z,lazuly@rezo.net,never,2017-05-26T08:40:39Z,lazuly
2017-05-26T08:40:41Z,esj@rezo.net,never,2020-04-19T13:08:47Z,esj
2017-05-26T08:40:42Z,courcy.michael@wanadoo.fr,never,2020-04-15T12:21:33Z,courcy.michael
2017-05-26T08:40:42Z,dorian@zamix.org,never,2020-04-10T16:46:49Z,dorian
2017-05-26T08:40:43Z,grenier.yves@wanadoo.fr,never,2020-04-16T14:31:01Z,grenier.yves
2017-05-26T08:40:43Z,spipcarto@gmail.com,never,2017-05-26T08:40:43Z,spipcarto
2017-05-26T08:40:43Z,stephane@rezo.net,never,2017-05-26T08:40:43Z,stephane
2017-05-26T08:40:45Z,aurelien.levy@free.fr,never,2021-06-03T10:27:22Z,aurelien.levy
2017-05-26T08:40:45Z,miguel.byram@laposte.net,2020-07-31T20:32:03Z,2020-07-31T20:32:56Z,miguel.byram
2017-05-26T08:40:46Z,gael@merzok.com,never,2020-04-15T12:21:56Z,gael
2017-05-26T08:40:47Z,neofutur777@gmail.com,never,2017-05-26T08:40:47Z,neofutur777
2017-05-26T08:40:48Z,francois@schreuer.org,never,2020-05-14T15:51:07Z,francois
2017-05-26T08:40:48Z,nadege.debray@gmail.com,never,2017-05-26T08:40:48Z,nadege.debray
2017-05-26T08:40:49Z,comrade.ogilvy@free.fr,never,2020-04-14T07:15:12Z,comrade.ogilvy
2017-05-26T08:40:49Z,joseluis@digital77.com,never,2020-04-11T15:47:27Z,joseluis
2017-05-26T08:40:49Z,pierre@bourgeois.com,never,2020-04-13T13:07:13Z,pierre
2017-05-26T08:40:50Z,gilles.vincent@gmail.com,2023-07-03T20:39:27Z,2023-07-03T20:39:27Z,gilles.vincent
2017-05-26T08:40:50Z,postmaster@cent20.net,never,2017-05-26T08:40:50Z,postmaster
2017-05-26T08:40:51Z,brpaolo@taize.fr,2021-11-10T15:27:55Z,2023-08-23T14:29:51Z,brpaolo
2017-05-26T08:40:51Z,ventrea@gmail.com,never,2017-05-26T08:40:51Z,ventrea
2017-05-26T08:40:52Z,mathieu@garambrogne.net,never,2020-04-19T13:06:54Z,mathieu
2017-05-26T08:40:53Z,philippe.auriol@gmail.com,never,2017-05-26T08:40:53Z,philippe.auriol
2017-05-26T08:40:53Z,tetue@rezo.net,never,2017-05-26T08:40:53Z,tetue
2017-05-26T08:40:54Z,alexandra.guiderdoni@gmail.com,never,2017-05-26T08:40:54Z,alexandra.guiderdoni
2017-05-26T08:40:54Z,lefebvre@laposte.net,never,2020-04-13T13:07:37Z,lefebvre
2017-05-26T08:40:55Z,dani@belvil.net,2023-09-16T11:05:24Z,2023-09-16T12:02:09Z,dani
2017-05-26T08:40:55Z,simon.daron@cassiopea.org,never,2020-04-13T13:06:32Z,simon.daron
2017-05-26T08:40:57Z,guilhem.bonnefille@gmail.com,never,2017-05-26T08:40:57Z,guilhem.bonnefille
2017-05-26T08:40:57Z,nathan.spiping@free.fr,never,2020-04-10T18:27:15Z,Nathan.spiping
2017-05-26T08:40:58Z,ncouture@wanadoo.fr,never,2017-05-26T08:40:58Z,ncouture
2017-05-26T08:40:59Z,tatanka@haukola.freezee.org,never,2020-04-11T16:20:27Z,tatanka
2017-05-26T08:41:01Z,klaus@spip.de,never,2017-05-26T08:41:01Z,klaus
2017-05-26T08:41:01Z,philippebessiere@free.fr,never,2020-04-11T18:08:14Z,philippebessiere
2017-05-26T08:41:01Z,thus0@free.fr,never,2020-04-16T14:31:20Z,thus0
2017-05-26T08:41:02Z,gaitan@gmail.com,2021-12-04T14:08:45Z,2021-12-04T14:11:17Z,gaitan
2017-05-26T08:41:02Z,nicolas1.krebs2@netcourrier.com,never,2020-04-15T12:22:51Z,nicolas1.krebs2
2017-05-26T08:41:03Z,escambis.pedagogics@aprene.org,never,2020-04-13T13:08:07Z,escambis.pedagogics
2017-05-26T08:41:03Z,phil@africacomputing.org,never,2017-05-26T08:41:03Z,phil
2017-05-26T08:41:05Z,mona@rezo.net,never,2020-05-03T14:06:08Z,mona
2017-05-26T08:41:06Z,coyote90@free.fr,never,2020-04-15T13:10:57Z,coyote90
2017-05-26T08:41:06Z,jsb92@laposte.net,never,2020-04-13T13:06:50Z,jsb92
2017-05-26T08:41:07Z,s.ledewyn@tiscali.fr,never,2020-04-10T16:30:20Z,s.ledewyn
2017-05-26T08:41:08Z,sylvain.pelletier@gmail.com,never,2017-05-26T08:41:08Z,sylvain.pelletier
2017-05-26T08:41:09Z,pierre.fiches@gmail.com,never,2017-05-26T08:41:09Z,pierre.fiches
2017-05-26T08:41:10Z,alain@barbason.be,2020-12-03T12:30:20Z,2020-12-03T15:24:00Z,alain
2017-05-26T08:41:11Z,contact@mann.fr,never,2017-05-26T08:41:11Z,contact
2017-05-26T08:41:11Z,iago@iago.ca,never,2020-04-11T17:01:54Z,iago
2017-05-26T08:41:12Z,franck.ducas@free.fr,never,2020-04-10T10:37:35Z,franck.ducas
2017-05-26T08:41:13Z,baptiste.goupil@gmail.com,never,2017-05-26T08:41:13Z,baptiste.goupil
2017-05-26T08:41:13Z,jd007du38@voila.fr,never,2020-04-10T16:09:56Z,jd007du38
2017-05-26T08:41:14Z,andre@alternatives.ca,never,2020-04-10T16:26:26Z,andre
2017-05-26T08:41:14Z,florent@eledo.com,never,2020-04-10T16:29:17Z,florent
2017-05-26T08:41:15Z,betchou1982@yahoo.fr,never,2020-04-10T16:28:26Z,betchou1982
2017-05-26T08:41:16Z,david.larouziere@gmail.com,never,2017-05-26T08:41:16Z,david.larouziere
2017-05-26T08:41:16Z,vincevg@free.fr,never,2023-12-31T08:54:34Z,vincevg
2017-05-26T08:41:17Z,damien.guillaume@obspm.fr,never,2020-04-10T16:29:39Z,Damien.Guillaume
2017-05-26T08:41:17Z,mvm@assfor.com,never,2020-04-10T16:12:28Z,mvm
2017-05-26T08:41:18Z,rudjob@gmail.com,never,2017-05-26T08:41:18Z,rudjob
2017-05-26T08:41:19Z,ext@laposte.net,never,2020-04-10T16:31:44Z,ext
2017-05-26T08:41:19Z,roger.burton@chello.be,never,2023-03-29T07:42:42Z,roger.burton
2017-05-26T08:41:21Z,petit.bazar@laposte.net,never,2020-04-11T18:06:31Z,petit.bazar
2017-05-26T08:41:21Z,skedus@free.fr,never,2020-04-15T13:11:54Z,skedus
2017-05-26T08:41:22Z,crovvfoot@gmail.com,2020-12-06T22:45:19Z,2020-12-06T22:45:51Z,crovvfoot
2017-05-26T08:41:23Z,fenon.herve@orange.fr,never,2020-04-10T16:34:13Z,fenon.herve
2017-05-26T08:41:24Z,ggnews@free.fr,never,2020-04-15T13:11:34Z,ggnews
2017-05-26T08:41:24Z,rlx@noos.fr,never,2020-04-10T16:25:41Z,rlx
2017-05-26T08:41:25Z,tbeaumanoir@gmail.com,2020-04-30T12:26:03Z,2020-04-30T12:26:42Z,tbeaumanoir
2017-05-26T08:41:27Z,asso@freesurf.ch,never,2020-04-10T16:31:25Z,asso
2017-05-26T08:41:27Z,vg@fictis.fr,never,2020-04-10T12:26:54Z,vg
2017-05-26T08:41:29Z,olivier.gendrin@free.fr,never,2020-04-19T13:06:13Z,olivier.gendrin
2017-05-26T08:41:29Z,vlentz@gmail.com,2021-04-22T06:07:11Z,2021-04-22T06:07:11Z,vlentz
2017-05-26T08:41:30Z,jeanphilippe.bliek@gmail.com,never,2017-05-26T08:41:30Z,jeanphilippe.bliek
2017-05-26T08:41:30Z,laurent.rieffel@free.fr,2023-06-20T07:41:42Z,2023-06-20T07:43:50Z,Laurent.rieffel
2017-05-26T08:41:31Z,oh@yahoo.fr,never,2020-04-10T16:30:45Z,oh
2017-05-26T08:41:34Z,edd@trevise.org,never,2020-04-13T13:08:34Z,edd
2017-05-26T08:41:35Z,claude.delattre@laposte.net,never,2020-04-16T14:27:26Z,claude.delattre
2017-05-26T08:41:36Z,fr@hotmail.com,never,2021-02-08T13:25:39Z,fr
2017-05-26T08:41:36Z,minga@unisavecbove.org,never,2020-04-11T13:45:33Z,minga
2017-05-26T08:41:37Z,joseph@larmarange.net,2023-07-11T10:26:00Z,2023-07-11T10:27:16Z,joseph
2017-05-26T08:41:38Z,cdespres69@free.fr,never,2020-04-10T18:28:22Z,cdespres69
2017-05-26T08:41:38Z,crichard@jalmus.net,never,2017-05-26T08:41:38Z,crichard
2017-05-26T08:41:39Z,nicolasriq@free.fr,never,2020-04-19T13:05:52Z,nicolasriq
2017-05-26T08:41:40Z,christian.quentin5@wanadoo.fr,never,2020-04-10T18:28:40Z,christian.quentin5
2017-05-26T08:41:40Z,naama@laposte.net,never,2020-04-15T12:22:23Z,naama
2017-05-26T08:41:41Z,mmmxvvv@tiscali.it,never,2023-07-03T15:59:48Z,mmmxvvv
2017-05-26T08:41:42Z,romain@lejamaiscontent.net,never,2020-04-10T16:47:28Z,romain
2017-05-26T08:41:43Z,horaciogd@vhplab.net,never,2020-04-14T17:03:47Z,horaciogd
2017-05-26T08:41:43Z,sylvain@guaph.net,2020-06-18T09:22:43Z,2020-06-18T09:25:18Z,sylvain
2017-05-26T08:41:44Z,xebiaut@free.fr,never,2020-04-10T16:26:05Z,xebiaut
2017-05-26T08:41:45Z,fdm@ufe.be,never,2020-04-10T16:29:59Z,fdm
2017-05-26T08:41:46Z,bernard.blazin@free.fr,2021-12-16T10:08:22Z,2021-12-16T10:08:22Z,bernard.blazin
2017-05-26T08:41:46Z,seb.faure@gmail.com,never,2017-05-26T08:41:46Z,seb.faure
2017-05-26T08:41:47Z,ptitjes@beuz.org,never,2020-04-13T13:06:03Z,ptitjes
2017-05-26T08:41:48Z,edouard@lafargue.name,never,2017-05-26T08:41:48Z,edouard
2017-05-26T08:41:48Z,gpsnail@gmail.com,never,2017-05-26T08:41:48Z,gpsnail
2017-05-26T08:41:49Z,remi.levy@wanadoo.fr,never,2020-04-11T18:04:08Z,remi.levy
2017-05-26T08:41:49Z,thibault@taillandier.name,never,2020-04-11T18:07:55Z,thibault
2017-05-26T08:41:51Z,neobumbo@hotmail.com,never,2020-05-25T11:12:14Z,neobumbo
2017-05-26T08:41:51Z,ninidc@free.fr,never,2020-04-11T18:04:24Z,ninidc
2017-05-26T08:41:52Z,andy24000@gmail.com,never,2020-04-10T16:27:42Z,andy24000
2017-05-26T08:41:53Z,cmtmt2003@gmail.com,never,2017-05-26T08:41:53Z,cmtmt2003
2017-05-26T08:41:53Z,rpapanicola@gmail.com,never,2017-05-26T08:41:53Z,rpapanicola
2017-05-26T08:41:55Z,legris44@hotmail.com,never,2020-04-10T16:32:28Z,legris44
2017-05-26T08:41:55Z,paul@hmpnet.be,never,2017-05-26T08:41:55Z,paul
2017-05-26T08:41:56Z,dov.gabbai@gidouille.net,never,2020-04-10T16:32:06Z,dov.gabbai
2017-05-26T08:41:57Z,lspeciale@protonmail.com,2021-05-13T10:42:47Z,2021-05-13T10:44:52Z,speciale
2017-05-26T08:41:59Z,apachot@openstudio.fr,never,2020-04-11T13:32:56Z,apachot
2017-05-26T08:41:59Z,cvallois@yahoo.fr,never,2020-04-10T16:33:12Z,cvallois
2017-05-26T08:42:00Z,blip@aigri.org,never,2020-04-10T17:54:19Z,blip
2017-05-26T08:42:01Z,bmarne@free.fr,2021-04-27T14:44:47Z,2021-04-27T18:15:54Z,Beurt
2017-05-26T08:42:02Z,kleray@gmail.com,never,2017-05-26T08:42:02Z,kleray
2017-05-26T08:42:02Z,zeraxp@gmail.com,2020-04-11T12:58:09Z,2020-04-11T12:59:02Z,zeraxp
2017-05-26T08:42:03Z,frederic.taraud@wanadoo.fr,2020-04-21T14:42:03Z,2021-02-08T13:39:54Z,frederic.taraud
2017-05-26T08:42:04Z,amaury.adon@laposte.net,2021-11-16T17:39:47Z,2021-11-21T10:32:58Z,amaury.adon
2017-05-26T08:42:04Z,sarkarchimed@gmail.com,never,2017-05-26T08:42:04Z,sarkarchimed
2017-05-26T08:42:05Z,vincent@ldd.fr,never,2020-04-10T18:17:04Z,vincent
2017-05-26T08:42:08Z,listes@nouveauxterritoires.fr,never,2017-05-26T08:42:08Z,listes
2017-05-26T08:42:09Z,elrik75@free.fr,never,2020-04-10T10:51:03Z,elrik75
2017-05-26T08:42:09Z,superyms@yahoo.fr,never,2020-04-10T17:57:14Z,superyms
2017-05-26T08:42:10Z,thierry.schmit@free.fr,never,2020-04-11T18:07:32Z,thierry.schmit
2017-05-26T08:42:11Z,sebbou@gmail.com,2020-04-30T12:42:19Z,2020-04-30T12:43:11Z,sebbou
2017-05-26T08:42:12Z,mfraisse@free.fr,never,2020-04-11T18:06:50Z,mfraisse
2017-05-26T08:42:12Z,paladin@quesaco.org,never,2017-05-26T08:42:12Z,paladin
2017-05-26T08:42:13Z,chryjs@free.fr,never,2020-04-15T13:12:11Z,chryjs
2017-05-26T08:42:14Z,gurdil@free.fr,never,2020-04-15T13:11:17Z,gurdil
2017-05-26T08:42:14Z,y.a.n.n.o@free.fr,never,2020-04-19T13:06:36Z,y.a.n.n.o
2017-05-26T08:42:15Z,pvincent@erasme.org,2020-04-15T14:18:06Z,2020-04-15T14:18:06Z,pvincent
2017-05-26T08:42:16Z,bernard.dano@free.fr,never,2017-05-26T08:42:16Z,bernard.dano
2017-05-26T08:42:16Z,sarkafeek@gmail.com,never,2017-05-26T08:42:16Z,sarkafeek
2017-05-26T08:42:18Z,bollonjm@yahoo.com,2020-12-04T12:22:36Z,2020-12-04T15:24:04Z,bollonjm
2017-05-26T08:42:19Z,antig732@free.fr,never,2020-04-16T14:26:30Z,antig732
2017-05-26T08:42:20Z,yaquoi@yaquoi.com,never,2022-12-05T13:16:15Z,yaquoi
2017-05-26T08:42:22Z,baubiologie@gmail.com,never,2017-05-26T08:42:22Z,baubiologie
2017-05-26T08:42:23Z,jlpnopub@gmail.com,2020-04-15T11:38:57Z,2020-04-15T13:00:42Z,jlpnopub
2017-05-26T08:42:25Z,sarkanoss@gmail.com,never,2017-05-26T08:42:25Z,sarkanoss
2017-05-26T08:42:27Z,esse@free.fr,2022-02-04T10:57:07Z,2022-02-04T15:02:04Z,esse
2017-05-26T08:42:27Z,stephane.noel.stock@gmail.com,never,2017-05-26T08:42:27Z,stephane.noel.stock
2017-05-26T08:42:28Z,nicolas.ricquemaque@laposte.net,2020-04-14T12:13:43Z,2020-04-14T12:24:28Z,Nicolas.Ricquemaque
2017-05-26T08:42:29Z,djakoni@gmail.com,never,2020-04-10T11:05:27Z,djakoni
2017-05-26T08:42:30Z,mr08@mrit.com,never,2020-04-11T16:58:29Z,mr08
2017-05-26T08:42:31Z,ml@gmail.com,never,2020-04-11T17:59:46Z,ml
2017-05-26T08:42:31Z,yannockf@yahoo.fr,never,2017-05-26T08:42:31Z,yannockf
2017-05-26T08:42:32Z,vlavonoudg@yahoo.fr,never,2020-04-10T16:31:05Z,vlavonoudg
2017-05-26T08:42:33Z,mjorda@ifrance.com,never,2020-04-10T16:10:23Z,mjorda
2017-05-26T08:42:34Z,aurelie@collectifs.net,2020-04-16T09:59:42Z,2020-04-16T10:02:27Z,aurelie
2017-05-26T08:42:36Z,abelstuff@ifrance.com,never,2020-04-10T16:10:18Z,abelstuff
2017-05-26T08:42:38Z,thierrybo@freesurf.fr,never,2020-04-10T10:54:27Z,thierrybo
2017-05-26T08:42:39Z,prigent.yohann@gmail.com,2020-04-13T17:47:48Z,2020-04-13T17:48:14Z,prigent.yohann
2017-05-26T08:42:41Z,andre.payan@gmail.com,never,2017-05-26T08:42:41Z,andre.payan
2017-05-26T08:42:42Z,ashaszin@gmail.com,never,2017-05-26T08:42:42Z,ashaszin
2017-05-26T08:42:43Z,jerome.breton@gmail.com,2021-01-07T15:27:19Z,2021-01-07T15:28:43Z,jerome.breton
2017-05-26T08:42:44Z,denis@upian.com,never,2020-04-14T07:14:26Z,denis
2017-05-26T08:42:45Z,marrock@gmail.com,never,2017-05-26T08:42:45Z,marrock
2017-05-26T08:42:46Z,assfor@assfor.com,never,2021-05-12T12:58:25Z,assfor
2017-05-26T08:42:47Z,sam@poongaloo.org,never,2017-05-26T08:42:47Z,sam
2017-05-26T08:42:48Z,jn.jamesnicolas@gmail.com,never,2020-04-10T18:29:15Z,JN.jamesnicolas
2017-05-26T08:42:49Z,jsanjuan@futurnet.es,never,2017-05-26T08:42:49Z,jsanjuan
2017-05-26T08:42:49Z,ljullien@edres74.net,never,2020-04-10T16:10:57Z,ljullien
2017-05-26T08:42:50Z,benjamin.revel@free.fr,never,2020-04-14T07:13:51Z,benjamin.revel
2017-05-26T08:42:51Z,gilles@quiniou.net,never,2020-04-16T14:27:59Z,gilles
2017-05-26T08:42:52Z,doppeltgemoppelt@gmail.com,never,2017-05-26T08:42:52Z,doppeltgemoppelt
2017-05-26T08:42:53Z,jjmeric@free.fr,2024-01-07T19:01:01Z,2024-01-07T19:02:37Z,jjmeric
2017-05-26T08:42:54Z,baroug@rezo.net,never,2017-05-26T08:42:54Z,baroug
2017-05-26T08:42:55Z,hello+jf@librethic.io,2019-08-12T15:42:53Z,2020-04-15T13:12:32Z,jfefe
2017-05-26T08:42:56Z,peggy@rezo.net,2020-09-08T08:47:01Z,2020-09-08T08:48:04Z,peggy
2017-05-26T08:42:58Z,tom@mir2.dk,never,2021-05-03T11:53:30Z,tom
2017-05-26T08:42:59Z,thomas@bouncingorange.com,never,2020-04-10T16:47:51Z,thomas
2017-05-26T08:42:59Z,xdjuj@apsulis.com,never,2017-05-26T08:42:59Z,xdjuj
2017-05-26T08:43:00Z,sourrisseau@yahoo.fr,never,2017-05-26T08:43:00Z,sourrisseau
2017-05-26T08:43:01Z,xabi@nodo50.org,never,2020-06-22T14:26:45Z,xabi
2017-05-26T08:43:02Z,beuc@beuc.net,2021-01-02T12:16:32Z,2021-01-02T12:17:33Z,beuc
2017-05-26T08:43:03Z,christophe@cboutin.net,never,2021-09-30T07:14:44Z,christophe
2017-05-26T08:43:04Z,p.rousset@gmail.com,2020-05-26T02:46:03Z,2020-05-28T14:48:31Z,p.rousset
2017-05-26T08:43:05Z,pgrison@vjf.cnrs.fr,never,2020-04-10T16:27:20Z,pgrison
2017-05-26T08:43:05Z,thomas.delhomenie@gmail.com,2020-04-30T19:07:44Z,2020-04-30T19:07:44Z,thomas.delhomenie
2017-05-26T08:43:06Z,jeancharles@yahoo.fr,never,2020-04-10T17:56:39Z,jeancharles
2017-05-26T08:43:07Z,augier.guillaume@gmail.com,never,2017-05-26T08:43:07Z,augier.guillaume
2017-05-26T08:43:08Z,shazaam@mutins.net,never,2023-06-20T10:23:56Z,shazaam
2017-05-26T08:43:09Z,arnaud@arnaudcordier.org,never,2017-05-26T08:43:09Z,arnaud
2017-05-26T08:43:10Z,sylvain.gougouzian@gmail.com,never,2017-05-26T08:43:10Z,sylvain.gougouzian
2017-05-26T08:43:11Z,glims@wanadoo.fr,never,2020-04-16T14:30:44Z,glims
2017-05-26T08:43:12Z,j4444k@gmail.com,never,2017-05-26T08:43:12Z,j4444k
2017-05-26T08:43:13Z,enurit@openstudio.fr,never,2020-04-11T13:33:09Z,enurit
2017-05-26T08:43:14Z,bennetteson@free.fr,never,2020-04-10T10:53:57Z,bennetteson
2017-05-26T08:43:15Z,da@weeno.net,2023-08-28T10:22:48Z,2023-08-28T10:24:11Z,davux
2017-05-26T08:43:16Z,babbibel@gmail.com,never,2017-05-26T08:43:16Z,babbibel
2017-05-26T08:43:17Z,patrick@kuchard.net,never,2017-05-26T08:43:17Z,patrick
2017-05-26T08:43:18Z,olivier.carette@phpasso.fr,never,2017-05-26T08:43:18Z,olivier.carette
2017-05-26T08:43:19Z,scamerlo.work@gmail.com,never,2017-05-26T08:43:19Z,scamerlo.work
2017-05-26T08:43:22Z,shnoulle@gsill.net,never,2020-04-11T18:03:50Z,shnoulle
2017-05-26T08:43:23Z,benoit.aubert@hotmail.fr,2020-09-03T13:47:35Z,2020-09-10T16:45:06Z,benoit.aubert
2017-05-26T08:43:24Z,vprono@gmail.com,2020-04-14T06:44:16Z,2020-04-14T06:44:16Z,vprono
2017-05-26T08:43:25Z,homere1974@yahoo.fr,2023-05-25T18:57:05Z,2023-05-25T20:10:35Z,homere1974
2017-05-26T08:43:27Z,alexis.pellicier@nds.k12.tr,2023-09-27T11:02:45Z,2023-09-27T12:00:20Z,alexis.pellicier
2017-05-26T08:43:28Z,scaron@dumx.com,never,2017-05-26T08:43:28Z,scaron
2017-05-26T08:43:29Z,alesk@spip.org,never,2020-04-10T18:18:03Z,alesk
2017-05-26T08:43:30Z,fabrice.eudes@free.fr,never,2020-04-16T14:28:29Z,fabrice.eudes
2017-05-26T08:43:31Z,lspeciale@gmail.com,2022-01-17T10:52:05Z,2022-01-17T10:52:05Z,lspeciale
2017-05-26T08:43:32Z,devmed@hotmail.fr,never,2020-04-10T10:52:12Z,devmed
2017-05-26T08:43:33Z,yves.costiou@gmail.com,never,2017-05-26T08:43:33Z,yves.costiou
2017-05-26T08:43:34Z,trois.singes@gmail.com,2022-09-24T22:43:24Z,2022-09-24T22:43:24Z,trois.singes
2017-05-26T08:43:35Z,cyblors@gmail.com,never,2017-05-26T08:43:35Z,cyblors
2017-05-26T08:43:36Z,shizuka@9online.fr,never,2020-04-11T18:03:17Z,shizuka
2017-05-26T08:43:37Z,skus1@free.fr,never,2020-04-11T18:02:59Z,skus1
2017-05-26T08:43:38Z,fbarbenoire@yahoo.fr,never,2020-05-03T14:04:45Z,fbarbenoire
2017-05-26T08:43:39Z,ng@ngweb.fr,2020-04-14T10:20:49Z,2020-04-15T10:22:22Z,ng
2017-05-26T08:43:39Z,piero.wbmstr@gmail.com,2022-12-23T21:57:01Z,2022-12-23T21:59:33Z,piero.wbmstr
2017-05-26T08:43:40Z,jerome.escoffier@gmail.com,2021-03-05T07:27:45Z,2021-03-05T07:28:38Z,jerome.escoffier
2017-05-26T08:43:41Z,julien@cahri.com,2021-06-23T07:35:56Z,2022-02-20T17:03:24Z,julien
2017-05-26T08:43:43Z,difundelaidea@nodo50.org,never,2021-12-08T17:47:55Z,difundelaidea
2017-05-26T08:43:44Z,mouleyrecedric@gmail.com,never,2017-05-26T08:43:44Z,mouleyrecedric
2017-05-26T08:43:45Z,gornety@intermediaservice.fr,never,2017-05-26T08:43:45Z,gornety
2017-05-26T08:43:46Z,n.pouille@gmail.com,never,2017-05-26T08:43:46Z,n.pouille
2017-05-26T08:43:47Z,ydikoi@me.com,never,2020-04-15T12:53:19Z,ydikoi
2017-05-26T08:43:48Z,emartin@sigb.net,never,2020-04-11T18:04:43Z,emartin
2017-05-26T08:43:49Z,yffic@cousumain.info,never,2020-04-11T17:58:35Z,yffic
2017-05-26T08:43:50Z,benlarcher@yahoo.fr,never,2020-04-10T16:08:57Z,benlarcher
2017-05-26T08:43:51Z,cyp@rouquin.me,never,2017-05-26T08:43:51Z,cyp
2017-05-26T08:43:52Z,marlysa5@free.fr,never,2021-07-22T17:43:24Z,marlysa5
2017-05-26T08:43:54Z,guy.cesaro@gmail.com,never,2017-05-26T08:43:54Z,guy.cesaro
2017-05-26T08:43:54Z,serge.markitanenko@gmail.com,2022-01-10T20:41:40Z,2022-01-10T20:46:30Z,serge.markitanenko
2017-05-26T08:43:56Z,libertaire@hotmail.fr,never,2020-04-11T18:02:40Z,libertaire
2017-05-26T08:43:57Z,ccapdev@gmail.com,never,2017-05-26T08:43:57Z,ccapdev
2017-05-26T08:43:59Z,olivier.jeulin@free.fr,never,2020-04-16T14:33:07Z,olivier.jeulin
2017-05-26T08:44:00Z,yo.dan@free.fr,2020-12-05T15:01:14Z,2020-12-05T15:04:02Z,yo.dan
2017-05-26T08:44:01Z,gillesklein.spip2@gmail.com,never,2017-05-26T08:44:01Z,gillesklein.spip2
2017-05-26T08:44:03Z,dwojylac@free.fr,2020-09-07T16:08:03Z,2020-09-07T16:09:22Z,dwojylac
2017-05-26T08:44:04Z,marc.viglino@ign.fr,never,2020-04-10T10:53:36Z,marc.viglino
2017-05-26T08:44:05Z,jrolli@free.fr,never,2020-04-11T18:01:51Z,jrolli
2017-05-26T08:44:06Z,philippe.lara@free.fr,never,2020-04-11T17:02:13Z,philippe.lara
2017-05-26T08:44:07Z,jml9340@gmail.com,never,2017-05-26T08:44:07Z,jml9340
2017-05-26T08:44:09Z,zonepro@free.fr,never,2020-04-11T18:01:34Z,zonepro
2017-05-26T08:44:10Z,perline@perline.org,never,2017-05-26T08:44:10Z,perline
2017-05-26T08:44:11Z,yvestan@gmail.com,never,2017-05-26T08:44:11Z,yvestan
2017-05-26T08:44:12Z,jtlebi@gmail.com,2020-04-30T07:30:12Z,2020-04-30T07:32:25Z,jtlebi
2017-05-26T08:44:13Z,jp.guihard@ahbretagne.com,never,2017-05-26T08:44:13Z,jp.GUIHARD
2017-05-26T08:44:14Z,robomatix@machinesculte.net,never,2020-04-11T17:00:12Z,robomatix
2017-05-26T08:44:15Z,fredlefred@gmail.com,never,2017-05-26T08:44:15Z,fredlefred
2017-05-26T08:44:16Z,monsieur.camille@gmail.com,never,2017-05-26T08:44:16Z,monsieur.camille
2017-05-26T08:44:19Z,bubu@riseup.net,never,2017-05-26T08:44:19Z,bubu
2017-05-26T08:44:19Z,jack@lmpe.fr,never,2020-04-10T16:11:30Z,jack
2017-05-26T08:44:21Z,klelugi@gmail.com,never,2017-05-26T08:44:21Z,klelugi
2017-05-26T08:44:23Z,olivier.durif@aliceadsl.fr,never,2020-04-11T16:58:02Z,olivier.durif
2017-05-26T08:44:24Z,ftetart@sigb.net,never,2017-05-26T08:44:24Z,ftetart
2017-05-26T08:44:26Z,cartier@yahoo.com,never,2020-04-10T17:55:40Z,cartier
2017-05-26T08:44:27Z,pierre.troller@dionysos.org,2020-07-10T00:39:46Z,2023-06-20T08:00:29Z,pierre.troller
2017-05-26T08:44:28Z,seds.admin@gmail.com,never,2017-05-26T08:44:28Z,seds.admin
2017-05-26T08:44:31Z,gregoire.leroy@hyperthese.net,never,2017-05-26T08:44:31Z,gregoire.leroy
2017-05-26T08:44:31Z,severo@rednegra.net,2020-05-14T09:44:25Z,2020-05-14T09:46:15Z,severo
2017-05-26T08:44:33Z,gmichard@openstudio.fr,never,2020-04-11T13:33:14Z,gmichard
2017-05-26T08:44:34Z,didinfo@mailoo.org,never,2020-04-11T18:05:27Z,didinfo
2017-05-26T08:44:36Z,ngombe@gmail.com,2023-04-21T21:32:34Z,2023-04-22T00:00:28Z,ngombe
2017-05-26T08:44:37Z,vague@yahoo.fr,never,2020-04-10T15:48:31Z,vague
2017-05-26T08:44:37Z,xbesson@openstudio.fr,never,2020-04-11T13:33:51Z,xbesson
2017-05-26T08:44:38Z,jacques.desforges@free.fr,never,2020-04-11T17:59:23Z,jacques.desforges
2017-05-26T08:44:40Z,raourag@me.com,never,2022-06-09T16:55:42Z,raourag
2017-05-26T08:44:42Z,fruzzin@voila.fr,never,2020-04-10T16:09:45Z,fruzzin
2017-05-26T08:44:43Z,ailynn@free.fr,never,2020-04-14T07:11:19Z,ailynn
2017-05-26T08:44:44Z,philippe.guerindon.zone@gmail.com,never,2017-05-26T08:44:44Z,philippe.guerindon.zone
2017-05-26T08:44:45Z,magegahell@yahoo.fr,2023-06-27T14:43:31Z,2023-06-27T14:43:31Z,magegahell
2017-05-26T08:44:46Z,eric.lernon@netapsys.fr,never,2020-04-10T10:53:13Z,eric.lernon
2017-05-26T08:44:47Z,tommy@verne.cc,never,2020-09-07T12:29:33Z,tommy
2017-05-26T08:44:48Z,themmaze@gmail.com,never,2017-05-26T08:44:48Z,themmaze
2017-05-26T08:44:51Z,fabrice.albert@laposte.net,never,2020-04-19T13:07:10Z,fabrice.albert
2017-05-26T08:44:52Z,marcel@bolla.fr,never,2017-05-26T08:44:52Z,marcel
2017-05-26T08:44:53Z,carl.vincent38@gmail.com,never,2017-05-26T08:44:53Z,carl.vincent38
2017-05-26T08:44:57Z,gildas.cotomale@gmail.com,2023-11-15T16:08:11Z,2023-11-15T16:08:11Z,gilcot
2017-05-26T08:44:58Z,mechantclown@hotmail.fr,never,2017-05-26T08:44:58Z,mechantclown
2017-05-26T08:44:59Z,mespeche@openstudio.fr,never,2020-04-11T13:33:23Z,mespeche
2017-05-26T08:45:00Z,daniel@anic.fr,never,2020-04-10T16:12:52Z,daniel
2017-05-26T08:45:01Z,mrecchia@openstudio.fr,never,2020-04-11T13:33:30Z,mrecchia
2017-05-26T08:45:04Z,drabdou@wakzine.com,never,2022-06-09T16:55:17Z,drabdou
2017-05-26T08:45:05Z,fredjust@gmail.com,2020-04-13T16:35:34Z,2020-04-13T16:58:22Z,fredjust
2017-05-26T08:45:07Z,emthanh@free.fr,never,2020-04-11T18:05:09Z,emthanh
2017-05-26T08:45:08Z,antoine@jabron.com,2020-04-15T13:34:57Z,2020-04-15T13:36:14Z,antoine
2017-05-26T08:45:09Z,frederic.bouteille.mae@gmail.com,2022-11-20T09:48:49Z,2022-11-20T09:50:19Z,fwedboot
2017-05-26T08:45:10Z,dorch@dorch.fr,2024-01-29T07:18:22Z,2024-01-29T07:18:22Z,dorch
2017-05-26T08:45:11Z,spipfactory@gmail.com,never,2020-04-10T16:28:49Z,spipfactory
2017-05-26T08:45:12Z,juego@requiem4tv.com,2020-05-12T09:04:51Z,2020-05-12T09:11:01Z,xuv
2017-05-26T08:45:13Z,f.mata@bedream.fr,2020-06-22T19:19:59Z,2020-06-22T21:00:40Z,f.mata
2017-05-26T08:45:14Z,bystrano@gmx.ch,2024-01-14T20:04:50Z,2024-01-14T20:04:50Z,bystrano
2017-05-26T08:45:16Z,yannx.spip@hotmail.fr,2023-06-09T07:42:25Z,2023-06-09T07:42:25Z,yannx.spip
2017-05-26T08:45:18Z,m.dulondel@laposte.net,never,2020-04-11T17:00:36Z,m.dulondel
2017-05-26T08:45:21Z,elpapais@infoportal.it,never,2017-05-26T08:45:21Z,elpapais
2017-05-26T08:45:22Z,slegay@openstudio.fr,never,2020-04-11T13:33:44Z,slegay
2017-05-26T08:45:23Z,nikolas.villa@gmail.com,2020-04-16T05:54:13Z,2020-04-16T05:54:13Z,nikolas.villa
2017-05-26T08:45:25Z,gaspard@spip.org,never,2020-04-10T16:46:30Z,gaspard
2017-05-26T08:45:26Z,rbuissonramey@openstudio.fr,never,2020-04-11T13:33:40Z,rbuissonramey
2017-05-26T08:45:27Z,dexbrayat@openstudio.fr,never,2020-04-11T13:33:05Z,dexbrayat
2017-05-26T08:45:28Z,amathieu@openstudio.fr,never,2020-04-11T13:32:48Z,amathieu
2017-05-26T08:45:29Z,claffont@openstudio.fr,2023-10-23T13:30:56Z,2023-10-23T13:54:51Z,claffont
2017-05-26T08:45:30Z,moye@hotmail.fr,never,2017-05-26T08:45:30Z,moye
2017-05-26T08:45:34Z,thomas.weiss@webgardener.fr,never,2021-06-03T10:27:56Z,thomas.weiss
2017-05-26T08:45:35Z,hugotraverson@hotmail.fr,never,2017-05-26T08:45:35Z,hugotraverson
2017-05-26T08:45:36Z,bruno.caillard@free.fr,2022-08-09T17:02:51Z,2022-08-09T17:02:51Z,bruno.caillard
2017-05-26T08:45:38Z,davduf@davduf.net,2020-04-14T06:28:44Z,2020-04-14T09:36:45Z,davduf
2017-05-26T08:45:39Z,gdenisselle@gmail.com,never,2017-05-26T08:45:39Z,gdenisselle
2017-05-26T08:45:42Z,matteo.chesstale@gmail.com,never,2017-05-26T08:45:42Z,matteo.chesstale
2017-05-26T08:45:43Z,thom.sp@gmx.fr,never,2020-04-10T16:48:09Z,thom.sp
2017-05-26T08:45:44Z,pascal@eledo.com,never,2017-05-26T08:45:44Z,pascal
2017-05-26T08:45:46Z,globitrottux@gmail.com,never,2017-05-26T08:45:46Z,globitrottux
2017-05-26T08:45:47Z,jonathan@beespip.org,never,2021-05-03T11:54:03Z,jonathan
2017-05-26T08:45:51Z,robert.sebille@cassiopea.org,never,2020-04-11T16:56:15Z,robert.sebille
2017-05-26T08:45:52Z,elodie@ldd.fr,never,2020-04-10T18:15:45Z,elodie
2017-05-26T08:45:54Z,frans.rousselle@gmail.com,never,2017-05-26T08:45:54Z,frans.rousselle
2017-05-26T08:45:55Z,csauvage@gmail.com,2020-04-16T13:47:31Z,2020-04-16T13:48:55Z,camille.sauvage
2017-05-26T08:45:58Z,florence.henry@obspm.fr,2023-07-11T14:54:38Z,2023-07-13T09:24:30Z,florence.henry
2017-05-26T08:45:59Z,lmichel@openstudio.fr,never,2020-04-11T13:33:18Z,lmichel
2017-05-26T08:46:00Z,amas@openstudio.fr,never,2020-04-11T13:32:44Z,amas
2017-05-26T08:46:02Z,francecool@hotmail.com,2021-01-17T17:39:36Z,2021-01-21T14:23:12Z,francecool
2017-05-26T08:46:03Z,fabio.bertagnin@fbservices.fr,never,2020-04-15T12:54:12Z,fabio.bertagnin
2017-05-26T08:46:04Z,olivier.galland@tours.inra.fr,never,2020-04-16T14:26:49Z,Olivier.Galland
2017-05-26T08:46:05Z,cyriaque@wabi.fr,never,2020-05-03T14:04:26Z,cyriaque
2017-05-26T08:46:07Z,amemo@rezo.net,never,2020-04-13T13:09:06Z,amemo
2017-05-26T08:46:08Z,xde6ug@lesitedexavier.fr,never,2020-04-11T17:58:57Z,xDe6ug
2017-05-26T08:46:09Z,amdgaye@gmail.com,never,2017-05-26T08:46:09Z,amdgaye
2017-05-26T08:46:10Z,louis.gostiaux@free.fr,never,2020-04-11T16:57:21Z,louis.gostiaux
2017-05-26T08:46:11Z,olivier.tetard@miskin.fr,2022-05-02T20:23:02Z,2022-05-03T09:29:46Z,olivier.tetard
2017-05-26T08:46:13Z,rj@hodo.fr,2023-10-23T17:39:39Z,2023-10-23T17:39:39Z,rj
2017-05-26T08:46:14Z,yannick.lepetit@gmail.com,2020-12-14T18:05:19Z,2020-12-14T18:07:02Z,yannick.lepetit
2017-05-26T08:46:15Z,labergerie@lesmoutonssauvages.com,2023-06-27T08:45:50Z,2023-06-27T10:49:07Z,charles
2017-05-26T08:46:17Z,n.grillet@devictio.fr,never,2017-05-26T08:46:17Z,n.grillet
2017-05-26T08:46:18Z,cm2901@free.fr,never,2020-04-11T18:00:05Z,cm2901
2017-05-26T08:46:19Z,job@pverrier.fr,never,2020-04-10T18:26:17Z,job
2017-05-26T08:46:20Z,marc@brillault.fr,never,2017-05-26T08:46:20Z,marc
2017-05-26T08:46:21Z,th.schmit@gmail.com,2021-07-08T18:03:29Z,2021-07-08T18:03:29Z,thomasschmit
2017-05-26T08:46:22Z,cedric.couvrat@gmail.com,never,2017-05-26T08:46:22Z,cedric.couvrat
2017-05-26T08:46:24Z,jeremyhetzel@free.fr,never,2020-04-11T16:57:01Z,jeremyhetzel
2017-05-26T08:46:25Z,david@tilapin.org,2023-04-12T06:07:06Z,2023-04-12T06:07:06Z,taffit
2017-05-26T08:46:27Z,arthemis78@free.fr,never,2020-04-19T13:07:27Z,arthemis78
2017-05-26T08:46:28Z,hadrien@apsulis.com,never,2017-05-26T08:46:28Z,hadrien
2017-05-26T08:46:30Z,nabil@djidi.com,never,2017-05-26T08:46:30Z,nabil
2017-05-26T08:46:31Z,d.ferrera@free.fr,never,2022-06-09T16:54:44Z,d.ferrera
2017-05-26T08:46:33Z,sabatier93@gmail.com,never,2017-05-26T08:46:33Z,sabatier93
2017-05-26T08:46:34Z,code@archiloque.net,2021-01-04T08:10:22Z,2021-01-04T08:12:05Z,archiloque
2017-05-26T08:46:35Z,claude.codden@icloud.com,never,2023-06-29T08:43:57Z,claude.codden
2017-05-26T08:46:37Z,laurent@ipeos.com,2024-01-17T18:51:34Z,2024-01-17T18:51:34Z,laurent
2017-05-26T08:46:38Z,jeremy.scherrer@netapsys.fr,never,2020-04-10T18:25:27Z,jeremy.scherrer
2017-05-26T08:46:39Z,cyberbaloo.spip@gmail.com,never,2017-05-26T08:46:39Z,cyberbaloo.spip
2017-05-26T08:46:41Z,pierre.blarre@gmail.com,2020-04-14T12:09:06Z,2020-04-14T12:09:33Z,pierre.blarre
2017-05-26T08:46:42Z,pro@martinroy.fr,never,2020-04-11T16:55:49Z,pro
2017-05-26T08:46:43Z,louis.possoz@quelfutur.org,2023-07-25T12:25:39Z,2023-07-25T12:25:39Z,louis.possoz
2017-05-26T08:46:44Z,exomede@gmail.com,2020-04-15T10:28:29Z,2020-04-15T10:29:22Z,exomede
2017-05-26T08:46:46Z,spipmalion@gmail.com,never,2017-05-26T08:46:46Z,spipmalion
2017-05-26T08:46:47Z,sebastien@2dbnet.fr,2020-12-06T14:55:52Z,2020-12-06T14:57:15Z,sebastien
2017-05-26T08:46:49Z,gabriel.remond@laposte.net,never,2020-04-10T18:24:21Z,gabriel.remond
2017-05-26T08:46:51Z,david.fredette@visioninfo.qc.ca,2020-05-01T13:51:32Z,2020-05-01T13:52:38Z,david.fredette
2017-05-26T08:46:52Z,emmanuel.doucet@groolot.net,never,2020-04-10T18:18:26Z,emmanuel.doucet
2017-05-26T08:46:53Z,syd.dolby@gmail.comi,never,2020-04-11T17:03:10Z,syd.dolby
2017-05-26T08:46:54Z,ljullien74@hotmail.fr,never,2017-05-26T08:46:54Z,ljullien74
2017-05-26T08:46:57Z,briethings@gmail.com,2020-04-11T19:35:13Z,2020-04-11T19:36:23Z,briethings
2017-05-26T08:46:59Z,tomas@msn.com,never,2020-04-11T17:00:54Z,tomas
2017-05-26T08:47:01Z,herve.ledantec@gmail.com,never,2017-05-26T08:47:01Z,herve.ledantec
2017-05-26T08:47:02Z,info@productivix.com,2024-01-09T14:12:25Z,2024-01-09T14:12:25Z,PRX38
2017-05-26T08:47:03Z,flouvel@free.fr,2023-04-05T12:45:06Z,2023-04-05T13:11:04Z,flouvel
2017-05-26T08:47:05Z,mehdi.cherigui@laposte.net,never,2020-04-11T16:56:36Z,mehdi.cherigui
2017-05-26T08:47:06Z,dentineli@netcourrier.com,2017-05-26T08:49:36Z,2020-04-10T18:21:12Z,dentineli
2017-05-26T13:33:27Z,spip@kailaasa.net,never,2020-04-11T16:57:44Z,spip.kailaasa.net
2017-05-26T13:33:58Z,listes@koumbit.org,never,2020-04-10T18:24:55Z,listes.koumbit.org
2017-05-26T13:34:05Z,alain@wanadoo.fr,never,2020-04-10T18:25:48Z,alain.wanadoo.fr
2017-05-26T13:34:40Z,spip@yahoo.fr,never,2020-04-10T17:55:59Z,spip.yahoo.fr
2017-05-26T13:34:54Z,francois@sauterey.org,never,2017-05-26T13:34:54Z,francois.sauterey.org
2017-05-26T13:34:57Z,shnoulle@spip.org,never,2017-05-26T13:34:57Z,shnoulle.spip.org
2017-05-26T13:35:58Z,benlarcher@gmail.com,2022-11-30T15:10:36Z,2022-11-30T15:10:36Z,Benitronne
2017-05-26T13:36:30Z,mathieu@collectifs.net,never,2020-04-10T18:08:19Z,mathieu.collectifs.net
2017-05-26T13:36:41Z,francois@mozilla.com,never,2020-04-10T10:52:38Z,francois.mozilla.com
2017-05-26T13:36:43Z,olivier@ipeos.com,never,2022-06-09T16:59:16Z,olivier.ipeos.com
2017-05-26T13:36:54Z,julien@redondo.fr,never,2020-04-19T13:05:33Z,julien.redondo.fr
2017-05-26T13:37:06Z,ml@maat.me,never,2023-06-21T16:45:27Z,ml.maat.me
2017-05-26T13:37:24Z,laurent@brindefolie.com,never,2017-05-26T13:37:24Z,laurent.brindefolie.com
2017-05-26T14:24:27Z,izo@rezo.net,never,2017-05-26T14:24:27Z,izo.rezo.net
2019-02-21T08:57:15Z,eric.camus@ac-poitiers.fr,2022-06-07T09:00:20Z,2022-06-07T09:50:40Z,CEric-fr
2019-03-07T16:29:16Z,ladnet@ladnet.net,2021-12-14T11:16:56Z,2021-12-14T11:16:56Z,ladnet
2019-03-27T13:52:34Z,contact+spip@arkhi.org,2023-02-28T17:07:35Z,2023-02-28T17:07:35Z,arkhi
2019-04-02T20:15:58Z,chourak@free.fr,never,2020-04-16T14:27:08Z,Chourak
2019-08-21T12:49:08Z,milemilefos@gazeta.pl,2019-09-11T19:10:46Z,2021-07-14T12:23:08Z,checkvilrut
2019-09-10T09:14:31Z,ng@tournemain.com,never,2019-09-10T09:14:31Z,ngweb37
2019-10-01T19:24:01Z,paoloquezzo@gazeta.pl,2020-01-24T14:08:14Z,2023-06-20T07:55:42Z,itacef
2019-10-02T13:15:16Z,team@salon-ecigarette.com,2019-12-10T12:13:55Z,2019-12-10T12:13:55Z,TobLib
2019-10-06T08:55:19Z,arnaud.berard@mister-graphx.com,2022-05-24T07:56:57Z,2022-05-24T07:56:57Z,mistergraphx
2019-12-04T11:52:13Z,postmaster@artaban.fr,2021-02-09T13:41:15Z,2021-02-09T13:41:15Z,GildDart
2020-01-21T11:44:02Z,seb@ldd.fr,never,2023-06-20T07:57:21Z,seb
2020-01-24T09:42:24Z,bonjour@pierretandille.fr,2021-01-04T08:20:45Z,2021-01-04T08:22:24Z,Fouture
2020-02-01T18:59:45Z,gaspard.lists@gmail.com,2023-01-04T10:13:55Z,2023-01-04T10:13:55Z,gasp
2020-02-04T16:12:06Z,git-spip@tokiop.com,2020-06-29T18:22:42Z,2020-06-29T18:22:42Z,tokiop
2020-02-06T12:29:14Z,dominique.lepaisant@ac-caen.fr,2020-04-25T15:34:03Z,2020-04-25T15:36:04Z,Dom
2020-02-11T07:44:57Z,olivier.gautier@ac-normandie.fr,never,2021-04-07T09:32:28Z,gautiero
2020-02-28T14:58:13Z,joelsbarco@gmail.com,never,2020-02-28T14:59:02Z,joelsbarco
2020-03-23T15:50:49Z,jmartinpuerta@gmail.com,2021-01-10T16:17:49Z,2021-01-10T16:17:49Z,jeremie
2020-03-30T17:33:02Z,mathieu.brume@gmail.com,2020-03-31T20:41:52Z,2020-03-31T21:19:44Z,mathbrume
2020-06-16T09:40:00Z,remi@suinot.org,2021-01-14T13:07:37Z,2021-02-08T13:30:07Z,remi
2020-06-26T13:41:36Z,denis@collectifs.net,2021-01-01T09:32:51Z,2021-01-01T09:33:34Z,ddenis
2020-07-08T19:52:58Z,olivier.testa@yahoo.fr,2023-04-05T10:13:44Z,2023-04-05T10:13:44Z,olivier_t
2020-09-24T09:31:54Z,mkrtchia@gmail.com,2022-03-09T14:09:00Z,2022-03-09T14:13:34Z,Roman
2020-12-02T12:49:55Z,gouz@root-me.org,2023-05-23T07:01:41Z,2023-05-23T07:05:44Z,g0uZ
2021-01-09T11:28:54Z,ludovic+spip@beurresarrasin.net,2023-11-24T20:37:48Z,2023-11-24T20:37:48Z,ludogre
2021-01-16T18:01:16Z,daffyduke@lautre.net,2023-08-16T20:14:41Z,2023-08-23T14:29:56Z,daffyduke
2021-01-18T15:22:24Z,joel.bertrand@systella.fr,never,2023-08-23T14:29:55Z,BERTRAND.Joel
2021-03-01T13:29:11Z,elsa.delmas@protonmail.com,2021-08-19T14:03:20Z,2023-08-23T14:29:56Z,elsadl
2021-03-17T16:21:24Z,spip@mn-home.fr,2021-06-08T21:26:20Z,2023-08-23T14:29:57Z,michael
2021-05-11T12:33:10Z,lumis@xulepth.fr,2021-06-09T09:20:46Z,2021-06-09T09:20:46Z,Fergus
2021-05-11T15:18:24Z,laedansa@gmail.com,2023-10-25T08:16:57Z,2023-10-25T08:16:57Z,laeta
2021-05-31T16:35:29Z,dsimsen@seinesaintdenis.fr,2023-04-17T13:53:17Z,2023-08-23T14:30:33Z,clydeb
2021-07-09T08:26:51Z,miros@mds03.com,2021-07-09T08:31:00Z,2024-02-03T21:25:55Z,miros
2021-07-27T13:14:28Z,lhc@e.email,2022-06-11T11:17:18Z,2023-08-23T14:29:58Z,Pourrito
2021-08-16T17:12:33Z,rozlav@globenet.org,2023-07-22T13:01:58Z,2023-07-22T13:04:04Z,rozlav
2021-09-19T18:31:54Z,lpam@free.fr,2022-02-03T12:32:03Z,2023-08-23T14:29:58Z,pamillet
2021-09-30T13:38:59Z,theo.gordyjan@bssi.fr,2021-11-17T20:50:55Z,2023-08-23T14:29:52Z,theobssi
2021-10-18T18:11:52Z,cartacaro@laposte.net,2023-08-07T12:20:08Z,2023-08-23T14:29:55Z,caroline
2021-11-16T18:25:10Z,ben@gresille.org,2021-12-23T13:54:02Z,2023-08-23T14:30:29Z,benoitldr
2021-11-23T10:37:53Z,mathieu.lopes@gmail.com,2024-01-11T08:27:02Z,2024-01-11T08:27:02Z,matlopes
2021-12-22T16:13:38Z,jm.dev@gmx.com,2022-09-10T12:42:07Z,2022-09-10T12:42:07Z,yann-kaelig
2021-12-23T14:35:37Z,rbafr@free.fr,2022-01-14T08:59:13Z,2023-08-23T14:29:55Z,RichardB
2021-12-23T15:09:37Z,zaabelle@hotmail.com,2022-05-09T12:43:49Z,2022-05-09T12:43:49Z,Le_Bateau
2022-01-17T14:47:34Z,info@courcelles-design.fr,2023-09-05T13:56:19Z,2023-09-05T13:56:19Z,Cdesign
2022-01-20T11:28:53Z,zoubloom@gmail.com,never,2023-08-23T14:29:58Z,zoubloom
2022-01-21T22:47:14Z,lebardix+git@ogm-techno.org,2023-10-18T12:21:58Z,2023-10-18T12:21:58Z,lebardix
2022-02-13T17:57:50Z,dev@certifie-conforme.com,never,2023-08-23T14:29:55Z,CallMeDams
2022-02-16T10:19:17Z,emmanuel-v62@hotmail.fr,2022-05-31T23:48:35Z,2023-08-23T14:29:56Z,Emmanuel_V
2022-02-21T17:36:44Z,gitspip@bleuchtang.fr,2022-03-08T17:37:22Z,2023-08-23T14:29:52Z,emile
2022-03-07T17:22:28Z,contact@tudchentil.org,2024-01-30T20:25:02Z,2024-01-30T20:25:02Z,AmalricBzh
2022-04-01T14:18:34Z,sebredthauer@gmail.com,2022-05-27T17:17:10Z,2023-08-23T14:29:51Z,Bredt
2022-04-01T14:19:45Z,priscilla.balqis@genrespluriels.be,2023-10-15T16:42:13Z,2023-10-15T16:42:13Z,priscilla
2022-04-01T14:20:12Z,jpaul.aubel@gmail.com,2022-09-07T06:02:40Z,2023-08-23T14:29:56Z,jpa25
2022-04-11T13:38:54Z,nicolas.friedli+spip@gmail.com,2022-05-04T19:24:37Z,2023-08-23T14:29:57Z,nfriedli
2022-04-25T13:37:15Z,pierrealexandreracine@gmail.com,2022-05-06T11:56:52Z,2023-08-23T14:29:58Z,p-a-racine
2022-04-27T12:47:40Z,pmarechal@free.fr,2022-06-21T13:54:41Z,2023-08-23T14:29:58Z,Philivert
2022-05-03T08:16:24Z,elm31rugby@gmail.com,2023-11-10T10:19:18Z,2023-11-10T10:19:18Z,elm31rugby
2022-05-12T15:45:57Z,mathieubastien91@gmail.com,2022-09-14T06:55:24Z,2023-08-23T14:29:55Z,BastienMTH
2022-05-13T18:40:02Z,nicolas_villeroy@hotmail.fr,2022-05-26T22:17:47Z,2023-08-23T14:29:55Z,Caille
2022-07-22T06:28:16Z,carole.boulai@msh-lse.fr,never,2023-08-23T14:29:55Z,CaroleB
2022-08-15T08:11:52Z,otalazt@gmail.com,2022-09-09T09:16:54Z,2022-09-09T09:16:54Z,Otalazt
2022-08-23T10:37:38Z,ether@etherreal.com,2022-10-01T16:24:01Z,2022-10-01T16:43:15Z,Fabrice_A
2022-09-03T14:34:24Z,keuronde@poivron-robotique.fr,2022-09-03T16:38:40Z,2023-08-23T14:29:57Z,keuronde
2022-09-17T07:37:01Z,webmestre@apmep.fr,2023-06-09T06:16:01Z,2023-08-23T14:29:57Z,MichelSuquet
2022-11-26T08:54:46Z,dumerlej@gmail.com,2022-11-28T10:05:53Z,2023-08-23T14:29:56Z,du-Merle
2022-11-26T11:31:54Z,andre.gomez5@free.fr,2023-09-21T17:28:41Z,2023-09-21T17:30:00Z,Degom95
2022-11-26T14:00:07Z,spip@nota-bene.org,2023-07-24T20:51:15Z,2023-07-24T20:51:15Z,notabene
2022-12-10T11:36:04Z,contact@moduloo.net,2023-01-13T12:19:33Z,2023-08-23T14:29:57Z,julienvillalard
2022-12-10T11:46:29Z,henry.izurieta@gmail.com,2023-01-10T22:40:02Z,2023-08-23T14:29:56Z,Henry
2023-01-15T18:09:12Z,c.goyette@laposte.net,2023-01-17T12:29:31Z,2023-08-23T14:29:55Z,6ril
2023-01-20T07:16:33Z,tot@mailo.com,2023-11-13T08:15:43Z,2023-11-13T14:13:16Z,tot44
2023-03-09T06:57:33Z,boutierjeanphilippe@gmail.com,2023-03-20T13:08:50Z,2023-08-23T14:29:56Z,Jeanphilippe
2023-03-17T17:33:34Z,jeanmarc.ame@onmail.com,2023-12-22T10:32:05Z,2023-12-22T10:32:05Z,jmame
2023-04-02T08:05:24Z,sylvain.desblancs@snes.edu,2023-04-16T19:33:46Z,2023-08-23T14:29:52Z,syl20
2023-04-05T10:04:08Z,colliot@pierre-jean.com,2023-10-22T06:28:29Z,2023-10-22T06:31:43Z,Pierre-Jean
2023-05-24T09:40:24Z,r@uzy.me,2023-10-02T13:30:54Z,2023-10-02T13:30:54Z,p4bl0
2023-05-24T09:41:53Z,edoubrayrie@gmail.com,2023-10-21T09:18:20Z,2023-10-21T09:18:20Z,edwardoo
2023-05-31T06:02:54Z,tadzokuit@free.fr,2023-06-06T22:03:09Z,2023-08-23T14:29:58Z,philbzh
2023-06-09T06:16:32Z,thiebaut.jourdain@posteo.net,2023-07-12T09:51:46Z,2023-08-23T14:29:58Z,Thiebaut
2023-06-19T15:20:29Z,manu@mine-de-rien.fr,2023-10-27T15:04:42Z,2023-10-27T15:06:04Z,Manu
2023-06-21T19:39:44Z,eric.leroy@frsel.be,2023-09-06T10:16:29Z,2023-09-06T10:16:29Z,Kingrise
2023-06-29T14:37:48Z,jourgun@gmail.com,2023-06-29T20:03:26Z,2023-08-23T14:29:56Z,jhjourdan
2023-07-10T14:43:33Z,wargreen@lebib.org,2023-10-23T20:05:05Z,2023-10-23T20:05:05Z,wargreen
2023-07-12T17:09:33Z,boris@element303.com,2023-08-23T11:53:40Z,2023-08-23T14:29:56Z,element303
2023-07-18T18:21:55Z,laurent.perruche@albertville.fr,2023-07-20T13:49:04Z,2023-08-23T14:29:57Z,LP73
2023-07-29T17:58:20Z,carolinerequet22@outlook.fr,never,2023-08-23T14:29:58Z,requet
2023-07-29T17:58:28Z,bernarbel@gmail.com,2023-09-10T05:49:52Z,2023-09-10T05:49:52Z,belbernard
2023-08-19T06:38:13Z,av@ca.edu,2023-12-24T16:30:10Z,2023-12-24T16:59:00Z,andrevincent
2023-08-21T15:49:39Z,courrier.md@gmail.com,2023-09-04T16:57:19Z,2023-09-04T16:57:19Z,mrtldvd
2023-08-23T10:27:13Z,lemotjuste@free.fr,2023-11-23T22:38:15Z,2023-11-23T22:43:16Z,lemotjuste
2023-09-29T17:18:30Z,qenver@riseup.net,2023-10-02T19:41:43Z,2023-10-02T19:42:23Z,qenver
2023-10-29T13:21:29Z,hirondelline@hotmail.com,2023-10-29T13:34:10Z,2023-10-29T14:29:16Z,Hirondelline
2023-11-24T13:54:38Z,crislawat@gmail.com,never,2023-11-24T13:54:38Z,c-la-wat
2023-11-24T13:55:45Z,simon@snsuite.net,2023-12-07T08:55:07Z,2023-12-07T14:42:14Z,Simon
2023-12-15T18:33:01Z,dev2@village-justice.com,2024-01-10T08:49:16Z,2024-01-10T08:52:19Z,Robin_C
2024-01-10T17:37:37Z,lukasgrimaud31@gmail.com,2024-01-29T08:55:04Z,2024-01-29T08:55:04Z,Freedyx
2024-01-10T17:37:47Z,okc8133@gmail.com,2024-01-17T15:20:50Z,2024-01-17T15:20:50Z,onin
2024-01-11T17:07:38Z,denis.bitouze@univ-littoral.fr,2024-01-14T15:20:39Z,2024-01-15T07:39:13Z,dbitouze
2024-02-23T17:35:39Z,contact@digeetal.com,2024-02-25T19:20:21Z,2024-02-25T19:20:21Z,spipheure
