id,iid,labels,milestone_id,project_id
22761,4626,amélioration,1126,1663
22762,4625,,,1663
22763,4624,amélioration,1126,1663
22764,4620,bug,1126,1663
22767,4437,,,1664
22769,4430,bug,,1664
22783,4891,,1142,1665
22786,4887,amélioration,1142,1665
22787,4886,,,1665
22789,4882,,1142,1665
22792,4869,,,1665
22797,4859,bug,1142,1665
22803,4847,documentation,,1665
22809,4583,amélioration,,1665
22811,4542,bug,1142,1665
22813,4486,amélioration,1142,1665
22818,4477,amélioration,1142,1665
22819,4800,,,1666
22826,4755,amélioration,1170,1668
22827,4655,amélioration,1170,1668
22828,4654,amélioration,1170,1668
22831,4866,bug,1185,1670
22832,4864,amélioration,,1670
22833,4863,amélioration,1185,1670
22839,4850,bug,1185,1670
22848,4191,bug,1185,1670
22856,3865,documentation,1185,1670
22870,4789,,1199,1671
22874,4783,amélioration,1199,1671
22875,4781,amélioration,1199,1671
22882,4878,bug,1213,1672
22885,4872,amélioration,,1672
22886,4871,amélioration,,1672
22887,4869,amélioration,1213,1672
22888,4868,bug,1213,1672
22889,4867,bug,1213,1672
22890,4866,amélioration,,1672
22891,4865,amélioration,1218,1672
22893,4859,,,1672
22894,4856,amélioration,1213,1672
22897,4849,amélioration,1213,1672
22900,4843,amélioration,1213,1672
22902,4840,amélioration,1213,1672
22914,4391,amélioration,,1672
22923,3983,amélioration,1213,1672
22925,3822,amélioration,1213,1672
22933,3483,amélioration,1213,1672
22939,3136,bug,1213,1672
22953,4717,,1227,1673
22954,4715,amélioration,1227,1673
22960,4227,bug,1227,1673
22969,2812,amélioration,1227,1673
22991,2,bug,1252,1675
22993,4714,,,1676
22998,4706,,,1676
23000,4703,bug,1256,1676
23001,4702,,,1676
23004,4691,bug,1256,1676
23007,4683,,1256,1676
23012,4546,bug,1256,1676
23014,4487,amélioration,1256,1676
23018,4367,bug,1256,1676
23021,3450,amélioration,1256,1676
23025,4781,bug,1270,1677
23027,4779,bug,,1677
23028,4776,bug,1270,1677
23029,4774,amélioration,1270,1677
23035,4761,amélioration,1270,1677
23039,4753,amélioration,1270,1677
23043,4746,amélioration,1270,1677
23045,4741,amélioration,1270,1677
23048,4738,amélioration,1270,1677
23054,4063,amélioration,1270,1677
23056,4042,amélioration,1270,1677
23074,2612,bug,1270,1677
23075,2228,amélioration,1270,1677
23082,4881,bug,1312,1682
23083,4880,amélioration,1312,1682
23086,4872,amélioration,1312,1682
23090,4867,,1312,1682
23094,4855,documentation,,1682
23126,4991,bug,,1683
23130,4986,,,1683
23134,4971,amélioration,,1683
23143,4954,amélioration,,1683
23149,4940,amélioration,1326,1683
23165,4912,amélioration,1326,1683
23170,4896,amélioration,1326,1683
23174,4887,amélioration,1326,1683
23178,4876,amélioration,1326,1683
23183,4867,amélioration,1326,1683
23184,4866,amélioration,1326,1683
23189,4856,amélioration,1326,1683
23190,4855,bug,1326,1683
23192,4852,,,1683
23195,4848,documentation,,1683
23200,4815,amélioration,,1683
23209,4645,bug,1326,1683
23216,4569,bug,1326,1683
23217,4507,amélioration,1326,1683
23221,4455,amélioration,1326,1683
23229,4311,amélioration,,1683
23237,4134,bug,1326,1683
23245,4037,amélioration,1326,1683
23249,3958,amélioration,1331,1683
23265,3582,amélioration,1326,1683
23282,3072,amélioration,1326,1683
23284,3060,bug,1326,1683
23302,2574,amélioration,1326,1683
23318,4813,bug,1340,1684
23320,4809,bug,1340,1684
23322,4807,,1340,1684
23325,4796,amélioration,1340,1684
23330,4399,amélioration,1340,1684
23342,4696,,,1686
23351,4394,amélioration,1368,1686
23352,4066,amélioration,1368,1686
23359,2873,amélioration,1368,1686
23363,3785,amélioration,1382,1688
23364,2903,amélioration,1382,1688
23366,4828,amélioration,1396,1689
23368,3635,bug,1396,1689
23369,4830,bug,1410,1690
23374,4479,amélioration,1410,1690
23378,3909,amélioration,1415,1690
23379,3908,amélioration,1410,1690
23383,3720,amélioration,1410,1690
23386,3415,bug,1410,1690
23389,3237,amélioration,1410,1690
23393,2021,amélioration,1410,1690
23395,4856,,,1692
23399,4846,bug,1438,1692
23402,4841,amélioration,1438,1692
23405,4833,amélioration,1438,1692
23406,4782,bug,1438,1692
23412,3936,amélioration,1438,1692
23415,3567,bug,1438,1692
23418,3514,amélioration,1438,1692
23420,3226,amélioration,1438,1692
23421,3225,bug,1438,1692
23425,2930,amélioration,1438,1692
23428,4792,bug,1452,1694
23430,4788,,,1694
23432,4784,amélioration,1452,1694
23437,4869,,,1695
23438,4868,amélioration,1466,1695
23439,4866,bug,1466,1695
23444,4848,amélioration,1466,1695
23445,4847,amélioration,1466,1695
23449,4842,amélioration,1466,1695
23463,4284,amélioration,1471,1695
23464,4283,amélioration,1466,1695
23512,5873,,,1696
23513,5872,,,1696
23515,5870,bug,,1696
23521,5860,bug,1613,1696
23523,5857,,,1696
23524,5856,bug,1487,1696
23525,5855,,,1696
23530,5846,bug,1487,1696
23534,5835,,,1696
23535,5834,APIs|bug,1613,1696
23539,5826,documentation,,1696
23543,5815,amélioration,,1696
23549,5802,bug,,1696
23556,5783,bug,1613,1696
23561,5775,,,1696
23563,5773,,,1696
23567,5767,bug,1613,1696
23570,5762,bug,1613,1696
23578,5749,amélioration,,1696
23580,5747,langues,,1696
23581,5746,amélioration,1487,1696
23582,5745,amélioration,1487,1696
23583,5744,amélioration,1487,1696
23585,5742,langues,1487,1696
23587,5737,amélioration,,1696
23589,5734,Inscription|amélioration|ergonomie,,1696
23592,5731,amélioration,1487,1696
23601,5719,,,1696
23602,5718,,,1696
23603,5717,,,1696
23605,5715,bug,1613,1696
23607,5713,amélioration|base de données|filtres et balises,,1696
23609,5711,,,1696
23612,5704,amélioration,,1696
23613,5703,amélioration|apache-only|sécurité,,1696
23616,5698,bug,,1696
23619,5689,question,,1696
23620,5687,,,1696
23621,5686,base de données|bug|sqlite,1487,1696
23623,5683,amélioration,1618,1696
23625,5680,amélioration,,1696
23626,5677,amélioration|sécurité,,1696
23627,5676,,,1696
23630,5671,,,1696
23640,5650,,,1696
23642,5646,amélioration,,1696
23645,5641,,,1696
23649,5632,sécurité,,1696
23650,5630,amélioration,,1696
23651,5618,amélioration|compilo,,1696
23654,5610,APIs|amélioration|ergonomie|espace privé et plus,1487,1696
23656,5606,amélioration|compilo,1487,1696
23661,5598,base de données|sqlite,,1696
23662,5597,filtres et balises|question,,1696
23665,5594,amélioration|ergonomie,,1696
23666,5593,bug,1613,1696
23670,5582,amélioration,1487,1696
23673,5575,base de données|bug|installation|sqlite,1613,1696
23679,5566,amélioration|javascript,1487,1696
23682,5561,bug|espace privé et plus,1618,1696
23687,5555,amélioration|formulaires,1487,1696
23697,5533,dépréciation,1487,1696
23698,5530,amélioration,1487,1696
23700,5524,,,1696
23712,5492,amélioration,,1696
23713,5491,bug,1618,1696
23714,5490,amélioration,1487,1696
23725,5471,,,1696
23726,5468,documentation,,1696
23752,5420,amélioration,,1696
23766,5390,amélioration|ergonomie,1487,1696
23767,5389,documentation,,1696
23770,5383,amélioration,,1696
23774,5373,bug,1613,1696
23780,5360,amélioration|ergonomie,,1696
23785,5347,,,1696
23799,5320,amélioration,,1696
23800,5317,amélioration|ergonomie|formulaires,,1696
23803,5313,amélioration,,1696
23824,5269,amélioration,1613,1696
23825,5268,bug,1613,1696
23834,5244,,,1696
23836,5241,amélioration,,1696
23844,5227,bug,1613,1696
23845,5226,,,1696
23848,5217,accessibilité|bug,1613,1696
23849,5216,,,1696
23852,5212,documentation,,1696
23865,5187,amélioration,,1696
23873,5172,bug,1613,1696
23886,5130,amélioration,,1696
23888,5124,amélioration,,1696
23893,5116,amélioration|authentification,1487,1696
23897,5111,amélioration|sécurité,,1696
23900,5104,amélioration,,1696
23903,5098,amélioration,1487,1696
23904,5097,amélioration,1487,1696
23906,5091,amélioration|filtres et balises,,1696
23913,5083,,,1696
23920,5066,amélioration|sécurité,,1696
23921,5063,APIs|documentation|espace privé et plus,,1696
23925,5055,amélioration|sécurité,,1696
23926,5053,APIs|amélioration|authentification,1487,1696
23931,5044,amélioration,,1696
23932,5043,APIs|amélioration,,1696
23936,5036,amélioration,,1696
23940,5031,,,1696
23943,5028,compilo|filtres et balises|question,,1696
23947,5023,,,1696
23954,5008,amélioration,1487,1696
23955,5006,question,,1696
23957,5003,amélioration,,1696
23960,4999,base de données|sqlite,,1696
23961,4997,amélioration,1487,1696
23965,4993,amélioration,1487,1696
23966,4992,,,1696
23971,4983,amélioration,,1696
23975,4978,amélioration|cache,,1696
23977,4972,APIs|amélioration|compilo,,1696
23988,4955,amélioration,,1696
23993,4949,,,1696
24006,4920,APIs|amélioration,,1696
24011,4912,amélioration,1487,1696
24017,4904,amélioration,,1696
24021,4899,amélioration|documentation,,1696
24022,4898,bug,1613,1696
24028,4887,amélioration,,1696
24031,4882,APIs|amélioration,,1696
24038,4872,accessibilité|amélioration,1487,1696
24040,4869,amélioration,,1696
24042,4864,amélioration|javascript,1487,1696
24047,4856,amélioration,,1696
24057,4840,APIs|amélioration|base de données,,1696
24070,4805,APIs|amélioration,,1696
24082,4784,bug,1613,1696
24096,4762,amélioration|plugin,1487,1696
24103,4749,amélioration|ergonomie,,1696
24107,4742,amélioration,,1696
24109,4740,amélioration,,1696
24114,4727,amélioration,,1696
24128,4703,amélioration|compilo,1487,1696
24132,4698,bug,1613,1696
24147,4659,amélioration,,1696
24148,4657,amélioration,1487,1696
24153,4648,LDAP|amélioration|authentification,,1696
24155,4641,amélioration|javascript,1487,1696
24157,4636,amélioration,,1696
24162,4623,bug,1613,1696
24169,4604,amélioration,,1696
24173,4596,amélioration|espace privé et plus,,1696
24174,4595,accessibilité|amélioration|ergonomie,,1696
24187,4565,amélioration|code généré,,1696
24192,4559,amélioration,,1696
24198,4548,amélioration|formulaires,,1696
24202,4540,accessibilité|bug|documentation,1613,1696
24203,4539,amélioration,,1696
24210,4531,amélioration|javascript,1487,1696
24231,4490,amélioration,1487,1696
24232,4489,amélioration,,1696
24233,4488,amélioration,,1696
24234,4478,amélioration,,1696
24235,4472,amélioration|traduction,1487,1696
24238,4469,bug|ergonomie,1613,1696
24253,4444,amélioration|espace privé et plus,,1696
24256,4434,amélioration|ergonomie,,1696
24260,4428,amélioration|installation,1487,1696
24265,4421,amélioration,,1696
24266,4420,amélioration,,1696
24290,4366,amélioration|code généré,,1696
24292,4363,amélioration|authentification,1487,1696
24304,4342,documentation,,1696
24306,4338,cache|distant|documentation,,1696
24317,4320,amélioration,,1696
24319,4318,amélioration,,1696
24326,4308,APIs|amélioration,,1696
24331,4300,amélioration,1487,1696
24333,4298,amélioration,,1696
24338,4289,,,1696
24345,4271,amélioration,1487,1696
24355,4255,amélioration,,1696
24382,4202,accessibilité|amélioration,,1696
24384,4197,cache|dépréciation,1487,1696
24386,4190,bug|langues,1613,1696
24398,4175,amélioration,,1696
24425,4136,amélioration,,1696
24436,4111,accessibilité|bug,1613,1696
24470,4049,LDAP|authentification|bug,,1696
24485,4013,accessibilité|bug,1613,1696
24488,4010,amélioration,,1696
24505,3980,amélioration|ergonomie,,1696
24508,3973,amélioration,1487,1696
24510,3971,amélioration,,1696
24521,3955,amélioration|langues,,1696
24523,3953,amélioration,,1696
24526,3949,amélioration,,1696
24540,3933,compilo,,1696
24562,3900,bug,1613,1696
24567,3894,compilo|documentation,1618,1696
24574,3884,amélioration,1487,1696
24593,3854,amélioration,,1696
24621,3813,amélioration,,1696
24623,3810,amélioration,1487,1696
24631,3801,amélioration|compilo,,1696
24639,3789,bug|compilo,1487,1696
24640,3788,amélioration|compilo,,1696
24641,3787,amélioration|compilo,,1696
24644,3781,amélioration|base de données,1487,1696
24645,3780,APIs|amélioration|base de données,1487,1696
24651,3773,LDAP|bug,,1696
24655,3769,amélioration|filtres et balises,,1696
24658,3764,amélioration|filtres et balises,,1696
24664,3758,amélioration,,1696
24667,3753,documentation,,1696
24675,3744,amélioration|ergonomie,,1696
24686,3719,amélioration,1487,1696
24687,3718,amélioration|langues,,1696
24692,3711,amélioration|compilo,,1696
24694,3709,amélioration|base de données,,1696
24703,3688,bug|compilo,1613,1696
24722,3653,bug,1613,1696
24724,3649,amélioration,,1696
24740,3629,amélioration,,1696
24758,3607,base de données|bug,1487,1696
24761,3604,amélioration,,1696
24776,3581,amélioration,1613,1696
24806,3543,amélioration|ergonomie|formulaires,,1696
24810,3536,bug|http,1613,1696
24837,3500,amélioration|ergonomie,,1696
24857,3470,amélioration|filtres et balises,,1696
24858,3469,amélioration|filtres et balises,,1696
24860,3467,amélioration|filtres et balises,,1696
24861,3466,amélioration|filtres et balises,,1696
24862,3465,amélioration|filtres et balises,,1696
24927,3382,amélioration,,1696
24953,3352,APIs|amélioration,,1696
24955,3348,amélioration|sécurité,,1696
24957,3342,amélioration,1487,1696
24962,3337,amélioration|ergonomie,,1696
24972,3324,amélioration|compilo,,1696
25009,3279,amélioration,,1696
25019,3267,amélioration,,1696
25035,3247,APIs|amélioration,,1696
25048,3232,Inscription|amélioration,,1696
25050,3229,amélioration|documentation|javascript,1487,1696
25075,3197,amélioration,1487,1696
25095,3172,bug,,1696
25108,3158,amélioration,,1696
25113,3151,amélioration,,1696
25123,3138,amélioration|code généré,,1696
25128,3129,amélioration|ergonomie,,1696
25133,3123,amélioration|code généré,,1696
25136,3119,amélioration,,1696
25146,3105,amélioration|langues,,1696
25149,3102,amélioration|traduction,,1696
25159,3092,amélioration|espace privé et plus,,1696
25160,3091,amélioration,,1696
25162,3089,amélioration,,1696
25170,3074,amélioration,,1696
25172,3071,amélioration|compilo,,1696
25193,3043,amélioration|ergonomie,,1696
25202,3034,base de données|bug,1487,1696
25278,2940,bug|compilo,1613,1696
25303,2907,amélioration|espace privé et plus,,1696
25341,2851,amélioration|base de données,,1696
25346,2842,amélioration|base de données,,1696
25350,2833,bug|traduction,,1696
25364,2816,APIs|amélioration|formulaires,1487,1696
25371,2802,amélioration|compilo,,1696
25413,2743,bug|formulaires,,1696
25473,2670,accessibilité|bug,1613,1696
25547,2593,bug|code généré,,1696
25677,2449,team-nomenclature,,1696
25719,2403,amélioration|ergonomie|installation,,1696
25855,2265,amélioration,,1696
25864,2256,bug|code généré,1487,1696
25910,2209,amélioration,,1696
25930,2185,amélioration,,1696
26057,2044,amélioration|ergonomie,,1696
26178,1913,amélioration|compilo,,1696
26208,1883,amélioration|installation,,1696
26232,1857,amélioration|installation,1487,1696
26807,1274,bug|code généré,,1696
27154,920,amélioration|base de données,1487,1696
27380,688,amélioration|base de données,,1696
27778,4,,,1697
27779,4872,bug,1507,1698
27787,4854,amélioration|documentation|ergonomie,,1698
27788,4851,amélioration,1507,1698
27789,4850,bug,1507,1698
27790,4849,amélioration,1507,1698
27798,4719,,1507,1698
27799,4718,,1507,1698
27813,3459,,,1698
27814,3343,,1507,1698
27817,3049,,1507,1698
27829,4906,,,1699
27830,4905,amélioration,1521,1699
27834,4897,,,1699
27836,4892,,,1699
27838,4890,,1521,1699
27840,4887,amélioration|ergonomie,1521,1699
27841,4884,bug,1521,1699
27845,4875,documentation,1521,1699
27849,4869,,,1699
27850,4868,bug,1521,1699
27851,4867,bug,1521,1699
27854,4862,bug,1521,1699
27857,4853,bug,1521,1699
27860,4844,amélioration,1521,1699
27863,4840,amélioration,1521,1699
27864,4839,amélioration,1521,1699
27868,4830,amélioration,1521,1699
27871,4827,amélioration,1521,1699
27873,4817,bug,1521,1699
27899,4379,amélioration,1521,1699
27900,4378,amélioration,1521,1699
27903,4346,amélioration,1521,1699
27905,4322,amélioration,1521,1699
27908,4256,amélioration,1521,1699
27922,3896,amélioration,1521,1699
27923,3866,amélioration,1521,1699
27928,3670,amélioration,1521,1699
27934,3509,amélioration,1521,1699
27938,3472,amélioration,1521,1699
27943,3349,bug,1521,1699
27950,3017,bug,1521,1699
27963,23,,,1700
27968,4872,,,1701
27970,4868,,,1701
27971,4867,,,1701
27973,4864,bug,1549,1701
27982,4838,amélioration,1549,1701
27984,4835,amélioration,1549,1701
27989,4571,,1549,1701
27992,4397,,1549,1701
28000,3827,,1549,1701
28013,4823,amélioration,1577,1703
28014,4822,amélioration,1577,1703
28015,4821,bug,1577,1703
28020,4809,amélioration,1577,1703
28022,4806,bug,1577,1703
28023,4803,bug,1577,1703
28030,4193,bug,,1703
28033,4053,amélioration,,1703
28045,3192,amélioration,,1703
28049,2780,bug,1577,1703
28052,2190,bug,1577,1703
28053,4240,bug,1591,1704
28162,45,,,1710
28166,34,,,1710
28179,1,,,1710
28185,18,,,1715
28188,15,,,1715
28189,13,,,1715
28194,7,,,1715
28198,2,,,1718
28200,6,,,1719
28201,4,,,1719
28208,17,,,1724
28211,14,,,1724
28215,10,,,1724
28223,2,,,1724
28225,5,,,1725
28227,2,,,1725
28228,89,,,1731
28229,88,bug,,1731
28235,78,,,1731
28237,75,,,1731
28240,72,,,1731
28244,65,,,1731
28250,56,,,1731
28252,53,amélioration,,1731
28256,44,amélioration,,1731
28262,35,,,1731
28266,29,,,1731
28268,27,,,1731
28269,25,,,1731
28290,1,,,1734
28296,31,,,1740
28297,30,,,1740
28299,28,bug,,1740
28300,27,,,1740
28302,25,,,1740
28303,24,,,1740
28304,23,,,1740
28306,20,amélioration,,1740
28315,11,,,1740
28321,3,,,1740
28325,3,,,1743
28326,2,,,1743
28328,1,,,1748
28330,2,,,1757
28331,1,,,1757
28334,2,,,1760
28335,1,,,1760
28337,2,,,1765
28338,1,,,1765
28341,1,,,1773
28342,8,,,1774
28343,7,,,1774
28344,6,,,1774
28351,25,,,1787
28353,21,,,1787
28355,19,enhancement,,1787
28356,18,,,1787
28360,7,,,1787
28362,5,,,1787
28363,4,,,1787
28366,12,,,1790
28367,11,,,1790
28379,5,,,1791
28385,1,,,1804
28387,9,,,1805
28393,1,,,1807
28404,10,,,1810
28406,8,,,1810
28408,6,,,1810
28411,3,,,1810
28412,2,,,1810
28416,6,,,1812
28418,2,,,1812
28420,2,,,1813
28421,1,,,1813
28422,2,,,1814
28423,1,,,1814
28424,11,,,1818
28425,9,,,1818
28426,3,,,1818
28430,16,,,1819
28435,5,,,1819
28436,4,,,1819
28443,10,amélioration,,1822
28447,4,,,1822
28453,4,bug,,1824
28455,2,amélioration,,1824
28458,6,bug,,1829
28459,5,amélioration,,1829
28460,3,,,1829
28462,1,amélioration,,1829
28464,4,,,1838
28466,2,,,1838
28468,1,,,1843
28469,1,,,1845
28471,10,,,1849
28472,9,,,1849
28476,2,,,1849
28478,40,,,1854
28479,39,,,1854
28480,38,,,1854
28481,35,documentation,,1854
28482,34,,,1854
28484,31,,,1854
28486,26,,,1854
28489,19,,,1854
28492,14,amélioration,,1854
28494,12,,,1854
28495,11,amélioration,,1854
28496,10,,,1854
28497,9,,,1854
28498,8,,,1854
28503,2,amélioration,,1854
28505,2,,,1855
28506,1,,,1855
28509,8,,,1859
28512,2,,,1859
28513,1,,,1859
28519,2,,,1860
28520,2,enhancement,1612,1861
28521,1,enhancement,1612,1861
28522,1,,,1864
28524,4,,,1865
28525,3,,,1865
28526,2,,,1865
28527,1,,,1865
28528,18,,,1867
28529,16,,,1867
28530,15,,,1867
28531,14,,,1867
28533,10,,,1867
28534,8,,,1867
28536,6,,,1867
28537,5,,,1867
28538,4,,,1867
28540,2,,,1867
28541,1,,,1867
28542,1,,,1868
28544,4,,,1871
28546,1,,,1871
28547,1,,,1873
28549,35,,,1875
28550,34,,,1875
28551,32,,,1875
28555,28,,,1875
28556,27,enhancement,,1875
28557,24,,,1875
28558,23,,,1875
28559,22,enhancement,,1875
28561,20,,,1875
28562,19,,,1875
28566,15,,,1875
28569,12,,,1875
28570,10,,,1875
28572,8,,,1875
28580,1,,,1876
28583,7,,,1878
28589,2,,,1879
28591,1,,,1880
28593,1,,,1882
28596,5,,,1884
28600,11,,,1887
28603,7,,,1887
28604,6,,,1887
28605,5,,,1887
28609,25,,,1888
28610,23,,,1888
28612,21,,,1888
28613,20,,,1888
28622,7,,,1888
28626,6,,,1891
28627,5,,,1891
28629,3,,,1891
28635,1,,,1893
28644,7,,,1903
28645,6,,,1903
28646,5,,,1903
28648,2,,,1903
28650,4,,,1909
28651,3,,,1909
28658,15,,,1916
28659,14,,,1916
28671,11,,,1919
28672,10,amélioration,,1919
28673,9,,,1919
28674,7,,,1919
28678,1,amélioration,,1919
28680,7,,,1924
28684,5,,,1929
28685,3,,,1929
28686,2,,,1929
28687,1,,,1929
28688,1,,,1947
28689,11,,,1950
28690,10,,,1950
28694,5,,,1950
28697,2,,,1950
28698,1,,,1950
28700,2,,,1966
28701,1,,,1966
28704,3,enhancement,,1969
28705,2,,,1969
28706,1,enhancement,,1969
28708,2,,,1970
28710,1,,,1990
28714,2,,,1993
28721,47,,,1998
28722,46,,,1998
28723,44,,,1998
28726,37,,,1998
28727,36,,,1998
28728,35,,,1998
28729,34,,,1998
28735,24,,,1998
28737,21,,,1998
28738,20,,,1998
28739,19,,,1998
28740,17,,,1998
28741,16,,,1998
28743,13,,,1998
28744,11,,,1998
28746,7,,,1998
28747,6,,,1998
28756,32,,,2001
28758,30,,,2001
28763,24,,,2001
28771,10,,,2001
28784,7,,,2004
28786,4,,,2004
28787,3,,,2004
28788,2,,,2004
28789,1,,,2004
28790,1,,,2005
28793,1,,,2015
28794,1,,,2016
28795,3,,,2019
28800,226,,1614,2024
28801,225,,,2024
28802,224,,,2024
28806,214,,,2024
28813,201,,,2024
28814,199,,,2024
28826,174,,,2024
28827,172,,,2024
28842,133,,,2024
28843,132,,,2024
28844,131,,,2024
28848,125,,,2024
28853,118,,,2024
28858,110,,,2024
28869,92,,,2024
28870,91,,,2024
28886,68,amélioration,,2024
28887,67,amélioration,,2024
28892,62,,,2024
28898,56,,,2024
28904,49,,,2024
28906,45,,,2024
28910,40,,,2024
28911,39,,,2024
28916,30,,,2024
28919,25,,,2024
28920,24,,,2024
28921,23,,,2024
28926,16,,,2024
28927,15,,,2024
28934,7,,,2024
28935,6,,,2024
28943,1,,,2028
28944,10,,,2031
28945,9,,,2031
28946,8,,,2031
28947,6,,,2031
28949,2,,,2031
28951,23,,,2032
28960,3,,,2034
28962,1,,,2034
28982,15,,,2039
28995,2,,,2039
28997,2,,,2040
28999,2,,,2043
29000,3,,,2046
29002,1,,,2046
29003,3,,,2049
29004,2,,,2049
29005,1,,,2049
29006,7,,,2050
29007,5,,,2050
29009,3,,,2050
29010,1,,,2050
29013,4,,,2057
29014,3,,,2057
29015,2,,,2057
29016,1,,,2057
29021,68,amélioration,,2061
29024,61,amélioration,,2061
29025,60,bug,,2061
29026,57,amélioration,,2061
29027,55,bug,,2061
29029,52,bug,,2061
29030,51,bug,,2061
29033,47,bug,,2061
29041,33,amélioration,,2061
29045,25,amélioration,,2061
29046,24,amélioration,,2061
29049,20,amélioration,,2061
29052,14,bug,,2061
29053,13,amélioration,,2061
29055,11,amélioration,,2061
29060,4,amélioration,,2061
29062,1,,,2061
29063,8,enhancement,,2064
29067,2,enhancement,,2064
29072,5,,,2074
29073,4,,,2074
29076,4,,,2075
29078,1,,,2075
29080,1,,,2082
29081,1,,,2083
29084,3,,,2091
29090,1,,,2099
29094,6,,,2103
29095,5,,,2103
29098,1,,,2103
29099,2,,,2104
29100,1,,,2104
29102,3,,,2105
29103,2,,,2105
29104,1,,,2105
29105,3,,,2107
29108,4,,,2110
29110,1,,,2110
29111,17,,,2112
29112,15,,,2112
29113,13,,,2112
29115,9,,,2112
29120,2,,,2112
29121,1,,,2112
29122,8,,,2116
29127,2,,,2116
29132,4,,,2118
29135,2,,,2120
29136,1,,,2120
29137,9,,,2121
29139,6,,,2121
29142,2,,,2121
29143,1,,,2121
29145,1,,,2129
29146,2,,,2130
29147,1,,,2130
29163,4,,,2133
29167,13,,,2135
29169,9,enhancement,,2135
29172,6,,,2135
29176,1,,,2136
29177,1,,,2139
29180,1,,,2145
29181,1,,,2153
29183,1,,,2166
29190,1,,,2176
29193,1,,,2180
29199,4,,,2181
29203,3,,,2182
29204,2,,,2182
29206,19,,,2194
29210,9,,,2194
29211,6,,,2194
29220,2,,,2202
29222,10,,,2206
29223,9,,,2206
29224,8,,,2206
29225,7,,,2206
29226,6,,,2206
29228,4,,,2206
29229,3,,1603,2206
29231,1,,1603,2206
29232,4,,,2207
29234,1,,,2207
29235,2,,,2208
29236,1,,,2208
29238,30,,,2209
29246,20,,,2209
29247,19,,,2209
29250,11,,,2209
29256,3,,,2209
29261,39,,,2210
29269,31,,,2210
29270,30,,,2210
29271,29,,,2210
29273,24,,,2210
29285,3,,,2212
29289,4,,,2214
29290,2,,,2214
29291,1,,,2214
29293,3,,,2216
29294,2,,,2216
29303,5,,,2228
29304,3,,,2228
29308,12,,,2232
29313,2,,,2232
29315,32,,,2235
29316,31,,,2235
29319,26,,,2235
29320,25,,,2235
29321,24,,,2235
29323,19,,,2235
29325,17,,,2235
29330,10,,,2235
29333,5,,,2235
29335,3,,,2235
29336,2,,,2235
29337,1,,,2235
29339,12,,,2241
29340,11,,,2241
29341,10,,,2241
29344,4,,,2241
29345,3,,,2241
29346,2,,,2241
29348,4,,,2242
29350,1,,,2242
29351,1,,,2249
29358,17,,,2250
29360,15,,,2250
29365,9,,,2250
29366,8,,,2250
29369,5,,,2250
29371,2,,,2250
29374,1,,,2255
29375,1,,,2257
29377,3,,,2261
29379,2,,,2265
29380,7,,,2267
29382,4,,,2267
29383,1,,,2267
29386,1,,,2270
29390,1,,,2271
29394,17,,,2272
29396,14,,,2272
29400,6,,,2272
29401,5,,,2272
29402,3,,,2272
29404,8,,,2273
29405,7,,,2273
29406,6,,,2273
29409,2,,,2273
29410,1,,,2273
29411,3,,,2274
29412,2,,,2274
29416,3,,,2275
29418,1,,,2275
29423,8,,,2276
29427,3,,,2278
29428,2,,,2278
29429,1,,,2278
29430,29,,,2279
29431,28,,,2279
29432,27,,,2279
29433,26,,,2279
29435,23,,,2279
29437,20,,,2279
29439,17,,,2279
29440,16,,,2279
29441,14,,,2279
29442,12,,,2279
29444,10,,,2279
29447,4,,,2279
29448,3,,,2279
29450,1,,,2279
29451,3,,,2280
29452,2,,,2280
29454,46,,,2283
29457,43,,,2283
29464,36,,,2283
29477,22,,,2283
29480,16,,,2283
29482,14,UX,,2283
29487,5,,,2283
29489,3,UX,,2283
29490,2,UX,,2283
29491,1,UX,,2283
29495,2,amélioration,,2286
29497,1,,,2287
29498,11,,,2290
29503,4,,,2290
29504,3,,,2290
29507,5,,,2291
29508,3,,,2291
29509,2,,,2291
29511,3,,,2293
29512,2,,,2293
29513,1,,,2293
29517,14,,,2295
29519,10,,,2295
29525,4,,,2296
29531,1,,,2299
29533,2,,,2306
29563,57,,,2310
29564,56,,,2310
29571,45,,,2310
29572,44,,,2310
29573,43,,,2310
29582,28,,,2310
29584,26,,,2310
29585,25,,,2310
29596,8,amélioration,,2310
29600,4,,,2316
29605,3,,,2317
29609,2,,,2318
29618,9,enhancement,,2327
29620,7,,,2327
29626,3,,,2330
29629,2,,,2331
29630,1,,,2331
29631,21,,,2332
29632,20,,,2332
29633,19,,,2332
29634,18,,,2332
29636,15,enhancement,,2332
29641,8,enhancement,,2332
29642,7,enhancement,,2332
29649,6,,,2342
29652,3,,,2342
29653,2,,,2342
29654,1,,,2342
29656,4,,,2343
29669,13,,,2345
29684,7,,,2351
29687,1,,,2353
29690,2,,,2362
29691,5,,,2364
29694,1,,,2370
29695,1,,,2371
29696,11,bug,,2373
29697,10,bug,,2373
29699,7,,,2373
29702,2,,,2373
29704,17,,,2388
29705,16,,,2388
29706,15,,,2388
29707,14,,,2388
29709,12,,,2388
29712,9,,,2388
29713,8,,,2388
29714,7,,,2388
29721,1,,,2389
29723,3,,,2390
29724,2,,,2390
29727,13,,,2393
29728,12,,,2393
29729,11,,,2393
29730,10,,,2393
29731,9,,,2393
29732,8,,,2393
29733,6,,,2393
29734,5,,,2393
29735,4,,,2393
29738,12,,,2396
29740,10,,,2396
29741,7,,,2396
29743,4,,,2396
29749,14,,,2398
29751,12,,,2398
29755,5,amélioration,,2398
29756,4,amélioration,,2398
29757,3,amélioration,,2398
29758,2,,,2398
29759,2,,,2401
29760,1,,,2401
29761,1,,,2405
29769,13,,,2407
29772,10,,,2407
29775,7,,,2407
29785,5,,,2410
29786,4,,,2410
29787,3,,,2410
29792,8,,,2416
29793,7,,,2416
29794,6,,,2416
29795,5,,,2416
29797,3,,,2416
29802,1,,,2421
29803,1,,,2425
29805,1,,,2428
29806,5,,,2430
29808,2,,,2430
29811,2,,,2432
29812,1,,,2432
29814,7,,,2436
29816,5,,,2436
29818,2,,,2436
29819,1,,,2436
29822,62,,,2438
29825,58,,,2438
29826,57,,,2438
29830,49,,,2438
29831,48,,,2438
29833,42,,,2438
29836,39,,,2438
29838,37,,,2438
29841,34,,,2438
29843,32,amélioration,,2438
29844,31,,,2438
29845,30,,,2438
29848,26,,,2438
29850,24,,,2438
29852,21,,1605,2438
29853,20,,,2438
29854,19,,1605,2438
29857,15,,,2438
29858,14,,,2438
29859,13,,,2438
29860,12,,,2438
29864,8,,,2438
29865,7,,,2438
29868,4,,,2438
29869,3,amélioration,,2438
29870,1,,,2438
29872,10,,,2443
29874,8,,,2443
29875,7,,,2443
29876,6,,,2443
29877,5,,,2443
29881,1,,,2444
29882,1,,,2448
29887,406,,,2451
29889,399,,,2451
29890,396,,,2451
29892,393,,,2451
29900,374,,,2451
29905,361,,,2451
29907,355,amélioration,,2451
29908,354,,,2451
29909,353,amélioration,,2451
29918,330,,,2451
29920,326,,,2451
29921,325,,,2451
29924,317,,,2451
29926,308,,,2451
29933,287,,,2451
29935,285,,,2451
29936,282,,,2451
29939,277,,,2451
29941,273,,,2451
29946,263,,,2451
29951,257,,,2451
29952,256,,,2451
29956,251,,,2451
29957,249,,,2451
29958,248,,,2451
29962,243,,,2451
29964,241,,,2451
29967,231,,,2451
29970,227,,,2451
29980,212,,,2451
29981,211,,,2451
29991,176,,,2451
29996,168,,,2451
30007,147,,,2451
30012,139,,,2451
30023,125,,,2451
30045,91,amélioration,,2451
30072,53,,,2451
30075,50,,,2451
30077,48,,,2451
30086,36,,,2451
30101,17,,,2451
30105,11,,,2451
30109,6,amélioration,,2451
30119,4,,,2452
30122,1,,,2452
30123,1,bug,,2455
30124,2,amélioration,,2456
30126,1,,,2457
30129,1,,,2459
30131,14,,,2462
30136,9,,,2462
30138,7,,,2462
30141,3,,,2462
30143,1,,,2464
30146,3,,,2467
30150,13,,,2476
30151,12,,,2476
30156,6,,,2476
30157,4,,,2476
30164,26,,,2479
30166,23,enhancement,,2479
30173,13,,,2479
30176,10,,,2479
30183,2,,,2479
30184,1,,,2479
30185,1,,,2480
30187,3,,,2482
30188,2,,,2482
30189,1,,,2482
30190,3,,,2486
30191,2,,,2486
30194,8,,,2491
30197,5,,,2491
30201,3,,,2495
30203,4,,,2496
30205,1,,,2496
30206,2,,,2498
30207,1,,,2498
30210,7,,,2500
30216,1,,,2503
30217,6,,,2504
30218,3,,,2504
30221,6,,,2505
30222,5,,,2505
30224,19,,,2507
30227,13,,,2507
30230,8,,,2507
30232,5,,,2507
30234,1,,,2507
30235,17,,,2509
30240,12,,,2509
30246,3,,,2510
30248,1,,,2514
30249,16,,,2515
30250,15,,,2515
30255,7,,,2515
30257,5,,,2515
30261,1,,,2515
30267,2,,,2534
30268,1,,,2534
30269,3,,,2535
30271,1,,,2535
30273,1,,,2540
30274,1,,,2541
30275,9,,,2546
30276,7,,,2546
30278,5,,,2546
30279,4,,,2546
30283,5,,,2550
30284,3,,,2550
30288,2,,,2560
30294,1,,,2565
30298,2,,,2571
30314,3,,,2576
30323,8,,,2583
30330,1,,,2591
30333,1,,,2602
30338,6,,,2604
30339,5,,,2604
30340,4,,,2604
30341,3,amélioration,,2604
30342,2,amélioration,,2604
30351,1,,,2609
30353,7,,,2611
30354,6,,,2611
30355,5,,,2611
30356,4,,,2611
30357,3,,,2611
30358,2,,1607,2611
30359,1,,,2611
30362,31,,,2616
30363,30,,,2616
30364,29,,,2616
30365,28,,,2616
30366,24,,,2616
30368,22,,,2616
30374,15,,,2616
30376,12,,,2616
30378,9,,,2616
30379,8,,,2616
30384,1,,,2617
30385,1,,,2618
30386,2,,,2619
30387,2,,,2626
30389,1,,,2627
30390,1,,,2631
30394,1,,,2634
30395,24,,,2636
30396,23,,,2636
30399,20,,,2636
30400,19,,,2636
30402,17,,,2636
30403,16,,,2636
30404,15,,,2636
30405,14,,,2636
30410,9,,,2636
30414,5,,,2636
30416,3,,,2636
30417,2,,,2636
30423,1,,,2637
30424,7,,,2638
30425,5,,,2638
30432,4,,,2647
30439,21,Affichage,,2657
30441,15,,,2657
30442,14,,,2657
30445,8,,,2657
30448,4,,,2657
30450,1,amlioration,,2672
30457,5,,,2703
30458,4,,,2703
30460,17,,,2706
30463,14,,,2706
30466,11,,,2706
30468,9,,,2706
30470,7,,,2706
30471,6,,,2706
30472,5,,,2706
30476,7,,,2707
30480,3,,,2707
30482,1,,,2707
30491,8,,,2710
30492,7,,,2710
30494,4,,,2710
30496,2,,,2710
30500,9,,,2713
30501,8,,,2713
30503,6,,,2713
30504,5,,,2713
30505,4,,,2713
30506,3,,,2713
30509,6,,,2715
30510,5,,,2715
30511,3,,,2715
30514,11,,,2718
30515,10,,,2718
30525,11,,,2719
30526,9,,,2719
30530,4,,,2719
30532,2,,,2719
30534,30,,,2720
30561,3,,,2720
30570,5,,,2723
30573,2,,,2723
30575,3,,,2724
30576,2,,,2724
30584,28,,,2733
30585,27,,,2733
30587,24,,,2733
30588,22,,,2733
30592,17,,,2733
30593,16,,,2733
30594,15,,,2733
30597,12,,,2733
30603,6,,,2733
30609,5,,,2750
30610,4,,,2750
30615,9,,,2752
30616,8,,,2752
30617,5,,,2752
30620,1,,,2752
30621,3,,,2758
30622,2,,,2758
30623,1,,,2758
30625,1,,,2760
30626,4,,,2767
30628,2,,,2767
30631,1,,,2771
30632,8,,,2772
30634,5,,,2772
30635,4,,,2772
30636,2,,,2772
30641,1,,,2789
30642,7,,,2793
30644,4,,,2793
30645,3,,,2793
30646,2,,,2793
30647,1,,,2794
30648,1,,,2799
30649,1,,,2801
30650,3,,,2814
30651,2,,,2814
30654,4,,,2819
30663,1,,,2833
30674,9,,,3001
30676,4,,,3001
30677,3,,,3001
30681,1,,,3005
30686,7,,,3008
30687,6,,,3008
30694,66,,,3014
30696,64,,,3014
30697,63,,,3014
30698,62,,,3014
30701,57,amélioration,,3014
30702,56,,,3014
30703,55,,,3014
30708,47,bug|help wanted|question,,3014
30709,45,,,3014
30710,44,amélioration,,3014
30712,39,,,3014
30715,34,amélioration,,3014
30716,33,,,3014
30719,27,,,3014
30721,22,,,3014
30724,17,,,3014
30727,10,,,3014
30729,8,,,3014
30735,2,,,3014
30761,21,enhancement,1608,3017
30770,8,,,3017
30778,2,,,3025
30779,1,,,3025
30780,4734,,,3026
30781,4733,,,3026
30783,4731,,,3026
30784,4730,,,3026
30786,4727,,,3026
30794,3,,,3026
30796,1,,,3026
30797,4415,,,3026
30800,4344,,,3026
30801,4326,,,3026
30802,4270,,,3026
30804,4252,,,3026
30806,4250,,,3026
30811,4239,,,3026
30812,4238,,,3026
30813,4076,,,3026
30815,4051,,,3026
30820,1,,,3030
30822,4,,,3032
30823,1,,,3032
30834,4317,,,3035
30836,4315,,,3035
30837,4314,,,3035
30838,4288,,,3035
30839,4263,,,3035
30841,14,,,3036
30845,8,,,3036
30846,7,,,3036
30847,6,,,3036
30885,4810,,,3049
30886,4809,,,3049
30887,4808,,,3049
30888,4807,,,3049
30896,4733,,,3049
30898,4584,,,3049
30905,1,,,3054
30911,3,bug,,3056
30912,2,enhancement,,3056
30913,1,enhancement,,3056
30914,5,,,3057
30919,4793,,,3059
30920,4792,,,3059
30923,4789,,,3059
30927,4341,,,3059
30929,4188,,,3059
30930,4104,,,3059
30931,4083,,,3059
30935,4026,,,3059
30936,4025,,,3059
30937,4024,,,3059
30938,4023,,,3059
30939,4022,,,3059
30940,4021,,,3059
30941,4020,,,3059
30942,4019,,,3059
30944,4017,,,3059
30991,3,,,3228
30994,5,,,3228
30995,6,,,3228
31000,3,,,1855
31003,12,,,3228
31009,33,,,2616
31013,5880,bug,1613,1696
31017,6,,,2293
31018,4868,amélioration,,1670
31019,4869,amélioration,,1670
31021,20,,,3228
31022,2,,,2052
31026,22,,,3228
31028,411,,,2451
31032,24,,,1724
31035,4831,bug,1410,1690
31043,24,,,3228
31045,25,,,3228
31047,5886,bug,1613,1696
31048,6,,,1865
31049,7,,,1865
31056,4829,bug,1396,1689
31057,4873,bug,1549,1701
31060,3,,1612,1861
31065,233,,,2024
31066,4828,bug,1577,1703
31067,46,,,1710
31080,2,,,2431
31081,20,,,2507
31087,10,,,2121
31088,5892,bug,1613,1696
31090,5,,,1798
31091,9,,,2218
31092,5893,bug,1613,1696
31094,18,,,2112
31096,10,,,2713
31097,6,,,2364
31102,4830,amélioration,1396,1689
31105,55,,,3017
31111,37,,,1875
31114,5900,APIs|amélioration|documentation,1487,1696
31115,10,,,2752
31124,4911,amélioration,1521,1699
31127,21,,,2272
31130,25,,,1724
31131,49,,,1710
31134,1,,,3021
31137,5904,accessibilité,1487,1696
31139,67,,,2438
31140,5905,,,1696
31143,5907,bug|traduction,1487,1696
31144,5908,accessibilité|bug,1487,1696
31145,1,,,2551
31147,25,,,1715
31152,4912,amélioration|ergonomie,,1699
31155,3,,,1760
31157,16,,,1916
31158,4874,bug,,1701
31159,4992,amélioration,,1683
31160,4871,amélioration,,1695
31161,31,,,2279
31163,4875,amélioration,,1701
31164,4788,amélioration,,1677
31165,4872,amélioration,,1695
31166,4873,amélioration,,1695
31170,4993,bug,,1683
31171,4994,bug,1326,1683
31172,19,,,2398
31174,4876,amélioration,,1701
31175,4881,amélioration,,1672
31176,56,enhancement,,3017
31179,28,,,2250
31180,5,,,2496
31181,236,,,2024
31185,4859,amélioration|espace privé,1438,1692
31186,4995,amélioration,,1683
31187,4996,amélioration,,1683
31188,4877,amélioration,,1701
31189,5915,bug,1613,1696
31195,415,,,2451
31197,416,amélioration,,2451
31207,239,,,2024
31208,5920,,,1696
31212,5923,,,1696
31213,1,,,1667
31214,7,,,2364
31215,51,,,1710
31216,41,,,1854
31217,1,,,1823
31220,22,,,2332
31221,9,,,2116
31223,4,,,2510
31225,12,,,2719
31230,7,,,2293
31231,16,,,2583
31233,58,bug,,2310
31236,14,,,2476
31237,5,documentation,,2212
31238,3,documentation,,2104
31239,34,documentation,,2235
31240,5926,,,1696
31241,5927,,,1696
31242,6,documentation,,2496
31243,9,documentation,,1884
31244,17,documentation,,2583
31245,5928,amélioration|authentification,,1696
31246,2,documentation,,2582
31247,38,documentation,,1875
31248,7,,,2715
31250,17,documentation,,2515
31251,91,documentation,,1731
31252,92,documentation,,1731
31253,242,documentation,,2024
31254,9,documentation,,1876
31255,13,documentation,,1859
31256,14,documentation,,1860
31258,7,accessibilité,,3032
31265,4739,,,3026
31267,4741,,,3026
31268,4742,,,3026
31270,5929,,,1696
31274,51,,,1998
31275,4745,,,3026
31276,1,,,2258
31277,5930,amélioration|ergonomie|installation,1618,1696
31282,1,,,1910
31283,4873,,,1698
31284,68,amélioration,,2438
31289,19,bug,,2583
31290,2,,,2082
31293,6,bug,,2291
31298,2,,,2215
31299,4790,amélioration,,1677
31301,5938,amélioration,1618,1696
31304,4998,,,1683
31310,3,,,1758
31311,4747,,,3026
31313,5,,,1758
31317,33,,,3228
31318,5941,documentation,,1696
31322,5943,question,,1696
31323,5944,base de données,,1696
31324,1,amélioration,,1786
31328,5946,,,1696
31330,4875,amélioration,1507,1698
31331,93,,,1731
31333,418,,,2451
31334,247,,,2024
31340,6,sécurité,,2343
31342,5,,,2647
31344,4717,amélioration,,1676
31349,1,,,2008
31350,5948,bug,,1696
31351,1,,,2113
31352,1,,,2329
31354,6,,,1929
31355,1,,,3061
31357,7,,,1929
31363,4723,question,,1673
31367,6,bug|documentation,,2550
31368,58,,,3017
31372,5952,bug,1613,1696
31373,9,,,2004
31376,12,,,2443
31380,249,,,2024
31387,4,,,2049
31390,3,,,2560
31393,4,bug,,2216
31395,8,,,2293
31397,3,,,2650
31400,8,amélioration,,2050
31401,4,,,2323
31402,24,,,1822
31403,23,,,2332
31404,4882,bug,1312,1682
31405,4,bug,,2330
31406,3,,,2632
31407,4,,,2632
31409,4719,amélioration,1256,1676
31411,1,,,2826
31414,5956,bug,,1696
31419,5957,bug,1613,1696
31421,8,bug,,2364
31423,20,amélioration,,2344
31424,5958,bug,1613,1696
31428,5959,,,1696
31429,1,,,2340
31432,1,,,3288
31433,2,,,3288
31435,3,,,2582
31438,10,,,2546
31439,5,,,2510
31440,6,,,1915
31441,69,amélioration,,2438
31442,3,,,2362
31443,94,amélioration,,1731
31444,6,,,2478
31445,5962,bug,1613,1696
31451,5964,bug,1613,1696
31452,13,amélioration,,2327
31453,32,amélioration,,2279
31454,5,,,1909
31455,33,amélioration,,2279
31456,54,,,1710
31462,4,enhancement|help wanted,,3291
31463,3,enhancement|help wanted,,3291
31464,5,enhancement|help wanted,,3291
31466,6,enhancement|help wanted,,3291
31468,8,bug|help wanted,,3291
31470,9,enhancement|help wanted,,3291
31471,12,enhancement|question,,3291
31472,13,enhancement|help wanted,,3291
31476,17,enhancement|help wanted,,3291
31477,16,enhancement|help wanted,,3291
31478,19,enhancement|help wanted,,3291
31480,21,enhancement|help wanted,,3291
31481,25,enhancement|help wanted|question,,3291
31483,26,enhancement|help wanted,,3291
31484,24,enhancement|help wanted,,3291
31489,30,enhancement|help wanted,,3291
31490,31,enhancement|help wanted,,3291
31493,39,bug|help wanted,,3291
31498,33,enhancement,,3291
31499,32,enhancement,,3291
31505,95,bug|help wanted,,3291
31507,96,bug|help wanted,,3291
31511,109,enhancement,,3291
31514,115,enhancement,,3291
31516,105,enhancement,,3291
31518,118,enhancement|help wanted,,3291
31519,121,enhancement,,3291
31522,124,bug,,3291
31523,123,enhancement,,3291
31529,135,enhancement,,3291
31533,128,enhancement,,3291
31535,134,enhancement,,3291
31548,160,enhancement,,3291
31549,161,enhancement,,3291
31550,158,enhancement,,3291
31552,159,enhancement,,3291
31556,171,bug,,3291
31557,173,enhancement,,3291
31562,178,enhancement,,3291
31565,181,enhancement,,3291
31566,182,enhancement,,3291
31569,183,enhancement,,3291
31570,184,enhancement,,3291
31573,190,enhancement,,3291
31576,191,enhancement,,3291
31581,197,enhancement,,3291
31585,204,bug,,3291
31587,207,enhancement,,3291
31589,206,enhancement,,3291
31595,212,bug,,3291
31615,241,,,3291
31617,251,bug,,3291
31618,253,enhancement,,3291
31620,255,enhancement,,3291
31626,264,,,3291
31628,265,enhancement,,3291
31630,271,enhancement,,3291
31631,272,bug,,3291
31632,266,enhancement,,3291
31634,284,bug,,3291
31641,291,enhancement|help wanted,,3291
31642,294,,,3291
31643,295,,,3291
31645,290,bug,,3291
31648,2,enhancement,1621,3294
31654,18,amélioration,,2388
31655,96,amélioration,,1731
31656,52,,,1998
31657,5,,,2323
31659,1,,,3286
31660,15,,,2181
31661,5966,amélioration,,1696
31662,1,,,1894
31663,2,,,1894
31664,3,,,1894
31666,5968,bug,1487,1696
31667,1,,,1844
31669,4791,bug,1270,1677
31670,55,,,1710
31677,4,,,2698
31679,4721,bug,1619,1676
31683,6,,,2074
31686,4883,amélioration,1213,1672
31687,1,bug,,2557
31688,2,bug,,2557
31692,420,question,,2451
31695,4,,,1759
31697,4,,,2378
31699,1,,,2100
31701,2,,,2100
31703,14,,,2276
31704,4878,bug,1549,1701
31705,10,,,3006
31711,3,enhancement,1621,2469
31712,1,enhancement,1621,2470
31713,1,enhancement,1621,2471
31714,1,enhancement,1621,2473
31715,1,enhancement,1621,2474
31719,6,,,1725
31721,42,enhancement,1621,3290
31723,5,bug,1621,3294
31730,61,bug|question,,3017
31731,5982,bug,1613,1696
31732,11,bug,,1824
31735,35,,,2235
31737,67,,,3014
31738,4830,amélioration,,1703
31740,3,,,2590
31742,15,,,1860
31743,2,,,2514
31747,422,,,2451
31749,22,,,2507
31750,1,,,1802
31751,70,bug,1605,2438
31752,2,,,1802
31754,17,,,3036
31757,5,,,2217
31758,3,,,2145
31762,41,,,2001
31768,5985,,1618,1696
31772,57,,,1710
31773,58,,,1710
31774,59,,,1710
31775,27,,,1715
31776,20,,,2583
31777,21,bug,,2583
31778,423,,1622,2451
31781,5986,,,1696
31786,5,,,1970
31787,6,,,1970
31788,5987,bug|documentation,1613,1696
31789,5988,bug,1613,1696
31790,25,amélioration,,2636
31794,4,amélioration,,2577
31795,1,,,1996
31796,1,amélioration,,2578
31797,2,amélioration,,2578
31799,71,,,2438
31801,61,,,2310
31808,35,,,2279
31811,430,,,2451
31815,4792,bug,1270,1677
31820,5003,bug,,1683
31823,97,,,1731
31824,5990,amélioration|authentification,,1696
31825,5991,amélioration|compilo,1618,1696
31826,7,,,2217
31827,8,,,2217
31828,9,amélioration,,2217
31831,2,bug,,3318
31834,60,,,1710
31835,4,,,2208
31840,5,bug,1623,3318
31844,5,,,3321
31847,5995,bug,1613,1696
31848,4875,bug,1471,1695
31853,7,,,3318
31856,5998,amélioration|dépréciation,1487,1696
31861,437,bug,,2451
31863,6000,,,1696
31864,4898,,,1665
31867,438,,1622,2451
31874,3,Doc,,3004
31876,30,,,2479
31879,9,,,1791
31883,4724,,,1676
31885,1,,,1783
31886,4900,bug,,1665
31887,6004,,,1696
31889,10,bug,,2416
31892,4725,bug,1619,1676
31893,9,amélioration,,3318
31895,4861,amélioration,,1692
31898,53,,,1998
31899,2,,,1807
31900,42,,,2001
31904,2,,,1769
31905,1,,,3330
31906,4438,bug,,1664
31915,10,,,3318
31917,43,documentation,,2001
31922,6,,,3011
31931,61,,,1710
31935,22,,,2583
31937,11,,,2703
31938,23,,,2583
31940,2,,,2547
31941,5,,,3016
31942,24,,,2583
31946,3,,,2547
31947,1,documentation,,2595
31949,8,amélioration,,3011
31950,9,,,3011
31952,11,,,2491
31955,6016,amélioration,,1696
31957,10,,,2410
31958,44,,,1740
31959,6017,amélioration|authentification,,1696
31960,24,,,2132
31961,25,,,2583
31964,444,amélioration,,2451
31974,63,amélioration,,3017
31976,7,,,2603
31977,2,,,2240
31978,8,question,,1924
31980,1,,,2307
31982,265,,,2024
31986,6022,,,1696
31987,6023,,,1696
31988,4832,,,1690
31991,11,,,2116
31993,7,,,2726
31994,5006,bug|sécurité,1326,1683
31995,12,accessibilité|amélioration|ergonomie,,3318
32003,4793,amélioration|documentation,,1694
32005,4,,,1753
32010,445,,,2451
32016,6024,,,1696
32024,7,,,1808
32027,6,,,1993
32030,2,,,2656
32031,269,,,2024
32032,24,,,2332
32035,6030,,,1696
32036,2,,,2166
32039,12,question,,1824
32045,1,,,2170
32046,54,,,1998
32051,64,,,3017
32052,3,,,2179
32054,4832,amélioration|ergonomie,1626,1703
32055,4862,bug,1438,1692
32056,25,,,2132
32057,13,,,1824
32058,1,,,2165
32062,6032,,,1696
32065,6034,,,1696
32072,6037,bug,1613,1696
32074,14,bug,,1859
32077,21,,,2398
32080,2,,,1708
32081,450,amélioration,,2451
32083,5,,,3306
32085,10,amélioration,,3011
32087,15,,,2327
32088,8,bug,,2267
32089,5,Doc,,3004
32091,6041,,,1696
32093,5007,amélioration|documentation,1331,1683
32094,26,,,2657
32096,3,bug,,1802
32098,16,amélioration,,1810
32102,273,,,2024
32105,6042,amélioration|css|html,1618,1696
32109,17,,,3318
32110,55,,,1998
32112,7,,,1669
32115,1,question,,2437
32125,6,,,2174
32126,5,,,2632
32127,8,,,2436
32130,4676,bug,,2309
32133,19,amélioration,,3318
32134,3,,,2102
32136,6,bug,,2242
32137,2,,,1996
32139,2,,,2131
32141,20,bug|ergonomie,,3318
32142,21,ergonomie,,3318
32143,22,amélioration|ergonomie,,3318
32144,23,amélioration|ergonomie,,3318
32145,24,amélioration|ergonomie,,3318
32146,25,amélioration,,3318
32147,26,amélioration,,3318
32148,27,accessibilité|bug,,3318
32149,28,amélioration|ergonomie,,3318
32150,29,ergonomie,,3318
32151,30,bug,,3318
32152,31,amélioration,,3318
32153,32,sécurité,,3318
32154,33,,,3318
32155,34,,,3318
32157,36,amélioration|ergonomie,,3318
32158,37,amélioration|ergonomie,,3318
32159,38,amélioration,,3318
32160,39,bug,,3318
32161,40,bug,,3318
32162,41,bug,,3318
32163,42,bug|ergonomie,,3318
32164,43,bug,,3318
32165,44,bug,,3318
32168,4793,,,1677
32169,6047,,,1696
32170,5008,bug,,1683
32171,275,,,2024
32176,5009,,,1683
32180,5010,bug,1331,1683
32183,20,,,2194
32185,1,amélioration,1641,3392
32186,2,,,3392
32187,3,,,3392
32188,4,,,3392
32189,5,,,3392
32190,6,,,3392
32191,7,,,3392
32192,8,,,3392
32193,9,,,3392
32194,10,,,3392
32195,11,,,3392
32196,12,,,3392
32197,13,amélioration,,3392
32199,15,amélioration,,3392
32200,16,amélioration,,3392
32201,17,amélioration,,3392
32202,18,,,3392
32204,70,,,3014
32205,19,,1642,3392
32206,5,bug,,2216
32209,7,,,3016
32213,1,,,3391
32214,71,,,3014
32215,64,,,1710
32219,9,,,2603
32221,6050,amélioration,,1696
32222,6051,,1613,1696
32223,4726,,,1676
32224,454,,,2451
32227,2,amélioration,,2435
32228,4916,bug,1521,1699
32230,6052,,,1696
32232,23,,,3392
32234,2,,,2249
32235,4751,,,3026
32238,25,,,2507
32244,25,,1640,3392
32245,6,,,2510
32248,27,,1642,3392
32252,282,,,2024
32254,284,,1643,2024
32255,26,,,2132
32260,48,bug|ergonomie,,3318
32261,7,,,1725
32262,6055,,,1696
32263,457,,,2451
32264,29,,,3392
32265,9,,,2273
32266,4833,bug,,1703
32267,6,,,2430
32270,49,bug,,3318
32275,4801,,1161,1666
32276,4727,amélioration,,1676
32281,1,bug,,1944
32282,2,bug|documentation,,1944
32285,1,,,3287
32286,4683,,,2309
32287,4,,,2644
32289,1,bug,,2033
32290,4,,,1742
32291,29,bug,,2032
32293,1,,,3289
32294,6057,dépréciation,1487,1696
32296,12,amélioration,,2217
32297,13,amélioration,,2217
32298,51,amélioration|documentation,1624,3318
32300,3,,,1681
32303,5013,amélioration,,1683
32304,5014,,,1683
32305,5015,,,1683
32307,18,,,2462
32308,19,,,2462
32311,10,,,1973
32313,459,amélioration,,2451
32317,32,,,3392
32322,5,,,1757
32328,460,amélioration,,2451
32329,57,amélioration,,3318
32336,462,,,2451
32337,463,,,2451
32338,5016,amélioration,1326,1683
32339,37,,,2616
32340,17,amélioration,,2217
32341,18,bug,,2217
32344,18,,,2181
32345,4684,,,2309
32346,73,,,2438
32349,4834,bug,1582,1703
32350,9,,,1669
32351,74,,,3014
32355,19,amélioration,,2217
32356,20,bug,,2217
32357,21,amélioration,,2217
32358,22,amélioration,,2217
32359,7,,,2430
32361,8,,,3016
32362,4,,,1855
32364,74,,,3017
32365,75,,,3014
32366,76,,,3014
32367,18,,,1819
32369,4882,accessibilité,,1701
32370,4918,,,1699
32371,19,,,1819
32372,2,bug,,3287
32373,3,bug,,3287
32377,24,,,2217
32379,467,,,2451
32381,77,,,3014
32386,26,bug,,2217
32388,19,,,2181
32389,27,amélioration,,2217
32390,26,,,2583
32392,1,,,2372
32393,2,,,2595
32397,10,,,1774
32398,61,bug,,3318
32399,75,,,2438
32400,13,,,2290
32402,49,,,1740
32403,4794,,,1694
32405,62,,,3318
32406,20,,,2181
32407,21,,,2181
32408,78,,,3014
32410,38,,,2616
32413,79,amélioration|sécurité,,3014
32414,3,,,2331
32417,50,,,1740
32418,13,bug,,2121
32419,31,,,2574
32420,51,,,1740
32421,5018,amélioration,,1683
32422,5019,amélioration,,1683
32424,63,,,2310
32425,14,,,2121
32426,67,amélioration,,3318
32427,36,bug,,2279
32428,11,,,3011
32431,4728,bug,1619,1676
32432,64,,,2310
32433,4886,,,1682
32434,287,,,2024
32435,8,,,3032
32436,4878,,,1695
32439,4,,,2576
32440,80,,,3014
32441,5020,bug,1616,1683
32442,12,,,3011
32443,6060,,,1696
32445,36,,,2235
32447,81,,,3014
32448,82,,,3014
32449,45,,,2001
32451,37,,,3392
32453,6,,,1759
32454,38,,,3392
32455,15,,,2121
32456,4887,bug,,1682
32457,65,,,2310
32461,469,amélioration,,2451
32463,36,,,2209
32465,76,bug,,2438
32467,28,,,1715
32468,5021,,,1683
32470,6061,bug,,1696
32471,39,bug,,3392
32472,83,,,3014
32473,18,,,3036
32474,40,,,3392
