prefix,sites,spip
porte_plume,4842,4.4;4.3;4.2;4.1;4.0;3.3;3.2;3.1;3.0;2.1;2.0;1.9
safehtml,4812,4.4;4.3;4.2;4.1;4.0;3.3;3.2;3.1;3.0;2.1;1.9
images,4812,4.4;4.3;4.2;4.1;4.0;3.3;3.2;3.1;3.0;2.1;1.9
compresseur,4810,4.4;4.3;4.2;4.1;4.0;3.3;3.2;3.1;3.0;2.1;1.9
medias,4190,4.4;4.3;4.2;4.1;4.0;3.3;3.2;3.1;3.0;2.1
mediabox,4141,4.4;4.3;4.2;4.1;4.0;3.3;3.2;3.1;3.0;2.1
iterateurs,4120,4.4;4.3;4.2;4.1;4.0;3.3;3.2;3.1;3.0;2.1
forum,4118,4.4;4.3;4.2;4.1;4.0;3.3;3.2;3.1;3.0;2.1;2.0;1.9
queue,4113,4.4;4.3;4.2;4.1;4.0;3.3;3.2;3.1;3.0;2.1
spip,4108,4.4;4.3;4.2;4.1;4.0;3.3;3.2;3.1;3.0
urls,4106,4.4;4.3;4.2;4.1;4.0;3.3;3.2;3.1;3.0
revisions,4106,4.4;4.3;4.2;4.1;4.0;3.3;3.2;3.1;3.0
mots,4106,4.4;4.3;4.2;4.1;4.0;3.3;3.2;3.1;3.0
dump,4106,4.4;4.3;4.2;4.1;4.0;3.3;3.2;3.1;3.0
svp,4105,4.4;4.3;4.2;4.1;4.0;3.3;3.2;3.1;3.0
sites,4105,4.4;4.3;4.2;4.1;4.0;3.3;3.2;3.1;3.0
stats,4104,4.4;4.3;4.2;4.1;4.0;3.3;3.2;3.1;3.0
compagnon,4104,4.4;4.3;4.2;4.1;4.0;3.3;3.2;3.1;3.0
tw,4103,4.4;4.3;4.2;4.1;4.0;3.3;3.2;3.1;3.0
jquery,3576,4.4;4.3;4.2;4.1;4.0;3.3;3.2;3.1
plan,3575,4.4;4.3;4.2;4.1;4.0;3.3;3.2;3.1
archiviste,3346,4.4;4.3;4.2;4.1;4.0;3.3;3.2;3.1
aide,3346,4.4;4.3;4.2;4.1;4.0;3.3;3.2;3.1;2.1
ordoc,3343,4.4;4.3;4.2;4.1;4.0;3.3;3.2
minidoc,3343,4.4;4.3;4.2;4.1;4.0;3.3;3.2
mejs,3322,4.4;4.3;4.2;4.1;4.0;3.3;3.2;3.0
saisies,3215,4.4;4.3;4.2;4.1;4.0;3.3;3.2;3.1;3.0;2.1;2.0;1.9
spip_bonux,3013,4.4;4.3;4.2;4.1;4.0;3.3;3.2;3.1;3.0;2.1;2.0;1.9
csstidy,2980,4.4;4.3;4.2;4.1;4.0;3.2
breves,2644,4.4;4.3;4.2;4.1;4.0;3.3;3.2;3.1;3.0
bigup,2610,4.4;4.3;4.2;4.1;4.0;3.3;3.2;3.1
yaml,2345,4.4;4.3;4.2;4.1;4.0;3.3;3.2;3.1;3.0;2.1
vertebres,2278,4.3;4.2;4.0;3.3;3.2;3.1;3.0;2.1
jqueryui,2129,4.4;4.3;4.2;4.1;4.0;3.3;3.2;3.1;3.0;2.1;2.0;1.9
facteur,2117,4.4;4.3;4.2;4.1;4.0;3.3;3.2;3.1;3.0;2.1;2.0
verifier,2096,4.4;4.3;4.2;4.1;4.0;3.3;3.2;3.1;3.0;2.1
agenda,2069,4.4;4.3;4.2;4.1;4.0;3.3;3.2;3.1;3.0;2.1;2.0;1.9
nospam,1981,4.4;4.3;4.2;4.1;4.0;3.3;3.2;3.1;3.0;2.1;2.0;1.9
organiseur,1980,4.4;4.3;4.2;4.1;4.0;3.3;3.2;3.1;3.0
squelettes_par_rubrique,1977,4.4;4.3;4.2;4.1;4.0;3.3;3.2;3.1;3.0
petitions,1929,4.4;4.3;4.2;4.1;4.0;3.3;3.2;3.1;3.0
crayons,1904,4.4;4.3;4.2;4.1;4.0;3.3;3.2;3.1;3.0;2.1;2.0;1.9
calendriermini,1860,4.4;4.3;4.2;4.1;4.0;3.3;3.2;3.1;3.0;2.1;2.0;1.9
zcore,1691,4.4;4.3;4.2;4.1;4.0;3.2;3.1;3.0
couteau_suisse,1540,4.4;4.3;4.2;4.1;4.0;3.2;3.1;3.0;2.1;2.0;1.9
accesrestreint,1488,4.4;4.3;4.2;4.1;4.0;3.3;3.2;3.1;3.0;2.1;2.0;1.9
oembed,1400,4.4;4.3;4.2;4.1;4.0;3.3;3.2;3.1;3.0
typoenluminee,1308,4.4;4.3;4.2;4.1;4.0;3.2;3.1;3.0;2.1;2.0;1.9
msie_compat,1243,3.2;3.1;3.0;2.1;1.9
cextras,1166,4.4;4.3;4.2;4.1;4.0;3.2;3.1;3.0;2.1;2.0
corbeille,1139,4.4;4.3;4.2;4.1;4.0;3.3;3.2;3.1;3.0;2.1;2.0;1.9
cfg,1120,3.2;3.1;3.0;2.1;2.0;1.9
comments,1035,4.4;4.3;4.2;4.1;4.0;3.2;3.1;3.0;2.1;2.0;1.9
select2,925,4.4;4.3;4.2;4.1;4.0;3.2
lesscss,870,4.4;4.3;4.2;4.1;4.0;3.2;3.1;3.0
iextras,869,4.4;4.3;4.2;4.1;4.0;3.2;3.1;3.0;2.1;2.0
memoization,867,4.4;4.3;4.2;4.1;3.2;3.1;3.0
compositions,861,4.4;4.3;4.2;4.1;4.0;3.2;3.1;3.0;2.1;2.0
centre_image,823,4.4;4.3;4.2;4.1;4.0;3.3;3.2;3.1
formidable,819,4.4;4.3;4.2;4.1;4.0;3.3;3.2;3.1;3.0;2.1
menus,814,4.4;4.3;4.2;4.1;4.0;3.3;3.2;3.1;3.0;2.1;2.0;1.9
gis,796,4.4;4.3;4.2;4.1;4.0;3.3;3.2;3.1;3.0;2.1;2.0;1.9
player,716,4.4;4.3;4.2;4.1;4.0;3.2;3.1;3.0;2.1;2.0;1.9
sjcycle,710,4.4;4.3;4.2;4.1;3.2;3.1;3.0;2.1;2.0
pages,694,4.4;4.3;4.2;4.1;4.0;3.2;3.1;3.0;2.1;2.0
spipr_dist,650,4.4;4.3;4.2;4.1;4.0;3.2;3.1;3.0
typo_guillemets,635,4.4;4.3;4.2;4.1;4.0;3.2;3.1;3.0;2.1;2.0;1.9
evamentions,623,4.4;4.3;4.2;4.1;3.2;3.1;3.0;2.1;2.0
palette,596,4.4;4.3;4.2;4.1;4.0;3.2;3.1;3.0;2.1;2.0;1.9
zengarden,564,4.4;4.3;4.2;4.1;4.0;3.2;3.1;3.0;2.1;2.0;1.9
socialtags,555,4.4;4.3;4.2;4.1;4.0;3.2;3.1;3.0;2.1;2.0;1.9
mailshot,521,4.4;4.3;4.2;4.1;4.0;3.3;3.2;3.1;3.0
mailsubscribers,515,4.4;4.3;4.2;4.1;4.0;3.3;3.2;3.1;3.0
odt2spip,511,4.4;4.3;4.2;4.1;4.0;3.2;3.1;3.0;2.1;2.0;1.9
skeleditor,503,4.4;4.3;4.2;4.1;4.0;3.2;3.1;3.0;2.1;2.0;1.9
adaptive_images,480,4.4;4.3;4.2;4.1;4.0;3.2;3.1;3.0
sarkaspip,471,4.4;4.3;4.2;4.1;4.0;3.2;3.1;3.0;2.1;2.0;1.9
notifications,470,4.4;4.3;4.2;4.1;4.0;3.2;3.1;3.0;2.1;2.0;1.9
ppp,468,4.4;4.3;4.2;4.1;4.0;3.2;3.1;3.0;2.1;2.0
newsletters,462,4.4;4.3;4.2;4.1;4.0;3.3;3.2;3.1;3.0
fulltext,462,4.4;4.3;4.2;4.1;3.2;3.1;3.0;2.1;2.0
contact,461,4.4;4.3;4.2;4.1;4.0;3.3;3.2;3.1;3.0;2.1;2.0;1.9
thickbox1,434,3.2;3.1;3.0;2.1;2.0;1.9
pdfjs,417,4.4;4.3;4.2;4.1;4.0;3.2;3.1;3.0;2.1;1.9
minibando,390,4.4;4.3;4.2;4.1;4.0;3.2;3.1;3.0;2.1
tri_par_rubrique,386,4.4;4.3;4.2;4.1;4.0;3.2;3.1
mailcrypt,379,4.4;4.3;4.2;4.1;4.0;3.2;3.1;3.0;2.1;1.9
cvtupload,375,4.4;4.3;4.2;4.1;4.0;3.3;3.2;3.1;3.0
couleurs_spip,375,4.4;4.3;4.2;4.0;3.2;3.1;3.0;2.1;2.0
inserer_modeles,372,4.4;4.3;4.2;4.1;4.0;3.2;3.1;3.0;2.1
entravaux,371,4.4;4.3;4.2;4.1;4.0;3.2;3.1;3.0;2.1;2.0;1.9
ancresdouces,369,4.4;4.3;4.2;4.1;3.2;3.1;3.0;2.1
z,364,4.3;4.2;3.2;3.1;3.0;2.1;2.0
ezcache,364,4.4;4.3;4.2;4.1;4.0;3.2
verifier_plugins,362,4.4;4.3;4.2;4.1;4.0;3.2;3.1;3.0
metasplus,361,4.4;4.3;4.2;4.1;4.0;3.3;3.2;3.1;3.0
autorite,359,4.4;4.3;4.2;4.1;4.0;3.2;3.1;3.0;2.1;2.0;1.9
article_pdf,351,4.4;4.3;4.2;4.1;4.0;3.2;3.1;3.0;2.1;2.0;1.9
orthotypo,338,4.4;4.3;4.2;4.1;4.0;3.2;3.1;3.0
saveauto,329,4.4;4.3;4.2;4.1;4.0;3.2;3.1;3.0;2.1;2.0;1.9
cicas,327,4.3;4.2;4.1;3.2;3.0;2.1;2.0
boutonstexte,318,4.4;4.3;4.2;4.1;3.2;3.1;3.0;2.1;2.0;1.9
pb_selection,314,4.4;4.3;4.2;4.1;4.0;3.2;3.1;3.0;2.1;2.0
rang,313,4.4;4.3;4.2;4.1;3.2
depublie,312,4.4;4.3;4.2;4.1;4.0;3.2;3.1;3.0
adminer,296,4.4;4.3;4.2;4.1;4.0;3.2;3.1;3.0;2.1
identite_extra,294,4.4;4.3;4.2;4.1;4.0;3.2;3.1
ieconfig,293,4.3;4.2;4.1;4.0;3.2;3.1;3.0;2.1
couleur_objet,284,4.4;4.3;4.2;4.1;4.0;3.2;3.1;3.0
favicon,280,4.4;4.3;4.2;4.1;4.0;3.2;3.1;3.0
slick,277,4.4;4.3;4.2;4.1;3.2;3.1
fonctions_images,276,4.3;4.2;4.1;3.2;3.1;3.0;2.1;2.0;1.9
nuage,266,4.4;4.3;4.2;4.1;4.0;3.2;3.1;3.0;2.1;2.0;1.9
scolaspip,265,4.3;4.1;3.2;3.1;3.0;2.1;2.0
accessibilite,261,4.3;4.2;4.1;3.2;3.1;3.0;2.1
mathjax,243,4.4;4.3;4.2;4.1;3.2;3.1;3.0
correction_liens_internes,242,4.4;4.3;4.2;4.1;3.2;3.0
courtcircuit,241,4.4;4.3;4.2;4.1;3.2;3.1;3.0;2.1
dictionnaires,232,4.4;4.3;4.2;4.1;3.2;3.1;3.0
citations_bb,229,4.4;4.3;4.2;4.1;3.2;3.1;2.1;1.9
seo,226,4.4;4.3;4.2;4.1;4.0;3.2;3.1;3.0;2.1;2.0
critere_mots,220,4.4;4.3;4.2;4.1;3.2;3.1;3.0;2.1;2.0
pp_chgt_lg,219,4.3;4.2;4.1;3.2;3.1;2.1
noizetier,219,4.4;4.3;4.2;4.0;3.2;3.1;3.0;2.1
scolavingt,217,4.1
albums,217,4.4;4.3;4.2;4.1;4.0;3.2;3.1;3.0;2.1
gamucontact,214,4.3
soyezcreateurs,213,4.3;4.2;3.2;3.1;2.1;2.0;1.9
sidr,213,4.3;4.2;4.1;3.2;3.1;3.0;2.1
image_responsive,211,4.4;4.3;4.2;4.1;4.0;3.3;3.2;3.1;3.0
ck,210,4.4;4.3;4.2;4.1;3.3;3.2;3.1;3.0;2.1;2.0
acadaix,210,4.3
ckeditor,204,4.4;4.3;4.2;4.1;4.0;3.2;3.1;3.0;2.1;2.0
cache_cool,202,4.4;4.3;4.2;4.1;3.2;3.1;3.0
superfish,200,4.3;4.2;4.1;3.2
ncore,198,4.4;4.3;4.2;4.1;4.0;3.2
spiplistes,194,4.3;3.2;3.1;3.0;2.1;2.0;1.9
duplicator,188,4.4;4.3;4.2;4.1;4.0;3.2;3.1;3.0;2.1
svpstats,183,4.4;4.3;4.2;4.1;4.0;3.2;3.1
googleanalytics,181,4.4;4.3;4.2;4.1;4.0;3.2;3.1;3.0;2.1;2.0;1.9
numero,180,4.4;4.3;4.2;4.1;4.0;3.2;3.1;3.0;2.1;2.0
polyhier,178,4.4;4.3;4.2;4.1;4.0;3.2;3.1;3.0;2.1;2.0
splickr,177,4.3;4.2;4.1;3.2;3.1;3.0;2.1;2.0;1.9
escal,173,4.4;4.3;4.2;4.1;4.0;3.2;3.1;3.0;2.1;2.0
a2a,173,4.4;4.3;4.2;4.1;3.2;3.1;3.0;2.1;2.0
sociaux,169,4.4;4.3;4.2;4.1;4.0;3.2;3.1
spip_proprio,164,4.3;4.2;4.0;3.2;3.1;3.0;2.1
barretypoenrichie,160,3.2;3.0;2.1;2.0;1.9
rainette,158,4.4;4.3;4.2;4.1;3.2;3.1;3.0;2.1;2.0;1.9
bellespuces,157,4.4;4.3;4.2;4.1;4.0;3.2;3.1;3.0;2.1;1.9
simplog,153,4.4;4.3;4.2;4.1;4.0;3.3;3.2;3.1;3.0;2.1
forms,152,3.2;3.0;2.1;2.0;1.9
blocsdepliables,152,4.4;4.3;4.2;4.1;4.0;3.2;3.1;3.0
spout,150,4.4;4.3;4.2;4.1;4.0;3.2
tarteaucitron,145,4.4;4.3;4.2;4.1;4.0;3.2;3.1
media,140,4.4;4.3;4.2;4.1;4.0;3.2;3.1;3.0;2.1
selections_editoriales,138,4.4;4.3;4.2;4.1;4.0;3.2
videos,135,4.3;4.2;4.1;3.2;3.1;3.0;2.1
maintenancedrane,134,4.2
eva_habillage,133,3.2;3.1;3.0;2.1;2.0;1.9
acrennes_soyezcreatifs,132,3.2
manuelsite,131,4.4;4.3;4.2;4.1;4.0;3.2;3.1;3.0;2.1
suivant_precedent,129,4.4;4.3;4.2;4.1;3.2;3.1;3.0
evasquelettes,129,3.2;3.1;3.0;2.1;2.0;1.9
sommaire,128,4.4;4.3;4.2;4.1;4.0;3.2;3.1
onglets_texte,125,4.4;4.3;4.2;4.1;3.2;3.1;3.0;2.1;1.9
roles,122,4.4;4.3;4.2;4.1;4.0;3.2;3.1;3.0
emb_pdf,122,4.4;4.3;4.2;4.1;4.0;3.2;3.1;3.0
gravatar,121,4.4;4.3;4.2;4.1;4.0;3.2;3.1;3.0;2.1;2.0
contact_libre,121,4.3;4.2;4.1;4.0;3.2;3.1;3.0;2.1;2.0
notation,120,4.4;4.3;4.2;4.1;4.0;3.2;3.1;3.0;2.1;2.0;1.9
photoswipe,119,4.4;4.3;4.2;4.1;4.0;3.2;3.1;3.0
pays,117,4.4;4.3;4.2;4.1;3.2;3.1;3.0;2.1
mes_fichiers,117,4.4;4.3;4.2;4.1;3.2;3.1;3.0;2.1;2.0;1.9
links,114,4.4;4.3;4.2;4.1;4.0;3.2;3.1;3.0;2.1
ahuntsic,111,4.3;4.2;3.2;3.1;3.0;2.1;2.0;1.9
eva_install,107,3.2;3.1;3.0;2.1;2.0;1.9
linkcheck,104,4.4;4.3;4.2;4.0;3.2;3.1;3.0
ariel,101,4.4;4.3;4.2;3.2
mll,100,4.4;4.3;4.2;4.1;4.0;3.2;3.1;3.0;2.1
fullcalendarcompat,100,4.4;4.3;4.2
declarerparent,100,4.3;4.2;4.1;4.0;3.2;3.1
imprimir_documento,99,4.3;4.2;4.1;3.2;3.1;3.0;2.1;2.0;1.9
article_accueil,98,4.4;4.3;4.2;4.1;3.2;3.1;3.0;2.1
wcalendar,97,2.1;2.0;1.9
fancybox,97,3.2;2.1;2.0;1.9
bootstrap4,97,4.4;4.3;4.2;4.1;4.0;3.2
jeux,95,4.4;4.3;4.2;4.1;3.2;3.1;3.0;2.1;2.0;1.9
uploadhtml5,91,4.3;4.2;4.1;4.0;3.3;3.2;3.1;3.0
spipr_educ,91,4.3;4.2;3.2
owlcarousel,91,4.4;4.3;4.2;4.1;4.0;3.2;3.1;3.0
bank,90,4.3;4.2;4.1;3.2;3.1
selecteurgenerique,87,4.4;4.3;4.2;4.1;4.0;3.2;3.1;3.0;2.1;2.0
menuder,85,4.3;4.2;4.1;3.2;3.1;3.0;2.1;2.0;1.9
spipdf,83,4.3;4.2;4.1;4.0;3.2;3.1;3.0;2.1
cookiebar,83,4.4;4.3;4.2;4.1;3.2;3.1;3.0;2.1
thumbsites,82,4.3;4.2;4.1;3.2;3.1;3.0;2.1;2.0;1.9
rechremp,82,4.4;4.3;4.2;4.0;3.2;3.0;1.9
pb_couleur_rubrique,82,4.3;4.2;4.1;4.0;3.2;3.1;3.0;2.1;2.0
recommander,81,4.3;4.2;4.1;3.2;3.1;3.0;2.1;2.0;1.9
tradrub,80,4.4;4.3;4.2;4.1;4.0;3.2;3.1;3.0;2.1
spip_reset,80,4.4;4.3;4.2;4.1;4.0;3.2;3.1;3.0;2.1
grandecrire,80,4.3;3.2
snippets,78,3.2;3.0;2.1;2.0;1.9
roles_documents,78,4.4;4.3;4.2;4.1;4.0;3.2;3.1
qrcode,78,4.4;4.3;4.2;4.1;3.2;3.1;3.0;2.1
titres_typographies,75,4.4;4.3;4.2;3.2
savecfg,74,4.3;4.2;3.2;3.1;2.1
fb_modeles,74,4.4;4.3;4.2;4.1;3.2;3.1;3.0;2.1
multilang,73,4.4;4.3;4.2;4.1;4.0;3.2;3.1;3.0;2.1
mini_calendrier,73,3.2;3.1;3.0;2.1;2.0;1.9
mots_techniques,72,4.4;4.3;4.2;4.1;4.0;3.2;3.1;3.0
mediaspip_player,72,4.3;3.2;3.1;3.0
compteurgraphique,72,4.1;3.1;3.0;2.1;2.0;1.9
slogan,70,2.1;2.0;1.9
prix,70,4.3;4.2;4.1;3.2;3.1;3.0;2.1
visiteurs_connectes,69,4.4;4.3;4.2;4.1;3.2;3.1;3.0;2.1;2.0;1.9
babbi,69,4.3;4.2;3.2;3.1;3.0;2.1;2.0;1.9
tablesorter,68,4.4;4.3;4.2;4.0;3.2;3.1;3.0;2.1;2.0
referer_spam,68,4.4;4.3;4.2;4.1;3.2;3.1
intl,68,4.3;4.2;4.1;3.2
massicot,67,4.3;4.2;3.2;3.1
coloration_code,67,4.4;4.3;4.2;4.1;4.0;3.2;3.1;3.0;2.1;2.0;1.9
ciautoriser,67,4.3;4.2;4.1;3.2;3.1;3.0;2.1;2.0
smush,66,4.3;3.2;3.1;3.0
coordonnees,66,4.4;4.3;4.2;4.1;3.2;3.1;3.0;2.1
medias_responsive_mod,65,4.4;4.3;4.2;4.1;3.2;3.1
diapo,64,4.4;4.3;4.2;4.0;3.2;3.0;2.1;2.0;1.9
picto,63,4.4;4.3;4.2;4.1;3.2;3.0
specialnormandie,61,4.2
eva_calendrier,61,3.2;3.1;3.0;2.1;2.0;1.9
adminergobandeau,60,4.3
eva_agenda,59,3.2;3.0;2.1;2.0;1.9
fckeditor,58,2.1;2.0;1.9
acrennes_ecoles,58,3.2
archivage,57,4.3;2.1
squelette_multiflex,56,4.3;3.2;3.1;3.0;2.1;2.0;1.9
clevermail,55,4.3;4.2;4.1;3.2;3.1;2.1;2.0
cibc,55,4.3;4.2;4.1;4.0;3.2;3.0;2.1
spout_spipcsv,54,4.3;3.2
motus,53,4.3;4.2;4.1;3.2;3.1;3.0;2.1;2.0
cistyle,53,4.4;4.3;4.2;4.1;3.2;3.0
cibloc,53,4.4;4.3;4.2;4.1;3.2;3.1;3.0
twitter,52,4.3;4.2;4.1;3.2;3.1;3.0
querypath,52,4.4;4.3;4.2;4.1;3.2
nemequittepas,52,4.4;4.3;4.1;3.2
spipr_dane,51,4.4;4.3;4.2;4.1
statut_articles,50,4.3;4.1;4.0;3.2;3.1
squelettesmots,50,4.4;4.3;4.2;4.1;3.2;3.1;3.0;2.1;1.9
melusine,50,4.1;3.2
historique_spip32_documents,50,4.4;4.3;4.2;4.1
sarkaspipr,49,4.4;4.3;4.2;4.1;4.0;3.2;3.1;3.0
frclassique,49,4.3
pp_encadres,48,4.2
notifavancees,48,4.4;4.3;4.2;4.1;4.0;3.2;3.1;3.0
interface_traduction_objets,48,4.4;4.3;4.2;4.1;3.2
gestdoc,48,2.1;2.0;1.9
alias,48,4.4;4.3;3.2;3.1;2.1;2.0
varicelle,47,4.3;4.2;3.2;3.1;3.0;2.1
responsivenav,47,4.3;4.2;4.0;3.2;3.1
prism,47,4.4;4.3;4.2
noie,47,3.2;3.1;3.0;2.1;2.0;1.9
masquer,47,4.4;4.3;4.2;4.1;3.2;3.1;3.0;2.1
languepreferee,47,4.4;4.3;4.2;4.1;3.2;3.0
image_cliquable,47,4.4;4.3;4.2;4.1;3.2;3.1;3.0;2.1;2.0;1.9
formidablepaiement,47,4.3;4.2;4.1;3.2
faq,47,4.4;4.3;4.2;3.2;3.1;3.0;2.1;2.0
article_album_photo,47,2.1;2.0;1.9
previsup,46,4.3
objets_virtuels,46,4.4;4.3;4.2;4.1;3.2;3.1
evabonus,46,3.2;3.1;3.0;2.1;2.0
balisesession,46,1.9
histoconnexions,45,4.4;4.3;4.2;4.1;3.2
gisgeom,44,4.4;4.3;4.2;4.1;4.0;3.2;3.1
contacts,44,4.4;4.3;4.2;3.2;3.1;3.0;2.1
anythingslider,44,4.3;4.2;3.2;3.1;3.0;2.1
statsobjets,43,4.4;4.3;4.2;4.1;4.0;3.2;3.1
malettre,43,4.4;4.3;4.2;4.1;3.2;3.1;3.0;2.1;2.0;1.9
exclure_sect,43,4.4;4.3;4.2;4.1;3.2;3.1;3.0;2.1;2.0
carto_itineraire,43,4.3
secteur_langue,42,4.4;4.3;4.2;4.1;3.2
rubrique_en_diaporama,42,3.0;2.1;2.0;1.9
porte_plume_intertitres,42,4.4;4.3;4.2;4.1;4.0;3.1
outils_article,42,4.3;4.1;3.2;3.1;3.0;2.1;2.0;1.9
nyro,42,2.1;2.0
licence,41,4.3;4.2;4.1;3.2;3.1;3.0
gviewer,41,4.3;4.2;3.2;3.1;3.0;2.1;2.0
urls_pages,40,4.3;4.2;4.1;3.2;3.1
sitemap_images,40,4.3;4.2;4.1;4.0;3.2;3.1
commandes,40,4.3;4.2;4.1;3.2;3.1;3.0
spip2spip,39,4.3;4.2;3.2;3.0;2.1;2.0;1.9
rssarticle,39,4.3;4.2;4.1;3.2;3.1;3.0;2.1;2.0
pp_codes,39,4.4;4.3;4.2;4.1;4.0;3.2;2.1;2.0
piwik,39,4.3;4.2;4.1;3.2;3.1;3.0;2.1;2.0
inscription3,39,4.3;4.2;3.2;3.1;3.0;2.1
cimobile,39,4.3;4.2;4.1;3.2;3.1;3.0;2.1
mesfavoris,38,4.4;4.3;4.2;4.1;4.0;3.2;3.1;2.1
eva_geometrie,38,4.2;3.2;3.0;2.1;2.0;1.9
cmots,38,4.4;4.3;4.2;3.2;3.1;3.0
html5up_editorial,37,4.3;4.2;4.1;3.2
googleplus1,37,3.2;3.1;3.0;2.1;2.0
fullcalendar_facile,37,4.4;4.3;4.2;4.1;3.2;3.1
formidable_ts,37,4.4;4.3;4.2;4.0;3.2
cookiechoices,37,4.3;4.1;3.2;3.1;3.0
association,36,3.2;3.0;2.1;2.0;1.9
actijour,36,3.0;2.1;2.0;1.9
spip_hop,35,4.4;3.2;3.1;3.0
lim,35,4.3;4.2;3.2;3.1
imageflow,35,3.0;2.1;2.0;1.9
icalendar,35,4.4;4.3;4.2;4.1;3.2;3.0;2.1
va,34,3.2;3.1;3.0;2.1
medias_nettoyage,34,3.2;3.1;3.0;2.1
gma,34,4.3;4.2;4.1;3.2
fontawesome5,34,4.3;4.2;4.1;4.0;3.2
webfonts,33,3.2;3.1;3.0;2.1;2.0
sitemap,33,3.0;2.1;2.0;1.9
magnet,33,4.4;4.3;4.2;3.2;3.1
geomap,33,2.1;2.0;1.9
foundation_6,33,4.3;4.2;4.1;3.2;3.1
fbantispam,33,4.3;4.1;3.2;3.1;3.0;2.1;2.0;1.9
cirr,33,4.3;4.2;4.1;3.2;3.1;3.0;2.1;2.0
chosen,33,4.3;4.1;3.2;3.1;3.0
theme,32,3.0;2.1;2.0;1.9
sdn,32,4.4;4.2
sdc,32,4.4;4.2
rssconfig,32,4.4;4.3;4.2;4.1;3.2;3.1;3.0
paniers,32,4.3;4.2;4.1;3.2;3.1;3.0
multiviewer,32,3.2;3.0;2.1;2.0;1.9
boutons_admin_supp,32,3.0;2.1;2.0;1.9
timezone,30,4.3;4.2;4.1;3.2;3.0
tickets,30,4.4;4.3;4.2;4.0;3.2;3.1;3.0;2.0
rechercheetendue,30,2.0;1.9
motsar,30,4.4;4.3;4.2;4.1;3.2;3.1
menu_anime,30,4.3;4.2;4.1;3.2;3.1;3.0
identifiants,30,4.4;4.3;4.1;3.2;3.1
spipbb,29,2.1;2.0;1.9
previsu_redac,29,2.1;2.0;1.9
pb_cesure,29,4.3;4.2;3.2;3.1;2.1;2.0;1.9
legal_en,29,4.3;4.2
ispip,29,3.0;2.1;2.0;1.9
incarner,29,4.3;4.2;3.2
formidable_mailsubscribers,29,4.4;4.3;4.2;3.2;3.0
beespip,29,3.2;3.1;3.0;2.1;2.0;1.9
zpip,28,4.3;4.2;3.2;3.1;3.0
metas,28,4.3;4.2;4.1;3.2;3.0;2.1;2.0
bando,28,2.1
itwx,27,4.1;3.2;3.1;3.0;2.1
frimousses,27,4.4;4.3;4.2;3.2;3.1
formidableparticipation,27,4.4;4.3;4.2;4.1;4.0;3.2;3.0
eva_mentions,27,3.0;1.9
alerte_urgence,27,4.4;4.3;4.2;4.1;3.2;3.1
swfupload,26,3.2;3.1;3.0;2.1;2.0;1.9
mastodon,26,4.4;4.3;4.2;3.2
aveline,26,3.2;3.1;3.0;2.1
sm,25,4.4;4.3;4.2;4.0;3.2;2.1;2.0
lister_config,25,4.3;4.2;4.1;4.0;3.2;3.1;3.0
inscription2,25,2.1;2.0;1.9
eva_freemind,25,3.2;3.1;3.0;2.1;2.0;1.9
emogrifier,25,4.3;4.2;4.1;4.0;3.2;3.1
date_inscription,25,4.3;4.0;3.2;3.1;3.0
bigfoot,25,4.4;4.3;4.2;3.2;3.1
auteurspartout,25,4.4;4.3;4.2;4.1;4.0;3.2
abonnements,25,4.3;4.2;4.1;3.2;3.1;3.0
partageur,24,4.3;4.2;3.2;3.1;3.0
messagerie,24,4.4;4.3;4.0;3.2;3.1;3.0;2.1;2.0
inscriptionmotdepasse,24,4.3;4.2;3.2;3.1
formulaireupload,24,4.3;4.0;3.2;3.1;3.0;1.9
etiquettes,24,4.3;4.2;3.2;3.1;3.0;2.1;2.0
dw2,24,2.1;2.0;1.9
dd,24,4.3;4.2;3.2;3.0;2.1;2.0
ajuster_intertitres,24,4.4;4.3;4.2;4.1
taa,23,3.2;3.0;2.1
squelette_maparaan,23,3.2;3.1;3.0;2.1;2.0
produits,23,4.3;3.2;3.1
medoc,23,4.3;3.2;3.1;3.0
intertitrestdm,23,3.2;3.1;3.0;2.1;2.0;1.9
fpdf,23,4.4;4.3;4.1;3.2;3.1;3.0;2.1
badge_don,23,4.3;3.2;3.1;3.0;2.1
arty,23,3.2;2.1;2.0;1.9
anaclic,23,3.2;3.1;3.0;2.1
spipopup,22,4.3;4.2;3.2;3.1;2.1
dewplayer,22,2.1;2.0;1.9
chartjs,22,4.4;4.3;4.2;4.1;4.0;3.2;3.1
bootstrap3,22,4.3;4.2;3.2;3.1
zippeur,21,4.4;4.3;4.2;4.1;3.2;3.0;2.1
vider_rubrique,21,4.3;4.2;4.1;3.2;3.0
newsletters_modeles,21,4.3;4.2;4.1;4.0;3.2
moderation,21,4.4;4.3;3.2;3.1
http,21,4.4;4.3;4.2;4.1;4.0;3.2
forum_sans_previsu,21,3.2;3.1
csvimport,21,3.2;3.0;2.1;2.0;1.9
css_imbriques,21,4.3;4.2;3.2;3.1;2.1
cisf,21,4.3;4.1;3.2;3.0;2.1
alternatives,21,3.0;2.0;1.9
zvide,20,3.2;3.1;3.0;2.1
trad_rub,20,3.2;3.0
titre_logo,20,4.3;4.2;4.1;3.2;3.1;3.0;2.1
surcharges,20,2.1;2.0;1.9
sedna,20,4.4;4.3;3.2;3.0;2.1;2.0;1.9
multilingue,20,4.4;4.3;4.2;4.1;3.2;3.0
logo_svg,20,3.2
html5_responsive,20,4.4;4.3;4.2;4.1;4.0;3.2;3.1
getid3,20,4.3;4.2;3.2;3.0;2.0
fabrique,20,4.3;4.2;4.1;3.2;3.1;3.0
enviar_email,20,3.0;2.1;2.0;1.9
convertisseur,20,4.3;4.2;4.1;3.2;3.0;1.9
archive,20,4.4;4.3;4.2;4.1;4.0;3.2;3.1;1.9
switchcase,19,4.3;4.2;4.1;3.2
spip_out_ouvrants,19,3.2;3.1;3.0;2.1;2.0
sktheme,19,2.1;2.0;1.9
pages_mobiles,19,3.2;3.0
opensearch,19,4.4;4.3;3.2;3.1;2.1
modelexergue,19,4.4;4.3;4.2;3.2;3.1
meteo,19,2.1;2.0;1.9
lister_plugins,19,4.3;4.2;3.2;3.1;3.0
html5up_phantom,19,4.4;4.3;4.2;4.1;3.2;3.1
feuillederoute,19,4.3;4.2;3.2;3.1
evajclic,19,3.0;2.1;2.0;1.9
cirv,19,4.3;4.1;3.2;3.0;2.1
alpha,19,4.4;4.3;4.2;4.1;3.2;3.0
spipiris,18,3.1;3.0;2.1;2.0;1.9
reservation_evenement,18,4.3;4.2;4.1;4.0;3.2
panoramas,18,3.0;2.1;2.0;1.9
nettoielogs,18,4.2
multidomaines,18,4.4;4.3;4.2;3.2
markdown,18,4.4;4.3;4.2;4.1;3.2;3.1
legendes,18,4.3;3.2;3.1;3.0;2.1
grenier,18,4.3;4.2;3.2;3.1;3.0
grappes,18,4.4;4.3;4.2;4.0;2.0
ciimport,18,4.3;4.1;3.2;3.1;3.0;2.1
ciar,18,4.3;4.1;3.2;3.0;2.1
barre_typo_generalisee,18,2.1;2.0;1.9
zotspip,17,4.4;4.3;4.2;4.0;3.2;3.1;3.0;2.1
roles_auteurs,17,4.3;4.2;4.1;3.2;3.1;3.0
pp_loremipsum,17,4.3;4.2;4.1;3.2;3.1;3.0;2.0
phpmv,17,2.1;1.9
html5up_spectral,17,4.3;4.2;4.1;4.0;3.2
geoportail,17,3.0;2.1;2.0
fmp3,17,3.2;3.0;2.1;2.0
egt,17,2.1;2.0;1.9
dida,17,3.0;2.1;2.0;1.9
curator,17,4.3;4.2;3.2;3.1;3.0
csv2spip,17,2.1;2.0;1.9
cisquel,17,4.3;4.1;3.0;2.1;2.0
ciparam,17,4.3;4.1;3.0;2.1;2.0
ciarchive,17,4.3;4.2;4.1;3.1;3.0
bonne_annee,17,4.4;4.3;3.2;3.1;2.1
apsulis_config_generale,17,4.4;4.3;4.1;3.2;3.1
accesgroupes,17,1.9
zblobul_core,16,3.2
verifie31,16,3.1;3.0
uploadify,16,3.2;3.0;2.1
skel,16,4.4;4.3;4.1;3.1
saisie_calcul,16,4.4;4.3;3.2
prive_fluide,16,3.2;3.1;3.0
no_br,16,3.2;2.1;2.0
mathjax_latex,16,4.3;4.1;3.2
homonymes,16,2.0;1.9
evafiche,16,3.0;2.0;1.9
ciwidget,16,4.3;4.2;4.1;3.2
apsulis_vide,16,4.4;4.3;4.1;3.1
abomailmans,16,4.3;4.2;3.2;3.1;3.0;1.9
todo,15,4.3;3.2;3.1;3.0
rubriques_virtuelles,15,4.3;4.2;3.2
photo_infos,15,3.2;3.1;3.0;2.1
mediaboxavectexte,15,3.2;3.1;3.0
import_ics,15,4.4;4.3;4.2
htmlminifier,15,4.3;4.2;4.0;3.2
facd,15,4.3;4.2;3.2;3.0
evabinettes,15,3.0;2.1;2.0;1.9
encarts,15,4.3;4.2;3.2;3.1;3.0;2.1
csv2auteurs,15,4.2;3.2;3.1;3.0
boussole,15,4.4;4.3;3.2;2.1
ancres_douces,15,3.0;2.1;2.0
accordion,15,4.4;4.3;4.2;4.1;4.0;3.2
zblobul_fiafe,14,3.2
walma,14,2.0;1.9
tipafriend,14,4.3;4.2;4.0;3.2;3.1;3.0;2.1
smoothgallery,14,3.0;2.1;2.0;1.9
rang_auteurs,14,4.4;4.3;4.2;4.1
lire_aussi,14,4.3;3.1;2.1;2.0
jquerysuperfish,14,4.3;4.2;4.1;3.2;3.1;3.0;2.1
guestbook,14,3.0;2.1;2.0
gcalendar,14,3.0;2.1;2.0;1.9
evapod,14,3.0;2.0;1.9
ciag,14,4.3;4.1;3.2;3.0;2.1
basicone,14,4.3;4.2;3.1
bank_presta,14,3.2
afficher_objets,14,2.1
abozones,14,4.3;4.2;4.1;3.2;3.1
zinit,13,4.3;4.2;4.1;3.2;3.1
tablematieres,13,3.2;3.0;2.1
tabledata,13,3.0;2.1;2.0;1.9
spip_400,13,4.3;4.0;3.2;3.1;3.0
sitemap_news,13,4.3;4.2;4.0;3.2
shoutbox,13,3.2;2.1;2.0
rezosocios,13,4.3;4.2;3.2;3.1;3.0
retoursimple,13,3.2;3.0;2.1;2.0
modesto,13,4.3;4.2;3.2
gestiondocuments,13,1.9
easysqueletting,13,2.1;2.0;1.9
captcha2,13,3.2;2.0;1.9
apropos,13,4.3;4.2;3.2;3.1;2.1
ajaxfiltre,13,4.4;4.3;4.2;4.0;3.2
tagsphere,12,3.1;3.0;2.1;2.0
supprimeinvitecas,12,4.2
squelette_median,12,2.1;2.0
pdf_version,12,4.3
mosaique,12,3.1;3.0
indexer,12,4.3;4.2;3.2
iconespedago,12,3.2;3.0;2.1;2.0
geographie,12,4.3;4.2;3.1
factures,12,4.3;4.2;3.2
extras,12,2.1;2.0
diogene,12,3.2;3.1;3.0
date_connexion,12,4.4;4.3;3.2
ciform,12,4.3;4.1;3.0;2.1
bannieres,12,4.3;3.2;2.1;2.0;1.9
accordeon,12,3.2;3.0;2.1
theme_maparaan,11,3.2;3.1;3.0;2.1
step,11,2.1
spipmotion,11,3.2;3.0;2.0
skel_aca_v89,11,3.2;3.1
redirhttps,11,3.2;3.1;3.0
profils,11,4.3;4.2;3.2
prix_objets,11,4.3;4.2;4.1;3.2
plugonet,11,4.4;4.3;4.2;3.2;3.0
minus,11,4.4;4.3;3.2;3.1;3.0
medias_logos,11,3.2
journal,11,3.0;1.9
infophp,11,4.2;3.2;3.1
info_spip,11,4.4;4.3;4.1;3.2
glossaire,11,4.2;3.2;3.0;2.1;2.0
gis_agenda,11,4.4;4.3;4.2;3.2
freepaper2,11,2.1;2.0
embed_code,11,3.2;3.1;3.0
coloriagedist,11,3.0;2.1;2.0;1.9
cinotif,11,4.3;4.1;3.2;3.1;3.0;2.1
changestatut,11,4.3;4.2;4.0;3.2;3.0;2.1
campagnes,11,4.3;4.2;3.2
thickbox,10,2.1
squelette_einsteiniumist,10,4.3;3.2;3.1;3.0;2.1
squelavignon,10,4.3
spipr_doc,10,4.3;4.1;4.0;3.2;3.1;3.0
spiperipsum,10,4.3;4.2;2.1
recherche,10,4.3;3.2;3.1;3.0;2.1;1.9
op,10,2.1;2.0;1.9
langonet,10,4.4;4.3;3.2;3.1;3.0
jfu,10,3.2;3.1;3.0
jclicmodele,10,4.2;2.1;2.0
introduction_explicite,10,4.4;4.3
html5up_massively,10,4.3;4.1;3.2
h5p,10,4.3;4.2
gamudebase,10,4.3;3.2
forkawesome,10,4.4;4.3;4.2
emballe_medias,10,3.2;3.1;3.0
edition_directe,10,4.3;3.2;3.0
doc2img,10,4.2;3.2;3.0
diogene_licence,10,3.2;3.1;3.0
crcn,10,4.2
cisec,10,4.3;4.2;4.1;3.2;3.0
adxmenu,10,4.4;4.3;3.2;3.1;3.0;2.1
ymediaplayer,9,2.1;2.0;1.9
viaspip,9,3.0;2.1
usercreator,9,4.3
spipicious,9,4.3;3.2;3.1;3.0;2.1
saisie_liste,9,3.2;3.1
rubriqueur,9,4.4;4.3;3.2;3.1
ressource,9,4.3;4.2;3.2;3.1
pubban,9,3.2;3.1;3.0;2.1
pensebetes,9,4.4;4.3;4.0;3.1
mediaspip_config,9,3.2;3.0
mathjax_spip,9,3.0;2.1
livraison,9,4.3;4.2;3.2
listes_articles_completes,9,4.3;3.2;3.0;2.1;2.0
kitcnrs,9,4.3;3.2;3.1;3.0;2.1
jquerymasonry,9,4.3;3.2;3.1;2.1
imageredim,9,3.2;3.0;2.1
html5up_forty,9,4.3;4.2;3.2
ezrest,9,4.4;4.0;3.2
enskit,9,2.1
diogene_gerer_auteurs,9,3.2;3.0
cital,9,3.2;2.1;2.0
cifiltre,9,4.3;4.1;3.0;2.1;2.0
cid,9,4.3;4.1;3.0;2.1
blip,9,3.0;2.0;1.9
bbcode_propre,9,2.1;2.0;1.9
autolang,9,4.3;4.2;3.2
auteurs_syndic,9,3.2;3.0
theme_einsteiniumist,8,3.2;3.0;2.1
tabbord,8,1.9
switcher,8,3.2;2.0;1.9
swiper,8,4.3;4.2
swfobject,8,3.0;2.1;2.0
spipclear,8,3.2;3.0;2.1;2.0
seances,8,3.2;3.0;2.1
podcast,8,4.4;4.3;3.2;3.0
optimages,8,4.4;4.3
moulinette,8,4.3;4.1;3.1
motpassecomplexe,8,4.3;3.2;3.1
lettres,8,3.0;2.1;2.0;1.9
jquery192,8,1.9
inclureajaxload,8,3.2;3.1;2.1
habillages,8,3.0;2.0;1.9
grigri,8,4.3;4.1;3.2
fusion_spip,8,4.3;4.1;3.2;3.0
flipbook,8,4.4;4.3;4.2
facteurmonitoring,8,4.3;3.2;3.1
em_doc2img,8,3.2;3.0
editer_liens_simples,8,3.1;3.0
dompdf,8,4.3;4.0;3.2
citrace,8,4.3;4.1;3.1;3.0
cispam,8,4.3;4.1;3.0;2.1
cipr,8,4.3;4.1;2.1;2.0
cilien,8,4.3;4.1;3.0
calalter,8,2.1;2.0;1.9
cadresinfos,8,4.4;4.3
cache,8,3.2;3.1
bouq,8,4.2;3.2;3.0
blocsdepliables_zcm,8,4.3;4.2
aa,8,2.1;2.0;1.9
viaspip_theme,7,3.0;2.1
themes_interface_privee,7,2.1
statsjs,7,4.3;3.2;3.0;2.1
squelette_symphonie,7,4.2
spipr_blog,7,4.4;4.3;4.2;3.2;3.0
socicon,7,4.3;4.1;4.0;3.2
sms,7,4.3;3.2;3.1
sendagi,7,4.4;4.3;4.2;4.1
rspipcm,7,3.2;3.1;3.0;2.1
prive_fluide_remix,7,3.2
pagination_infinie,7,4.3;4.2
migration,7,3.2;3.1;2.1;2.0
mediaspip_init,7,3.2;3.0
mediaspip_core,7,3.2;3.0
logo_auto,7,4.3;4.2;3.2
liens_sortants_ouvrants,7,2.1
kamakura,7,4.3;4.2
japibas,7,3.2;3.1;3.0
images_inline,7,4.2
image_ragged,7,3.0;2.1;2.0;1.9
icones_semantiques,7,3.2;3.0;2.1
html5up_story,7,4.3;4.1
html5up_escape_velocity,7,4.3;4.2;3.1
html5,7,2.1
galactic,7,4.4
fond_espace_prive,7,3.2;3.1
evageom,7,3.0;1.9
em_spipmotion,7,3.2;3.0
dist,7,3.1;3.0;1.9
diaporama_innerfade,7,3.1;3.0;2.0;1.9
date_modif_manuelle,7,4.4;4.3;4.2;4.1;3.2
cs_osi_prog,7,3.2
couleurs,7,4.2
comarquage,7,4.3;3.2;3.0;2.1
colorscope,7,3.0;2.1;2.0
charte,7,4.3;3.0;2.1;2.0
bonnenouvelle,7,4.2
bolo,7,3.2;3.0
arp,7,4.4;4.2;4.1;3.2;3.0
antispam,7,4.3;2.0;1.9
agenda_inscription,7,4.3;4.2;3.2
zcm,6,4.3;4.2;3.2
webfonts2,6,3.2
vtimeline,6,4.3;4.2
univers,6,4.4;4.3
ueno,6,4.3;4.0;3.2
theme_sarka_headlines_blue,6,3.0;2.1
supersized,6,4.3;3.2;3.0
stocks,6,4.3;3.2
souscription,6,4.3;4.2;3.2
sondages,6,2.0;1.9
ruegamu,6,3.2
pp_latex,6,3.1;3.0;2.1;2.0
paypal,6,4.1;3.2;3.1
livredor,6,3.2;2.0
livre_2,6,3.2;3.1;3.0;2.1
lister_logos,6,4.3;4.1;3.2
lazyload,6,4.3;3.2;3.0;2.1;2.0;1.9
koinos,6,4.4;4.3
intranet,6,4.3;3.2;3.0
griseusicobarre,6,3.2;3.1;3.0
gamuza,6,3.2
flickr_cc,6,3.2;2.1;2.0
fadingrollover,6,3.0;1.9
evanews,6,3.0;2.1;2.0
empecher_double_clic,6,4.4;4.3;4.2;3.2
dev,6,4.3;4.2;3.2;3.0
article_diaporama,6,2.1;2.0
zpip_html5,5,2.1
xspf,5,1.9
voltaire,5,3.2;3.0;2.1
versioning,5,4.3;4.2;4.1;3.2
vernalisaddon,5,3.0;2.1
vernalis_liste_extras,5,3.0;2.1
vernalis_gestion_elus,5,3.0;2.1
urledit,5,2.1;2.0
typo_rubrique,5,1.9
tinymce,5,3.2;3.1;3.0;1.9
theme_marguerite,5,3.2;3.1;3.0
theme_bsspacelab,5,3.1;3.0
temps_lecture,5,4.4;4.3;4.2;4.1
tabcsv,5,3.2
svptype,5,4.4
svpapi,5,4.4;4.0
statsscalp,5,4.3;4.2
squelette_multiflex_officiel,5,4.2;4.1
spipimmo,5,2.1;2.0;1.9
speedsyndic,5,3.2;2.1;1.9
simplecal,5,4.3;4.2;3.2
phpcurl,5,4.3;4.0;3.2
pgn4spip,5,4.4;4.3;4.2;3.2
pdk,5,3.2;3.0;2.1
notifications_archive,5,3.2;3.1
modules,5,4.3;4.2;4.0
microblog,5,3.0;2.1
logos_roles,5,3.2
liaison_objet,5,4.3;4.2;4.0
kconf,5,2.1;2.0
kawa,5,4.3;3.2
interface_adoucie,5,2.1;2.0
inscriptionconnexion,5,4.3;4.2;3.2
imlien,5,3.2;3.1;3.0
imapdepart,5,3.2;2.1;2.0
geol,5,4.3;3.1
gamulegal,5,4.3;4.1
fullcalendar,5,2.1
fsgt_mpsp,5,3.2;2.1;2.0
freepaper,5,2.0;1.9
flash_diaporama,5,2.1;2.0
ffedata,5,4.4;4.3;3.1
epubreader,5,3.2;3.1;3.0
date_creation,5,4.3;4.2
cite,5,4.3;4.2;3.0;2.1
cichat,5,4.3;4.1;3.0;2.1;2.0
choix_police,5,2.1;2.0
chess,5,3.2;3.0;1.9
blocks,5,4.3;4.2
bigform,5,4.3;4.1
bible,5,4.3;2.1
banbase,5,4.2
annuaire,5,4.3;4.2;4.1;3.0;1.9
alter-layout,5,1.9
activite_editoriale,5,3.2;3.1;2.1
abcalendrier,5,2.1;2.0;1.9
zoundation,4,4.2;3.2;3.1
z5,4,3.2;3.1
xiti,4,4.2;3.2
xcontact,4,4.3;4.2
woopra,4,2.1;2.0;1.9
viaspip32,4,3.2
viaspip3,4,3.0
typo,4,2.1;2.0
tutocommerce,4,4.3;3.2
trousseajwz,4,4.3;4.2
themes,4,3.1;3.0
themeens,4,2.1
theme_tincredible,4,3.1;3.0;2.1
theme_outdoor,4,3.2;3.1;3.0
theme_bsunited,4,4.3;3.1;3.0
theme_bsreadable,4,4.1;3.2;3.0
theme_bsinfornet,4,4.2
textes_etendus,4,4.3
syndicbc,4,4.3;4.2
squelette_leadescent,4,4.2;3.2;2.1
spip_thelia,4,2.1;1.9
simplesaml,4,4.1
showreadme,4,4.4
seminaire,4,3.2;3.1;3.0
sale,4,4.1;3.2;3.1;2.1
saisie_choix_couleur,4,4.2;3.2;2.1
rubrique_a_linscription,4,4.3;3.2;3.1;2.1
roles_selections,4,4.3;4.2;4.0;3.2
recherche_avancee,4,3.0;2.1;1.9
recaptcha,4,2.1;1.9
precode,4,4.3;3.2
postscriptum,4,2.0
portfolio_simple_v2,4,3.2;3.0
pmb,4,4.3;3.2;3.1
photos,4,2.1;2.0
peuplementldap,4,4.2;2.1
pcv,4,2.1;2.0;1.9
pb_pagerank,4,2.0;1.9
partenaires,4,4.2;3.2
param,4,1.9
ortho,4,2.1;2.0;1.9
motspartout,4,1.9
motscreer,4,4.3;4.2;3.2
modelesajwz,4,4.3;4.2
modeles_avec_notes,4,4.4;4.3
modele_video,4,4.3
marches,4,3.0;2.1;1.9
maquettes,4,4.3
macrosession,4,4.3;3.2
lm2,4,2.1
linkschecker,4,4.1
kaye,4,3.0;2.1
jqueryp,4,2.0;1.9
jflipbook,4,2.1;2.0;1.9
itwx_2_3_7_classic,4,2.1
itheora,4,3.0;2.1;2.0
itersimplexml,4,3.2;3.1;3.0
iterateur_xls,4,4.3;3.2
isocode,4,4.4
infornet,4,4.2
infieldlabel,4,4.3;4.2;3.2
ie_extras,4,3.0;2.1;2.0
htmlpurifier,4,3.2;3.1
html5up_telephasic,4,4.3;4.2
html5up_solid_state,4,4.3;3.2
html5up_hyperspace,4,4.3;3.2
homosw,4,1.9
home,4,3.2;3.1
hal_m,4,4.4;4.3;4.2
groupes,4,2.0
gribouille,4,4.4
googleajaxsearch,4,3.1;3.0;2.0
gins,4,2.1
gerer_date,4,2.0;1.9
galactic_contrib,4,4.4
formidable_retour_etendu,4,4.4;4.3;4.2
formidable_participation_dest,4,4.4;4.3
formatsextras,4,4.3
forcer_choix_rubrique,4,2.1;1.9
feedback,4,4.3;3.0;2.1
ezmashup,4,4.4
ezcodec,4,4.4
ezcheck,4,4.4
exif,4,1.9
effurlprop,4,2.1;1.9
dist_theme_waz,4,4.3;3.2
diogene_spipicious,4,3.2;3.0
debardeur,4,4.4
dame,4,4.4;4.3;3.2
cvt_rechercher,4,4.3;4.2;4.0
commandes_abonnements,4,4.2;4.1
collectionjson,4,4.2;4.1
clil,4,4.2;3.2
cachelab,4,4.4;4.3;4.2
agendax,4,2.1;1.9
yoxview,3,3.1;3.0;2.1
xagenda,3,4.3;4.2
vst,3,2.1;1.9
typoequation,3,2.0;1.9
tweak_spip,3,1.9
traduiretexte,3,4.3;3.2
tooltip,3,3.2;3.1;3.0
titreparent,3,2.1;2.0;1.9
titrecourt,3,3.0;2.0
theme_sarka_headlines_green,3,3.0
theme_sarka_ecology,3,3.0;2.1
theme_sarka_arclite,3,3.0
theme_keepitsimple,3,4.2;3.0
theme_bsjournal,3,3.2;3.0
theme_bsflatly,3,3.1;3.0
theme_bscyborg,3,3.0
theme_bs4simplex,3,4.4;4.3
theme_bs4flatly,3,4.3
the_morning_after,3,2.1;2.0
telecharger_ebooks,3,4.2;3.2
tablos,3,2.1
supportedversions,3,4.4;4.3
stats_data,3,4.3;4.2;3.2
spipal,3,2.1
spectacle,3,4.3;4.2
securimage,3,3.0;2.1
sdf,3,4.2;3.2
scrutari_export,3,4.3;4.2
scrutari_client,3,4.2
sav,3,3.2
revision_nbsp,3,4.2;3.2
reservations_multiples,3,4.1;4.0;3.2
refbase,3,3.0;2.1
qrcode_form,3,4.4;4.3
priveperso,3,2.1
ppps,3,4.4;4.3
portfolio_strip,3,4.3
porfolio_simple,3,3.2;2.1
plasci,3,4.4;4.3
paywall,3,4.2;3.2
panoramavr,3,4.2
paginart3,3,1.9
obfuscation_liens,3,4.3;4.2;3.2
noizetier_layout,3,4.2;4.0;3.2
nocache,3,2.1;1.9
news,3,4.2
multimediaportfolio,3,3.0;2.1
motsdf,3,4.2
minigrispip,3,3.0;1.9
mesabonnes,3,4.3;3.2;2.1
menudep,3,3.2;2.0;1.9
menuaccordeon,3,2.1;2.0;1.9
mediatheques,3,4.3;4.2
matomo,3,4.3
mailmansub,3,4.2;3.2
logosplus,3,4.3
lister_objets,3,4.3
lien_court,3,4.3;2.1
lecteuriep,3,2.1;1.9
lecteurgeo,3,2.1;1.9
ldjson,3,4.3
js_scroller,3,2.1
jquerycorner,3,3.0;2.1
jpgraph,3,3.1;3.0;2.1
jpg_rotator,3,1.9
imgcompare,3,4.3
html5up_zerofour,3,4.3;4.2
html5up_photon,3,4.3
html5_video,3,2.1;1.9
html5_medias,3,2.1
hasher,3,4.3;4.2
hal_pub,3,4.2;4.1;3.2
grille,3,4.3;2.0
gridle,3,4.2;4.0;3.2
google_agenda,3,3.2
gestion_une,3,4.2;3.2
gamutable,3,4.3
formidable_p_ms,3,4.4;4.3
foni,3,2.1;2.0
fonds,3,4.3
films,3,4.3;4.2
fckeditor2,3,1.9
exportcsv,3,2.1;2.0
exo,3,4.2;3.2
eva_menu,3,2.0;1.9
emplois,3,3.2
elasticsearch,3,4.0;3.2
easygallery,3,2.0;1.9
dublin_core,3,3.1;3.0
documents_distants,3,2.1;1.9
dist_theme_violette,3,4.3;4.2
desspam,3,3.0;2.0
depublication,3,4.1;2.1
daterubriques,3,4.3;3.1
danteaux,3,4.3
cssvar,3,4.3;4.2;4.0
css_reset,3,3.2;2.0
cron,3,4.3
courtjus,3,3.2
communaute,3,4.3
cog,3,4.0;3.2
code_postal,3,4.3
cioidc,3,4.4;4.3
cims,3,4.3;4.1
cfg_interface,3,3.2;3.0;2.1
catho73,3,4.3
caseacocher_ml,3,2.0
breves_vers_articles,3,4.3;3.0;2.1
bouton_proposer,3,2.1;2.0
boutique,3,2.1
bloc,3,4.3;3.0
blip3,3,2.1
balises_arithmetiques,3,4.2;3.2;3.0
balise_traduire,3,4.2;3.2
ariane2,3,4.3;4.2;3.0
aoto,3,4.3;4.2
alter-banner,3,2.0;1.9
alohacart,3,3.2;3.0;2.1
acteurs,3,4.2
acronymes,3,2.1;2.0
acrennes_sitepedagogique,3,3.2
accesrestreintobjets,3,4.1;4.0;3.2
xadhesion,2,4.3;4.2
webhooks_et_api,2,4.2;3.2
w3cgh,2,1.9
vu,2,2.1
voki,2,1.9
vittory,2,3.1;3.0
villebe,2,4.3;3.1
vignettes_oxygen52,2,3.2;2.1
vignettes,2,4.3
videooptin,2,4.2
verifmob,2,4.3;3.2
vcard,2,3.2
vad_auteurs,2,3.2
vacances,2,4.3
urls_par_numero,2,4.4
uniquementmarquee,2,3.2
twidget,2,2.1
tunnels,2,4.3;4.2
toggle,2,4.2
tinytypo,2,3.2
timepicker,2,3.0
timelineme,2,4.3
theme_zpresse,2,3.0;2.1
theme_themorningafter,2,3.0;2.1
theme_sarka_nautica,2,3.0;2.1
theme_sarka_headlines_purple,2,3.0
theme_presence,2,3.2
theme_newhorizon,2,3.0
theme_less_is_more,2,3.0
theme_greeny,2,3.0
theme_detachable,2,3.0
theme_coolwater,2,3.0;2.1
theme_californiumite,2,3.2;3.0
theme_bssimplex,2,3.0
theme_bscosmo,2,3.0
theme_bscerulean,2,3.0
theme_bsblog,2,3.0
theme_bsamelia,2,3.0
theme_bs4united,2,4.3
theme_bs4superhero,2,4.4;4.3
theme_bs4sketchy,2,4.3
theme_bs4readable,2,4.3;4.2
theme_bs4cerulean,2,4.2;3.2
theme_bs4balloons,2,4.3;4.0
theme_arclite_red,2,3.0
tbs,2,2.1;2.0
taxonomie,2,3.2;3.0
suwedi,2,4.0;3.2
supprimer_enveloppe_mailto,2,2.1
suploadhtml5,2,3.2
storify,2,4.3
stats_breves,2,1.9
squeloca,2,3.2
squelette_sunny,2,2.0
squelette_brominerary,2,2.1
squelavignonp1,2,4.3
sq-wellor,2,3.0;1.9
spiprz,2,4.3;4.2
spipradius,2,3.0
socialshare,2,4.3;3.2
siclem2,2,4.2
siclem,2,4.2
seenthissq,2,2.1
seenthis,2,2.1
sdc_tableau,2,3.2
saisies_mots,2,4.3;3.1
saisies_maiis,2,4.3
rubriquepreferee,2,4.2;3.2
rp_syndic,2,3.2
rp_emission,2,3.2
rp_agenda,2,3.2
resume,2,3.1
requeteursql,2,3.2;3.1
redirhttps_proxy,2,3.2
redacteur,2,1.9
recuperer_favicon,2,4.3;2.1
recommandations,2,4.3
recherche_sti,2,3.2
quickflip,2,4.3;3.2
pubs,2,4.2;3.2
proxy,2,3.2
projets,2,3.2
progart,2,3.2
produits_pdf,2,3.2
produits_liens,2,3.2
proche,2,4.3;4.2
pp_edition_publique,2,3.2
phplist,2,4.3;3.2
photospip,2,3.1;3.0
pgsquelettes,2,3.2
pgnaff,2,2.1;1.9
pgcoloriage,2,3.2
paybyurl,2,4.3
paroissessavoie,2,4.3
panier_options,2,3.2
p3savoie,2,4.3
oshiage,2,4.3
orticav3,2,3.2
orr,2,4.3;3.0
orion,2,4.3;4.2
orgchartjs,2,4.3;4.2
optionsproduits,2,4.3;3.2
onglets_pag,2,1.9
offres,2,4.3;4.1
odaiba,2,4.3
objet_archiver_anonymiser,2,4.3
nlie,2,4.3
nezu,2,4.3;4.2
newsletter_selection,2,3.2
newsletter,2,3.2;2.1
nettoyage,2,4.2;3.2
mytwitter,2,2.1
mots_obligatoires,2,4.4;4.2
mots_objets,2,2.1
motpasseexpirable,2,3.2;3.1
moteurinfos,2,1.9
mosaique_ordoc,2,3.2
modlist,2,1.9
microcache,2,2.1
menu_perso,2,4.2;3.2
median,2,3.2
mathgraph,2,4.3;4.1
marylou,2,3.0
markethon,2,4.2
mana,2,4.3
mailform,2,3.2;1.9
logo_spip,2,3.2;3.1
log,2,4.3
livres,2,4.3;3.0
lister_fonctions,2,4.3;4.1
lister_extensions_php,2,4.1;3.2
lister_exec,2,4.3;4.1
lister_dossiers,2,4.3;3.2
lister_constantes,2,4.2;3.2
lienscontenus,2,4.3;4.2
lexique,2,3.2
kitspiplma,2,2.1
jappix_mini,2,3.0;2.1
itineraires,2,4.3;2.0
interface_nuit,2,2.1;2.0
interface_couleurs_acidulees,2,2.1;2.0
infodiplo,2,4.2;3.2
infinity,2,2.1
indexe,2,4.3
inclusifclassique,2,4.3;4.2
imagesactives,2,3.0;2.1
ienspaclyon,2,2.1
ieconfigplus,2,4.3;3.2
icpe,2,2.1;1.9
i2_spiplistes,2,2.1;2.0
html5up_twenty,2,4.2;4.1
html5_landed,2,4.0;3.2
gtm,2,4.3;4.2
griseusvignettes,2,3.2;3.0
griseusico,2,3.2;3.0
gmaps_v3,2,2.1
gmap,2,2.1
gis_plus,2,4.3
geol_balades,2,4.3;3.1
geol_albums,2,4.3;3.1
gamupicker,2,4.3
gamumail,2,4.3
gamufonctions,2,4.3
gallery,2,1.9
galactic_spip_net,2,4.4
fraisdon,2,2.1
fpipr,2,1.9
fotoremix,2,2.0;1.9
formidable_reponses_commentees,2,3.2
formater,2,4.3
form_uniform,2,2.1;2.0
fichier,2,4.3
fenflo,2,1.9
feedburner,2,2.1;2.0
extensionmultilingue,2,2.1;1.9
excel,2,3.0;2.1
evb_scoopit,2,3.2
eva,2,1.9
envoiami,2,1.9
enligne,2,1.9
encadre,2,4.3
email,2,4.3
ecatalogue,2,3.0;2.1
ebook,2,4.2;3.2
dumpauto,2,4.3
dist_theme_penscratch,2,4.3;4.2
dist_theme_distyle,2,4.3;3.2
disposer,2,4.3;4.1
diogene_geo,2,3.2;3.1
diapos,2,2.1
diapokit,2,4.3;4.2
detecter_langue,2,2.1
derebloc,2,1.9
deptinfo,2,4.2
decouper,2,2.0;1.9
decouleurs_spip,2,4.3
declinaisons,2,4.3;3.2
debut_fin,2,3.2;3.1
dates_outils,2,4.1;3.2
curalicious,2,3.2;3.0
csp,2,3.2
creer_sprites,2,4.2;3.2
cpn,2,3.0
coupons,2,3.2
couleursspip,2,2.1;1.9
corpus_client,2,4.2;3.2
connexions,2,1.9
connexion_diplo,2,4.2;3.2
configs,2,4.3;3.2
compat,2,3.2;2.0
coloration_syntaxique,2,4.2
collections,2,3.2;3.1
codes_postaux,2,4.0;3.2
clients,2,4.3;3.0
clientele,2,4.3;3.2
clics,2,4.2;3.2
claps,2,4.3;4.2
ckeditor_fix,2,3.1
charts,2,4.3
charte_graphique_personnalisee,2,4.1
chargeur,2,2.1;1.9
champslibres,2,4.1
cform,2,3.1
cfg_depots,2,2.1
cfg_compat,2,3.2;2.1
canextra,2,3.2
calcul_date,2,2.1
btn_pp,2,4.2
boutick,2,4.3;3.2
bouspip,2,4.4
blognglop,2,2.1;2.0
beluga,2,3.2
baz_april,2,4.2
axomestandard,2,3.2;2.0
auteur_nom_prenom,2,4.3;4.1
auteur_evenement,2,3.2;3.1
auteur_affectation,2,3.2
aula,2,2.1;1.9
ass,2,3.0;2.1
articlerotatif,2,2.1;2.0
article_homepage,2,3.1;3.0
apsulis_dev,2,4.1;3.1
applicationhtml,2,4.1
apicpanel,2,4.3
ap,2,1.9
animauxrelax,2,4.3
amnesty,2,4.3
amap,2,3.2;2.1
alter-syndication-mono,2,1.9
aide_par_objet,2,4.2;4.1
agregateurs_sql,2,3.2
agendabe,2,3.2
afficher_logo,2,4.1;3.2
aeromys,2,4.2;4.0
actudio,2,4.3
act_vimeo,2,3.2
acs,2,2.1;2.0
accelerer_jobs,2,4.2
acc,2,3.2
,2,2.1;2.0
zvide_3col,1,3.2
zotspiprecherche,1,3.2
zotspipagenda,1,3.2
zoomer,1,3.2
zoombox,1,2.1
znetz,1,4.2
zgroupemots,1,3.2
zesty,1,2.0
zeroclipboard,1,3.2
zero_four,1,4.4
zblobul_hanaf,1,3.2
zblobul_af,1,3.2
zad,1,2.0
yourls,1,4.3
xsyndicats,1,4.3
xsyndicat,1,4.2
xskel_ufse,1,4.3
xskel_guide,1,4.3
xsimulateurs,1,4.3
xsignalement,1,4.3
xray,1,3.2
xliens,1,4.3
xavier,1,3.2
wysiinter,1,1.9
wooldridge1978,1,4.3
wooldridge1977,1,4.3
wookmark,1,4.2
wgalerie,1,3.2
weezevent,1,4.1
webtpe2,1,3.2
webpage_from_hal,1,3.2
web_galerie,1,3.0
wdmddmenu,1,3.0
wdiapo,1,3.2
wallgalerie,1,4.2
voxpublic,1,4.2
voucher,1,4.3
votenligne,1,3.2
volcanikparapente,1,4.2
voiraussi,1,4.3
vivus_svg,1,4.3
vitrine,1,4.3
vinotiere,1,4.2
vimeo,1,3.2
vignettes_oxygen,1,3.2
vignettes_auto,1,4.1
viaspip_3.2.0a_theme_cantabile,1,3.2
viaspip3_theme_vegetal,1,3.0
viaspip3_theme_tache,1,3.0
viaspip3_theme_noir_et_blanc,1,3.0
viaspip32_theme_tache,1,3.2
viaspip32_perso_jygweb,1,3.2
viacane,1,4.3
vi_profil_utilisateur,1,3.2
vi_objet_youtube,1,3.2
vi_intranet,1,3.2
vi_indiceorange,1,3.2
vi_gestion_documents,1,3.2
vi_documents,1,3.2
vi_bannieres,1,3.2
vhplab,1,3.2
vernalis,1,1.9
velo,1,4.1
vbat,1,4.3
varnish,1,3.2
vad_set,1,3.2
vad_reservation,1,3.2
vad_inscription,1,3.2
vad_ezrest,1,3.2
vad_enviroboite,1,3.2
vad_emploi,1,3.2
vad_adhesion,1,3.2
vacarme,1,4.2
utilisationdisque,1,3.1
utilisateurs,1,4.3
urlclean,1,4.3
url_document_fichier,1,4.3
urbis,1,3.0
unsa,1,3.2
underlayer,1,2.1
ucq,1,3.1
typomaniac,1,3.0
typo_dates,1,3.2
typo_caps,1,2.1
typo_avancee,1,2.1
tyfilms,1,4.3
twitstream,1,2.1
tweetnspip,1,2.1
trinitaires84,1,4.3
transaction,1,2.1
traduction_substitutions,1,4.3
tradrub_proposee,1,3.2
tradlang_skel,1,4.4
tradlang,1,4.4
trad_articles,1,4.2
trad,1,1.9
toutautour_skl,1,4.3
tout_cocher,1,4.3
topics,1,4.2
top_bando,1,2.1
tne,1,4.0
tm,1,3.0
tlpa,1,4.2
tjpzoom,1,2.1
titresphere,1,3.0
titannonces,1,3.2
tita,1,4.1
timelineblog,1,4.3
timeline,1,2.0
thickbox3,1,2.1
thickbox2,1,2.1
therapeutique,1,3.2
themecemea,1,4.3
theme_wp2010,1,3.0
theme_trefle,1,2.1
theme_tm,1,3.0
theme_snowblind1024,1,2.1
theme_sdre16,1,3.1
theme_sarka_winter,1,3.0
theme_sarka_vitamine,1,3.0
theme_sarka_summer,1,3.0
theme_sarka_spring,1,3.0
theme_sarka_sleo,1,3.0
theme_sarka_rougenoir,1,3.0
theme_sarka_rosebyra,1,3.0
theme_sarka_lmcchats,1,3.0
theme_sarka_headlines_yellow,1,3.0
theme_sarka_headlines_red,1,3.0
theme_sarka_halloween,1,3.0
theme_sarka_farfalla,1,3.0
theme_sarka_easter,1,3.0
theme_sarka_bluenight,1,3.0
theme_sarka_bluechristmas,1,3.0
theme_sarka_blueblur,1,3.0
theme_sarka_automn,1,3.0
theme_rock,1,3.0
theme_patisson,1,4.3
theme_nuage,1,2.1
theme_millebabords,1,3.2
theme_mercurable,1,3.2
theme_marketplace,1,3.0
theme_liquorice,1,3.0
theme_leadescent,1,2.1
theme_karlito,1,3.0
theme_ipad_csslayout,1,3.0
theme_hopa_2019,1,3.2
theme_higherground,1,3.0
theme_harvestfield,1,2.1
theme_grainepc,1,3.1
theme_generic,1,3.2
theme_freshmedia,1,3.0
theme_essential2col,1,3.1
theme_essential,1,3.2
theme_espaceaudition,1,4.3
theme_corporate_office,1,3.0
theme_component,1,2.1
theme_bssuperhero,1,3.0
theme_bsspruce,1,3.0
theme_bsslate,1,3.0
theme_bsluco,1,3.0
theme_bsbootplus,1,3.0
theme_bs4slate,1,4.3
theme_bs4marguerite,1,4.4
theme_bs4journal,1,4.3
theme_bs4arclite,1,4.3
theme_brownie_v1,1,3.2
theme_brownie,1,3.0
theme_arclite_green,1,3.0
theme_arclite_brown,1,2.1
theme_andreas09_red,1,3.1
theme_andreas09_purple,1,3.2
theme_andreas09_blue,1,2.1
theme_aastudio_clockwork,1,3.0
th,1,3.2
tetue_trousse,1,3.2
tetris,1,1.9
territoires,1,4.2
temoignages,1,4.3
teleplus,1,4.3
techxv_fiches_exercices,1,4.2
techxv,1,4.2
teamweb,1,3.2
talitres,1,4.3
tag-machine,1,1.9
syndicplusinfos,1,2.0
syndicplus,1,2.0
syndic_vers_articles,1,3.2
syncphpbb,1,1.9
sync_from_forge,1,3.2
sympatic,1,4.2
swipper_didier,1,4.3
swfupload2,1,3.1
svn_update,1,1.9
survie,1,4.2
sur_malettre,1,4.3
supportpeda,1,4.1
superbrest,1,4.3
sudexpe,1,4.3
styleoverride,1,4.1
stress,1,2.1
stats2,1,3.2
ssp2,1,4.3
squirrel_chimp_lists,1,3.0
squirrel_chimp,1,3.0
squelserviteurs,1,4.3
squelette_darmstadtiumoid,1,2.1
squelavignons1,1,4.3
squelavignonp0,1,4.3
squelavignonactualites,1,4.3
sqlipexport,1,3.0
sq_guide,1,4.3
sq_gen,1,4.3
sq_festival,1,3.2
sq_feetfit,1,3.2
sq_cfdt,1,4.3
sq_cf,1,3.2
sq_ail,1,4.3
sq23,1,4.2
spixplorer,1,2.0
spipslick,1,3.1
spipr_unibici,1,3.2
spipr_cta,1,4.3
spipr3000_dist,1,4.2
spipodf,1,1.9
spiplistescleaner,1,2.0
spipcatchat,1,3.0
spipcarto,1,1.9
spip_mashup,1,2.1
spip_loader_update,1,2.1
spip_bon_plan,1,3.2
spip2ning,1,2.1
spip2discourse,1,4.4
spectateur,1,3.2
sparkstats,1,3.2
sonoportraits,1,4.2
sonono,1,4.2
sonars,1,4.2
sonarmein,1,4.2
solopages,1,3.2
sogip,1,2.1
socsete,1,3.2
socialgraph,1,3.0
soapsympa,1,4.3
smtp,1,2.1
smr,1,3.2
smn,1,4.2
smartmenus,1,4.3
slideshowcss,1,4.2
slideshow,1,3.0
sliderbootstrap,1,4.3
skpub_light,1,3.2
skpub5050_light,1,3.2
skiplink,1,3.2
skinmp3player,1,3.0
skeudenn,1,4.3
skelrmp,1,4.3
skel_lhc,1,4.3
skel_cousin,1,4.4
sitmaker,1,4.3
sitejeune,1,4.3
site_silence,1,3.2
site_secchirh,1,4.1
site_cyclelab,1,4.1
sipenr,1,4.3
simon_queheillard,1,4.3
similys,1,3.2
signalement,1,3.1
sia,1,3.0
shop_base,1,3.2
shaw1997,1,4.3
shadowboxspip,1,2.1
sevyrthemelien5,1,4.3
sevyrskellien5,1,4.3
serveurs_oidc,1,4.1
seolinker,1,4.2
senateurs,1,4.2
selectize,1,3.2
selection_accueil,1,4.3
sections,1,3.2
scrutariexport_libreavous,1,4.2
scrutariexport_librealire,1,4.2
scrut_prop,1,3.0
scola_boot,1,4.1
scirpe,1,4.3
schemaorg,1,3.0
scenari,1,1.9
sca,1,4.3
sbadmin2,1,4.0
saml_auth,1,3.2
saisieautocompelete,1,3.2
saisie_classer_choix,1,4.3
saintjoseph,1,2.1
s5,1,2.1
rvr,1,3.2
rsspropose,1,4.1
rssjs,1,3.0
rssdiplo,1,3.2
rp,1,4.3
routeducidre,1,4.2
rouge_rose,1,4.3
roles_auteurs_diplo,1,4.2
role_doc_naturo,1,4.1
rocb,1,4.3
roc,1,4.3
rmpoutils,1,4.3
rmpagenda,1,4.3
rmp_statarticles,1,4.3
rmp_emploi,1,4.3
ritimo_scrutari_exports,1,4.2
ritimo_boutique,1,4.2
ritimo,1,4.2
rgpd,1,3.0
revue,1,4.3
resultats_parcelles,1,3.2
restreint_special,1,4.3
ressources,1,4.1
responsive,1,4.3
resam,1,4.3
rers,1,4.3
repsecure,1,3.0
repos,1,4.3
reperes,1,4.3
renov,1,4.3
remotehttp,1,4.3
rejouistoi,1,4.3
regal,1,4.3
refresher,1,3.1
recettes,1,4.0
realis,1,4.3
rdpresse,1,3.2
rature_pajin,1,4.2
raper,1,2.0
ralum,1,4.3
radiou,1,4.2
raccourcis_supp,1,4.3
quiz,1,2.1
questions_reponses_auteurs,1,3.0
quemada_a,1,4.3
quatreass,1,4.3
qualiteclient,1,3.0
qlidees,1,3.2
qcm,1,3.2
push,1,4.3
publi,1,3.0
ps,1,4.2
protection_formulaires,1,3.2
propositions_modifications,1,4.3
propevent,1,3.2
propaganda,1,1.9
promo,1,3.1
profil_etendu,1,1.9
produit,1,3.1
prixnougaro,1,4.3
prive_responsive,1,3.2
press_reviews,1,4.2
presence,1,2.1
prefix,1,4.3
pratiqueskl,1,4.3
pratiques_picturales,1,4.2
pp_math,1,2.1
pp_icones,1,2.0
pp_flashassur,1,3.0
pp_codes_spip,1,4.4
pp_citations,1,4.3
pourmagnelli_theme,1,4.2
pourmagnelli_squelettes,1,4.2
porte_plume_cari,1,4.1
portail_asso_gardanne,1,3.2
portail74,1,3.2
pole,1,4.3
podcastclient,1,1.9
pluginspip,1,4.4
plugfc,1,4.1
plom,1,3.2
playtaliste,1,2.0
playlist,1,4.1
planning_simple,1,3.2
planning_room,1,3.2
phpl,1,3.2
photograf,1,3.1
peuple_z,1,4.2
petitionplus,1,3.2
petit_sommaire,1,3.2
persressource,1,4.1
perspective,1,3.2
persona,1,2.1
peluches,1,4.3
pdmo,1,4.3
pdf_jdp,1,3.2
pb_couleur_article,1,3.0
pb_charts,1,2.0
paulbloas,1,4.2
passerelle,1,2.0
passdecouverte,1,3.2
pasapas,1,4.1
partner,1,3.2
partenaireculturel,1,3.2
partager_cet_article,1,3.2
paroisse,1,4.1
parlmer,1,4.3
paramsite,1,4.3
parallelism,1,3.2
papiers,1,4.3
paniers_commandes_quantites_decimal,1,4.3
panier2commande,1,3.0
paiement_ifac,1,3.0
paginationsimple,1,2.1
pagetitle,1,4.3
pages_favorites,1,3.0
page_title,1,2.1
paas,1,2.0
ouvrir_barre_edit,1,2.0
ouvrages,1,3.0
orientation,1,1.9
orgues,1,3.2
org,1,4.3
oresource,1,3.0
opquast,1,4.0
operations,1,3.2
openseadragon,1,4.3
openinviter,1,3.0
openid,1,2.1
opaleweb,1,4.2
onglet_piwik,1,4.3
omni,1,4.3
omeka,1,4.3
oidcclient,1,4.1
offline,1,4.3
oembed_fake,1,4.3
odse,1,4.2
octabase,1,4.3
obspm_padc,1,4.1
obspm_kw,1,3.2
objecteur,1,4.3
nursitcom,1,4.3
nursit_uptime_checker,1,4.3
nursit,1,4.3
notifier,1,3.2
notedocument,1,3.1
normalisation_unicode,1,3.2
noizetier_extra,1,3.2
niederehe1995,1,4.3
newsletter_afc_2023,1,4.2
newsleter_afc,1,4.2
nettoyagetexte,1,4.2
naturo_temoignages,1,4.1
naturapro,1,4.3
nanafca,1,3.2
myadmin,1,3.0
mvd,1,4.3
mutuelleanimaux,1,4.3
musique,1,3.2
msforty,1,4.2
msccookienotice,1,3.2
mscantispam,1,3.2
mrmn,1,3.0
mres_asso,1,4.2
mrac,1,4.3
mp3_flv_player,1,2.1
mots_automatiques,1,4.3
motomag_taches_imports,1,3.2
motomag_soumission_evenement,1,3.2
motomag_noter,1,3.2
motomag_maj_essais,1,3.2
motomag_forum,1,3.2
motomag_abonnement,1,3.2
motcleauto,1,4.2
motaut,1,2.0
moodboard,1,3.2
monslider,1,4.3
moncompte,1,4.2
momo,1,2.1
mmf,1,3.2
minigrispip_fmi,1,3.0
minicarto,1,3.2
mhh,1,4.3
mfquiz,1,3.1
mf2014,1,3.1
mes_societes,1,3.2
menuperso,1,3.2
menu_boutique,1,4.3
memm,1,4.2
meleuse,1,4.2
medicis,1,4.3
mediatheque,1,3.1
mediasscolaires,1,4.1
mediaspresse,1,4.2
mediaspi,1,3.0
medias_metas,1,2.1
medias_dereferencer,1,3.1
mds,1,1.9
mdr,1,4.3
mdpb,1,4.3
mcm,1,4.2
maxigos,1,3.2
mathjax3_from_mathgraph,1,4.1
marsouin,1,4.3
marsimperium_theme,1,4.3
marsimperium_squelettes,1,4.3
marquepages,1,2.1
marquee_lddb,1,3.0
marketingplanet,1,3.0
margoulins,1,4.2
manuel,1,4.1
makicatta,1,3.2
maisonnee,1,3.2
mailjet,1,3.0
mailinglist,1,2.1
mailchimp,1,2.1
mail,1,3.0
magiclogin,1,3.0
macros,1,4.3
lumia,1,4.2
lsa,1,4.2
ls,1,3.1
long_form,1,4.3
logo_watermark,1,3.2
loginhash,1,4.3
ljl,1,4.3
livre,1,1.9
listeimc,1,3.2
liste_plugins_bba,1,3.2
lionne,1,3.2
lio,1,4.3
lingus,1,2.1
lindemann1994,1,4.3
lindemann1985,1,4.3
lignessimples,1,4.2
lightbox,1,2.0
lieux,1,4.1
lido,1,1.9
libreavous,1,4.2
librealire,1,4.2
libphonenumber,1,4.3
liberation_automatique,1,3.2
lg,1,4.3
lettreinfo,1,4.1
lestudiofantome,1,4.2
lesplugins,1,4.3
lescomplementaires,1,4.3
lequartz,1,4.3
lemanege,1,4.2
lefourdebabel,1,4.2
ldaplus,1,2.0
lcdmo_cfg,1,4.1
lbp,1,4.3
lazysizes,1,3.2
lacite,1,4.3
lacarene,1,4.2
labarre1975,1,4.3
krt,1,3.2
kmk,1,3.2
kitlabo,1,4.3
kiteost,1,3.2
khk,1,4.3
jurisprudences,1,4.3
jqvmap,1,3.2
jq_innerfade,1,3.2
jpo,1,4.3
jpicker,1,3.2
journalistes,1,4.2
journal_electronique,1,4.2
jnoptions,1,3.1
jmeurope,1,4.3
jeuxlinux,1,2.1
jdpskl,1,3.2
jd2c,1,3.1
jcc,1,3.0
jakob,1,4.3
itwx_2_3_7_vert,1,2.1
itrs,1,4.2
interface_eteintes,1,2.0
interface_couleurs_vives,1,2.1
interface_babies,1,2.0
integraal_inclusions,1,4.3
institut,1,2.1
innovation,1,4.2
informerpremiereconnexion,1,3.2
infomie,1,4.3
infobulles,1,4.2
info_bot,1,3.2
infini,1,4.2
indymedia,1,3.2
indexerdiplo,1,3.2
indexation,1,1.9
impressum,1,4.2
importcsvdyn,1,4.3
importateur_contacts,1,3.0
import_adherents,1,3.2
immoxml,1,4.3
immosoap,1,4.3
immobilier,1,4.3
imitems,1,2.0
imaxtree,1,4.3
imagerotator,1,2.1
image_zoom,1,4.3
image_typo,1,4.4
illegal,1,3.2
ikas_theme,1,4.3
ikas_squelettes,1,4.3
ier,1,4.3
identites,1,4.3
idc_shop,1,4.3
idc_nuclia_indexer,1,4.3
idc_nuclia_front,1,4.3
idc_nuclia_core,1,4.3
idc_notifications,1,4.3
idc_events_api,1,4.3
idc_core,1,4.3
idc_composer,1,4.3
idc_compliance,1,4.3
idc_awards,1,4.3
idc_academy,1,4.3
icdc_recherche_avancee,1,4.1
hypothesis,1,4.0
hyperspace,1,3.0
html5up_paradigm_shift,1,3.2
html5up_future_imperfect,1,4.3
hr,1,4.3
hotspots,1,4.3
hopa,1,3.2
hodi,1,3.2
historique_spip32_h3,1,4.3
histoiregeographieskelp,1,4.2
herbier,1,1.9
helios,1,4.3
helene_puiseux,1,4.2
heklevpodkast,1,4.2
hce,1,4.3
hatarayogaskel,1,4.2
hatarayoga_roles_documents,1,4.2
hal_auteurs,1,4.3
hal,1,4.3
h2h,1,4.3
gsinistres,1,3.2
groupesmots_prive,1,3.0
grosplan,1,4.2
greves,1,3.2
gresillon_skel,1,4.2
gresillon_core,1,4.2
grandpapier,1,4.2
grainepc,1,3.1
gpe,1,3.0
googleagenda,1,3.2
google_analytics,1,4.3
glossaires,1,4.2
glossaire_coredem,1,3.2
globenews,1,2.0
globalfrt,1,3.2
gite,1,3.2
gisban,1,3.2
gisaut,1,2.1
gis_etab,1,4.1
ginza,1,4.3
ggicharts,1,2.1
gestion_mutu_skel,1,3.2
gestion_mutu,1,3.2
gesconfs,1,1.9
gesamtkatalogs,1,4.3
gerardcolin,1,3.2
geoip,1,3.1
geoforms,1,1.9
geo_visiteurs,1,2.1
genespip,1,1.9
genericperso,1,3.2
generic5050,1,3.2
geblog,1,2.1
ge,1,2.1
gazette,1,1.9
gamufactures,1,4.3
gamufacture,1,4.3
gamubloc,1,4.3
galactic_programmer,1,4.4
fusionmots,1,3.0
furno2013,1,4.3
furno2008,1,4.3
furies,1,4.2
fulltrad,1,4.3
freeradio,1,2.1
free_fonts,1,3.2
fragments_core,1,3.2
fragahah,1,1.9
fovearts,1,4.2
forumsectorise,1,3.2
forum_perime,1,3.1
formulaire_ajax,1,4.3
formitable,1,2.1
formifusion,1,3.2
formidableinscription,1,4.3
formidable_extras,1,3.2
formgen,1,4.3
formexp,1,4.3
formatspip,1,4.3
formations,1,3.2
formationetp,1,4.1
formation_en_ligne,1,3.2
format_phone,1,3.1
formagramskel,1,4.1
form_contact_ifac,1,3.0
form_a_objet,1,3.2
flvjs,1,3.2
fluxslider,1,2.1
filsocial,1,3.2
filmcourt,1,4.3
film_preremplir,1,4.2
film,1,4.2
fildemarianne,1,2.1
fil_ariane,1,3.2
figure,1,3.2
ffsg,1,4.2
ffmc_theme,1,3.2
ffmc_squelettes,1,3.2
ffmc_core,1,3.2
feuilleteuse,1,3.2
festivalinvisible,1,4.2
festival,1,4.3
fdhdon,1,4.3
fbs_rss,1,3.0
fbs_maintenance,1,3.0
fbquestionnaire,1,3.0
fblogin,1,2.0
fb_voir_aussi,1,3.0
fb_target,1,3.0
fb_stats_par_rubrique,1,3.0
fb_sms_abonnement,1,3.0
fb_rss2,1,3.0
fb_panneaux,1,3.0
fb_newsletter,1,3.0
fb_mot_alias,1,3.0
fb_minisite,1,3.0
fb_mailertools,1,3.0
fb_institut,1,2.1
fb_import_agenda,1,3.0
fb_extras2,1,3.0
fb_duplicator,1,3.0
fb_coup_de,1,3.0
fb_config_generale,1,3.0
fb_article_defaut,1,3.0
fb_annuaire_paroisses,1,3.0
fb_annuaire_liens,1,3.0
fb_adel,1,3.0
fb_add_objets,1,3.0
favp,1,4.3
favoris,1,2.0
faq_intranet,1,3.2
faem,1,4.3
facturation,1,3.2
fabrique_zapskel,1,2.1
faage,1,3.0
f_contact_bd,1,4.2
extrairedoc,1,4.3
exports_diplo,1,3.2
exportannuel,1,3.2
export_membres,1,3.1
export_lettre_papier,1,4.2
expoos,1,4.3
exo_moncompte,1,4.2
exo_commerce,1,4.2
exo_abonnements,1,4.2
exemplairesvendus,1,4.3
exau,1,2.0
eventart,1,4.2
evenements_afc,1,4.2
eva_,1,3.2
eudock,1,2.1
eticrowd,1,4.3
etciv,1,3.2
etablissement,1,4.1
estudiosclasicosskelp,1,4.2
essentialclair,1,4.3
especes_vues,1,3.0
espacekeraudy,1,4.2
equipes,1,4.2
equipe,1,3.2
epub_spip,1,4.3
epilogue,1,4.3
epf,1,4.2
epb,1,3.2
enviro,1,4.4
ensaplv_laboratoires,1,3.2
energence,1,4.2
emissions,1,4.3
emcce,1,3.2
embed_iframe,1,4.2
emailifac,1,3.0
em_doc2i,1,3.0
eliaz,1,4.3
elasticsearchcd,1,4.3
egalite,1,4.3
eeo,1,4.3
editor_user_configuration,1,3.0
edition_plein_ecran,1,2.1
edithtml,1,2.0
editer_forum,1,3.2
ecrire_en_ligne,1,1.9
ecorce,1,4.3
echoppe,1,2.0
echecsdiff,1,2.1
ec_theme,1,3.1
ec_squelettes,1,3.1
ec_core,1,3.1
easyspipcolorpicker,1,2.0
durey1758,1,4.3
dropzone,1,3.1
droits_autorisations,1,3.2
drb_timeline,1,4.3
drb,1,4.3
draudius1625,1,4.3
dossiers,1,4.2
don,1,4.2
documentation,1,3.2
docbr,1,3.0
dlp_approuver,1,3.2
distnumfull_mini1024_mh,1,2.0
dist_theme_roubaix,1,4.0
disposition,1,3.2
dirigeant,1,3.2
diploparis,1,3.2
diogene_notation,1,3.2
diogene_mots,1,3.2
dictionnaires_vers_glossaire,1,4.2
dictionnaires_extra,1,4.2
diaporama,1,2.1
diapomdr,1,4.2
diapolarge,1,1.9
deuxideuxl_theme,1,4.3
deuxideuxl_squelettes,1,4.3
deputes,1,4.2
demdir,1,4.3
definitions,1,3.2
dedale,1,4.3
decoauto,1,3.2
datice,1,2.1
date_utile,1,4.3
datatables,1,3.2
cyclelab_sitemap,1,4.1
cyclelab_outils,1,4.1
cyclelab_op,1,4.1
cyclelab_habillage,1,4.1
cyclelab_adherents,1,4.1
cycle,1,2.1
curiosites,1,4.2
cube,1,3.0
cuba,1,4.3
css_espace_prive,1,3.2
cryptocaptcha,1,3.2
cryptm,1,1.9
crr,1,4.3
cronslider,1,4.3
crm_jp,1,3.1
crj,1,4.3
creative,1,3.2
crearts02,1,2.1
crealouest,1,4.3
crayonsmots,1,4.3
crac,1,4.3
cousumain,1,4.2
copyright_articles,1,4.3
coppermine,1,1.9
cop,1,2.1
controles,1,4.2
contributi,1,3.2
continents,1,3.2
contesennord,1,4.3
connecteur,1,3.2
connect,1,3.2
configurer_html5up_spectral,1,4.3
configuration_spipacb,1,1.9
concours,1,3.2
compteur_clic,1,4.3
comptes_expirables,1,4.3
compteclics,1,3.2
compat9919,1,1.9
comments_phpbb,1,2.1
commentaires,1,3.0
commandes_paypal,1,3.1
colorswatch,1,3.2
coloc,1,4.3
colloscope,1,4.3
coggps,1,4.0
codereduc,1,4.3
clusters,1,4.3
clubsport,1,4.3
clubs,1,4.2
club,1,3.2
cloudzoom,1,3.1
clndr,1,3.2
classeur_d_articles,1,3.2
classeur,1,4.3
clajpoher,1,4.3
claes1974,1,4.3
cl,1,3.2
citations,1,4.2
cipubrub,1,2.1
cinetruffaut,1,4.4
cinema_metiers,1,4.2
christ_social,1,4.4
choc02pref,1,4.3
choc02bazscss,1,4.3
chaussette,1,3.2
chatbox,1,3.1
chartetypo,1,3.2
charteplus,1,3.1
charte_ministere,1,3.0
chapelle,1,4.2
champions,1,4.2
cgmetal,1,4.2
center,1,4.2
cefim,1,4.3
cds,1,3.1
ccq,1,3.2
ccmg_theme,1,3.0
ccmg_skel,1,3.0
ccmg_core,1,3.0
ccls,1,3.0
ccalagenda,1,4.3
ccal_squelette,1,4.3
ccal,1,4.3
catalogue,1,3.2
carousel_article,1,2.0
cari_skel,1,4.1
cari_anciens_raccourcis,1,4.1
carene,1,3.2
captcha,1,3.0
cap_manager,1,4.2
canots,1,4.3
campaign_monitor,1,4.1
campagnodon,1,3.2
cambio,1,4.3
calvietphap,1,4.3
calpige,1,4.3
calendrier,1,2.1
cacheout,1,4.3
caap,1,4.2
c6r_squelettes,1,4.2
bws,1,4.2
bretagne,1,4.3
brestculture,1,4.2
boutonsplus,1,3.2
boutick_abonnement,1,4.3
bourgogne,1,3.2
boubrest,1,4.3
bordabord,1,4.3
bootstrap3_sass,1,3.2
bootspip,1,4.3
bootpadzones,1,3.2
bootpadtinymce,1,3.2
bootpadstyles,1,3.2
bootpadfonts,1,3.2
bootpadextras,1,3.2
bootpadespaceprive,1,3.2
bootpadclasses,1,3.2
bootpadbackoffice,1,3.2
bootpad,1,3.2
books,1,4.2
bonnav,1,3.2
bonbon,1,1.9
bombe,1,4.2
bodigerfleurs,1,4.2
bnfcatalogue,1,4.3
blivraison,1,3.2
bjb,1,3.2
bitly,1,4.1
bip,1,4.3
bingen1987,1,4.3
billetteries_profils,1,4.3
billetteries,1,4.3
billets,1,4.3
bij,1,4.2
bigbrother,1,3.0
biblionote,1,3.2
bellevue,1,4.3
belespoir,1,4.3
beeresnat,1,3.2
beereseau,1,3.2
beegeo,1,3.2
beegen,1,3.2
beedroit,1,3.2
beecustom,1,3.2
beeannuaire,1,3.2
beaulieux1904,1,4.3
bdaa,1,4.3
bcld,1,4.3
bbatheme,1,3.2
bbaskl,1,3.2
bazscss,1,4.3
bazless,1,4.3
bazb3,1,4.3
bazar,1,4.3
barremicroformats,1,4.3
barreenrichie,1,4.3
barrac,1,2.1
banpub,1,3.1
banner,1,3.2
bank_stancer,1,4.3
bank_prelevement,1,4.3
bank_axepta,1,4.2
banip,1,1.9
banbase5,1,4.2
baliseplugin,1,1.9
balint,1,4.3
balances_import_connectedbeekeeping,1,4.1
balances,1,4.1
balai,1,3.2
avatar_voki,1,3.0
autocomplement,1,3.2
auteurs_partenaires_festivals,1,4.2
auteurs_ordre,1,3.2
auteurs_cv_traductions,1,4.2
auteur2zone,1,4.3
auconfortdutoit,1,3.2
attac_widgets,1,3.2
attac_civicrm,1,3.2
attac_boutique,1,3.2
attac,1,3.2
ateliers,1,1.9
atelierlirecrire,1,4.3
atelier231,1,4.3
ata_squelettes,1,4.2
ata_associations,1,4.2
astro,1,4.4
asso_mots_clefs,1,3.0
asso_ffs,1,2.1
artpraye,1,4.3
artevox,1,4.3
arraycolumn,1,3.0
arlea,1,4.2
aria_modale,1,4.2
archives,1,4.3
archi,1,4.3
arbres,1,4.3
arbre_encyclopedie,1,3.0
arbo_anglais,1,2.1
arb,1,4.3
ar_redadeg,1,4.1
apuc,1,4.3
apsulis_jwplayer,1,3.2
appli_sync,1,4.2
apiplatform,1,4.3
apetitpas,1,4.2
ape,1,3.2
antenneffmc,1,4.3
anstr,1,3.0
annuelus,1,4.3
annuaire_assoc,1,3.2
annotations,1,1.9
annoncesmoto,1,3.2
anno,1,4.3
animation,1,4.3
ancresintertitres,1,2.1
analyses,1,4.1
amis,1,3.0
amc,1,4.3
amaprb,1,4.2
amap_extra,1,3.2
alisioshop,1,4.2
alg,1,4.2
alertes,1,3.2
alerte_madininair,1,4.3
alert_popup,1,4.1
alecole,1,1.9
album,1,1.9
akismet,1,2.0
ajp_squelettes,1,4.3
ajp_notifications,1,4.3
ajp_journalistes,1,4.3
ajp_forums,1,4.3
ajp_demande_bourse,1,4.3
ajaxforms,1,2.0
aidediff,1,4.3
aide_dev,1,4.2
agtransnum,1,4.3
agrocentre_intranet,1,3.2
agrocentre_agromobile,1,3.2
agora,1,2.1
agendax2,1,1.9
agendasavoie,1,4.3
agendaeco,1,4.3
agenda_complement,1,3.2
afcamae,1,3.2
afc_vers_cari,1,4.1
afc,1,4.2
afap,1,4.2
aeromys_theme_strongly_typed,1,4.0
aeromys_theme_scenic,1,4.2
adt,1,4.3
adomicile,1,4.2
admin_contacts,1,4.3
adl,1,2.1
adhesionsifac,1,3.0
adhesion,1,3.2
adel,1,3.0
ada,1,4.0
actweb_admin,1,2.0
activitesimproviste,1,4.1
activites,1,4.1
actions,1,4.2
accueil,1,1.9
accordeon_lddb,1,3.0
accepte_cgv_commande,1,4.1
academie_aix,1,1.9
academiabolivianaskelp,1,4.2
abs2,1,4.3
abs,1,4.3
abos,1,4.3
abonnements_naturopathie31,1,4.1
aberslab,1,4.3
a2o,1,3.2
a0_agrocentre,1,3.2
