can_create_group,can_create_project,created_at,created_by,email,id,is_admin,last_activity_on,last_sign_in_at,state,username
true,true,2024-02-02T15:26:03.113+01:00,root,toutati@free.fr,3,false,2025-02-14,2024-07-15T16:41:57.600+02:00,active,touti
true,true,2024-02-02T15:26:40.071+01:00,root,maieul@maieul.net,4,true,2025-02-16,2025-02-14T16:02:39.713+01:00,active,maieul
true,true,2024-02-02T15:27:26.317+01:00,root,ben.spip@gmail.com,5,true,2025-02-12,2025-01-22T21:26:23.841+01:00,active,Bennyb
true,true,2024-02-02T15:28:39.970+01:00,root,james@rezo.net,6,true,2025-02-16,2025-02-06T08:16:22.979+01:00,active,JamesRezo
true,true,2024-02-02T15:54:15.585+01:00,root,cedric@yterium.com,9,true,2025-02-15,2024-10-17T14:48:01.677+02:00,active,cerdic
true,true,2024-02-02T15:55:58.006+01:00,root,cy.altern@gmail.com,10,true,2025-02-13,2024-12-26T23:14:03.443+01:00,active,cy.altern
true,true,2024-02-02T15:55:58.967+01:00,root,marcimat@rezo.net,12,true,2025-02-16,2025-02-14T14:59:17.005+01:00,active,marcimat
true,true,2024-02-02T15:55:59.500+01:00,root,eric@smellup.net,13,false,2025-02-16,2024-10-03T19:39:10.240+02:00,active,Eric
true,true,2024-02-02T15:56:00.115+01:00,root,rastapopoulos@spip.org,14,true,2025-02-16,2025-02-08T18:10:48.125+01:00,active,rastapopoulos
true,true,2024-02-02T15:56:00.469+01:00,root,tcharlss@bravecassine.com,15,true,2025-02-15,2025-02-04T16:15:11.331+01:00,active,tcharlss
true,true,2024-02-02T15:56:00.733+01:00,root,tofulm@gmail.com,16,true,2025-02-14,2025-01-30T17:13:39.667+01:00,active,tofulm
true,true,2024-02-02T15:56:01.259+01:00,root,nicod@lerebooteux.fr,17,true,2025-02-16,2025-02-12T23:25:01.790+01:00,active,nicod
true,true,2024-02-02T16:04:18.133+01:00,root,bruno@eliaz.fr,18,true,2025-02-15,2025-02-10T10:21:11.005+01:00,active,b_b
true,true,2024-02-02T16:31:47.721+01:00,root,kent1@arscenic.info,19,false,2024-03-01,,deactivated,kent1
true,true,2024-02-02T16:31:48.980+01:00,root,cam.lafit@azerttyu.net,20,true,2025-01-29,2025-01-17T17:20:21.641+01:00,active,cam.lafit
true,true,2024-02-02T16:31:50.075+01:00,root,suske@brubel.net,21,false,2024-10-24,2024-04-26T19:57:45.144+02:00,active,Suske
true,true,2024-02-02T16:31:50.968+01:00,root,placido@roxing.net,22,false,2025-02-16,2025-02-14T09:15:43.014+01:00,active,placido
true,true,2024-02-02T16:31:51.734+01:00,root,mail@onirisproductions.com,23,false,,,deactivated,acaton
true,true,2024-02-02T16:31:52.371+01:00,root,rainer@web-simple.eu,24,false,2024-03-01,,deactivated,abelass
true,true,2024-02-02T16:31:53.312+01:00,root,cyril@cym.fr,25,false,,,deactivated,cym
true,true,2024-02-02T16:31:54.051+01:00,root,fil@rezo.net,26,false,2024-04-12,2024-04-08T11:10:37.564+02:00,deactivated,Fil
true,true,2024-02-02T16:31:55.699+01:00,root,pierre.andrews@gmail.com,28,false,,,deactivated,pierre.andrews
true,true,2024-02-02T16:31:56.268+01:00,root,izo@aucuneid.net,29,false,,,deactivated,izo
true,true,2024-02-02T16:31:56.913+01:00,root,karim@glums.com,30,false,,,deactivated,karim
true,true,2024-02-02T16:31:57.540+01:00,root,renatoformato@virgilio.it,31,false,,,deactivated,renatoformato
true,true,2024-02-02T16:31:58.135+01:00,root,renato@rezo.net,32,false,,,deactivated,renato
true,true,2024-02-02T16:31:58.872+01:00,root,fabrice@ouvaton.org,33,false,,,deactivated,fabrice
false,true,2024-02-02T16:31:59.470+01:00,root,lazuly@rezo.net,34,false,,,deactivated,lazuly
true,true,2024-02-02T16:32:00.091+01:00,root,arno@rezo.net,35,false,2025-02-10,2025-02-06T09:54:34.627+01:00,active,arno
true,true,2024-02-02T16:32:00.899+01:00,root,esj@rezo.net,36,false,,,deactivated,esj
true,true,2024-02-02T16:32:01.720+01:00,root,booz@rezo.net,37,false,2025-01-29,2024-11-15T14:25:35.336+01:00,active,booz
true,true,2024-02-02T16:32:02.759+01:00,root,dorian@zamix.org,38,false,,,deactivated,dorian
true,true,2024-02-02T16:32:03.354+01:00,root,courcy.michael@wanadoo.fr,39,false,,,deactivated,courcy.michael
true,true,2024-02-02T16:32:03.951+01:00,root,spipcarto@gmail.com,40,false,,,deactivated,spipcarto
true,true,2024-02-02T16:32:04.530+01:00,root,stephane@rezo.net,41,false,,,deactivated,stephane
true,true,2024-02-02T16:32:05.256+01:00,root,grenier.yves@wanadoo.fr,42,false,,,deactivated,grenier.yves
true,true,2024-02-02T16:32:05.831+01:00,root,real3t@gmail.com,43,false,2025-02-16,2025-01-19T16:49:11.421+01:00,active,RealET
true,true,2024-02-02T16:32:06.534+01:00,root,miguel.byram@laposte.net,44,false,,,deactivated,miguel.byram
true,true,2024-02-02T16:32:07.096+01:00,root,george@middleeastwatch.net,45,false,2025-02-14,2025-01-02T11:26:41.526+01:00,active,george
true,true,2024-02-02T16:32:07.780+01:00,root,aurelien.levy@free.fr,46,false,,,deactivated,aurelien.levy
true,true,2024-02-02T16:32:08.414+01:00,root,gael@merzok.com,47,false,,,deactivated,gael
true,true,2024-02-02T16:32:08.998+01:00,root,neofutur777@gmail.com,48,false,,,deactivated,neofutur777
true,true,2024-02-02T16:32:09.560+01:00,root,francois@schreuer.org,49,false,,,deactivated,francois
true,true,2024-02-02T16:32:10.120+01:00,root,nadege.debray@gmail.com,50,false,,2024-10-11T20:05:45.330+02:00,deactivated,nadege.debray
true,true,2024-02-02T16:32:10.718+01:00,root,joseluis@digital77.com,51,false,,,deactivated,joseluis
true,true,2024-02-02T16:32:11.280+01:00,root,pierre@bourgeois.com,52,false,,,deactivated,pierre
true,true,2024-02-02T16:32:11.845+01:00,root,comrade.ogilvy@free.fr,53,false,,,deactivated,comrade.ogilvy
true,true,2024-02-02T16:32:12.489+01:00,root,postmaster@cent20.net,54,false,,,deactivated,postmaster
true,true,2024-02-02T16:32:13.093+01:00,root,gilles.vincent@gmail.com,55,false,,,deactivated,gilles.vincent
true,true,2024-02-02T16:32:13.902+01:00,root,brpaolo@taize.fr,56,false,,,deactivated,brpaolo
true,true,2024-02-02T16:32:14.473+01:00,root,ventrea@gmail.com,57,false,,,deactivated,ventrea
true,true,2024-02-02T16:32:15.108+01:00,root,mathieu@garambrogne.net,58,false,,,deactivated,mathieu
true,true,2024-02-02T16:32:15.718+01:00,root,philippe.auriol@gmail.com,59,false,,,deactivated,philippe.auriol
true,true,2024-02-02T16:32:16.275+01:00,root,tetue@rezo.net,60,false,,,deactivated,tetue
true,true,2024-02-02T16:32:17.103+01:00,root,lefebvre@laposte.net,61,false,,,deactivated,lefebvre
true,true,2024-02-02T16:32:17.820+01:00,root,alexandra.guiderdoni@gmail.com,62,false,,,deactivated,alexandra.guiderdoni
true,true,2024-02-02T16:32:18.480+01:00,root,simon.daron@cassiopea.org,63,false,,,deactivated,simon.daron
true,true,2024-02-02T16:32:19.093+01:00,root,dani@belvil.net,64,false,,,deactivated,dani
true,true,2024-02-02T16:32:19.744+01:00,root,nathan.spiping@free.fr,65,false,,,deactivated,Nathan.spiping
true,true,2024-02-02T16:32:20.346+01:00,root,guilhem.bonnefille@gmail.com,66,false,,,deactivated,guilhem.bonnefille
true,true,2024-02-02T16:32:20.952+01:00,root,ncouture@wanadoo.fr,67,false,,,deactivated,ncouture
true,true,2024-02-02T16:32:21.546+01:00,root,erational@erational.org,68,false,2025-02-04,2025-02-03T17:35:48.819+01:00,active,erational
true,true,2024-02-02T16:32:22.467+01:00,root,tatanka@haukola.freezee.org,69,false,,,deactivated,tatanka
true,true,2024-02-02T16:32:23.064+01:00,root,philippebessiere@free.fr,70,false,,,deactivated,philippebessiere
true,true,2024-02-02T16:32:23.670+01:00,root,klaus@spip.de,71,false,,,deactivated,klaus
true,true,2024-02-02T16:32:24.245+01:00,root,thus0@free.fr,72,false,,,deactivated,thus0
true,true,2024-02-02T16:32:24.811+01:00,root,nicolas1.krebs2@netcourrier.com,73,false,,,deactivated,nicolas1.krebs2
true,true,2024-02-02T16:32:25.377+01:00,root,gaitan@gmail.com,74,false,,,deactivated,gaitan
true,true,2024-02-02T16:32:25.999+01:00,root,phil@africacomputing.org,75,false,,,deactivated,phil
true,true,2024-02-02T16:32:26.574+01:00,root,escambis.pedagogics@aprene.org,76,false,,,deactivated,escambis.pedagogics
true,true,2024-02-02T16:32:27.188+01:00,root,mona@rezo.net,77,false,,,deactivated,mona
true,true,2024-02-02T16:32:27.830+01:00,root,coyote90@free.fr,78,false,,,deactivated,coyote90
true,true,2024-02-02T16:32:28.449+01:00,root,jsb92@laposte.net,79,false,,,deactivated,jsb92
true,true,2024-02-02T16:32:29.025+01:00,root,s.ledewyn@tiscali.fr,80,false,,,deactivated,s.ledewyn
true,true,2024-02-02T16:32:29.619+01:00,root,sylvain.pelletier@gmail.com,81,false,,,deactivated,sylvain.pelletier
true,true,2024-02-02T16:32:30.242+01:00,root,pierre.fiches@gmail.com,82,false,,,deactivated,pierre.fiches
true,true,2024-02-02T16:32:30.845+01:00,root,alain@barbason.be,83,false,,,deactivated,alain
true,true,2024-02-02T16:32:31.487+01:00,root,bertrand@toggg.com,84,false,,,blocked,bertrand
true,true,2024-02-02T16:32:32.249+01:00,root,iago@iago.ca,85,false,,,deactivated,iago
true,true,2024-02-02T16:32:32.835+01:00,root,contact@mann.fr,86,false,,,deactivated,contact
true,true,2024-02-02T16:32:33.446+01:00,root,franck.ducas@free.fr,87,false,,,deactivated,franck.ducas
true,true,2024-02-02T16:32:34.064+01:00,root,jd007du38@voila.fr,88,false,,,deactivated,jd007du38
true,true,2024-02-02T16:32:34.648+01:00,root,baptiste.goupil@gmail.com,89,false,,,deactivated,baptiste.goupil
true,true,2024-02-02T16:32:35.233+01:00,root,florent@eledo.com,90,false,,,deactivated,florent
true,true,2024-02-02T16:32:35.866+01:00,root,andre@alternatives.ca,91,false,,,deactivated,andre
true,true,2024-02-02T16:32:36.481+01:00,root,betchou1982@yahoo.fr,92,false,,,deactivated,betchou1982
true,true,2024-02-02T16:32:37.078+01:00,root,david.larouziere@gmail.com,93,false,,,deactivated,david.larouziere
true,true,2024-02-02T16:32:37.677+01:00,root,vincevg@free.fr,94,false,,,deactivated,vincevg
true,true,2024-02-02T16:32:38.298+01:00,root,damien.guillaume@obspm.fr,95,false,,,deactivated,Damien.Guillaume
true,true,2024-02-02T16:32:38.901+01:00,root,mvm@assfor.com,96,false,,,deactivated,mvm
true,true,2024-02-02T16:32:39.520+01:00,root,rudjob@gmail.com,97,false,,,deactivated,rudjob
true,true,2024-02-02T16:32:40.111+01:00,root,roger.burton@chello.be,98,false,,,deactivated,roger.burton
true,true,2024-02-02T16:32:40.689+01:00,root,ext@laposte.net,99,false,,,deactivated,ext
true,true,2024-02-02T16:32:41.302+01:00,root,petit.bazar@laposte.net,100,false,,,deactivated,petit.bazar
true,true,2024-02-02T16:32:41.917+01:00,root,skedus@free.fr,101,false,,,deactivated,skedus
true,true,2024-02-02T16:32:42.482+01:00,root,crovvfoot@gmail.com,102,false,,,deactivated,crovvfoot
true,true,2024-02-02T16:32:43.102+01:00,root,fenon.herve@orange.fr,103,false,,,deactivated,fenon.herve
true,true,2024-02-02T16:32:43.668+01:00,root,rlx@noos.fr,104,false,,,deactivated,rlx
true,true,2024-02-02T16:32:44.241+01:00,root,ggnews@free.fr,105,false,,,deactivated,ggnews
true,true,2024-02-02T16:32:44.814+01:00,root,tbeaumanoir@gmail.com,106,false,,,deactivated,tbeaumanoir
true,true,2024-02-02T16:32:45.439+01:00,root,patrice4@laposte.net,107,false,2025-01-05,2024-11-27T02:05:58.746+01:00,active,patrice4
true,true,2024-02-02T16:32:46.031+01:00,root,asso@freesurf.ch,108,false,,,deactivated,asso
true,true,2024-02-02T16:32:46.693+01:00,root,vg@fictis.fr,109,false,,,deactivated,vg
true,true,2024-02-02T16:32:47.345+01:00,root,vlentz@gmail.com,110,false,,,deactivated,vlentz
true,true,2024-02-02T16:32:47.925+01:00,root,olivier.gendrin@free.fr,111,false,,,deactivated,olivier.gendrin
true,true,2024-02-02T16:32:48.540+01:00,root,laurent.rieffel@free.fr,112,false,2024-03-09,2024-03-09T21:27:21.141+01:00,deactivated,Laurent.rieffel
true,true,2024-02-02T16:32:49.182+01:00,root,jeanphilippe.bliek@gmail.com,113,false,,,deactivated,jeanphilippe.bliek
true,true,2024-02-02T16:32:49.820+01:00,root,oh@yahoo.fr,114,false,,,deactivated,oh
true,true,2024-02-02T16:32:50.386+01:00,root,edd@trevise.org,115,false,,,deactivated,edd
true,true,2024-02-02T16:32:50.984+01:00,root,claude.delattre@laposte.net,116,false,,,deactivated,claude.delattre
true,true,2024-02-02T16:32:51.616+01:00,root,fr@hotmail.com,117,false,,,deactivated,fr
true,true,2024-02-02T16:32:52.234+01:00,root,minga@unisavecbove.org,118,false,,,deactivated,minga
true,true,2024-02-02T16:32:52.839+01:00,root,joseph@larmarange.net,119,false,2024-03-01,,deactivated,joseph
true,true,2024-02-02T16:32:53.482+01:00,root,crichard@jalmus.net,120,false,,,deactivated,crichard
true,true,2024-02-02T16:32:54.067+01:00,root,cdespres69@free.fr,121,false,,,deactivated,cdespres69
true,true,2024-02-02T16:32:54.667+01:00,root,nicolasriq@free.fr,122,false,,,deactivated,nicolasriq
true,true,2024-02-02T16:32:55.269+01:00,root,christian.quentin5@wanadoo.fr,123,false,,,deactivated,christian.quentin5
true,true,2024-02-02T16:32:55.898+01:00,root,naama@laposte.net,124,false,,,deactivated,naama
true,true,2024-02-02T16:32:56.493+01:00,root,mmmxvvv@tiscali.it,125,false,,,deactivated,mmmxvvv
true,true,2024-02-02T16:32:57.068+01:00,root,romain@lejamaiscontent.net,126,false,,,deactivated,romain
true,true,2024-02-02T16:32:57.650+01:00,root,sylvain@guaph.net,127,false,,,deactivated,sylvain
true,true,2024-02-02T16:32:58.230+01:00,root,horaciogd@vhplab.net,128,false,,,deactivated,horaciogd
true,true,2024-02-02T16:32:58.790+01:00,root,xebiaut@free.fr,129,false,,,deactivated,xebiaut
true,true,2024-02-02T16:32:59.367+01:00,root,fdm@ufe.be,130,false,,,deactivated,fdm
true,true,2024-02-02T16:32:59.955+01:00,root,seb.faure@gmail.com,131,false,,,deactivated,seb.faure
true,true,2024-02-02T16:33:00.532+01:00,root,ptitjes@beuz.org,132,false,,,deactivated,ptitjes
true,true,2024-02-02T16:33:01.135+01:00,root,edouard@lafargue.name,133,false,,,deactivated,edouard
true,true,2024-02-02T16:33:01.711+01:00,root,gpsnail@gmail.com,134,false,2024-03-22,2024-03-22T16:27:55.406+01:00,deactivated,gpsnail
true,true,2024-02-02T16:33:02.308+01:00,root,thibault@taillandier.name,135,false,,,deactivated,thibault
true,true,2024-02-02T16:33:02.885+01:00,root,remi.levy@wanadoo.fr,136,false,,,deactivated,remi.levy
true,true,2024-02-02T16:33:03.450+01:00,root,ninidc@free.fr,137,false,,,deactivated,ninidc
true,true,2024-02-02T16:33:04.021+01:00,root,neobumbo@hotmail.com,138,false,,,deactivated,neobumbo
true,true,2024-02-02T16:33:04.586+01:00,root,andy24000@gmail.com,139,false,,,deactivated,andy24000
true,true,2024-02-02T16:33:05.178+01:00,root,cmtmt2003@gmail.com,140,false,,,deactivated,cmtmt2003
true,true,2024-02-02T16:33:05.797+01:00,root,rpapanicola@gmail.com,141,false,,,deactivated,rpapanicola
true,true,2024-02-02T16:33:06.422+01:00,root,paul@hmpnet.be,142,false,,,deactivated,paul
true,true,2024-02-02T16:33:07.019+01:00,root,legris44@hotmail.com,143,false,,,deactivated,legris44
true,true,2024-02-02T16:33:07.582+01:00,root,dov.gabbai@gidouille.net,144,false,,,deactivated,dov.gabbai
true,true,2024-02-02T16:33:08.181+01:00,root,lspeciale@protonmail.com,145,false,,,deactivated,speciale
true,true,2024-02-02T16:33:08.761+01:00,root,apachot@openstudio.fr,146,false,,,deactivated,apachot
true,true,2024-02-02T16:33:09.436+01:00,root,cvallois@yahoo.fr,147,false,,,deactivated,cvallois
true,true,2024-02-02T16:33:10.094+01:00,root,blip@aigri.org,148,false,,,deactivated,blip
true,true,2024-02-02T16:33:10.739+01:00,root,bmarne@free.fr,149,false,,,deactivated,Beurt
true,true,2024-02-02T16:33:11.351+01:00,root,zeraxp@gmail.com,150,false,,,deactivated,zeraxp
true,true,2024-02-02T16:33:12.080+01:00,root,kleray@gmail.com,151,false,,,deactivated,kleray
true,true,2024-02-02T16:33:12.690+01:00,root,frederic.taraud@wanadoo.fr,152,false,,,deactivated,frederic.taraud
true,true,2024-02-02T16:33:13.259+01:00,root,amaury.adon@gmail.com,153,false,2024-07-29,2024-07-28T14:09:31.273+02:00,deactivated,amaury.adon
true,true,2024-02-02T16:33:13.867+01:00,root,sarkarchimed@gmail.com,154,false,,,deactivated,sarkarchimed
true,true,2024-02-02T16:33:14.446+01:00,root,vincent@ldd.fr,155,false,,,deactivated,vincent
true,true,2024-02-02T16:33:15.023+01:00,root,listes@nouveauxterritoires.fr,156,false,,,deactivated,listes
true,true,2024-02-02T16:33:15.631+01:00,root,elrik75@free.fr,157,false,,,deactivated,elrik75
true,true,2024-02-02T16:33:16.194+01:00,root,superyms@yahoo.fr,158,false,,,deactivated,superyms
true,true,2024-02-02T16:33:16.765+01:00,root,thierry.schmit@free.fr,159,false,,,deactivated,thierry.schmit
true,true,2024-02-02T16:33:17.345+01:00,root,sebbou@gmail.com,160,false,,,deactivated,sebbou
true,true,2024-02-02T16:33:17.913+01:00,root,mfraisse@free.fr,161,false,,,deactivated,mfraisse
true,true,2024-02-02T16:33:18.565+01:00,root,paladin@quesaco.org,162,false,,,deactivated,paladin
true,true,2024-02-02T16:33:19.171+01:00,root,chryjs@free.fr,163,false,,,deactivated,chryjs
true,true,2024-02-02T16:33:19.739+01:00,root,y.a.n.n.o@free.fr,164,false,,,deactivated,y.a.n.n.o
true,true,2024-02-02T16:33:20.347+01:00,root,gurdil@free.fr,165,false,,,deactivated,gurdil
true,true,2024-02-02T16:33:20.914+01:00,root,pvincent@erasme.org,166,false,,,deactivated,pvincent
true,true,2024-02-02T16:33:21.522+01:00,root,sarkafeek@gmail.com,167,false,,,deactivated,sarkafeek
true,true,2024-02-02T16:33:22.124+01:00,root,bernard.dano@free.fr,168,false,,,deactivated,bernard.dano
true,true,2024-02-02T16:33:22.734+01:00,root,bollonjm@yahoo.com,169,false,,,deactivated,bollonjm
true,true,2024-02-02T16:33:23.331+01:00,root,antig732@free.fr,170,false,,,deactivated,antig732
true,true,2024-02-02T16:33:23.912+01:00,root,yaquoi@yaquoi.com,171,false,,,deactivated,yaquoi
true,true,2024-02-02T16:33:24.551+01:00,root,l.oiseau2nuit@gmail.com,172,false,2024-12-23,2024-12-06T16:36:14.559+01:00,active,l.oiseau2nuit
true,true,2024-02-02T16:33:25.853+01:00,root,baubiologie@gmail.com,174,false,,,deactivated,baubiologie
true,true,2024-02-02T16:33:26.452+01:00,root,jlpnopub@gmail.com,175,false,,,deactivated,jlpnopub
true,true,2024-02-02T16:33:27.032+01:00,root,sarkanoss@gmail.com,176,false,,,deactivated,sarkanoss
true,true,2024-02-02T16:33:27.649+01:00,root,esse@free.fr,177,false,,,deactivated,esse
true,true,2024-02-02T16:33:28.259+01:00,root,stephane.noel.stock@gmail.com,178,false,,,deactivated,stephane.noel.stock
true,true,2024-02-02T16:33:28.861+01:00,root,nicolas.ricquemaque@laposte.net,179,false,,,deactivated,Nicolas.Ricquemaque
true,true,2024-02-02T16:33:29.438+01:00,root,djakoni@gmail.com,180,false,,,deactivated,djakoni
true,true,2024-02-02T16:33:30.006+01:00,root,mr08@mrit.com,181,false,,,deactivated,mr08
true,true,2024-02-02T16:33:30.584+01:00,root,ml@gmail.com,182,false,,,deactivated,ml
true,true,2024-02-02T16:33:31.192+01:00,root,yannockf@yahoo.fr,183,false,,,deactivated,yannockf
true,true,2024-02-02T16:33:31.782+01:00,root,vlavonoudg@yahoo.fr,184,false,,,deactivated,vlavonoudg
true,true,2024-02-02T16:33:32.382+01:00,root,mjorda@ifrance.com,185,false,,,deactivated,mjorda
true,true,2024-02-02T16:33:32.977+01:00,root,aurelie@collectifs.net,186,false,,,deactivated,aurelie
true,true,2024-02-02T16:33:33.561+01:00,root,denisb@a-working-class-hero-is-something-to.be,187,false,2024-10-01,2024-05-22T21:24:35.381+02:00,active,denisb
true,true,2024-02-02T16:33:34.365+01:00,root,abelstuff@ifrance.com,188,false,,,deactivated,abelstuff
true,true,2024-02-02T16:33:34.947+01:00,root,thierrybo@freesurf.fr,189,false,,,deactivated,thierrybo
true,true,2024-02-02T16:33:35.512+01:00,root,prigent.yohann@gmail.com,190,false,,,deactivated,prigent.yohann
true,true,2024-02-02T16:33:36.128+01:00,root,andre.payan@gmail.com,191,false,,,deactivated,andre.payan
true,true,2024-02-02T16:33:36.750+01:00,root,ashaszin@gmail.com,192,false,,,deactivated,ashaszin
true,true,2024-02-02T16:33:37.355+01:00,root,jerome.breton@gmail.com,193,false,,,deactivated,jerome.breton
true,true,2024-02-02T16:33:37.945+01:00,root,denis@upian.com,194,false,,,deactivated,denis
true,true,2024-02-02T16:33:38.510+01:00,root,teddy.spip@gmail.com,195,false,2025-01-29,2025-01-24T18:14:16.076+01:00,active,teddy.spip
true,true,2024-02-02T16:33:39.106+01:00,root,marrock@gmail.com,196,false,,,deactivated,marrock
true,true,2024-02-02T16:33:39.703+01:00,root,assfor@assfor.com,197,false,,,deactivated,assfor
true,true,2024-02-02T16:33:40.276+01:00,root,sam@poongaloo.org,198,false,,,deactivated,sam
true,true,2024-02-02T16:33:40.877+01:00,root,jn.jamesnicolas@gmail.com,199,false,,,deactivated,JN.jamesnicolas
true,true,2024-02-02T16:33:41.478+01:00,root,ljullien@edres74.net,200,false,,,deactivated,ljullien
true,true,2024-02-02T16:33:42.081+01:00,root,jsanjuan@futurnet.es,201,false,,,deactivated,jsanjuan
true,true,2024-02-02T16:33:42.716+01:00,root,benjamin.revel@free.fr,202,false,,,deactivated,benjamin.revel
true,true,2024-02-02T16:33:43.316+01:00,root,gilles@quiniou.net,203,false,,,deactivated,gilles
true,true,2024-02-02T16:33:43.910+01:00,root,doppeltgemoppelt@gmail.com,204,false,,,deactivated,doppeltgemoppelt
true,true,2024-02-02T16:33:44.486+01:00,root,jjmeric@free.fr,205,false,,,deactivated,jjmeric
true,true,2024-02-02T16:33:45.071+01:00,root,pierrekuhn@ik.me,206,false,2025-02-14,2025-01-30T20:19:47.095+01:00,active,pierretux
true,true,2024-02-02T16:33:45.640+01:00,root,baroug@rezo.net,207,false,,,deactivated,baroug
true,true,2024-02-02T16:33:46.200+01:00,root,hello+jf@librethic.io,208,false,,,deactivated,jfefe
true,true,2024-02-02T16:33:46.811+01:00,root,peggy@rezo.net,209,false,,,deactivated,peggy
true,true,2024-02-02T16:33:47.407+01:00,root,tom@mir2.dk,210,false,,,deactivated,tom
true,true,2024-02-02T16:33:48.020+01:00,root,thomas@bouncingorange.com,211,false,,,deactivated,thomas
true,true,2024-02-02T16:33:48.642+01:00,root,xdjuj@apsulis.com,212,false,,,deactivated,xdjuj
true,true,2024-02-02T16:33:49.260+01:00,root,sourrisseau@yahoo.fr,213,false,,,deactivated,sourrisseau
true,true,2024-02-02T16:33:49.888+01:00,root,xabi@nodo50.org,214,false,,,deactivated,xabi
true,true,2024-02-02T16:33:50.462+01:00,root,beuc@beuc.net,215,false,,,deactivated,beuc
true,true,2024-02-02T16:33:51.087+01:00,root,christophe@cboutin.net,216,false,,,deactivated,christophe
true,true,2024-02-02T16:33:51.681+01:00,root,p.rousset@gmail.com,217,false,,,deactivated,p.rousset
true,true,2024-02-02T16:33:52.264+01:00,root,thomas.delhomenie@gmail.com,218,false,,,deactivated,thomas.delhomenie
true,true,2024-02-02T16:33:52.834+01:00,root,pgrison@vjf.cnrs.fr,219,false,,,deactivated,pgrison
true,true,2024-02-02T16:33:53.448+01:00,root,jeancharles@yahoo.fr,220,false,,,deactivated,jeancharles
true,true,2024-02-02T16:33:54.062+01:00,root,augier.guillaume@gmail.com,221,false,,,deactivated,augier.guillaume
true,true,2024-02-02T16:33:54.666+01:00,root,shazaam@mutins.net,222,false,,,deactivated,shazaam
true,true,2024-02-02T16:33:55.284+01:00,root,arnaud@arnaudcordier.org,223,false,,,deactivated,arnaud
true,true,2024-02-02T16:33:55.895+01:00,root,sylvain.gougouzian@gmail.com,224,false,,,deactivated,sylvain.gougouzian
true,true,2024-02-02T16:33:56.498+01:00,root,glims@wanadoo.fr,225,false,,,deactivated,glims
true,true,2024-02-02T16:33:57.101+01:00,root,j4444k@gmail.com,226,false,,,deactivated,j4444k
true,true,2024-02-02T16:33:57.660+01:00,root,enurit@openstudio.fr,227,false,,,deactivated,enurit
true,true,2024-02-02T16:33:58.284+01:00,root,bennetteson@free.fr,228,false,,,deactivated,bennetteson
true,true,2024-02-02T16:33:58.866+01:00,root,da@weeno.net,229,false,,,deactivated,davux
true,true,2024-02-02T16:33:59.649+01:00,root,jcvilleneuve@cegetel.net,230,false,2025-02-12,2025-01-04T18:32:55.092+01:00,active,jcvilleneuve
true,true,2024-02-02T16:34:00.280+01:00,root,babbibel@gmail.com,231,false,,,deactivated,babbibel
true,true,2024-02-02T16:34:00.894+01:00,root,patrick@kuchard.net,232,false,,,deactivated,patrick
true,true,2024-02-02T16:34:01.514+01:00,root,olivier.carette@phpasso.fr,233,false,,,deactivated,olivier.carette
true,true,2024-02-02T16:34:02.133+01:00,root,scamerlo.work@gmail.com,234,false,,,deactivated,scamerlo.work
true,true,2024-02-02T16:34:02.697+01:00,root,shnoulle@gsill.net,235,false,,,deactivated,shnoulle
true,true,2024-02-02T16:34:03.276+01:00,root,benoit.aubert@hotmail.fr,236,false,,,deactivated,benoit.aubert
true,true,2024-02-02T16:34:03.859+01:00,root,vprono@gmail.com,237,false,,,deactivated,vprono
true,true,2024-02-02T16:34:04.431+01:00,root,homere1974@yahoo.fr,238,false,2024-05-09,2024-03-09T19:25:40.978+01:00,deactivated,homere1974
true,true,2024-02-02T16:34:05.141+01:00,root,alexis.pellicier@nds.k12.tr,239,false,2024-06-12,2024-04-25T13:20:37.230+02:00,deactivated,alexis.pellicier
true,true,2024-02-02T16:34:05.765+01:00,root,scaron@dumx.com,240,false,,,deactivated,scaron
true,true,2024-02-02T16:34:06.323+01:00,root,alesk@spip.org,241,false,,,deactivated,alesk
true,true,2024-02-02T16:34:06.943+01:00,root,fabrice.eudes@free.fr,242,false,,,deactivated,fabrice.eudes
true,true,2024-02-02T16:34:07.535+01:00,root,lspeciale@gmail.com,243,false,,,deactivated,lspeciale
true,true,2024-02-02T16:34:08.115+01:00,root,devmed@hotmail.fr,244,false,,,deactivated,devmed
true,true,2024-02-02T16:34:08.707+01:00,root,yves.costiou@gmail.com,245,false,,,deactivated,yves.costiou
true,true,2024-02-02T16:34:09.302+01:00,root,cyblors@gmail.com,246,false,,,deactivated,cyblors
true,true,2024-02-02T16:34:09.881+01:00,root,shizuka@9online.fr,247,false,,,deactivated,shizuka
true,true,2024-02-02T16:34:10.492+01:00,root,skus1@free.fr,248,false,,,deactivated,skus1
true,true,2024-02-02T16:34:11.099+01:00,root,fbarbenoire@yahoo.fr,249,false,,,deactivated,fbarbenoire
true,true,2024-02-02T16:34:11.664+01:00,root,ng@ngweb.fr,250,false,,,deactivated,ng
true,true,2024-02-02T16:34:12.226+01:00,root,piero.wbmstr@gmail.com,251,false,,,deactivated,piero.wbmstr
true,true,2024-02-02T16:34:12.833+01:00,root,jerome.escoffier@gmail.com,252,false,,,deactivated,jerome.escoffier
true,true,2024-02-02T16:34:13.424+01:00,root,julien@cahri.com,253,false,,,deactivated,julien
true,true,2024-02-02T16:34:14.021+01:00,root,difundelaidea@nodo50.org,254,false,,,deactivated,difundelaidea
true,true,2024-02-02T16:34:14.637+01:00,root,mouleyrecedric@gmail.com,255,false,,,deactivated,mouleyrecedric
true,true,2024-02-02T16:34:15.234+01:00,root,gornety@intermediaservice.fr,256,false,,,deactivated,gornety
true,true,2024-02-02T16:34:15.830+01:00,root,n.pouille@gmail.com,257,false,,,deactivated,n.pouille
true,true,2024-02-02T16:34:16.476+01:00,root,ydikoi@me.com,258,false,,,deactivated,ydikoi
true,true,2024-02-02T16:34:17.084+01:00,root,emartin@sigb.net,259,false,,,deactivated,emartin
true,true,2024-02-02T16:34:17.670+01:00,root,yffic@cousumain.info,260,false,,,deactivated,yffic
true,true,2024-02-02T16:34:18.228+01:00,root,benlarcher@yahoo.fr,261,false,,,deactivated,benlarcher
true,true,2024-02-02T16:34:18.834+01:00,root,cyp@rouquin.me,262,false,,,deactivated,cyp
true,true,2024-02-02T16:34:19.431+01:00,root,marlysa5@free.fr,263,false,,,deactivated,marlysa5
true,true,2024-02-02T16:34:20.009+01:00,root,guy.cesaro@gmail.com,264,false,,,deactivated,guy.cesaro
true,true,2024-02-02T16:34:20.899+01:00,root,serge.markitanenko@gmail.com,265,false,,,deactivated,serge.markitanenko
true,true,2024-02-02T16:34:21.480+01:00,root,libertaire@hotmail.fr,266,false,,,deactivated,libertaire
true,true,2024-02-02T16:34:22.063+01:00,root,ccapdev@gmail.com,267,false,,,deactivated,ccapdev
true,true,2024-02-02T16:34:22.674+01:00,root,olivier.jeulin@free.fr,268,false,,,deactivated,olivier.jeulin
true,true,2024-02-02T16:34:23.276+01:00,root,yo.dan@free.fr,269,false,,,deactivated,yo.dan
true,true,2024-02-02T16:34:23.888+01:00,root,gillesklein.spip2@gmail.com,270,false,,,deactivated,gillesklein.spip2
true,true,2024-02-02T16:34:25.131+01:00,root,dwojylac@free.fr,272,false,2024-03-01,,deactivated,dwojylac
true,true,2024-02-02T16:34:25.714+01:00,root,marc.viglino@ign.fr,273,false,,,deactivated,marc.viglino
true,true,2024-02-02T16:34:26.319+01:00,root,jrolli@free.fr,274,false,,,deactivated,jrolli
true,true,2024-02-02T16:34:26.935+01:00,root,philippe.lara@free.fr,275,false,,,deactivated,philippe.lara
true,true,2024-02-02T16:34:27.533+01:00,root,jml9340@gmail.com,276,false,,,deactivated,jml9340
true,true,2024-02-02T16:34:28.126+01:00,root,zonepro@free.fr,277,false,,,deactivated,zonepro
true,true,2024-02-02T16:34:28.741+01:00,root,perline@perline.org,278,false,,,deactivated,perline
true,true,2024-02-02T16:34:29.346+01:00,root,yvestan@gmail.com,279,false,,,deactivated,yvestan
true,true,2024-02-02T16:34:30.035+01:00,root,jtlebi@gmail.com,280,false,,,deactivated,jtlebi
true,true,2024-02-02T16:34:30.683+01:00,root,jp.guihard@ahbretagne.com,281,false,,,deactivated,jp.GUIHARD
true,true,2024-02-02T16:34:31.257+01:00,root,robomatix@machinesculte.net,282,false,,,deactivated,robomatix
true,true,2024-02-02T16:34:31.863+01:00,root,fredlefred@gmail.com,283,false,,,deactivated,fredlefred
true,true,2024-02-02T16:34:32.484+01:00,root,monsieur.camille@gmail.com,284,false,,,deactivated,monsieur.camille
true,true,2024-02-02T16:34:33.086+01:00,root,luc.tech@free.fr,285,false,2024-10-16,2024-03-03T14:39:36.661+01:00,active,luc.tech
true,true,2024-02-02T16:34:33.693+01:00,root,bubu@riseup.net,286,false,,,deactivated,bubu
true,true,2024-02-02T16:34:34.283+01:00,root,jack@lmpe.fr,287,false,,,deactivated,jack
true,true,2024-02-02T16:34:34.893+01:00,root,klelugi@gmail.com,288,false,,,deactivated,klelugi
true,true,2024-02-02T16:34:35.456+01:00,root,christopheld@gmail.com,289,false,2025-02-09,2025-01-21T13:35:31.077+01:00,active,christopheld
true,true,2024-02-02T16:34:36.097+01:00,root,olivier.durif@aliceadsl.fr,290,false,,,deactivated,olivier.durif
true,true,2024-02-02T16:34:36.702+01:00,root,ftetart@sigb.net,291,false,,,deactivated,ftetart
true,true,2024-02-02T16:34:37.419+01:00,root,cartier@yahoo.com,292,false,,,deactivated,cartier
true,true,2024-02-02T16:34:38.030+01:00,root,pierre.troller@dionysos.org,293,false,,,deactivated,pierre.troller
true,true,2024-02-02T16:34:38.650+01:00,root,seds.admin@gmail.com,294,false,,,deactivated,seds.admin
true,true,2024-02-02T16:34:39.270+01:00,root,severo@rednegra.net,295,false,,,deactivated,severo
true,true,2024-02-02T16:34:39.866+01:00,root,gregoire.leroy@hyperthese.net,296,false,,,deactivated,gregoire.leroy
true,true,2024-02-02T16:34:40.439+01:00,root,chankalan@choc0.net,297,false,2025-01-16,2024-11-25T17:37:34.794+01:00,active,chankalan
true,true,2024-02-02T16:34:41.107+01:00,root,gmichard@openstudio.fr,298,false,,,deactivated,gmichard
true,true,2024-02-02T16:34:41.676+01:00,root,didinfo@mailoo.org,299,false,,,deactivated,didinfo
true,true,2024-02-02T16:34:42.263+01:00,root,ngombe@gmail.com,300,false,,,deactivated,ngombe
true,true,2024-02-02T16:34:42.853+01:00,root,vague@yahoo.fr,301,false,,,deactivated,vague
true,true,2024-02-02T16:34:43.451+01:00,root,xbesson@openstudio.fr,302,false,,,deactivated,xbesson
true,true,2024-02-02T16:34:44.049+01:00,root,jacques.desforges@free.fr,303,false,,,deactivated,jacques.desforges
true,true,2024-02-02T16:34:44.670+01:00,root,raourag@me.com,304,false,,,deactivated,raourag
true,true,2024-02-02T16:34:45.245+01:00,root,guillaume.wauquier@declic3000.com,305,false,2025-01-23,2024-12-17T13:19:11.066+01:00,active,guillaume.wauquier
true,true,2024-02-02T16:34:45.809+01:00,root,fruzzin@voila.fr,306,false,,,deactivated,fruzzin
true,true,2024-02-02T16:34:46.427+01:00,root,ailynn@free.fr,307,false,,,deactivated,ailynn
true,true,2024-02-02T16:34:47.052+01:00,root,philippe.guerindon.zone@gmail.com,308,false,,,deactivated,philippe.guerindon.zone
true,true,2024-02-02T16:34:47.738+01:00,root,magegahell@yahoo.fr,309,false,,,deactivated,magegahell
true,true,2024-02-02T16:34:48.342+01:00,root,eric.lernon@netapsys.fr,310,false,,,deactivated,eric.lernon
true,true,2024-02-02T16:34:48.961+01:00,root,tommy@verne.cc,311,false,,,deactivated,tommy
true,true,2024-02-02T16:34:49.565+01:00,root,themmaze@gmail.com,312,false,,,deactivated,themmaze
true,true,2024-02-02T16:34:50.232+01:00,root,fabrice.albert@laposte.net,313,false,,,deactivated,fabrice.albert
true,true,2024-02-02T16:34:50.798+01:00,root,marcel@bolla.fr,314,false,,,deactivated,marcel
true,true,2024-02-02T16:34:51.462+01:00,root,carl.vincent38@gmail.com,315,false,,,deactivated,carl.vincent38
true,true,2024-02-02T16:34:52.090+01:00,root,julienlfy@gmail.com,316,false,2025-01-04,2024-09-09T20:34:21.706+02:00,active,julienlfy
true,true,2024-02-02T16:34:52.727+01:00,root,gildas.cotomale@gmail.com,317,false,2024-03-01,,deactivated,gilcot
true,true,2024-02-02T16:34:53.301+01:00,root,mechantclown@hotmail.fr,318,false,,,deactivated,mechantclown
true,true,2024-02-02T16:34:53.906+01:00,root,mespeche@openstudio.fr,319,false,,,deactivated,mespeche
true,true,2024-02-02T16:34:54.470+01:00,root,daniel@anic.fr,320,false,,,deactivated,daniel
true,true,2024-02-02T16:34:55.049+01:00,root,mrecchia@openstudio.fr,321,false,,,deactivated,mrecchia
true,true,2024-02-02T16:34:55.633+01:00,root,drabdou@wakzine.com,322,false,,,deactivated,drabdou
true,true,2024-02-02T16:34:56.280+01:00,root,fredjust@gmail.com,323,false,,,deactivated,fredjust
true,true,2024-02-02T16:34:56.889+01:00,root,emthanh@free.fr,324,false,,,deactivated,emthanh
true,true,2024-02-02T16:34:57.475+01:00,root,antoine@jabron.com,325,false,,,deactivated,antoine
true,true,2024-02-02T16:34:58.082+01:00,root,frederic.bouteille.mae@gmail.com,326,false,,,deactivated,fwedboot
true,true,2024-02-02T16:34:58.672+01:00,root,dorch@dorch.fr,327,false,,,deactivated,dorch
true,true,2024-02-02T16:34:59.245+01:00,root,spipfactory@gmail.com,328,false,,,deactivated,spipfactory
true,true,2024-02-02T16:34:59.844+01:00,root,juego@requiem4tv.com,329,false,,,deactivated,xuv
true,true,2024-02-02T16:35:00.463+01:00,root,f.mata@bedream.fr,330,false,,,deactivated,f.mata
true,true,2024-02-02T16:35:01.066+01:00,root,bystrano@gmx.ch,331,false,,,deactivated,bystrano
true,true,2024-02-02T16:35:01.718+01:00,root,yannx.spip@hotmail.fr,332,false,,,deactivated,yannx.spip
true,true,2024-02-02T16:35:02.338+01:00,root,m.dulondel@laposte.net,333,false,,,deactivated,m.dulondel
true,true,2024-02-02T16:35:02.903+01:00,root,pmiquel@akilia.net,334,false,2024-12-15,2024-12-09T11:43:41.066+01:00,active,peetdu
true,true,2024-02-02T16:35:03.541+01:00,root,dut.surleweb@gmail.com,335,false,2025-01-24,2024-11-04T22:02:44.018+01:00,active,Dut
true,true,2024-02-02T16:35:04.112+01:00,root,elpapais@infoportal.it,336,false,,,deactivated,elpapais
true,true,2024-02-02T16:35:04.693+01:00,root,slegay@openstudio.fr,337,false,,,deactivated,slegay
true,true,2024-02-02T16:35:05.301+01:00,root,nikolas.villa@gmail.com,338,false,,,deactivated,nikolas.villa
true,true,2024-02-02T16:35:05.890+01:00,root,gaspard@spip.org,339,false,,,deactivated,gaspard
true,true,2024-02-02T16:35:06.467+01:00,root,rbuissonramey@openstudio.fr,340,false,,,deactivated,rbuissonramey
true,true,2024-02-02T16:35:07.061+01:00,root,dexbrayat@openstudio.fr,341,false,,,deactivated,dexbrayat
true,true,2024-02-02T16:35:07.641+01:00,root,amathieu@openstudio.fr,342,false,,,deactivated,amathieu
true,true,2024-02-02T16:35:08.221+01:00,root,claffont@openstudio.fr,343,false,,,deactivated,claffont
true,true,2024-02-02T16:35:08.878+01:00,root,moye@hotmail.fr,344,false,,,deactivated,moye
true,true,2024-02-02T16:35:09.458+01:00,root,thomas.weiss@webgardener.fr,345,false,,,deactivated,thomas.weiss
true,true,2024-02-02T16:35:10.060+01:00,root,hugotraverson@hotmail.fr,346,false,,,deactivated,hugotraverson
true,true,2024-02-02T16:35:10.628+01:00,root,bruno.caillard@free.fr,347,false,2024-03-01,,deactivated,bruno.caillard
true,true,2024-02-02T16:35:11.209+01:00,root,davduf@davduf.net,348,false,,,deactivated,davduf
true,true,2024-02-02T16:35:11.834+01:00,root,gdenisselle@gmail.com,349,false,,,deactivated,gdenisselle
true,true,2024-02-02T16:35:12.496+01:00,root,matteo.chesstale@gmail.com,350,false,,,deactivated,matteo.chesstale
true,true,2024-02-02T16:35:13.101+01:00,root,thom.sp@gmx.fr,351,false,,,deactivated,thom.sp
true,true,2024-02-02T16:35:13.675+01:00,root,pascal@eledo.com,352,false,,,deactivated,pascal
true,true,2024-02-02T16:35:14.252+01:00,root,globitrottux@gmail.com,353,false,,,deactivated,globitrottux
true,true,2024-02-02T16:35:14.864+01:00,root,jonathan@beespip.org,354,false,,,deactivated,jonathan
true,true,2024-02-02T16:35:15.481+01:00,root,philippeboussin@gmail.com,355,false,2025-02-08,2024-11-10T17:37:31.698+01:00,active,philippeboussin
true,true,2024-02-02T16:35:16.086+01:00,root,robert.sebille@cassiopea.org,356,false,,,deactivated,robert.sebille
true,true,2024-02-02T16:35:16.671+01:00,root,elodie@ldd.fr,357,false,,,deactivated,elodie
true,true,2024-02-02T16:35:17.277+01:00,root,frans.rousselle@gmail.com,358,false,,,deactivated,frans.rousselle
true,true,2024-02-02T16:35:17.875+01:00,root,csauvage@gmail.com,359,false,,,deactivated,camille.sauvage
true,true,2024-02-02T16:35:18.474+01:00,root,fabrice@kerilio.bzh,360,false,2024-12-20,2024-09-25T10:18:05.259+02:00,active,fa_b
true,true,2024-02-02T16:35:19.084+01:00,root,florence.henry@obspm.fr,361,false,2024-07-04,2024-06-12T18:54:32.664+02:00,deactivated,florence.henry
true,true,2024-02-02T16:35:19.687+01:00,root,lmichel@openstudio.fr,362,false,,,deactivated,lmichel
true,true,2024-02-02T16:35:20.266+01:00,root,amas@openstudio.fr,363,false,,,deactivated,amas
true,true,2024-02-02T16:35:20.837+01:00,root,francecool@hotmail.com,364,false,,,deactivated,francecool
true,true,2024-02-02T16:35:21.407+01:00,root,fabio.bertagnin@fbservices.fr,365,false,,,deactivated,fabio.bertagnin
true,true,2024-02-02T16:35:22.003+01:00,root,olivier.galland@tours.inra.fr,366,false,,,deactivated,Olivier.Galland
true,true,2024-02-02T16:35:22.585+01:00,root,cyriaque@wabi.fr,367,false,,,deactivated,cyriaque
true,true,2024-02-02T16:35:23.165+01:00,root,amemo@rezo.net,368,false,,,deactivated,amemo
true,true,2024-02-02T16:35:23.920+01:00,root,xde6ug@lesitedexavier.fr,369,false,,,deactivated,xDe6ug
true,true,2024-02-02T16:35:24.553+01:00,root,amdgaye@gmail.com,370,false,,,deactivated,amdgaye
true,true,2024-02-02T16:35:25.179+01:00,root,louis.gostiaux@free.fr,371,false,,,deactivated,louis.gostiaux
true,true,2024-02-02T16:35:25.782+01:00,root,olivier.tetard@miskin.fr,372,false,,,deactivated,olivier.tetard
true,true,2024-02-02T16:35:26.351+01:00,root,rj@hodo.fr,373,false,,,deactivated,rj
true,true,2024-02-02T16:35:26.951+01:00,root,yannick.lepetit@gmail.com,374,false,,,deactivated,yannick.lepetit
true,true,2024-02-02T16:35:27.550+01:00,root,labergerie@lesmoutonssauvages.com,375,false,,,deactivated,charles
true,true,2024-02-02T16:35:28.207+01:00,root,n.grillet@devictio.fr,376,false,,,deactivated,n.grillet
true,true,2024-02-02T16:35:28.802+01:00,root,cm2901@free.fr,377,false,,,deactivated,cm2901
true,true,2024-02-02T16:35:29.394+01:00,root,job@pverrier.fr,378,false,,,deactivated,job
true,true,2024-02-02T16:35:29.997+01:00,root,marc@brillault.fr,379,false,,,deactivated,marc
true,true,2024-02-02T16:35:30.606+01:00,root,th.schmit@gmail.com,380,false,,,deactivated,thomasschmit
true,true,2024-02-02T16:35:31.222+01:00,root,cedric.couvrat@gmail.com,381,false,2024-05-10,2024-03-12T13:47:53.998+01:00,deactivated,cedric.couvrat
true,true,2024-02-02T16:35:31.846+01:00,root,jeremyhetzel@free.fr,382,false,,,deactivated,jeremyhetzel
true,true,2024-02-02T16:35:32.412+01:00,root,david@tilapin.org,383,false,,,deactivated,taffit
true,true,2024-02-02T16:35:33.124+01:00,root,jeanmarie@cousumain.info,384,false,2025-02-15,2025-02-14T12:31:53.330+01:00,active,jeanmarie
true,true,2024-02-02T16:35:33.727+01:00,root,arthemis78@free.fr,385,false,,,deactivated,arthemis78
true,true,2024-02-02T16:35:34.297+01:00,root,hadrien@apsulis.com,386,false,,,deactivated,hadrien
true,true,2024-02-02T16:35:34.863+01:00,root,nabil@djidi.com,387,false,,,deactivated,nabil
true,true,2024-02-02T16:35:35.469+01:00,root,d.ferrera@free.fr,388,false,,,deactivated,d.ferrera
true,true,2024-02-02T16:35:36.076+01:00,root,sabatier93@gmail.com,389,false,,,deactivated,sabatier93
true,true,2024-02-02T16:35:36.703+01:00,root,code@archiloque.net,390,false,,,deactivated,archiloque
true,true,2024-02-02T16:35:37.296+01:00,root,claude.codden@icloud.com,391,false,,,deactivated,claude.codden
true,true,2024-02-02T16:35:37.920+01:00,root,laurent@ipeos.com,392,false,,,deactivated,laurent
true,true,2024-02-02T16:35:38.509+01:00,root,jeremy.scherrer@netapsys.fr,393,false,,,deactivated,jeremy.scherrer
true,true,2024-02-02T16:35:39.102+01:00,root,cyberbaloo.spip@gmail.com,394,false,,,deactivated,cyberbaloo.spip
true,true,2024-02-02T16:35:39.715+01:00,root,pierre.blarre@gmail.com,395,false,,,deactivated,pierre.blarre
true,true,2024-02-02T16:35:40.327+01:00,root,pro@martinroy.fr,396,false,,,deactivated,pro
true,true,2024-02-02T16:35:40.930+01:00,root,louis.possoz@quelfutur.org,397,false,,,deactivated,louis.possoz
true,true,2024-02-02T16:35:41.208+01:00,root,exomede@gmail.com,398,false,,,deactivated,exomede
true,true,2024-02-02T16:35:41.825+01:00,root,spipmalion@gmail.com,399,false,,,deactivated,spipmalion
true,true,2024-02-02T16:35:42.477+01:00,root,sebastien@2dbnet.fr,400,false,,,deactivated,sebastien
true,true,2024-02-02T16:35:43.055+01:00,root,gabriel.remond@laposte.net,401,false,,,deactivated,gabriel.remond
true,true,2024-02-02T16:35:43.652+01:00,root,david.fredette@visioninfo.qc.ca,402,false,,,deactivated,david.fredette
true,true,2024-02-02T16:35:44.247+01:00,root,emmanuel.doucet@groolot.net,403,false,,,deactivated,emmanuel.doucet
true,true,2024-02-02T16:35:44.869+01:00,root,syd.dolby@gmail.comi,404,false,,,deactivated,syd.dolby
true,true,2024-02-02T16:35:45.445+01:00,root,ljullien74@hotmail.fr,405,false,,,deactivated,ljullien74
true,true,2024-02-02T16:35:46.068+01:00,root,pierre.laszczak@gmail.com,406,false,2024-10-08,2024-10-03T00:13:52.955+02:00,active,pierre.laszczak
true,true,2024-02-02T16:35:46.748+01:00,root,briethings@gmail.com,407,false,,,deactivated,briethings
true,true,2024-02-02T16:35:47.347+01:00,root,tomas@msn.com,408,false,,,deactivated,tomas
true,true,2024-02-02T16:35:47.955+01:00,root,herve.ledantec@gmail.com,409,false,,,deactivated,herve.ledantec
true,true,2024-02-02T16:35:48.538+01:00,root,flouvel@free.fr,410,false,,,deactivated,flouvel
true,true,2024-02-02T16:35:49.160+01:00,root,mehdi.cherigui@laposte.net,411,false,,,deactivated,mehdi.cherigui
true,true,2024-02-02T16:35:49.780+01:00,root,dentineli@netcourrier.com,412,false,,,deactivated,dentineli
true,true,2024-02-02T16:35:50.373+01:00,root,spip@kailaasa.net,413,false,,,deactivated,spip.kailaasa.net
true,true,2024-02-02T16:35:51.028+01:00,root,listes@koumbit.org,414,false,,,deactivated,listes.koumbit.org
true,true,2024-02-02T16:35:51.669+01:00,root,alain@wanadoo.fr,415,false,,,deactivated,alain.wanadoo.fr
true,true,2024-02-02T16:35:52.239+01:00,root,webmaster@geomaticien.com,416,false,2024-10-19,2024-10-08T05:38:59.631+02:00,active,geomaticien
true,true,2024-02-02T16:35:52.918+01:00,root,spip@yahoo.fr,417,false,,,deactivated,spip.yahoo.fr
true,true,2024-02-02T16:35:53.518+01:00,root,francois@sauterey.org,418,false,,,deactivated,francois.sauterey.org
true,true,2024-02-02T16:35:54.090+01:00,root,shnoulle@spip.org,419,false,,,deactivated,shnoulle.spip.org
true,true,2024-02-02T16:35:54.708+01:00,root,benlarcher@gmail.com,420,false,,,deactivated,Benitronne
true,true,2024-02-02T16:35:55.876+01:00,root,christophe@beespip.org,422,false,2025-01-24,2024-12-20T10:17:50.976+01:00,active,christophe.beespip.org
true,true,2024-02-02T16:35:56.496+01:00,root,mathieu@collectifs.net,423,false,,,deactivated,mathieu.collectifs.net
true,true,2024-02-02T16:35:57.106+01:00,root,francois@mozilla.com,424,false,,,deactivated,francois.mozilla.com
true,true,2024-02-02T16:35:57.698+01:00,root,olivier@ipeos.com,425,false,,,deactivated,olivier.ipeos.com
true,true,2024-02-02T16:35:58.306+01:00,root,julien@redondo.fr,426,false,,,deactivated,julien.redondo.fr
true,true,2024-02-02T16:35:58.877+01:00,root,ml@maat.me,427,false,,,deactivated,ml.maat.me
true,true,2024-02-02T16:35:59.464+01:00,root,laurent@brindefolie.com,428,false,,,deactivated,laurent.brindefolie.com
true,true,2024-02-02T16:36:00.057+01:00,root,izo@rezo.net,429,false,,,deactivated,izo.rezo.net
true,true,2024-02-02T16:36:00.807+01:00,root,jluc@no-log.org,430,false,2025-02-16,2025-02-15T20:24:46.702+01:00,active,JLuc
true,true,2024-02-02T16:36:01.409+01:00,root,jacques@jack31.org,431,false,2025-02-16,2024-10-02T11:59:15.144+02:00,active,Jack31
true,true,2024-02-02T16:36:02.014+01:00,root,eric.camus@ac-poitiers.fr,432,false,,2024-05-14T18:03:59.437+02:00,deactivated,CEric-fr
true,true,2024-02-02T16:36:02.718+01:00,root,ladnet@ladnet.net,433,false,,,deactivated,ladnet
true,true,2024-02-02T16:36:03.203+01:00,root,chourak@free.fr,434,false,,,deactivated,Chourak
true,true,2024-02-02T16:36:03.768+01:00,root,spip.franck@lien-d-amis.net,435,false,2025-02-13,2025-02-02T11:08:55.494+01:00,active,Franck
true,true,2024-02-02T16:36:04.535+01:00,root,milemilefos@gazeta.pl,436,false,,,deactivated,checkvilrut
true,true,2024-02-02T16:36:05.147+01:00,root,ng@tournemain.com,437,false,,,deactivated,ngweb37
true,true,2024-02-02T16:36:05.718+01:00,root,paoloquezzo@gazeta.pl,438,false,,,deactivated,itacef
true,true,2024-02-02T16:36:06.320+01:00,root,team@salon-ecigarette.com,439,false,,,deactivated,TobLib
true,true,2024-02-02T16:36:06.889+01:00,root,arnaud.berard@mister-graphx.com,440,false,2024-03-01,,deactivated,mistergraphx
true,true,2024-02-02T16:36:07.453+01:00,root,postmaster@artaban.fr,441,false,,,deactivated,GildDart
true,true,2024-02-02T16:36:08.087+01:00,root,llefebvre@c-real.fr,442,false,2025-02-12,2025-01-04T11:58:45.047+01:00,active,Yohooo
true,true,2024-02-02T16:36:08.572+01:00,root,johan.pustoch@gmail.com,443,false,2024-11-21,2024-10-22T10:04:19.155+02:00,active,johan
true,true,2024-02-02T16:36:09.212+01:00,root,webmaster@opalesurfcasting.net,444,false,2025-01-11,2024-11-07T23:26:10.815+01:00,active,eldk
true,true,2024-02-02T16:36:09.782+01:00,root,seb@ldd.fr,445,false,,,deactivated,seb
true,true,2024-02-02T16:36:10.425+01:00,root,bonjour@pierretandille.fr,446,false,,,deactivated,Fouture
true,true,2024-02-02T16:36:11.031+01:00,root,gaspard.lists@gmail.com,447,false,,,deactivated,gasp
true,true,2024-02-02T16:36:11.698+01:00,root,git-spip@tokiop.com,448,false,,,deactivated,tokiop
true,true,2024-02-02T16:36:12.295+01:00,root,dominique.lepaisant@ac-caen.fr,449,false,,,deactivated,Dom
true,true,2024-02-02T16:36:12.883+01:00,root,olivier.gautier@ac-normandie.fr,450,false,,,deactivated,gautiero
true,true,2024-02-02T16:36:13.480+01:00,root,joelsbarco@gmail.com,451,false,,,deactivated,joelsbarco
true,true,2024-02-02T16:36:14.045+01:00,root,jmartinpuerta@gmail.com,452,false,,,deactivated,jeremie
true,true,2024-02-02T16:36:14.767+01:00,root,vincent.callies@gmail.com,453,false,2025-01-19,2024-11-22T08:27:44.625+01:00,active,thrax
true,true,2024-02-02T16:36:15.399+01:00,root,mathieu.brume@gmail.com,454,false,,,deactivated,mathbrume
true,true,2024-02-02T16:36:15.961+01:00,root,remi@suinot.org,455,false,2024-03-01,,deactivated,remi
true,true,2024-02-02T16:36:16.621+01:00,root,denis@collectifs.net,456,false,2024-05-11,2024-05-11T11:16:12.597+02:00,deactivated,ddenis
true,true,2024-02-02T16:36:17.262+01:00,root,olivier.testa@yahoo.fr,457,false,2024-03-01,,deactivated,olivier_t
true,true,2024-02-02T16:36:17.858+01:00,root,csi@zedd.pro,458,false,2025-02-14,2025-02-05T10:23:55.537+01:00,active,pierr0t
true,true,2024-02-02T16:36:18.418+01:00,root,webprad@gmail.com,459,false,2025-02-15,2025-02-07T15:53:05.854+01:00,active,Graphie
true,true,2024-02-02T16:36:19.045+01:00,root,mkrtchia@gmail.com,460,false,,,deactivated,Roman
true,true,2024-02-02T16:36:19.680+01:00,root,gouz@root-me.org,461,false,2024-03-26,2024-03-26T09:06:55.219+01:00,deactivated,g0uZ
true,true,2024-02-02T16:36:20.375+01:00,root,glopglop@riseup.net,462,false,2025-01-29,2024-11-27T12:33:30.369+01:00,active,glopglop
true,true,2024-02-02T16:36:21.021+01:00,root,ludovic+spip@beurresarrasin.net,463,false,,,deactivated,ludogre
true,true,2024-02-02T16:36:21.578+01:00,root,daffyduke@lautre.net,464,false,2024-03-01,,deactivated,daffyduke
true,true,2024-02-02T16:36:22.238+01:00,root,joel.bertrand@systella.fr,465,false,,,deactivated,BERTRAND.Joel
true,true,2024-02-02T16:36:22.816+01:00,root,elsa.delmas@protonmail.com,466,false,,,deactivated,elsadl
true,true,2024-02-02T16:36:23.448+01:00,root,spip@mn-home.fr,467,false,,,deactivated,michael
true,true,2024-02-02T16:36:24.125+01:00,root,bricebou@momh.fr,468,false,2025-02-15,2025-02-15T20:34:10.613+01:00,active,bricebou
true,true,2024-02-02T16:36:24.897+01:00,root,lumis@xulepth.fr,469,false,,,deactivated,Fergus
true,true,2024-02-02T16:36:25.481+01:00,root,laedansa@gmail.com,470,false,,,deactivated,laeta
true,true,2024-02-02T16:36:26.065+01:00,root,mathieu@alphamosa.fr,471,false,2025-02-14,2025-02-10T08:49:17.237+01:00,active,MathieuAlphamosa
true,true,2024-02-02T16:36:26.409+01:00,root,paidge_cs@hotmail.com,472,false,2024-10-28,2024-08-16T08:19:46.995+02:00,banned,paidge
true,true,2024-02-02T16:36:26.897+01:00,root,john@john-livingston.fr,473,false,2024-10-21,2024-09-07T11:33:21.854+02:00,active,JohnLivingston
true,true,2024-02-02T16:36:27.291+01:00,root,lhc@e.email,474,false,2024-03-01,,deactivated,Pourrito
true,true,2024-02-02T16:36:27.738+01:00,root,rozlav@globenet.org,475,false,2024-03-01,,deactivated,rozlav
true,true,2024-02-02T16:36:28.221+01:00,root,lpam@free.fr,476,false,2024-03-01,,deactivated,pamillet
true,true,2024-02-02T16:36:28.664+01:00,root,theo.gordyjan@bssi.fr,477,false,,,deactivated,theobssi
true,true,2024-02-02T16:36:29.114+01:00,root,jul@blobul.com,478,false,2025-01-19,2025-01-13T23:52:42.079+01:00,active,JuL_BLoBuL
true,true,2024-02-02T16:36:29.573+01:00,root,cartacaro@laposte.net,479,false,,,deactivated,caroline
true,true,2024-02-02T16:36:30.038+01:00,root,christophe.imberti@developpement-durable.gouv.fr,480,false,2025-02-14,2025-02-07T09:16:31.054+01:00,active,equipement
true,true,2024-02-02T16:36:30.456+01:00,root,frank.gerardo@gmail.com,481,false,2025-02-14,2024-12-01T18:05:34.429+01:00,active,Frank
true,true,2024-02-02T16:36:30.897+01:00,root,ben@gresille.org,482,false,,,deactivated,benoitldr
true,true,2024-02-02T16:36:31.337+01:00,root,mathieu.lopes@gmail.com,483,false,2024-03-01,,deactivated,matlopes
true,true,2024-02-02T16:36:31.789+01:00,root,info@courcelles-design.fr,484,false,2024-03-01,,deactivated,Cdesign
true,true,2024-02-02T16:36:32.343+01:00,root,zoubloom@gmail.com,485,false,,,deactivated,zoubloom
true,true,2024-02-02T16:36:32.873+01:00,root,lebardix+git@ogm-techno.org,486,false,2024-03-01,,deactivated,lebardix
true,true,2024-02-02T16:36:33.424+01:00,root,rija.propitech@gmail.com,487,false,2025-02-12,2025-01-31T11:09:26.018+01:00,active,mossad
true,true,2024-02-02T16:36:33.916+01:00,root,dev@certifie-conforme.com,488,false,,,deactivated,CallMeDams
true,true,2024-02-02T16:36:34.426+01:00,root,emmanuel-v62@hotmail.fr,489,false,2024-03-01,,deactivated,Emmanuel_V
true,true,2024-02-02T16:36:34.991+01:00,root,gitspip@bleuchtang.fr,490,false,,,deactivated,emile
true,true,2024-02-02T16:36:35.499+01:00,root,contact@tudchentil.org,491,false,2024-03-01,,deactivated,AmalricBzh
true,true,2024-02-02T16:36:35.995+01:00,root,luc.mamin@helem.fr,492,false,2025-01-28,2025-01-16T21:20:39.639+01:00,active,Helem
true,true,2024-02-02T16:36:36.505+01:00,root,sebredthauer@gmail.com,493,false,2024-08-06,2024-08-05T12:26:15.441+02:00,deactivated,Bredt
true,true,2024-02-02T16:36:36.995+01:00,root,priscilla.balqis@genrespluriels.be,494,false,,,deactivated,priscilla
true,true,2024-02-02T16:36:37.481+01:00,root,jpaul.aubel@gmail.com,495,false,,,deactivated,jpa25
true,true,2024-02-02T16:36:37.992+01:00,root,nicolas.friedli+spip@gmail.com,496,false,,,deactivated,nfriedli
true,true,2024-02-02T16:36:38.517+01:00,root,pierrealexandreracine@gmail.com,497,false,,,deactivated,p-a-racine
true,true,2024-02-02T16:36:39.002+01:00,root,pmarechal@free.fr,498,false,,,deactivated,Philivert
true,true,2024-02-02T16:36:39.538+01:00,root,elm31rugby@gmail.com,499,false,,,deactivated,elm31rugby
true,true,2024-02-02T16:36:40.046+01:00,root,mathieubastien91@gmail.com,500,false,,,deactivated,BastienMTH
true,true,2024-02-02T16:36:40.612+01:00,root,nicolas_villeroy@hotmail.fr,501,false,,,deactivated,Caille
true,true,2024-02-02T16:36:41.149+01:00,root,carole.boulai@msh-lse.fr,502,false,,,deactivated,CaroleB
true,true,2024-02-02T16:36:41.670+01:00,root,gagz@immerda.ch,503,false,2025-01-08,2024-07-09T20:58:03.329+02:00,active,gagz
true,true,2024-02-02T16:36:42.153+01:00,root,otalazt@gmail.com,504,false,,,deactivated,Otalazt
true,true,2024-02-02T16:36:42.719+01:00,root,manu@espci.fr,505,false,2025-02-04,2024-10-15T10:07:24.469+02:00,active,manu0111
true,true,2024-02-02T16:36:43.393+01:00,root,ether@etherreal.com,506,false,2024-03-01,,deactivated,Fabrice_A
true,true,2024-02-02T16:36:43.899+01:00,root,plumf@open-plug.eu,507,false,2024-12-16,2024-12-06T02:02:54.558+01:00,active,Plumf
true,true,2024-02-02T16:36:44.449+01:00,root,keuronde@poivron-robotique.fr,508,false,,,deactivated,keuronde
true,true,2024-02-02T16:36:44.959+01:00,root,webmestre@apmep.fr,509,false,,,deactivated,MichelSuquet
true,true,2024-02-02T16:36:45.456+01:00,root,dumerlej@gmail.com,510,false,,,deactivated,du-Merle
true,true,2024-02-02T16:36:45.951+01:00,root,andre.gomez5@free.fr,511,false,,,deactivated,Degom95
true,true,2024-02-02T16:36:46.482+01:00,root,contact@moduloo.net,512,false,,,deactivated,julienvillalard
true,true,2024-02-02T16:36:47.002+01:00,root,henry.izurieta@gmail.com,513,false,,,deactivated,Henry
true,true,2024-02-02T16:36:47.534+01:00,root,c.goyette@laposte.net,514,false,,,deactivated,6ril
true,true,2024-02-02T16:36:48.078+01:00,root,tot@mailo.com,515,false,,,deactivated,tot44
true,true,2024-02-02T16:36:48.614+01:00,root,boutierjeanphilippe@gmail.com,516,false,,,deactivated,Jeanphilippe
true,true,2024-02-02T16:36:49.203+01:00,root,jeanmarc.ame@onmail.com,517,false,,,deactivated,jmame
true,true,2024-02-02T16:36:49.722+01:00,root,sylvain.desblancs@snes.edu,518,false,,,deactivated,syl20
true,true,2024-02-02T16:36:50.259+01:00,root,colliot@pierre-jean.com,519,false,,,deactivated,Pierre-Jean
true,true,2024-02-02T16:36:50.782+01:00,root,r@uzy.me,520,false,,,deactivated,p4bl0
true,true,2024-02-02T16:36:51.284+01:00,root,edoubrayrie@gmail.com,521,false,,,deactivated,edwardoo
true,true,2024-02-02T16:36:51.841+01:00,root,cpol0@pol-carre.fr,522,false,2025-02-13,2025-01-29T17:04:59.781+01:00,active,cpol
true,true,2024-02-02T16:36:52.366+01:00,root,tadzokuit@free.fr,523,false,,,deactivated,philbzh
true,true,2024-02-02T16:36:52.902+01:00,root,thiebaut.jourdain@posteo.net,524,false,2024-04-02,2024-04-01T12:15:09.692+02:00,deactivated,Thiebaut
true,true,2024-02-02T16:36:53.470+01:00,root,manu@mine-de-rien.fr,525,false,2024-06-20,2024-03-27T06:50:40.448+01:00,deactivated,Manu
true,true,2024-02-02T16:36:53.969+01:00,root,eric.leroy@frsel.be,526,false,2024-08-19,2024-08-19T07:43:56.832+02:00,deactivated,Kingrise
true,true,2024-02-02T16:36:54.238+01:00,root,wargreen@lebib.org,527,false,,,deactivated,wargreen
true,true,2024-02-02T16:36:54.718+01:00,root,boris@element303.com,528,false,,,deactivated,element303
true,true,2024-02-02T16:36:55.248+01:00,root,laurent.perruche@albertville.fr,529,false,,,deactivated,LP73
true,true,2024-02-02T16:36:55.786+01:00,root,olivier.jacquemont@gmail.com,530,false,2024-09-09,2024-09-02T17:19:27.335+02:00,active,Olivier75
true,true,2024-02-02T16:36:56.338+01:00,root,jean-luc@bechennec.name,531,false,2025-02-07,2024-08-24T20:25:06.341+02:00,active,jlb
true,true,2024-02-02T16:36:56.870+01:00,root,carolinerequet22@outlook.fr,532,false,,,deactivated,requet
true,true,2024-02-02T16:36:57.358+01:00,root,bernarbel@gmail.com,533,false,,,deactivated,belbernard
true,true,2024-02-02T16:36:57.885+01:00,root,neustradamus@hotmail.com,534,false,2024-11-27,2024-08-30T12:46:37.073+02:00,active,Neustradamus
true,true,2024-02-02T16:36:58.420+01:00,root,av@ca.edu,535,false,,,deactivated,andrevincent
true,true,2024-02-02T16:36:58.958+01:00,root,jeanmarcfaure64@gmail.com,536,false,2025-02-10,2025-02-06T07:41:50.196+01:00,active,JMarc_64
true,true,2024-02-02T16:36:59.511+01:00,root,courrier.md@gmail.com,537,false,,,deactivated,mrtldvd
true,true,2024-02-02T16:37:00.031+01:00,root,lemotjuste@free.fr,538,false,,,deactivated,lemotjuste
true,true,2024-02-02T16:37:00.554+01:00,root,franck.rousseau@imag.fr,539,false,2024-09-30,2024-03-29T09:49:42.595+01:00,active,franck_r
true,true,2024-02-02T16:37:01.126+01:00,root,qenver@riseup.net,540,false,,,deactivated,qenver
true,true,2024-02-02T16:37:01.662+01:00,root,hirondelline@hotmail.com,541,false,2024-03-01,,deactivated,Hirondelline
true,true,2024-02-02T16:37:02.190+01:00,root,pierre.creach@wanadoo.fr,542,false,2025-01-22,2024-10-07T19:36:06.441+02:00,active,pcreach
true,true,2024-02-02T16:37:02.711+01:00,root,crislawat@gmail.com,543,false,,,deactivated,c-la-wat
true,true,2024-02-02T16:37:03.237+01:00,root,simon@snsuite.net,544,false,2024-03-15,2024-03-15T14:40:53.249+01:00,deactivated,Simon
true,true,2024-02-02T16:37:03.783+01:00,root,dev2@village-justice.com,545,false,,,deactivated,Robin_C
true,true,2024-02-02T16:37:04.282+01:00,root,lukasgrimaud31@gmail.com,546,false,,,deactivated,Freedyx
true,true,2024-02-02T16:37:04.867+01:00,root,okc8133@gmail.com,547,false,,,deactivated,onin
true,true,2024-02-02T16:37:05.452+01:00,root,denis.bitouze@univ-littoral.fr,548,false,,,deactivated,dbitouze
true,true,2024-02-12T10:38:21.343+01:00,root,bernard.blazin@free.fr,551,false,,,deactivated,bernard.blazin
true,true,2024-02-12T10:38:21.636+01:00,root,trois.singes@gmail.com,552,false,,,deactivated,trois.singes
true,true,2024-02-12T10:38:21.925+01:00,root,info@productivix.com,553,false,,,deactivated,PRX38
true,true,2024-02-12T10:38:22.187+01:00,root,contact+spip@arkhi.org,554,false,,,deactivated,arkhi
true,true,2024-02-12T10:38:22.413+01:00,root,dsimsen@seinesaintdenis.fr,555,false,,,deactivated,clydeb
true,true,2024-02-12T10:38:22.662+01:00,root,miros@mds03.com,556,false,,,deactivated,miros
true,true,2024-02-12T10:38:22.881+01:00,root,jm.dev@gmx.com,557,false,,,deactivated,yann-kaelig
true,true,2024-02-12T10:38:23.142+01:00,root,rbafr@free.fr,558,false,,,deactivated,RichardB
true,true,2024-02-12T10:38:23.373+01:00,root,zaabelle@hotmail.com,559,false,,,deactivated,Le_Bateau
true,true,2024-02-12T10:38:23.690+01:00,root,spip@nota-bene.org,560,false,2024-03-28,2024-03-28T10:42:53.662+01:00,deactivated,notabene
true,true,2024-02-12T10:38:23.914+01:00,root,dev@ubiquando.com,561,false,2024-12-18,2024-11-21T19:09:47.765+01:00,active,Ubix
true,true,2024-02-12T10:38:24.181+01:00,root,jonathan.ochej@ac-orleans-tours.fr,562,false,2025-02-06,2025-01-28T14:44:44.602+01:00,active,jo
true,true,2024-02-12T10:38:24.390+01:00,root,jourgun@gmail.com,563,false,,,deactivated,jhjourdan
false,true,2024-02-18T21:19:37.220+01:00,,bmamet@gmail.com,566,false,2024-02-19,2024-02-18T21:25:24.276+01:00,blocked,bmamet
false,true,2024-03-01T10:14:54.809+01:00,root,contact@digeetal.com,568,false,,,deactivated,spipheure
false,true,2024-03-05T10:29:21.008+01:00,,fabienne.croustine@gmail.com,569,false,,,deactivated,fabienne
false,true,2024-03-08T13:03:18.814+01:00,,didier.royer@ac-orleans-tours.fr,570,false,2024-11-07,2024-10-01T10:09:05.080+02:00,active,didier.royer
false,true,2024-03-08T15:25:42.956+01:00,,aboute@openstudio.fr,571,false,2024-04-08,2024-03-08T15:33:09.273+01:00,deactivated,Aboute-Openstudio
false,true,2024-03-09T00:04:04.972+01:00,,jltest@free.fr,572,false,2024-03-15,2024-03-12T19:33:26.837+01:00,deactivated,jlba
false,true,2024-03-09T11:36:12.330+01:00,,contact@giraudou.net,573,false,2025-02-07,2024-10-28T11:21:51.829+01:00,active,elgiraudou
false,true,2024-03-10T15:27:31.517+01:00,,papounet.net@laposte.net,574,false,2024-09-14,2024-03-17T16:50:21.564+01:00,active,Sylvain_LD
false,true,2024-03-12T01:02:16.486+01:00,,test@lerebooteux.fr,575,false,,,deactivated,testonzupeu
false,true,2024-04-02T16:00:55.605+02:00,,florent.triquet@pm.me,577,false,2025-02-13,2024-10-30T11:19:58.662+01:00,active,florent.tri
false,true,2024-04-02T19:11:47.608+02:00,,john.rose1@free.fr,578,false,2024-09-30,2024-04-02T21:05:17.025+02:00,active,johnrose
false,true,2024-04-03T23:11:11.301+02:00,,osmy@riseup.net,579,false,2024-10-02,2024-04-03T23:31:52.641+02:00,active,Osmy
false,true,2024-04-05T14:47:47.523+02:00,,tacasunroti@gmx.com,580,false,,,deactivated,rodolfohugo775
false,true,2024-04-05T16:41:21.547+02:00,,marc.valleteaude@moulliac.fr,581,false,2025-01-25,2024-11-15T08:56:17.491+01:00,active,mvdm
false,true,2024-04-09T21:15:25.135+02:00,,ydx35@yahoo.fr,582,false,2025-01-19,2024-11-26T12:56:45.508+01:00,active,YannX
false,true,2024-04-12T12:33:59.312+02:00,,betty.collet@free.fr,585,false,,,deactivated,beroma
false,true,2024-04-12T23:51:42.032+02:00,,rpcom@pm.me,586,false,2024-10-14,2024-04-13T19:36:42.247+02:00,active,cultrarius
false,true,2024-04-20T09:35:50.081+02:00,,ideprins@gmail.com,589,false,2024-04-20,2024-04-20T13:43:24.377+02:00,deactivated,ivandps
false,true,2024-05-02T11:10:10.373+02:00,,contact@meta-press.es,590,false,,,deactivated,Siltaar
false,true,2024-05-05T17:48:31.839+02:00,,simon.iv@laposte.net,591,false,2025-01-07,2024-07-11T04:21:06.161+02:00,active,Sisimon
false,true,2024-05-08T16:55:44.096+02:00,,poireau@riseup.net,593,false,2024-05-30,2024-05-08T17:10:33.499+02:00,deactivated,Mika
false,true,2024-05-10T22:07:48.633+02:00,,git@luneclaire.fr,594,false,2024-10-23,2024-10-14T15:20:29.492+02:00,active,lnclr
true,true,2024-05-13T15:44:13.153+02:00,,vincent.maillard.contact@gmail.com,596,false,2024-05-17,2024-05-14T10:44:37.240+02:00,deactivated,vmaillard
true,true,2024-05-13T15:44:42.722+02:00,,contact@maximebouton.fr,597,false,2024-05-14,2024-05-14T10:45:28.409+02:00,deactivated,Maxime
true,true,2024-05-13T16:09:58.818+02:00,,thia.gilles@gmail.com,598,false,,,deactivated,croumi
true,true,2024-05-13T18:08:02.844+02:00,,p.aubert@aerario.fr,599,false,2024-05-14,2024-05-14T11:15:27.088+02:00,deactivated,Titsta
true,true,2024-05-15T12:19:58.427+02:00,,ferielmayls@gmail.com,600,false,2024-06-06,2024-05-26T14:40:33.707+02:00,deactivated,ferielhamza
true,true,2024-05-28T17:00:43.564+02:00,,mguichar@univ-lr.fr,603,false,2024-12-06,2024-09-11T15:46:38.109+02:00,active,mguichar
true,true,2024-06-06T15:12:33.392+02:00,,gautiero76@gmail.com,607,false,2025-01-23,2024-09-02T16:57:19.636+02:00,active,gautiero76
true,true,2024-06-08T19:14:06.799+02:00,,ben@graineahumus.org,609,false,2024-07-04,2024-06-21T15:59:20.700+02:00,deactivated,benitronine
true,true,2024-06-09T13:50:58.014+02:00,,cpitet@gmail.com,611,false,2024-06-15,2024-06-15T06:59:57.723+02:00,deactivated,ChristianPitet
true,true,2024-06-10T11:45:15.295+02:00,,julien.delmas@gmail.com,613,false,2024-06-10,2024-06-10T12:52:40.042+02:00,deactivated,jd1295
true,true,2024-06-13T07:32:47.838+02:00,,benolaos@gmail.com,616,false,2024-12-20,2024-06-13T08:35:04.157+02:00,active,beno
true,true,2024-06-13T09:18:02.442+02:00,,aymanhaha75@gmail.com,617,false,2024-06-13,2024-06-13T09:20:14.061+02:00,deactivated,aimennb
true,true,2024-06-17T10:02:58.735+02:00,,catherine.champelay-muller@ac-lyon.fr,619,false,2024-06-17,2024-06-17T11:00:58.158+02:00,deactivated,C.Champelay
true,true,2024-06-21T10:41:14.205+02:00,,marcel.dugenoux@yahoo.com,631,false,2024-07-23,2024-07-22T12:47:00.922+02:00,deactivated,marceld
true,true,2024-07-02T09:49:59.284+02:00,,sebastien.bougouin@laregion.fr,675,false,2024-07-02,2024-07-02T11:14:58.547+02:00,deactivated,SebWay
true,true,2024-07-04T09:54:35.007+02:00,,josse.erwan@gmail.com,686,false,,,deactivated,Erwan
true,true,2024-07-09T21:03:32.572+02:00,,pierrick100@gmail.com,700,false,2024-07-21,2024-07-09T21:18:44.030+02:00,deactivated,Perig
true,true,2024-07-15T11:57:10.295+02:00,,icaria36@tuta.io,726,false,2024-07-23,2024-07-15T12:14:56.603+02:00,deactivated,icaria36
true,true,2024-07-23T11:27:34.015+02:00,,joachimsene@gmail.com,739,false,,,deactivated,jsene
true,true,2024-07-24T21:24:59.954+02:00,,info@mouldme.com,740,false,2024-07-24,2024-07-24T22:12:51.365+02:00,deactivated,mouldme
true,true,2024-07-27T00:58:35.250+02:00,,absurde.photon@laposte.net,743,false,2025-02-04,2025-01-29T10:16:43.981+01:00,active,absurdephoton
true,true,2024-07-29T16:36:58.867+02:00,,pierre-gabriel@attac.org,745,false,2024-10-21,2024-07-29T16:38:10.617+02:00,active,Pga
true,true,2024-07-29T17:55:56.313+02:00,,lvergerolle@gmail.com,746,false,2025-01-13,2024-07-29T17:57:07.976+02:00,active,psychoz971
true,true,2024-07-29T17:59:16.590+02:00,,mickael@ipeos.com,747,false,2025-01-28,2025-01-20T16:34:03.396+01:00,active,mickaelh
true,true,2024-08-14T13:17:21.289+02:00,,stephane@spipfactory.fr,770,false,2024-12-21,2024-10-16T20:16:26.374+02:00,active,stephane_spipfactory
true,true,2024-08-25T19:10:35.878+02:00,,samuel.degoul@posteo.net,793,false,2024-08-26,2024-08-26T16:33:23.365+02:00,active,s-degoul
true,true,2024-08-25T22:57:22.675+02:00,,mathieu.brethes@free.fr,794,false,2024-09-23,2024-10-11T09:05:52.662+02:00,active,maathieu
true,true,2024-08-26T13:54:34.891+02:00,,alysson.hussin@protonmail.com,796,false,2024-08-26,2024-08-26T13:57:16.324+02:00,active,Alysson
true,true,2024-08-29T17:26:31.043+02:00,,laurent@laurentvoyage.com,800,false,2024-09-07,2024-08-29T18:36:23.814+02:00,active,Nostromo_1
true,true,2024-08-30T09:18:59.060+02:00,,vincent.roger1@agriculture.gouv.fr,802,false,2024-10-08,2024-09-26T11:26:56.304+02:00,active,vincent.roger1
true,true,2024-08-31T17:50:30.488+02:00,,josiane.aletto@orange.fr,804,false,,,deactivated,baloo
true,true,2024-09-26T13:01:13.101+02:00,,andre.vincent.ahuntsic@gmail.com,844,false,2024-12-20,2024-11-10T08:58:13.004+01:00,active,Andre-Vincent
true,true,2024-10-10T15:14:08.630+02:00,,spip@akantor.net,981,false,2024-10-10,2024-10-10T16:19:29.411+02:00,active,jfalconnet
true,true,2024-10-11T11:20:14.668+02:00,,info@webdesign-toulouse.com,987,false,2024-12-10,2024-12-04T17:22:16.482+01:00,active,NatachaC
true,true,2024-10-12T19:25:55.787+02:00,,pierre_dumont@laposte.net,994,false,2024-10-12,2024-10-12T19:35:02.683+02:00,active,dump706
true,true,2024-10-15T09:28:33.072+02:00,,heureusement@gmail.com,1004,false,,,deactivated,bilal
true,true,2024-10-15T13:54:56.909+02:00,,g.marcou@unistra.fr,1005,false,2024-10-23,2024-10-15T13:58:02.005+02:00,active,g.marcou
true,true,2024-10-16T14:40:28.433+02:00,,morgan.lejuez@gmail.com,1006,false,2025-01-27,2024-10-18T22:27:39.619+02:00,active,Kanaima
true,true,2024-10-16T14:46:33.537+02:00,,guillaume.mella@univ-grenoble-alpes.fr,1007,false,2024-11-21,2024-10-16T15:21:22.264+02:00,active,mellag
true,true,2024-10-25T13:03:17.998+02:00,,owlstudioreims@gmail.com,1015,false,2024-10-31,2024-10-25T13:25:47.284+02:00,active,owl
true,true,2024-10-27T14:25:08.396+01:00,,gilles.odret@laposte.net,1060,false,2025-02-03,2025-01-28T14:00:41.449+01:00,active,GilO
true,true,2024-11-01T22:35:04.750+01:00,,handivelo.fr@gmail.com,1114,false,2024-11-02,2024-11-02T07:42:06.474+01:00,active,christo93
true,true,2024-11-06T17:25:23.725+01:00,,acanevat@gmail.com,1174,false,2024-11-07,2024-11-07T09:05:31.697+01:00,active,elektreorell
true,true,2024-11-07T15:15:17.120+01:00,,christophebarriere@free.fr,1192,false,2024-11-08,2024-11-07T15:45:28.279+01:00,active,charloup
true,true,2024-11-07T17:57:21.482+01:00,,laurent.lehoux@free.fr,1195,false,2024-11-18,2024-11-08T08:34:05.255+01:00,active,LauCaen
true,true,2024-11-07T19:49:08.853+01:00,,madou.coulou21@gmail.com,1197,false,,,deactivated,phenixwaraba
true,true,2024-11-08T18:39:15.928+01:00,,sten.koldborg.pedersen@gmail.com,1219,false,2025-01-15,2025-01-14T10:47:24.977+01:00,active,Sten
true,true,2024-11-12T18:59:11.546+01:00,,zeferriere@gmail.com,1304,false,,,deactivated,ferrierepierre
true,true,2024-11-14T22:27:35.884+01:00,,minotti@brunitika.ch,1309,false,2024-11-18,2024-11-15T13:44:39.454+01:00,active,Brunitika
true,true,2024-11-18T05:19:43.883+01:00,,jaona.randriamihoatra@gmail.com,1313,false,2024-11-19,2024-11-19T00:52:32.413+01:00,active,jaona.randriamihoatra
true,true,2024-11-18T11:43:17.019+01:00,,florian.reynaud@gmail.com,1314,false,,,deactivated,freynaud
true,true,2024-11-19T17:29:18.273+01:00,,romainlebouc@protonmail.com,1315,false,2024-11-21,2024-11-21T16:33:35.263+01:00,active,Lodart
true,true,2024-11-24T10:20:30.693+01:00,,thomas.kolli@ik.me,1316,false,2024-11-26,2024-11-24T10:22:32.359+01:00,active,tomko
true,true,2024-11-25T16:19:50.421+01:00,,sebastien@petitesaffiches.fr,1317,false,2024-11-29,2024-11-25T16:20:48.664+01:00,active,SebPAAM
true,true,2024-11-25T17:26:11.079+01:00,,pouliquen.marie-paule@orange.fr,1318,false,2024-11-25,2024-11-25T18:15:40.169+01:00,active,MAUD
true,true,2024-11-25T18:46:30.080+01:00,,rudy.besson@gmail.com,1319,false,2024-11-27,2024-11-25T18:48:00.893+01:00,active,Dybeweb
true,true,2024-11-29T10:12:08.559+01:00,,riomakaveli@gmail.com,1322,false,2024-12-04,2024-11-29T10:13:08.804+01:00,active,jbernard
true,true,2024-11-30T13:29:13.624+01:00,,orazio2@laposte.net,1323,false,2024-11-30,2024-11-30T13:30:50.893+01:00,active,cot
true,true,2024-12-01T18:15:00.976+01:00,,webmaster@amis-robespierre.org,1324,false,2024-12-20,2024-12-20T16:02:14.480+01:00,active,CARTON
true,true,2024-12-02T18:21:03.100+01:00,,sarah.marques@interieur.gouv.fr,1325,false,2025-01-06,2024-12-04T12:23:22.503+01:00,active,SarahMARQUES
true,true,2024-12-05T13:45:05.812+01:00,,tgarfr@laposte.net,1328,false,2024-12-09,2024-12-05T14:05:02.433+01:00,active,Tgarfr
true,true,2024-12-05T14:35:21.691+01:00,,bascos@free.fr,1329,false,,,deactivated,bascos
true,true,2024-12-07T09:05:24.115+01:00,,public@djidi.com,1330,false,2024-12-11,2024-12-08T08:56:26.902+01:00,active,nabil38
true,true,2024-12-11T11:29:37.287+01:00,,technotris@free.fr,1341,false,2024-12-24,2024-12-11T11:56:34.155+01:00,active,technotris
true,true,2024-12-17T10:51:08.398+01:00,,port213la@gmail.com,1365,false,,,deactivated,port213
true,true,2024-12-18T22:34:34.149+01:00,,guevara112k@gmail.com,1366,false,,,deactivated,jhv
true,true,2024-12-20T14:43:53.684+01:00,,ytokan@gmail.com,1368,false,,,deactivated,ytokan
true,true,2024-12-22T18:05:52.462+01:00,,sebastien.menes@sfr.fr,1369,false,2024-12-24,2024-12-24T00:45:05.436+01:00,active,sudeduc29
true,true,2025-01-06T11:57:02.003+01:00,,marlin5522@proton.me,1454,false,,,deactivated,marlin5522
true,true,2025-01-07T14:32:03.688+01:00,maieul,mollo.hernan@gmail.com,1456,false,2025-01-11,2025-01-07T16:15:48.827+01:00,active,mollo
true,true,2025-01-08T18:46:52.204+01:00,,craftweb@pm.me,1458,false,,,deactivated,Cyr
true,true,2025-01-09T18:46:06.881+01:00,,henrot@geoscope.fr,1460,false,2025-01-09,2025-01-09T19:08:56.987+01:00,active,Elise
true,true,2025-01-10T23:16:54.000+01:00,,as.gauts.gautier@gmail.com,1473,false,,,deactivated,Philippe27
true,true,2025-01-12T15:10:13.134+01:00,,info@ursrig.com,1484,false,2025-01-21,2025-01-13T10:07:08.384+01:00,active,ursrig
true,true,2025-01-17T07:04:42.452+01:00,,ggtr1138@gmail.com,1487,false,2025-02-06,2025-02-06T15:46:23.831+01:00,active,ggtr1138
true,true,2025-01-17T10:59:02.806+01:00,,julien.poriau@gmail.com,1488,false,,,deactivated,PORIAU
true,true,2025-01-18T15:43:17.729+01:00,,philippe.auriol@proton.me,1495,false,,,deactivated,PhilHip
true,true,2025-01-20T09:41:25.136+01:00,,magic0176@yahoo.fr,1504,false,,,deactivated,Bob76
true,true,2025-01-22T20:57:35.999+01:00,,sarah@du-libre.org,1523,false,2025-01-31,2025-01-23T14:04:26.555+01:00,active,sarah
true,true,2025-01-25T21:38:54.829+01:00,,christopheancelin@echodesmots.info,1524,false,2025-02-08,2025-01-25T21:48:37.707+01:00,active,Lafontanelle
true,true,2025-01-26T12:55:09.365+01:00,,gerladina@seo-neo.net,1526,false,,,deactivated,aliceadler5715
true,true,2025-01-30T17:51:53.317+01:00,,philippe.brehmer@developpement-durable.gouv.fr,1537,false,2025-02-06,2025-02-06T13:56:32.363+01:00,active,PhBhFh
true,true,2025-01-31T17:05:06.881+01:00,,contact@avousleweb.com,1550,false,2025-02-06,2025-02-06T09:27:54.105+01:00,active,lull
true,true,2025-02-02T12:55:07.728+01:00,,demeersemanisaac@orange.fr,1554,false,,,deactivated,Isrem
true,true,2025-02-13T11:48:59.984+01:00,,spip@ppks.eu,1565,false,,,blocked_pending_approval,alexis
true,true,2025-02-14T08:54:43.430+01:00,,ibs.informatique@ibs.fr,1566,false,,,blocked_pending_approval,spipibs
