date,full_path,name,sha
2020-01-24,23forward/css-imbriques,v3.4.0,fc9b2741a739fe6fdb03c63e6d31a13a5335be0f
2020-05-31,23forward/css-imbriques,v3.4.1,c9c45daa5ca30ff13a6c8adbbe73d4968c4c7343
2020-09-02,23forward/css-imbriques,3.5.0,6cc190095bb0a1067d3b0a00ac954ab0b37248aa
2021-02-01,23forward/css-imbriques,v3.6.0,4da56e319ec2bb25d940fd345fe4abe8184bb693
2021-06-06,23forward/css-imbriques,v3.7.0,75e9b513842336e0973d234d41248eb4933ddf37
2022-03-18,23forward/css-imbriques,v3.8.0,b57fab995fe25ca1c07bcf4a7bace06fc6a6ce3d
2022-05-19,23forward/css-imbriques,v4.0.0,96aa3da72fe50b67b78e7f1aee6017a7c32a16a7
2022-05-26,23forward/css-imbriques,v4.1.0,17fdb468a9fa9356c8251162a360210d81c08087
2022-11-28,23forward/css-imbriques,v4.1.1,2844681e1bae6107ee39a08914bc8c3799182e14
2022-12-02,23forward/css-imbriques,v4.1.2,84f865b201839a13631a0a55ead84f8a31a1f180
2023-01-18,23forward/css-imbriques,v4.2.0,2bba972302f9645327994d71cae690da40544ca1
2023-05-18,23forward/css-imbriques,v4.2.1,4e503ae44396fcc7ca91e86d6b0fa32673c4aedf
2024-04-23,23forward/css-imbriques,v5.0.0,15a71995460dfd6c02ee9e23d84864cf89153bad
2024-07-05,23forward/css-imbriques,5.1.0,7a1a88fa71d0f082663f3d8a42eabd2f5545aabd
2024-08-01,23forward/css-imbriques,5.1.1,3705656f4f926cec736ab52cf8d2a60679598c9e
