date,full_path,name,sha
2017-04-02,spip-contrib-extensions/squelettes_par_mots_cle,v2.1.0,5846f4f418dfad2c65d6c1f2e2f9a30e373f1a5c
2017-11-20,spip-contrib-extensions/squelettes_par_mots_cle,v3.1.2,34140ecf196112acf30ce421cdaaf50105135f79
2021-09-13,spip-contrib-extensions/squelettes_par_mots_cle,v3.2.0,aa7b3dac847a8e2cbd8e90974334b2e6bf3d94db
2022-05-31,spip-contrib-extensions/squelettes_par_mots_cle,v3.2.1,e91bd48497247344f9eb23129b7d92227ea2850f
2023-06-02,spip-contrib-extensions/squelettes_par_mots_cle,v3.2.2,b0176955d2048448da08f8a8ddc84783f80b2e90
2024-07-05,spip-contrib-extensions/squelettes_par_mots_cle,3.3.0,68be977b524b09873ccc03d7ac3d91146efa2d6f
