date,full_path,name,sha
2019-11-08,spip-contrib-extensions/contact,v0_7,12099b5e5284e992596a9355d484a111fc4ba43a
2021-06-23,spip-contrib-extensions/contact,v0,0543ccb103bf5ce3dce27bd113732ebc9d92a622
2024-10-25,spip-contrib-extensions/contact,master,a40bec713d137802df87e7766a21d565d7c5311d
