date,full_path,name,sha
2018-12-24,spip-contrib-extensions/contacts_et_organisations,v1,dc58ba53508e805cc7ad30f6e8b1d87cc4ff34a0
2019-08-06,spip-contrib-extensions/contacts_et_organisations,v2,e9e4c1908808a7708cdddb568f916ede791bcd38
2019-08-31,spip-contrib-extensions/contacts_et_organisations,v3,b1dd75d2bf2b595b65d6a0fff0c817767285882e
2020-08-18,spip-contrib-extensions/contacts_et_organisations,issue_3,f32c9ebd08f86dbe1c445a0403d4824bfa7ed822
2021-09-28,spip-contrib-extensions/contacts_et_organisations,v4,c35327cab22cd108d07005d24b88497e44e20b4d
2022-11-12,spip-contrib-extensions/contacts_et_organisations,dev_publier_rubrique,209de1050430f48e9cf41925bb37706edb8669b4
2024-07-05,spip-contrib-extensions/contacts_et_organisations,master,3ea1baae5ddcc1515d6c0471e3e6356a1afb819a
2024-10-29,spip-contrib-extensions/contacts_et_organisations,fix_warning_undefined_variable_rien,3c38522ea342e9b3db15922c2cde7328f46aa2d9
