id,iid,labels,milestone_id,project_id
28534,8,,,1867
28536,6,,,1867
28537,5,,,1867
28538,4,,,1867
28540,2,,,1867
28541,1,,,1867
28528,18,,,1867
28529,16,,,1867
28530,15,,,1867
28531,14,,,1867
28533,10,,,1867
