id,iid,labels,milestone_id,project_id,source_branch,source_project_id,target_branch,target_project_id
7284,11,,,1867,dev_publier_rubrique,1867,master,1867
9414,18,,,1867,fix_warning_undefined_variable_rien,1867,master,1867
