date,full_path,name,sha
2017-04-10,spip-contrib-extensions/partageur,v2,b28e40f1d06d30a780384bbf1162b74f75afa787
2022-08-08,spip-contrib-extensions/partageur,issue2_compat41,3d0ad23af7b33cdfb3e3720f05b0f70b057238f1
2024-07-05,spip-contrib-extensions/partageur,master,75042996e39a96def6a575c918c3810d4077b98d
