closed_issues_count,id,name,open_issues_count,open_merge_requests_count,project_id,sum
0,1657,amlioration,1,0,2672,1
0,1658,bug,0,0,2672,0
0,1659,doublon,0,0,2672,0
0,1660,help wanted,0,0,2672,0
0,1661,invalide,0,0,2672,0
0,1662,question,0,0,2672,0
0,1663,wontfix,0,0,2672,0
