date,full_path,name,sha
2018-09-29,spip-contrib-squelettes/leadescent,v1.0.2,e82b01f8b0da6ebd4c43f9d1276a9648c573b2e5
2024-07-13,spip-contrib-squelettes/leadescent,1.1.0,0ab57d0a3a5a9b0f8204e1d21c89bafd13d14b80
