date,full_path,name,sha
2017-04-02,spip-contrib-extensions/mediaspip_player,v1,e91a0d01eef4453c4f04f631b075faffa4868ace
2017-04-02,spip-contrib-extensions/mediaspip_player,v1.3,e7252ef5092f6a8cb64d55cb4281c0e28134ba20
2024-07-29,spip-contrib-extensions/mediaspip_player,master,3451b663e83e7f3361512921480af3847a1f3f40
