pushed new,Codage,6,JamesRezo,2024-07-13,2223,Project
pushed to,Codage,6,JamesRezo,2024-07-13,2223,Project
deleted,Codage,9,cerdic,2024-07-29,2223,Project
pushed to,Codage,9,cerdic,2024-07-29,2223,Project
