date,full_path,name,sha
2022-05-14,spip-galaxie/plugins-spip-net,v1.0.0,2a637a637000d53f3e9411fd9b2f868567cf9939
2022-05-26,spip-galaxie/plugins-spip-net,v1.0.1,2b9d97efd8e55dbdbe9dc53e4f3e89929545fb60
