date,full_path,name,sha
2019-11-04,spip-contrib-extensions/rechremp,v0.2.4,3fe9be0061e472a8491e70ddf46b71e168b9f925
2020-04-02,spip-contrib-extensions/rechremp,v1.4.0,177385d15abf90e5f6c86438170666dc4f1982de
2021-05-14,spip-contrib-extensions/rechremp,1.4.1,eb68117fe5ff2ac3232e378d7004c2c202d63862
2021-05-14,spip-contrib-extensions/rechremp,v1.4.1,eb68117fe5ff2ac3232e378d7004c2c202d63862
2021-12-09,spip-contrib-extensions/rechremp,v1.4.2,1b65924fdd57c0a2caf85c3762c4a606e180fa8d
2022-04-13,spip-contrib-extensions/rechremp,v1.4.4,bb191084b0b58a729d92bdc8bd88e02486298605
2023-03-12,spip-contrib-extensions/rechremp,v2.0.0,5893e481ffd16072a29f38edae4be3cd705d225f
2024-07-05,spip-contrib-extensions/rechremp,2.1.0,8bc1ec664e0ca78f543a5f1be521bb8a2512ec35
