date,full_path,name,sha
2019-08-06,spip-contrib-extensions/abonnements,v2,c7ac1cadf1eef6f6f22e0b9e381e0eeb3316fccc
2019-08-06,spip-contrib-extensions/abonnements,v3.0,1f6c07836c48043347a0ea5456e7c55c43149c53
2020-10-28,spip-contrib-extensions/abonnements,gh-246a1604/2/unknown/master,628e7ecbd5b98f5faab04612ad7ad21473f2930b
2021-07-02,spip-contrib-extensions/abonnements,dev/telechargement_des_abonnements,873b377c60c0b2d298c83b30f456a3db7646141b
2022-04-28,spip-contrib-extensions/abonnements,v3,e3e16ed516263135887c3bd575fa09a0a0fc0d28
2022-05-27,spip-contrib-extensions/abonnements,dev/issue_13_activation_abo_futur,7e2969768443a126a442a1677c5f68c0bc9245d8
2022-11-18,spip-contrib-extensions/abonnements,issue_icones,53bac8e76d4e9020f46fcff76cdb4ceca7a9f4ba
2024-01-09,spip-contrib-extensions/abonnements,issue_31,fcafead8ebaf4dea419bb2e476d051928644c7a8
2024-01-10,spip-contrib-extensions/abonnements,issue_36,78460a2700f6b4f23d4df922c022b0cc2ddbf3b4
2024-01-10,spip-contrib-extensions/abonnements,issue_38,fffccab4b606b5497fc7125a5eb6ea74b9983130
2024-06-21,spip-contrib-extensions/abonnements,issue_53-genie-verifier-notification-erreur-dans-debusquer,4aed2ece79509b48d068f8f5bfebc32b3507d4e7
2024-08-19,spip-contrib-extensions/abonnements,issue_36bis,12691f1ebbb66af14768d8822f0bc283f07842a8
2024-08-28,spip-contrib-extensions/abonnements,issue_59,80f6e1db4ee6e5a7684beba816506baf753ad020
2024-09-11,spip-contrib-extensions/abonnements,echeance_renouvellement_auto,6e3f855da25be56a8534cc01228e3d8aeb61484f
2024-09-12,spip-contrib-extensions/abonnements,master,3965b772038eccea69751e0d8dab0d46cda120cc
2024-10-07,spip-contrib-extensions/abonnements,issue_54,0fa2e8568f4f0769e248f6f91a1b961eb281bce5
2024-10-14,spip-contrib-extensions/abonnements,issue_63,2432604d02ff21e21e475bebf62149b33877a8fe
2024-12-06,spip-contrib-extensions/abonnements,masquer_log,286953bf725ef2e9a87fb9be97b61729f5c9aafb
