commented on,Papotage,17,nicod,2024-08-19,1710,DiscussionNote
commented on,Papotage,17,nicod,2024-08-19,1710,DiscussionNote
commented on,Papotage,9,cerdic,2024-08-19,1710,DiscussionNote
commented on,Papotage,9,cerdic,2024-08-19,1710,DiscussionNote
pushed to,Codage,9,cerdic,2024-08-19,1710,Project
commented on,Papotage,14,rastapopoulos,2024-08-20,1710,DiscussionNote
commented on,Papotage,9,cerdic,2024-08-20,1710,DiscussionNote
commented on,Papotage,9,cerdic,2024-08-20,1710,DiscussionNote
opened,Papotage,9,cerdic,2024-08-26,1710,Issue
opened,Papotage,9,cerdic,2024-08-26,1710,Issue
opened,Papotage,9,cerdic,2024-08-26,1710,Issue
opened,Papotage,9,cerdic,2024-08-26,1710,Issue
accepted,Codage,9,cerdic,2024-08-26,1710,MergeRequest
closed,Codage,9,cerdic,2024-08-26,1710,MergeRequest
commented on,Papotage,17,nicod,2024-08-26,1710,Note
commented on,Papotage,9,cerdic,2024-08-26,1710,Note
pushed new,Codage,9,cerdic,2024-08-26,1710,Project
pushed to,Codage,17,nicod,2024-08-26,1710,Project
pushed to,Codage,9,cerdic,2024-08-26,1710,Project
pushed to,Codage,9,cerdic,2024-08-26,1710,Project
pushed to,Codage,9,cerdic,2024-08-26,1710,Project
closed,Papotage,9,cerdic,2024-08-28,1710,Issue
closed,Papotage,9,cerdic,2024-08-28,1710,Issue
accepted,Codage,9,cerdic,2024-08-28,1710,MergeRequest
approved,Codage,14,rastapopoulos,2024-08-28,1710,MergeRequest
approved,Codage,14,rastapopoulos,2024-08-28,1710,MergeRequest
opened,Codage,9,cerdic,2024-08-28,1710,MergeRequest
opened,Codage,9,cerdic,2024-08-28,1710,MergeRequest
opened,Codage,9,cerdic,2024-08-28,1710,MergeRequest
commented on,Papotage,9,cerdic,2024-08-28,1710,Note
deleted,Codage,9,cerdic,2024-08-28,1710,Project
pushed new,Codage,9,cerdic,2024-08-28,1710,Project
pushed new,Codage,9,cerdic,2024-08-28,1710,Project
pushed to,Codage,9,cerdic,2024-08-28,1710,Project
pushed to,Codage,9,cerdic,2024-08-28,1710,Project
pushed to,Codage,9,cerdic,2024-08-28,1710,Project
pushed to,Codage,9,cerdic,2024-08-28,1710,Project
pushed to,Codage,9,cerdic,2024-08-28,1710,Project
pushed to,Codage,9,cerdic,2024-08-28,1710,Project
opened,Papotage,9,cerdic,2024-09-10,1710,Issue
approved,Codage,14,rastapopoulos,2024-09-10,1710,MergeRequest
opened,Codage,9,cerdic,2024-09-10,1710,MergeRequest
commented on,Papotage,14,rastapopoulos,2024-09-10,1710,Note
pushed new,Codage,9,cerdic,2024-09-10,1710,Project
commented on,Papotage,9,cerdic,2024-09-11,1710,DiscussionNote
accepted,Codage,9,cerdic,2024-09-11,1710,MergeRequest
accepted,Codage,9,cerdic,2024-09-11,1710,MergeRequest
deleted,Codage,9,cerdic,2024-09-11,1710,Project
deleted,Codage,9,cerdic,2024-09-11,1710,Project
pushed new,Codage,9,cerdic,2024-09-11,1710,Project
pushed to,Codage,9,cerdic,2024-09-11,1710,Project
pushed to,Codage,9,cerdic,2024-09-11,1710,Project
pushed to,Codage,9,cerdic,2024-09-11,1710,Project
pushed to,Codage,9,cerdic,2024-09-11,1710,Project
opened,Papotage,17,nicod,2024-10-02,1710,Issue
opened,Papotage,17,nicod,2024-10-02,1710,Issue
pushed to,Codage,17,nicod,2024-10-07,1710,Project
commented on,Papotage,14,rastapopoulos,2024-10-14,1710,DiscussionNote
commented on,Papotage,17,nicod,2024-10-14,1710,DiscussionNote
commented on,Papotage,17,nicod,2024-10-14,1710,DiscussionNote
opened,Papotage,17,nicod,2024-10-14,1710,Issue
opened,Codage,17,nicod,2024-10-14,1710,MergeRequest
commented on,Papotage,14,rastapopoulos,2024-10-14,1710,Note
commented on,Papotage,17,nicod,2024-10-14,1710,Note
commented on,Papotage,17,nicod,2024-10-14,1710,Note
commented on,Papotage,17,nicod,2024-10-14,1710,Note
commented on,Papotage,17,nicod,2024-10-14,1710,Note
pushed new,Codage,17,nicod,2024-10-14,1710,Project
closed,Papotage,17,nicod,2024-10-15,1710,Issue
commented on,Papotage,17,nicod,2024-10-15,1710,Note
commented on,Papotage,17,nicod,2024-10-15,1710,Note
commented on,Papotage,17,nicod,2024-10-17,1710,DiscussionNote
closed,Papotage,17,nicod,2024-10-17,1710,Issue
closed,Codage,17,nicod,2024-10-17,1710,MergeRequest
commented on,Papotage,17,nicod,2024-10-17,1710,Note
commented on,Papotage,17,nicod,2024-10-17,1710,Note
commented on,Papotage,9,cerdic,2024-10-17,1710,Note
opened,Papotage,17,nicod,2024-12-01,1710,Issue
commented on,Papotage,14,rastapopoulos,2024-12-01,1710,Note
commented on,Papotage,14,rastapopoulos,2024-12-03,1710,DiscussionNote
commented on,Papotage,9,cerdic,2024-12-03,1710,Note
commented on,Papotage,14,rastapopoulos,2024-12-06,1710,DiscussionNote
opened,Codage,17,nicod,2024-12-06,1710,MergeRequest
commented on,Papotage,17,nicod,2024-12-06,1710,Note
pushed new,Codage,17,nicod,2024-12-06,1710,Project
commented on,Papotage,14,rastapopoulos,2024-12-07,1710,DiscussionNote
commented on,Papotage,17,nicod,2024-12-07,1710,DiscussionNote
commented on,Papotage,17,nicod,2024-12-07,1710,DiscussionNote
commented on,Papotage,17,nicod,2024-12-07,1710,DiscussionNote
commented on,Papotage,17,nicod,2024-12-07,1710,DiscussionNote
commented on,Papotage,9,cerdic,2024-12-07,1710,DiscussionNote
