prefix,full_path
commandes_abonnements,spip-contrib-extensions/commandes_abonnements
abozones,spip-contrib-extensions/abonnements_zones
abonnements_profils,spip-contrib-extensions/abonnements_profils
