date,full_path,name,sha
2019-01-14,spip-contrib-extensions/pgn4spip,v1,3021b9004e7a88f8cb40dde4ffb3d2f6480225a1
2019-01-14,spip-contrib-extensions/pgn4spip,v2,6c70ca7268da63e392b74ee681fcfba703517088
2024-07-05,spip-contrib-extensions/pgn4spip,master,27ae4c426f10b6abc4a7fbb37bb95a902ea7de91
