date,full_path,name,sha
2020-02-05,spip-contrib-extensions/timezone,v0.1.2,f3f7e8c10917bd6a54192acaebfbd1198c5e6766
2023-01-05,spip-contrib-extensions/timezone,v0.1.3,46bc5eeda0702d6f5b0a8886469dc52ce83a76f7
2023-06-10,spip-contrib-extensions/timezone,v0.1.4,d97ef57196726fba0f8c27512f9081242c43814e
2024-07-05,spip-contrib-extensions/timezone,0.2.0,4689fe77324934e084febfadb7572d8480bb2916
