date,full_path,name,sha
2020-01-28,spip-contrib-extensions/emplois,v1.1.10,471cd46559311e8a81f333dce009f011e162291b
2020-04-11,spip-contrib-extensions/emplois,v1.1.13,cd6f21fef0dbf2734915e79cbd48a14ede7547f9
2022-07-27,spip-contrib-extensions/emplois,v2.0.1,d51c0e70a433f47c92af9e69d89cb09096eb2b70
