date,full_path,name,sha
2017-04-10,spip-contrib-extensions/vignettes_oxygen_52,v0,3f838d1228cd51e42bb96c28aff99235916a03be
2018-07-15,spip-contrib-extensions/vignettes_oxygen_52,master,dac0bdecc9a9445994ec2b9ced23bf174ac1362a
