date,full_path,name,sha
2017-04-02,spip-contrib-extensions/images_compare,v0.0.2,afeab98cbc1459b01b039150cf5a3606fa7b7c48
2024-06-28,spip-contrib-extensions/images_compare,v1.0.0,249af5a607cbed02f328afffb3d301c222260c7c
