date,full_path,name,sha
2017-04-02,spip-contrib-extensions/menu_accordeon,accordeon1,c46db2235676241f13a8831f65eea6e26fe1a5f8
2017-04-02,spip-contrib-extensions/menu_accordeon,accordeon2,2abc0cd4652af4b5dd0db6314a41bc5591bb01a3
2017-11-03,spip-contrib-extensions/menu_accordeon,master,0abd30c2467c844840b12bec4487c48b1887d741
