date,full_path,name,sha
2017-05-08,spip-contrib-extensions/zen-garden,v1,04e2e17d547b0fde4349d719cf205d23c42c8dce
2021-08-18,spip-contrib-extensions/zen-garden,dev/filtrer_les_themes_dans_zengarden,ab5ad316ee5cec59deecb109d777231b381a543f
2025-01-29,spip-contrib-extensions/zen-garden,master,71a0fee34de1e7a30db9231495f73df603e2f35a
