date,full_path,name,sha
2017-09-25,spip-contrib-extensions/facteur,v1.8.11,0eb7c0bec0290d0503d176b73fd5484a718aacfe
2019-11-29,spip-contrib-extensions/facteur,v3.7.2,2cd14ef716be85f8b8f44cf712a0375a0f15f304
2020-02-17,spip-contrib-extensions/facteur,v4.0.3,d0684759762d654a1691bd62f22bf10d3ee437b2
2020-04-15,spip-contrib-extensions/facteur,v4.0.4,a6331143c682c5aeead4bb50690eda5abcbf1a6a
2020-06-16,spip-contrib-extensions/facteur,v4.1.0,60e524a189ac3d1a9b686eab17bdb0a032356d68
2021-06-10,spip-contrib-extensions/facteur,v4.1.1,1726bfbff00a80c538dfa396c7b7424c04a95e0c
2022-01-25,spip-contrib-extensions/facteur,v4.2.0,6151ded20bab4f3862bf0af10134efc451123f8f
2022-01-31,spip-contrib-extensions/facteur,v4.3.2,235863fa791833193cdf37de3e830039a8ded26d
2022-04-01,spip-contrib-extensions/facteur,v5.0.1,1687cdf814a971b7c0954bed2b202c0afc72abe2
2022-04-19,spip-contrib-extensions/facteur,v4.3.3,a80ce8d4239a2a602c57983a57d314e37cefe914
2022-04-19,spip-contrib-extensions/facteur,v5.0.2,266919a32325f843283a339899005693bf9007cc
2022-05-03,spip-contrib-extensions/facteur,v5.0.3,26513109855a244b25948ff498ed209b87921006
2022-05-04,spip-contrib-extensions/facteur,v4.3.4,6752b47a7338c8a8ce211278c83efc290920c321
2022-05-31,spip-contrib-extensions/facteur,v5.0.4,fb4875fc6bb0a97a103c7b05523db4a13f72ec5c
2023-03-27,spip-contrib-extensions/facteur,v5.0.5,9bd56699f7392a6ef1595942984d2fb9061b55c8
2024-03-15,spip-contrib-extensions/facteur,v5.0.6,9ac6c2175b92ad6d86ac39445e0e10f918e96b3f
2024-07-05,spip-contrib-extensions/facteur,5.1.0,0e5561abd9231222d497836364e8ad79e4741013
2024-08-14,spip-contrib-extensions/facteur,v5.2.0,93d9c543f3bbb91ccfb06b795f1e1ff931e5eb88
