date,full_path,name,sha
2017-10-20,spip-contrib-extensions/agenda_fullcalendar_facile,v1,112c2303f490e283aa22405a46bd221d3914e292
2021-11-09,spip-contrib-extensions/agenda_fullcalendar_facile,fix_explosion,d4e6087f1b1f19b0458e7c1c8c25f1da4569731c
2024-07-05,spip-contrib-extensions/agenda_fullcalendar_facile,master,041d4a594820a7923ae1605d3eaee2307dbc9bef
