date,full_path,name,sha
2017-10-20,spip-contrib-extensions/agenda_fullcalendar_facile,v1.0.5,112c2303f490e283aa22405a46bd221d3914e292
2019-04-09,spip-contrib-extensions/agenda_fullcalendar_facile,v2.4.3,8dc274db4b5c5c4a84c4ffe838cfb186bd8ded42
2020-04-17,spip-contrib-extensions/agenda_fullcalendar_facile,v2.4.4,529286dec4b9df49621e7ebb4d7f6331974a6047
2020-05-07,spip-contrib-extensions/agenda_fullcalendar_facile,v2.5.0,0ebfc42a64874d9ce8b66e83d86ee92b9991a61b
2021-04-02,spip-contrib-extensions/agenda_fullcalendar_facile,v2.5.1,3b942f6209a37c5840f915e56fbe58c153523a82
2021-04-04,spip-contrib-extensions/agenda_fullcalendar_facile,v2.5.2,eb95ab25e318d6a7c86e9e7ac7e5e369aa68b89b
2022-04-22,spip-contrib-extensions/agenda_fullcalendar_facile,v3.0.1,c7a5531ff75edf9f20bae6abc367330a4d5341c5
2023-11-17,spip-contrib-extensions/agenda_fullcalendar_facile,v3.0.2,82b332331df278f5b473d33570717d8776afd568
2023-12-14,spip-contrib-extensions/agenda_fullcalendar_facile,v1.3.0,1a5a7bfddf250394fecdec6d5c91b278e6a8343e
2023-12-14,spip-contrib-extensions/agenda_fullcalendar_facile,v3.1.0,1a5a7bfddf250394fecdec6d5c91b278e6a8343e
2024-07-05,spip-contrib-extensions/agenda_fullcalendar_facile,3.2.0,041d4a594820a7923ae1605d3eaee2307dbc9bef
