date,full_path,name,sha
2017-04-02,spip-contrib-extensions/soap-sympa,v3,952276fdeb898b12dcf05573c31a6a19f89e822d
2018-12-24,spip-contrib-extensions/soap-sympa,v2,e6c357033bcca611f56d736f6c8552c3ab602623
2024-07-05,spip-contrib-extensions/soap-sympa,master,7995fb9e3fd45edb0a8f4f1e1d587cbf4149bdcf
