date,full_path,name,sha
2018-12-24,spip-contrib-extensions/soap-sympa,v0.1.3,e6c357033bcca611f56d736f6c8552c3ab602623
2021-09-13,spip-contrib-extensions/soap-sympa,v3.1.0,42d1c5641518cedba0baff087cd30cb157078500
2024-07-05,spip-contrib-extensions/soap-sympa,3.2.0,7995fb9e3fd45edb0a8f4f1e1d587cbf4149bdcf
