commented on,Papotage,17,nicod,2025-01-16,1712,DiffNote
commented on,Papotage,22,placido,2025-01-16,1712,DiffNote
approved,Codage,14,rastapopoulos,2025-01-16,1712,MergeRequest
opened,Codage,22,placido,2025-01-16,1712,MergeRequest
pushed new,Codage,22,placido,2025-01-16,1712,Project
pushed to,Codage,22,placido,2025-01-16,1712,Project
opened,Papotage,22,placido,2025-01-23,1712,Issue
approved,Codage,14,rastapopoulos,2025-01-23,1712,MergeRequest
opened,Codage,22,placido,2025-01-23,1712,MergeRequest
pushed new,Codage,22,placido,2025-01-23,1712,Project
closed,Papotage,22,placido,2025-01-27,1712,Issue
closed,Papotage,22,placido,2025-01-27,1712,Issue
accepted,Codage,22,placido,2025-01-27,1712,MergeRequest
deleted,Codage,22,placido,2025-01-27,1712,Project
pushed to,Codage,22,placido,2025-01-27,1712,Project
pushed to,Codage,22,placido,2025-01-27,1712,Project
pushed to,Codage,22,placido,2025-01-27,1712,Project
