date,full_path,name,sha
2020-02-05,spip-contrib-extensions/abonnements_zones,v1.0.7,2e4134f7fca7ac8ec03b3a14fe9e0aa36d27748e
2022-11-03,spip-contrib-extensions/abonnements_zones,v1.1.0,c6b6a1e0e172cf8f4518d768dbc658624cdebc1d
2024-07-13,spip-contrib-extensions/abonnements_zones,1.2.0,c1445ec0e51f65e780644c66b8b9cc8919bcc240
