date,full_path,name,sha
2019-02-07,spip-contrib-extensions/timecircles,v1.5.3,e23022836c813876129a34dba19b3f201735b66e
2019-02-07,spip-contrib-extensions/timecircles,v1.5.3.24,e23022836c813876129a34dba19b3f201735b66e
2024-07-05,spip-contrib-extensions/timecircles,1.6.0,d38230660f09d2b6459bf11f0daaffb849417d6b
