pushed new,Codage,43,RealET,2024-07-05,2387,Project
pushed new,Codage,6,JamesRezo,2024-07-05,2387,Project
pushed to,Codage,43,RealET,2024-07-05,2387,Project
pushed to,Codage,6,JamesRezo,2024-07-05,2387,Project
