date,full_path,name,sha
2018-12-24,spip-contrib-squelettes/aveline,v1.9.4,9ef2f2fc1234f0f6be882d4eafc14233d185b9b8
2020-02-06,spip-contrib-squelettes/aveline,v2.5.14,7746f00cc3ad4f97c6bd54530870f66cbcd69d58
2021-03-22,spip-contrib-squelettes/aveline,v2.5.15,386a6f4fe93b52f7e04a80655be0f46bb59f5b0a
2024-07-05,spip-contrib-squelettes/aveline,3.1.0,99ae7d59259e1370ce281504fb106592d01c5fad
