date,full_path,name,sha
2017-05-08,spip-contrib-extensions/acs,v2,796d1136131987278a171073c3001105096294f4
2022-04-20,spip-contrib-extensions/acs,v3,ab948376b3d5b6e1680248999db51f76bea0047e
2024-10-01,spip-contrib-extensions/acs,master,86849e68e801c2e9d57505b7ca828117d66141f6
2024-10-13,spip-contrib-extensions/acs,acs-dev,cd9985e7fc76be4d83aa2ae35b04dbc19b2c2061
