accepted,Codage,12,marcimat,2024-08-20,3011,MergeRequest
approved,Codage,12,marcimat,2024-08-20,3011,MergeRequest
approved,Codage,18,b_b,2024-08-20,3011,MergeRequest
opened,Codage,9,cerdic,2024-08-20,3011,MergeRequest
deleted,Codage,9,cerdic,2024-08-20,3011,Project
pushed new,Codage,12,marcimat,2024-08-20,3011,Project
pushed new,Codage,9,cerdic,2024-08-20,3011,Project
pushed to,Codage,12,marcimat,2024-08-20,3011,Project
pushed to,Codage,12,marcimat,2024-08-20,3011,Project
opened,Papotage,6,JamesRezo,2024-10-01,3011,Issue
commented on,Papotage,4,maieul,2024-10-02,3011,DiscussionNote
commented on,Papotage,6,JamesRezo,2024-10-02,3011,DiscussionNote
commented on,Papotage,12,marcimat,2024-10-02,3011,Note
closed,Papotage,43,RealET,2024-10-03,3011,Issue
opened,Papotage,43,RealET,2024-10-03,3011,Issue
commented on,Papotage,43,RealET,2024-10-03,3011,Note
commented on,Papotage,20,cam.lafit,2024-10-04,3011,DiscussionNote
commented on,Papotage,18,b_b,2024-10-05,3011,DiscussionNote
opened,Papotage,430,JLuc,2024-10-05,3011,Issue
opened,Papotage,430,JLuc,2024-10-05,3011,Issue
commented on,Papotage,12,marcimat,2024-10-05,3011,Note
commented on,Papotage,430,JLuc,2024-10-05,3011,Note
commented on,Papotage,6,JamesRezo,2024-10-05,3011,Note
commented on,Papotage,18,b_b,2024-10-06,3011,DiscussionNote
commented on,Papotage,430,JLuc,2024-10-06,3011,DiscussionNote
opened,Papotage,430,JLuc,2024-11-04,3011,Issue
commented on,Papotage,18,b_b,2024-11-05,3011,Note
commented on,Papotage,430,JLuc,2024-11-05,3011,Note
commented on,Papotage,18,b_b,2024-11-14,3011,DiscussionNote
commented on,Papotage,20,cam.lafit,2024-11-14,3011,Note
commented on,Papotage,430,JLuc,2024-11-15,3011,DiscussionNote
commented on,Papotage,18,b_b,2024-11-20,3011,DiscussionNote
commented on,Papotage,20,cam.lafit,2024-11-20,3011,DiscussionNote
commented on,Papotage,430,JLuc,2024-11-20,3011,DiscussionNote
commented on,Papotage,430,JLuc,2024-11-20,3011,DiscussionNote
commented on,Papotage,430,JLuc,2024-11-20,3011,DiscussionNote
commented on,Papotage,20,cam.lafit,2024-11-27,3011,DiscussionNote
commented on,Papotage,430,JLuc,2024-11-27,3011,DiscussionNote
commented on,Papotage,430,JLuc,2024-12-15,3011,DiscussionNote
closed,Papotage,430,JLuc,2024-12-15,3011,Issue
opened,Papotage,430,JLuc,2024-12-15,3011,Issue
opened,Codage,430,JLuc,2024-12-15,3011,MergeRequest
commented on,Papotage,4,maieul,2024-12-15,3011,Note
commented on,Papotage,4,maieul,2024-12-15,3011,Note
commented on,Papotage,4,maieul,2024-12-15,3011,Note
commented on,Papotage,430,JLuc,2024-12-15,3011,Note
commented on,Papotage,430,JLuc,2024-12-15,3011,Note
commented on,Papotage,430,JLuc,2024-12-15,3011,Note
commented on,Papotage,430,JLuc,2024-12-15,3011,Note
commented on,Papotage,430,JLuc,2024-12-15,3011,Note
commented on,Papotage,430,JLuc,2024-12-15,3011,Note
commented on,Papotage,430,JLuc,2024-12-15,3011,Note
pushed new,Codage,430,JLuc,2024-12-15,3011,Project
pushed to,Codage,430,JLuc,2024-12-15,3011,Project
pushed to,Codage,430,JLuc,2024-12-15,3011,Project
pushed to,Codage,430,JLuc,2024-12-15,3011,Project
pushed to,Codage,430,JLuc,2024-12-15,3011,Project
pushed to,Codage,430,JLuc,2024-12-15,3011,Project
pushed to,Codage,430,JLuc,2024-12-15,3011,Project
pushed to,Codage,9,cerdic,2024-12-16,3011,Project
commented on,Papotage,9,cerdic,2024-12-24,3011,DiscussionNote
commented on,Papotage,9,cerdic,2024-12-24,3011,Note
commented on,Papotage,18,b_b,2024-12-25,3011,DiscussionNote
commented on,Papotage,18,b_b,2024-12-26,3011,DiscussionNote
commented on,Papotage,430,JLuc,2024-12-26,3011,DiscussionNote
commented on,Papotage,430,JLuc,2025-01-10,3011,DiscussionNote
commented on,Papotage,430,JLuc,2025-01-10,3011,DiscussionNote
commented on,Papotage,430,JLuc,2025-01-10,3011,DiscussionNote
commented on,Papotage,9,cerdic,2025-01-10,3011,DiscussionNote
commented on,Papotage,17,nicod,2025-01-11,3011,DiscussionNote
commented on,Papotage,430,JLuc,2025-01-11,3011,DiscussionNote
accepted,Codage,4,maieul,2025-01-16,3011,MergeRequest
opened,Codage,18,b_b,2025-01-16,3011,MergeRequest
commented on,Papotage,18,b_b,2025-01-16,3011,Note
deleted,Codage,18,b_b,2025-01-16,3011,Project
pushed new,Codage,18,b_b,2025-01-16,3011,Project
pushed new,Codage,18,b_b,2025-01-16,3011,Project
pushed to,Codage,18,b_b,2025-01-16,3011,Project
pushed to,Codage,4,maieul,2025-01-16,3011,Project
opened,Papotage,9,cerdic,2025-02-07,3011,Issue
commented on,Papotage,18,b_b,2025-02-10,3011,DiscussionNote
commented on,Papotage,4,maieul,2025-02-10,3011,DiscussionNote
opened,Papotage,9,cerdic,2025-02-10,3011,Issue
commented on,Papotage,9,cerdic,2025-02-10,3011,Note
commented on,Papotage,17,nicod,2025-02-11,3011,DiscussionNote
commented on,Papotage,17,nicod,2025-02-11,3011,DiscussionNote
commented on,Papotage,9,cerdic,2025-02-11,3011,DiscussionNote
commented on,Papotage,9,cerdic,2025-02-11,3011,DiscussionNote
commented on,Papotage,17,nicod,2025-02-13,3011,DiscussionNote
commented on,Papotage,18,b_b,2025-02-13,3011,DiscussionNote
commented on,Papotage,9,cerdic,2025-02-13,3011,DiscussionNote
accepted,Codage,12,marcimat,2025-02-14,3011,MergeRequest
approved,Codage,12,marcimat,2025-02-14,3011,MergeRequest
approved,Codage,18,b_b,2025-02-14,3011,MergeRequest
opened,Codage,9,cerdic,2025-02-14,3011,MergeRequest
commented on,Papotage,17,nicod,2025-02-14,3011,Note
commented on,Papotage,9,cerdic,2025-02-14,3011,Note
commented on,Papotage,9,cerdic,2025-02-14,3011,Note
deleted,Codage,12,marcimat,2025-02-14,3011,Project
deleted,Codage,9,cerdic,2025-02-14,3011,Project
pushed new,Codage,12,marcimat,2025-02-14,3011,Project
pushed new,Codage,12,marcimat,2025-02-14,3011,Project
pushed new,Codage,9,cerdic,2025-02-14,3011,Project
pushed to,Codage,12,marcimat,2025-02-14,3011,Project
pushed to,Codage,12,marcimat,2025-02-14,3011,Project
pushed to,Codage,12,marcimat,2025-02-14,3011,Project
