date,full_path,name,sha
2018-06-17,spip-contrib-extensions/depublie,v1,09f035cae0cac353b564bc0e4bee05583db35737
2021-02-01,spip-contrib-extensions/depublie,dev,d3686f7b0c0b6309fbedf9b1ea976a060d108eaf
2023-10-07,spip-contrib-extensions/depublie,v2,b958dcd2b756c2db55e53d8e8b20d669eb4dc028
2024-07-05,spip-contrib-extensions/depublie,master,a21a34e0932c23958a940c62afada518222bc0ea
