date,full_path,name,sha
2017-04-02,spip-contrib-extensions/comarquage,v0.30.0,4fcd0307365e680a02ac82593803b259d06e1e35
2017-10-11,spip-contrib-extensions/comarquage,v0.50.2,2155a869447959e6857aace4c09add961ba35524
2021-06-06,spip-contrib-extensions/comarquage,v0.51.0,8c3fbee9ad8f12bfebf7f8d10d09785c283c1922
2024-07-05,spip-contrib-extensions/comarquage,1.3.0,0e99f0abf01b63c5d5aca6ced488e5d7935b3a5b
2025-01-10,spip-contrib-extensions/comarquage,v1.3.5,c753cd01423caa513e12250cdfce51db860fc540
