date,full_path,name,sha
2019-11-29,spip-contrib-extensions/couteau-kiss,v1,5cc58df48b24a3f17e648b6a6cff09bb9255580c
2025-01-29,spip-contrib-extensions/couteau-kiss,master,ed651593872925813d3de72e9999fb8b79fba4d5
