date,full_path,name,sha
2020-02-14,spip-contrib-extensions/couteau-kiss,v2.0.3,05a662a9e0e2f3fc4715489a0c92adbccfe73363
2021-07-07,spip-contrib-extensions/couteau-kiss,v2.0.4,f92e7cad0f851d40d6725d06ab91272fead9100f
2022-04-25,spip-contrib-extensions/couteau-kiss,v2.0.5,bdc627356b45d0107fc15f938af72b1f5269ba97
2023-06-14,spip-contrib-extensions/couteau-kiss,2.0.6,bab9f53daf8a2ee204fdcb58c7af55200705d8d3
2024-07-05,spip-contrib-extensions/couteau-kiss,2.1.0,cfc0c3da03fa5629a2ef799a5c9425bf876dab44
