date,full_path,name,sha
2019-07-22,spip-contrib-extensions/rss_commits,v0.6.8,7b73d83fc6ff7d2f25cd092299dfb01defcbee62
2020-07-28,spip-contrib-extensions/rss_commits,V0.6.9,dc15c3e06a6e8c6c36b75790a9baf21b0b2104a7
2020-10-24,spip-contrib-extensions/rss_commits,v0.6.10,e17332cce449a6d3e745dac31c226cc28dec38f2
2020-10-25,spip-contrib-extensions/rss_commits,v0.6.11,e2200a56bbae26d68f19b17872d9cce9ec0eaa06
2020-10-29,spip-contrib-extensions/rss_commits,v0.6.12,202c3a3e56a8d62654a16d61e9e1de23d5e48f74
2021-03-23,spip-contrib-extensions/rss_commits,v0.6.13,056b47d53409da214269780dee646663337eaf19
2021-08-08,spip-contrib-extensions/rss_commits,v0.7.0,861e12a10be8a7c34df5ce8d80482a752e8d135a
2024-04-25,spip-contrib-extensions/rss_commits,v0.8.0,898c38169f2fd12dd7902ee791070273cd6b2a13
2024-04-30,spip-contrib-extensions/rss_commits,v0.8.1,a11d0664b3896962d3df17c6e61c63482245bf18
2024-05-03,spip-contrib-extensions/rss_commits,v0.8.2,73e0b77ab320d2091bd4ee4107445c658a89d93e
2024-07-05,spip-contrib-extensions/rss_commits,0.9.0,866ab52b55806e9ae05eec41cb218f351c55ea54
