date,full_path,name,sha
2009-08-11,spip/revisions,v1.0,a41122f2d3d0bd55b92aaac62e00a266fbede52f
2009-09-04,spip/revisions,v1.1,aeca923fd44aac28dc2da04f32b81af495746774
2010-09-24,spip/revisions,v1.1.1,a4bc106f81bac7007443ec9e665312d390ceee02
2011-02-17,spip/revisions,v1.2.0,fa269d775120563b6e73c0a711cace7e6e7bd940
2011-03-18,spip/revisions,v1.2.1,25f74db6a1e97b17242638d8dd6553a8ee395910
2011-03-19,spip/revisions,v1.3.0,27969985f0998f10cd72d8079b29ba818b556ce2
2011-03-20,spip/revisions,v1.3.1,9046e430ebb269000243f783af90d65bf4aac141
2011-03-20,spip/revisions,v1.3.2,5bb61a858c8ea273a3ba3488cc337d3fe08c905a
2011-03-21,spip/revisions,v1.4.0,567b8e0453141112e3e546a663251042d8fcffac
2011-03-21,spip/revisions,v1.4.1,4d4372c8cd8286bc8a2e795eebb37be2039daa55
2011-03-25,spip/revisions,v1.5.0,1c526e030183ba54d199af111facde465389d4aa
2011-06-03,spip/revisions,v1.5.1,8dbfcaefdff23465ff0e2b6306e06d1cd3a3ed01
2011-07-31,spip/revisions,v1.6.0,1499c6843ff627a0637ab4e307a043326ea5ae2c
2011-08-25,spip/revisions,v1.6.1,470f86fbe7bafb7120e1d46377f2d5c37995bcd7
2011-08-25,spip/revisions,v1.6.2,a5e4e38dc7199b5f4f41d29c3ce4072bc457fd53
2011-08-25,spip/revisions,v1.6.3,61d5cfba7d6fec08751b1b3b257482323f5da366
2011-09-11,spip/revisions,v1.6.4,4c35ac68555c1f77d903e82cbf03d6eac9bab8d8
2012-03-15,spip/revisions,v1.6.5,2481067fb76c66ffba53d2459e33a4a5d42b9e4d
2012-04-30,spip/revisions,v1.6.6,31b74772e9081b64ca2ad4dcf415a91784832773
2012-05-17,spip/revisions,v1.6.7,392affcf30b8a799c723a8867e02f622c76bbdc1
2012-07-18,spip/revisions,v1.7.0,97c83a7e7ff801e64f5fbefb069f36e535784b36
2012-07-26,spip/revisions,v1.7.1,ae083bbee5e4e553ebfdb40928761df1a4e0afa2
2012-10-20,spip/revisions,v1.7.2,7ad1cb7be5ac4e9c66842029d3141b1c2a0a01b3
2013-01-24,spip/revisions,spip/3.0.0,6107308d34c918240e716a6e506529be4a90187e
2013-01-24,spip/revisions,spip/3.0.1,6c22e9fdcd62220150c0f9acb8ded6327832482c
2013-01-24,spip/revisions,spip/3.0.2,d8914c06b58d7764acaee0cdfd4befc2aa53b935
2013-01-24,spip/revisions,spip/3.0.3,081a4fed9a0cf1401a3659ecb93fd1389f3233a1
2013-01-24,spip/revisions,spip/3.0.4,5cb4120cb8e8e62d07a0de8ebcd9ffb635047a1e
2013-01-24,spip/revisions,spip/3.0.5,df700e00f91aa883dbe228a29fdabfa868e48b8c
2013-03-18,spip/revisions,spip/3.0.6,663de79912be7d13a53d281c5ab7c676efb4f465
2013-03-22,spip/revisions,spip/3.0.7,3e2745e9255d6c2a3f59474e058fe34ca6efe73c
2013-03-26,spip/revisions,v1.7.3,95a7594491b79e8eba19f45cdf486700271fbd84
2013-04-17,spip/revisions,spip/3.0.8,79afb46793acc143222453b40df493f5838b6afb
2013-04-20,spip/revisions,v1.7.4,c238e23075f8ef4bb3be799f959147d5e853fcbb
2013-05-11,spip/revisions,v1.7.5,dfa5c0703fcbdc6fe9b8a2a8e6899d4b17f0033f
2013-05-24,spip/revisions,spip/3.0.9,62c8f15a97c969f90a585f08ece763f930062262
2013-05-27,spip/revisions,spip/3.0.10,bf4e8e61f0f6c795d94882e47c03bf12b5a522fe
2013-08-09,spip/revisions,spip/3.0.11,7c7a504da7d09e68bb2aaaf12c6a0ace6ef4da38
2013-11-09,spip/revisions,spip/3.0.12,ec7a077ae53c343450878cba275e699eb98c2252
2013-11-10,spip/revisions,spip/3.0.13,c04e5226de7c5bb2023ef7ffceb2d00330e1e5da
2013-12-13,spip/revisions,v1.7.6,13a68962b935010ef94261f7df89276b5b539986
2014-01-19,spip/revisions,spip/3.0.14,adb72460d11607649e30b87c190016de8c8dff66
2014-02-21,spip/revisions,spip/3.0.15,cf38b6b4380789b1e409f508c906b97233fae93f
2014-03-13,spip/revisions,spip/3.0.16,f70f6b088d885c1524c348d1ba3c646b975a2e28
2014-06-14,spip/revisions,v1.7.7,054982353f072e8b389739ace30584000c8e4efc
2014-06-14,spip/revisions,v1.7.8,31c68262011604486587178a36955f78748714f2
2014-08-13,spip/revisions,spip/3.0.17,8301a2af21f9172a6f295d1849bfb194142ddacf
2014-10-19,spip/revisions,v1.7.9,d8981f06e420a3caa53b3e1f568f02161a84d898
2014-10-26,spip/revisions,v1.7.10,7f94875987caf78a757b9e03a8137cc61ee4a9d7
2014-10-27,spip/revisions,v1.8.0,4d5515e2d86fe8418befe69348af1db6d59b5a3d
2014-12-10,spip/revisions,v1.8.1,d19295ea64b16c13fab193f074d7460b8a287d6b
2015-04-26,spip/revisions,spip/3.0.18,46263eb087c996424bd2b813d36fa170e2d05819
2015-05-08,spip/revisions,spip/3.0.19,c0aec130a83fe8268fa86932c73e39928cce4cb9
2015-05-08,spip/revisions,v1.8.2,47aae09b700340cc7346635c083118e7364ade40
2015-05-09,spip/revisions,v1.8.3,f541b01d5312d8ceb0af3f4cef38a138f83ae699
2015-06-23,spip/revisions,spip/3.0.20,c4679c144aae8b414e14970be038ae9838a6b6e8
2015-07-27,spip/revisions,v1.8.4,e710c6e0af4f91af1318147411bde84e522118db
2015-10-10,spip/revisions,v1.8.5,f0efcc439aab8767a568b20a53517d327a805eb7
2015-10-31,spip/revisions,spip/3.0.21,fe173f82d827b8bb522977f113cd4ecb5286d5fd
2015-12-25,spip/revisions,v1.8.6,e64d7eaf75853c65dc8841e06cde3ddde20ac5a6
2016-01-06,spip/revisions,spip/3.1.0,5b7e3836205621299063a1c76fe2a30170f55e46
2016-01-06,spip/revisions,v1.8.7,b94a4a5461cb5900fd5026311292bd676e8694f6
2016-03-10,spip/revisions,spip/3.0.22,ff628c81da90fd612dcd1877b3a37891398d1dc1
2016-03-10,spip/revisions,spip/3.1.1,6019eb8897099ed721d9b2938375087c79ef2e2d
2016-09-23,spip/revisions,spip/3.0.23,5357b461b58407a65fee8e54241901a2816d1fda
2016-09-23,spip/revisions,spip/3.1.2,92f5d29ca9d0deddfdb5422fe8ce0fa4afc8835d
2016-09-30,spip/revisions,spip/3.0.24,9187122ba3fc97fe7300494dd8143a4d1a23ef32
2016-09-30,spip/revisions,spip/3.1.3,c15cfad78649aa3576c6524e807497be58961756
2016-12-07,spip/revisions,v1.8.8,b0254cc330af0eb382b29b141cbf4227c6f5a735
2017-03-06,spip/revisions,spip/3.0.25,8773c267e912b10632a92d6098fa66c8f5401d0b
2017-03-06,spip/revisions,spip/3.1.4,2a2dee5a6df8570b100709102cb944dc69e9cc5e
2017-03-17,spip/revisions,v1.9.0,5b92d514a2d0d293e5443788d26a7437e5c59709
2017-05-04,spip/revisions,v1.9.1,f2ebf8e392b70995c018cda8126f8a96be36ff8e
2017-06-08,spip/revisions,spip/3.0.26,322e00bf7969545fa679501f6ca4d19102f59a24
2017-06-08,spip/revisions,spip/3.1.5,7d852d143e7d83ee93cd3f238d3f74f57c084410
2017-06-12,spip/revisions,spip/3.1.6,601c4555ad03d5915f8070c5d93bca8afb9f2b12
2017-10-08,spip/revisions,v1.10.0,06b9ab00dbfd1dcec9c9c41cacc27fffab35a1dd
2017-10-12,spip/revisions,spip/3.1.7,6a239a800e9ac55dcc9689211c8465a0560213f4
2017-10-13,spip/revisions,spip/3.2.0,56f69508dd9dee4b2594eb9325bb613bd5a4ddfc
2018-03-14,spip/revisions,spip/3.0.27,1c50ce786850b9ce11bea47be87979bd60431823
2018-03-14,spip/revisions,spip/3.1.8,5f5da9e850bdea8cc09edfb7fdf2943776423750
2018-03-14,spip/revisions,spip/3.2.1,5ab6f4194162afee2fd29bdefe10a248b9946e6e
2018-09-27,spip/revisions,v1.10.1,b6124fd7cbf6ffceeb9cd1d0e356faa75380a089
2018-09-27,spip/revisions,v1.10.2,b1e8a9d3485cfba915c0054a797790493b1ac453
2019-01-03,spip/revisions,v1.10.3,8a2996e4aafd1c6e270a29abc96e3beb6cd80ee0
2019-01-18,spip/revisions,spip/3.0.28,3fe7018dceba6c3b190ffdf89720f269b2931153
2019-01-18,spip/revisions,spip/3.1.9,4cee96009318c0f8884e2c79280a00fe819b6de2
2019-01-18,spip/revisions,spip/3.2.2,ca5f7a8800683d836109ffaaa412ba45fe323ff8
2019-01-21,spip/revisions,spip/3.2.3,d48936683f1be4ed2d4ccb4285309f8bbd0cdf06
2019-04-08,spip/revisions,spip/3.1.10,1bbb9a45018418958c5cdc22b8e51f29db1a9a67
2019-04-08,spip/revisions,spip/3.2.4,ec131fc870da99284c799e14d9794da8683db837
2019-09-16,spip/revisions,spip/3.1.11,8cfc3609837d96bbcecf4c3afe00ecb02f719cb4
2019-09-16,spip/revisions,spip/3.2.5,84cf3242e08ec9c31c0bf16393b464993e753589
2019-12-12,spip/revisions,spip/3.1.12,58a50672149a25424b22a29a1f43291a71635669
2019-12-12,spip/revisions,spip/3.2.6,85116a267db05474a50bf867f7af133749be3073
2019-12-12,spip/revisions,spip/3.2.7,1c92255068489a7e7467a961c517cb816f95c94b
2020-01-01,spip/revisions,spip/3.1.13,1e7e8fe3470ac87c8eacf6b0482bb1f60d70dba9
2020-01-01,spip/revisions,spip/3.1.14,1e7e8fe3470ac87c8eacf6b0482bb1f60d70dba9
2020-01-01,spip/revisions,spip/3.1.15,1e7e8fe3470ac87c8eacf6b0482bb1f60d70dba9
2020-01-01,spip/revisions,spip/3.2.8,44d7df887fabc2b5010c8d942d2ff3b966235eab
2020-10-23,spip/revisions,spip/3.2.9,e573977a4fbe12351de92e4eb45f2fdd829f2cf5
2021-03-19,spip/revisions,spip/3.2.10,1d88a68abf01c98f20ccf0907db77ebac813c2c7
2021-03-19,spip/revisions,spip/3.2.11,1d88a68abf01c98f20ccf0907db77ebac813c2c7
2021-05-01,spip/revisions,spip/4.0.0-alpha,a4de26ac348ff6b9cabbdbbcbd820ada9e078c3b
2021-05-01,spip/revisions,v2.0.0,a4de26ac348ff6b9cabbdbbcbd820ada9e078c3b
2021-06-01,spip/revisions,spip/4.0.0-beta,5aeb29b4931020d880174e957579106c8f408417
2021-06-01,spip/revisions,v2.0.1,5aeb29b4931020d880174e957579106c8f408417
2021-07-08,spip/revisions,spip/4.0.0,8042115a79e84cf25db89d9b6a73a31536c3308c
2021-07-08,spip/revisions,v2.0.2,8042115a79e84cf25db89d9b6a73a31536c3308c
2021-12-14,spip/revisions,spip/3.2.12,e7cc8489eabc3c99970cb37e56ff37e8f89e6c0a
2021-12-14,spip/revisions,spip/4.0.1,a1ed39c04db3bbf74a413d279184455d0582bfd2
2021-12-14,spip/revisions,spip/4.0.2,a1ed39c04db3bbf74a413d279184455d0582bfd2
2021-12-14,spip/revisions,spip/4.0.3,a1ed39c04db3bbf74a413d279184455d0582bfd2
2021-12-14,spip/revisions,v1.9.5,e7cc8489eabc3c99970cb37e56ff37e8f89e6c0a
2021-12-14,spip/revisions,v2.0.3,a1ed39c04db3bbf74a413d279184455d0582bfd2
2022-02-08,spip/revisions,v3.0.0,6ee04d92926584f92a43960eb4e13305a28a5ca0
2022-03-05,spip/revisions,v3.0.1,9156c03bcd07dd55117bf6e66dc65618bcf9d740
2022-03-25,spip/revisions,v3.0.2,5ce2de9ad69cc1f1c1cb801abdf0565f85e3b880
2022-05-20,spip/revisions,v3.0.3,23f0a5a737cb85506658ef3304863e29c959cfb9
2023-01-27,spip/revisions,v3.1.0,10ccdb640b49af370bbe7498cc6aa70f563fb395
2023-05-25,spip/revisions,v3.0.4,539aa710272cdf893777573d53391aa689eb6820
2023-05-25,spip/revisions,v3.1.1,ad6c0b667855da0d0b7c3b2f997a50cbee04650c
2023-06-07,spip/revisions,v3.1.2,17d10c1f3f41de22ebb69a16567e9f64cedd1610
2023-09-01,spip/revisions,v3.1.3,209aec641932a324c49ac99b711378a986149f4b
2024-02-08,spip/revisions,v3.1.4,0bb234269dc041a833f44d83a593447e0ae1ecac
2024-04-05,spip/revisions,v3.1.5,720c3b5b8a56e52460f4e3dc3d3d9b07ebe49b39
2024-05-07,spip/revisions,v3.1.6,6b2578c225696bac53b7f0e7b85a9f87c91c1742
2024-10-08,spip/revisions,v3.1.7,54da88463d4ec7d7642d1a77a1cdbb4e5e890552
2024-11-12,spip/revisions,v3.1.8,7926e196722fe123a8cd571100ff9121bf70e6c7
2024-11-27,spip/revisions,3.2.0,f934a329ac7918770b24490c49ea673824c4dab7
2024-12-03,spip/revisions,v3.1.9,886d4e33aada9a38bffab2207bfe0d09f5364bea
