closed_issues_count,group_id,id,name,open_issues_count,open_merge_requests_count,sum
55,19,1892,sécurité,9,0,64
3702,19,1893,bug,165,1,3868
762,19,1894,amélioration,359,3,1124
100,19,1895,accessibilité,13,0,113
72,19,1896,documentation,24,0,96
209,19,1897,ergonomie,36,0,245
0,19,1898,question,6,0,6
0,19,2072,html,1,0,1
