access_level,group_id,id,state,username
10,19,187,active,denisb
10,19,21,active,Suske
10,19,37,active,booz
10,19,37,active,booz
10,19,431,active,Jack31
10,19,431,active,Jack31
30,19,20,active,cam.lafit
30,19,20,active,cam.lafit
30,19,35,active,arno
30,19,35,active,arno
40,19,10,active,cy.altern
40,19,10,active,cy.altern
40,19,12,active,marcimat
40,19,12,active,marcimat
40,19,13,active,Eric
40,19,13,active,Eric
40,19,14,active,rastapopoulos
40,19,14,active,rastapopoulos
40,19,15,active,tcharlss
40,19,15,active,tcharlss
40,19,16,active,tofulm
40,19,16,active,tofulm
40,19,17,active,nicod
40,19,17,active,nicod
40,19,18,active,b_b
40,19,18,active,b_b
40,19,22,active,placido
40,19,22,active,placido
40,19,3,active,touti
40,19,3,active,touti
40,19,4,active,maieul
40,19,4,active,maieul
40,19,468,active,bricebou
40,19,468,active,bricebou
40,19,5,active,Bennyb
40,19,5,active,Bennyb
40,19,6,active,JamesRezo
40,19,6,active,JamesRezo
40,19,68,active,erational
40,19,68,active,erational
40,19,9,active,cerdic
40,19,9,active,cerdic
