default_branch,id,path_with_namespace
master,1663,spip/aide
master,1664,spip/archiviste
master,1665,spip/bigup
master,1668,spip/compagnon
master,1670,spip/compresseur
master,1672,spip/dist
master,1673,spip/dump
master,1676,spip/images
master,1677,spip/forum
master,1682,spip/mediabox
master,1683,spip/medias
master,1684,spip/mots
master,1689,spip/plan
master,1690,spip/porte-plume
master,1692,spip/revisions
master,1694,spip/safehtml
master,1695,spip/sites
master,1696,spip/spip
master,1698,spip/stats
master,1699,spip/svp
master,1701,spip/tw
master,1703,spip/urls
2.x,3318,spip/prive
5.x,3367,spip/classic-distribution
5.x,3392,spip/ecrire
