date,full_path,name,sha
2014-12-18,spip-contrib-extensions/lister_logos,v1.1.3,39327e90b4affa523932395ffaf890ac680da869
2020-02-05,spip-contrib-extensions/lister_logos,v2.2.5,49aa53ac9d3d825e8856c3740e32b3e691bc6b89
2022-07-11,spip-contrib-extensions/lister_logos,v3.0.0,d3a6dc9cadc1cd1e2c1cdeac7ba23f1fb9e70455
2024-07-13,spip-contrib-extensions/lister_logos,3.1.0,e926d36da958e669b8d29a99e2aabf364ff62be5
