date,full_path,name,sha
2021-05-31,spip-contrib-extensions/logo_spip,v1.2.4,74301316188134a7e4e9acb554026999fc2b0671
2024-07-13,spip-contrib-extensions/logo_spip,1.3.0,dda579f756ca0476234fc62eb1ea65499f6a1413
