opened,Codage,6,JamesRezo,2024-07-07,2475,MergeRequest
pushed new,Codage,6,JamesRezo,2024-07-07,2475,Project
pushed new,Codage,6,JamesRezo,2024-07-07,2475,Project
pushed to,Codage,6,JamesRezo,2024-07-07,2475,Project
pushed to,Codage,6,JamesRezo,2024-07-07,2475,Project
pushed to,Codage,6,JamesRezo,2024-07-07,2475,Project
accepted,Codage,6,JamesRezo,2024-07-12,2475,MergeRequest
approved,Codage,18,b_b,2024-07-12,2475,MergeRequest
deleted,Codage,6,JamesRezo,2024-07-12,2475,Project
pushed to,Codage,6,JamesRezo,2024-07-12,2475,Project
pushed new,Codage,6,JamesRezo,2024-07-21,2475,Project
closed,Papotage,6,JamesRezo,2024-08-01,2475,Issue
closed,Papotage,6,JamesRezo,2024-08-01,2475,Issue
opened,Papotage,6,JamesRezo,2024-08-01,2475,Issue
accepted,Codage,6,JamesRezo,2024-08-01,2475,MergeRequest
approved,Codage,18,b_b,2024-08-01,2475,MergeRequest
opened,Codage,6,JamesRezo,2024-08-01,2475,MergeRequest
deleted,Codage,6,JamesRezo,2024-08-01,2475,Project
pushed new,Codage,6,JamesRezo,2024-08-01,2475,Project
pushed to,Codage,6,JamesRezo,2024-08-01,2475,Project
