date,full_path,name,sha
2018-12-21,spip-contrib-extensions/article_pdf,v0,65a322b76aa8a693e5ff37fad60388e47b9cedbf
2022-12-30,spip-contrib-extensions/article_pdf,henry-patch-1,211a30d7d6f38d50730d34030d7e04850c0f184c
2024-07-05,spip-contrib-extensions/article_pdf,master,22a96b82845e138603f6a88893aca6f3751348b3
