commented on,Papotage,430,JLuc,2024-09-27,1667,Note
commented on,Papotage,430,JLuc,2024-09-27,1667,Note
commented on,Papotage,480,equipement,2024-09-27,1667,Note
pushed to,Codage,6,JamesRezo,2024-10-04,1667,Project
pushed new,Codage,6,JamesRezo,2024-11-30,1667,Project
pushed to,Codage,6,JamesRezo,2024-11-30,1667,Project
accepted,Codage,12,marcimat,2024-12-19,1667,MergeRequest
approved,Codage,12,marcimat,2024-12-19,1667,MergeRequest
opened,Codage,6,JamesRezo,2024-12-19,1667,MergeRequest
deleted,Codage,6,JamesRezo,2024-12-19,1667,Project
pushed new,Codage,6,JamesRezo,2024-12-19,1667,Project
pushed new,Codage,6,JamesRezo,2024-12-19,1667,Project
pushed to,Codage,12,marcimat,2024-12-19,1667,Project
pushed to,Codage,12,marcimat,2024-12-19,1667,Project
pushed to,Codage,12,marcimat,2024-12-19,1667,Project
pushed to,Codage,6,JamesRezo,2024-12-19,1667,Project
opened,Codage,6,JamesRezo,2024-12-20,1667,MergeRequest
pushed new,Codage,6,JamesRezo,2024-12-20,1667,Project
pushed to,Codage,6,JamesRezo,2024-12-20,1667,Project
commented on,Papotage,12,marcimat,2024-12-21,1667,Note
pushed to,Codage,12,marcimat,2024-12-21,1667,Project
accepted,Codage,6,JamesRezo,2024-12-22,1667,MergeRequest
approved,Codage,12,marcimat,2024-12-22,1667,MergeRequest
deleted,Codage,6,JamesRezo,2024-12-22,1667,Project
pushed to,Codage,6,JamesRezo,2024-12-22,1667,Project
accepted,Codage,12,marcimat,2024-12-26,1667,MergeRequest
approved,Codage,12,marcimat,2024-12-26,1667,MergeRequest
approved,Codage,6,JamesRezo,2024-12-26,1667,MergeRequest
opened,Codage,12,marcimat,2024-12-26,1667,MergeRequest
deleted,Codage,12,marcimat,2024-12-26,1667,Project
pushed new,Codage,12,marcimat,2024-12-26,1667,Project
pushed to,Codage,12,marcimat,2024-12-26,1667,Project
pushed to,Codage,12,marcimat,2024-12-26,1667,Project
pushed to,Codage,12,marcimat,2024-12-26,1667,Project
pushed to,Codage,12,marcimat,2024-12-26,1667,Project
pushed to,Codage,6,JamesRezo,2024-12-26,1667,Project
pushed to,Codage,6,JamesRezo,2024-12-26,1667,Project
accepted,Codage,12,marcimat,2024-12-27,1667,MergeRequest
approved,Codage,6,JamesRezo,2024-12-27,1667,MergeRequest
opened,Codage,12,marcimat,2024-12-27,1667,MergeRequest
commented on,Papotage,43,RealET,2024-12-27,1667,Note
deleted,Codage,12,marcimat,2024-12-27,1667,Project
pushed new,Codage,12,marcimat,2024-12-27,1667,Project
pushed to,Codage,12,marcimat,2024-12-27,1667,Project
commented on,Papotage,480,equipement,2025-01-06,1667,Note
pushed to,Codage,12,marcimat,2025-01-06,1667,Project
pushed to,Codage,12,marcimat,2025-01-06,1667,Project
