date,full_path,name,sha
2024-07-18,spip-league/cache,2.0.0,2c476fe6bd13c7914b5b851da76e90763944129a
2024-11-30,spip-league/cache,2.0.1,42c39d06ce9e2e11194507b62707c4e9baa44d53
2024-12-19,spip-league/cache,2.0.2,8a21ddefe63c038524970cf3ad45747796084de3
