date,full_path,name,sha
2017-05-08,spip-contrib-extensions/sedna,v1.2.1,263c0b2f02623afd3c5b39ee0a61c97ba15eacdf
2020-02-05,spip-contrib-extensions/sedna,v1.3.5,453607dcc716cca1531cd288b687744ae48a692f
2021-03-26,spip-contrib-extensions/sedna,v1.3.6,cce63487c28e68ddb593bcedae53ab6ac7b78602
2022-02-17,spip-contrib-extensions/sedna,v1.4.1,cf62ef68bf4eb5f254a4aa01dacfb7eb85db6153
2022-02-17,spip-contrib-extensions/sedna,v1.4.2,7d47a764fc5d5126e31bf129b2e3c1f552b1da8d
2022-06-05,spip-contrib-extensions/sedna,v1.4.3,d8da16cf026f02db4fcca12bceb3aa68f402c4d4
2022-06-05,spip-contrib-extensions/sedna,v1.4.4,b10fd102f6d67bb0acfe7bbff56b756c813f25f4
2023-07-16,spip-contrib-extensions/sedna,v1.4.5,bcca64c0bf85764db71cf02d9851bf18bfd6e82e
2024-07-05,spip-contrib-extensions/sedna,1.5.0,9f0b6f3e7e68a1499e4796c18180a66cf59bdf07
