opened,Papotage,43,RealET,2024-09-13,1740,Issue
opened,Papotage,43,RealET,2024-09-14,1740,Issue
commented on,Papotage,4,maieul,2024-09-14,1740,Note
commented on,Papotage,43,RealET,2024-09-14,1740,Note
commented on,Papotage,4,maieul,2024-09-16,1740,DiscussionNote
commented on,Papotage,43,RealET,2024-09-16,1740,DiscussionNote
commented on,Papotage,43,RealET,2024-09-16,1740,DiscussionNote
commented on,Papotage,43,RealET,2024-09-16,1740,DiscussionNote
opened,Papotage,43,RealET,2024-09-16,1740,Issue
opened,Codage,43,RealET,2024-09-16,1740,MergeRequest
commented on,Papotage,4,maieul,2024-09-16,1740,Note
pushed new,Codage,43,RealET,2024-09-16,1740,Project
commented on,Papotage,15,tcharlss,2024-09-17,1740,DiffNote
commented on,Papotage,43,RealET,2024-09-17,1740,DiffNote
commented on,Papotage,14,rastapopoulos,2024-09-17,1740,DiscussionNote
commented on,Papotage,14,rastapopoulos,2024-09-17,1740,DiscussionNote
commented on,Papotage,14,rastapopoulos,2024-09-17,1740,DiscussionNote
commented on,Papotage,15,tcharlss,2024-09-17,1740,DiscussionNote
commented on,Papotage,15,tcharlss,2024-09-17,1740,DiscussionNote
commented on,Papotage,15,tcharlss,2024-09-17,1740,DiscussionNote
commented on,Papotage,15,tcharlss,2024-09-17,1740,DiscussionNote
commented on,Papotage,15,tcharlss,2024-09-17,1740,DiscussionNote
commented on,Papotage,43,RealET,2024-09-17,1740,DiscussionNote
commented on,Papotage,43,RealET,2024-09-17,1740,DiscussionNote
commented on,Papotage,43,RealET,2024-09-17,1740,DiscussionNote
commented on,Papotage,43,RealET,2024-09-17,1740,DiscussionNote
commented on,Papotage,43,RealET,2024-09-17,1740,DiscussionNote
commented on,Papotage,43,RealET,2024-09-17,1740,DiscussionNote
commented on,Papotage,43,RealET,2024-09-17,1740,DiscussionNote
commented on,Papotage,43,RealET,2024-09-17,1740,DiscussionNote
approved,Codage,15,tcharlss,2024-09-17,1740,MergeRequest
opened,Codage,43,RealET,2024-09-17,1740,MergeRequest
commented on,Papotage,15,tcharlss,2024-09-17,1740,Note
commented on,Papotage,15,tcharlss,2024-09-17,1740,Note
commented on,Papotage,43,RealET,2024-09-17,1740,Note
pushed new,Codage,43,RealET,2024-09-17,1740,Project
pushed to,Codage,43,RealET,2024-09-17,1740,Project
pushed to,Codage,43,RealET,2024-09-17,1740,Project
commented on,Papotage,15,tcharlss,2024-09-18,1740,DiffNote
commented on,Papotage,15,tcharlss,2024-09-18,1740,DiscussionNote
commented on,Papotage,43,RealET,2024-09-18,1740,DiscussionNote
commented on,Papotage,43,RealET,2024-09-18,1740,Note
pushed to,Codage,43,RealET,2024-09-18,1740,Project
commented on,Papotage,15,tcharlss,2024-09-19,1740,DiscussionNote
commented on,Papotage,15,tcharlss,2024-09-19,1740,DiscussionNote
commented on,Papotage,15,tcharlss,2024-09-19,1740,DiscussionNote
commented on,Papotage,15,tcharlss,2024-09-19,1740,DiscussionNote
commented on,Papotage,4,maieul,2024-09-19,1740,DiscussionNote
commented on,Papotage,43,RealET,2024-09-19,1740,DiscussionNote
commented on,Papotage,43,RealET,2024-09-19,1740,DiscussionNote
commented on,Papotage,43,RealET,2024-09-19,1740,DiscussionNote
commented on,Papotage,43,RealET,2024-09-19,1740,DiscussionNote
commented on,Papotage,43,RealET,2024-09-19,1740,DiscussionNote
commented on,Papotage,43,RealET,2024-09-19,1740,DiscussionNote
closed,Papotage,15,tcharlss,2024-09-19,1740,Issue
closed,Papotage,43,RealET,2024-09-19,1740,Issue
accepted,Codage,15,tcharlss,2024-09-19,1740,MergeRequest
commented on,Papotage,43,RealET,2024-09-19,1740,Note
deleted,Codage,43,RealET,2024-09-19,1740,Project
pushed to,Codage,15,tcharlss,2024-09-19,1740,Project
pushed to,Codage,43,RealET,2024-09-19,1740,Project
pushed to,Codage,43,RealET,2024-09-19,1740,Project
pushed to,Codage,43,RealET,2024-09-20,1740,Project
commented on,Papotage,43,RealET,2024-09-29,1740,DiscussionNote
commented on,Papotage,15,tcharlss,2024-09-30,1740,DiscussionNote
commented on,Papotage,15,tcharlss,2024-09-30,1740,DiscussionNote
commented on,Papotage,17,nicod,2024-09-30,1740,DiscussionNote
commented on,Papotage,17,nicod,2024-09-30,1740,DiscussionNote
commented on,Papotage,17,nicod,2024-09-30,1740,DiscussionNote
commented on,Papotage,4,maieul,2024-09-30,1740,DiscussionNote
commented on,Papotage,4,maieul,2024-09-30,1740,DiscussionNote
commented on,Papotage,4,maieul,2024-09-30,1740,DiscussionNote
commented on,Papotage,43,RealET,2024-09-30,1740,DiscussionNote
commented on,Papotage,43,RealET,2024-09-30,1740,DiscussionNote
commented on,Papotage,43,RealET,2024-09-30,1740,DiscussionNote
commented on,Papotage,43,RealET,2024-09-30,1740,DiscussionNote
commented on,Papotage,15,tcharlss,2024-10-07,1740,DiscussionNote
commented on,Papotage,17,nicod,2024-10-07,1740,DiscussionNote
commented on,Papotage,43,RealET,2024-10-07,1740,DiscussionNote
commented on,Papotage,43,RealET,2024-10-07,1740,DiscussionNote
closed,Papotage,43,RealET,2024-10-07,1740,Issue
opened,Papotage,43,RealET,2024-10-07,1740,Issue
commented on,Papotage,15,tcharlss,2024-10-07,1740,Note
commented on,Papotage,43,RealET,2024-10-07,1740,Note
commented on,Papotage,43,RealET,2024-10-07,1740,Note
closed,Papotage,15,tcharlss,2024-10-15,1740,Issue
closed,Papotage,43,RealET,2024-10-15,1740,Issue
accepted,Codage,15,tcharlss,2024-10-15,1740,MergeRequest
commented on,Papotage,15,tcharlss,2024-10-15,1740,Note
deleted,Codage,43,RealET,2024-10-15,1740,Project
pushed new,Codage,15,tcharlss,2024-10-15,1740,Project
pushed to,Codage,15,tcharlss,2024-10-15,1740,Project
pushed to,Codage,15,tcharlss,2024-10-15,1740,Project
pushed to,Codage,15,tcharlss,2024-10-15,1740,Project
pushed to,Codage,15,tcharlss,2024-10-16,1740,Project
opened,Papotage,43,RealET,2024-12-16,1740,Issue
opened,Codage,43,RealET,2024-12-16,1740,MergeRequest
pushed new,Codage,43,RealET,2024-12-16,1740,Project
commented on,Papotage,15,tcharlss,2024-12-17,1740,DiffNote
commented on,Papotage,4,maieul,2024-12-17,1740,DiffNote
commented on,Papotage,4,maieul,2024-12-17,1740,DiffNote
commented on,Papotage,43,RealET,2024-12-17,1740,DiffNote
commented on,Papotage,43,RealET,2024-12-17,1740,DiffNote
commented on,Papotage,43,RealET,2024-12-17,1740,DiffNote
commented on,Papotage,4,maieul,2024-12-17,1740,DiscussionNote
commented on,Papotage,43,RealET,2024-12-17,1740,DiscussionNote
commented on,Papotage,43,RealET,2024-12-17,1740,DiscussionNote
approved,Codage,15,tcharlss,2024-12-17,1740,MergeRequest
commented on,Papotage,15,tcharlss,2024-12-17,1740,Note
commented on,Papotage,4,maieul,2024-12-17,1740,Note
commented on,Papotage,43,RealET,2024-12-17,1740,Note
pushed to,Codage,43,RealET,2024-12-17,1740,Project
pushed to,Codage,43,RealET,2024-12-17,1740,Project
pushed to,Codage,43,RealET,2024-12-17,1740,Project
pushed to,Codage,43,RealET,2024-12-17,1740,Project
pushed to,Codage,43,RealET,2024-12-17,1740,Project
pushed to,Codage,43,RealET,2024-12-17,1740,Project
approved,Codage,4,maieul,2024-12-18,1740,MergeRequest
opened,Codage,4,maieul,2024-12-20,1740,MergeRequest
pushed new,Codage,4,maieul,2024-12-20,1740,Project
pushed to,Codage,4,maieul,2024-12-20,1740,Project
commented on,Papotage,14,rastapopoulos,2024-12-21,1740,DiffNote
commented on,Papotage,4,maieul,2024-12-21,1740,DiffNote
commented on,Papotage,4,maieul,2024-12-21,1740,DiffNote
pushed to,Codage,4,maieul,2024-12-21,1740,Project
pushed to,Codage,4,maieul,2024-12-21,1740,Project
pushed to,Codage,4,maieul,2024-12-21,1740,Project
commented on,Papotage,15,tcharlss,2025-01-07,1740,DiffNote
commented on,Papotage,15,tcharlss,2025-01-07,1740,DiffNote
commented on,Papotage,15,tcharlss,2025-01-07,1740,DiscussionNote
commented on,Papotage,15,tcharlss,2025-01-07,1740,DiscussionNote
accepted,Codage,15,tcharlss,2025-01-07,1740,MergeRequest
accepted,Codage,15,tcharlss,2025-01-07,1740,MergeRequest
approved,Codage,15,tcharlss,2025-01-07,1740,MergeRequest
commented on,Papotage,15,tcharlss,2025-01-07,1740,Note
commented on,Papotage,15,tcharlss,2025-01-07,1740,Note
commented on,Papotage,15,tcharlss,2025-01-07,1740,Note
commented on,Papotage,4,maieul,2025-01-07,1740,Note
deleted,Codage,4,maieul,2025-01-07,1740,Project
deleted,Codage,43,RealET,2025-01-07,1740,Project
pushed to,Codage,15,tcharlss,2025-01-07,1740,Project
pushed to,Codage,15,tcharlss,2025-01-07,1740,Project
pushed to,Codage,15,tcharlss,2025-01-07,1740,Project
commented on,Papotage,12,marcimat,2025-01-13,1740,DiscussionNote
commented on,Papotage,15,tcharlss,2025-01-13,1740,DiscussionNote
commented on,Papotage,15,tcharlss,2025-01-13,1740,DiscussionNote
opened,Papotage,12,marcimat,2025-01-13,1740,Issue
commented on,Papotage,12,marcimat,2025-01-13,1740,Note
commented on,Papotage,12,marcimat,2025-01-13,1740,Note
commented on,Papotage,12,marcimat,2025-01-13,1740,Note
commented on,Papotage,14,rastapopoulos,2025-01-21,1740,DiscussionNote
commented on,Papotage,9,cerdic,2025-01-21,1740,DiscussionNote
accepted,Codage,15,tcharlss,2025-01-21,1740,MergeRequest
approved,Codage,15,tcharlss,2025-01-21,1740,MergeRequest
opened,Codage,9,cerdic,2025-01-21,1740,MergeRequest
commented on,Papotage,15,tcharlss,2025-01-21,1740,Note
commented on,Papotage,9,cerdic,2025-01-21,1740,Note
deleted,Codage,9,cerdic,2025-01-21,1740,Project
pushed new,Codage,9,cerdic,2025-01-21,1740,Project
pushed to,Codage,15,tcharlss,2025-01-21,1740,Project
pushed to,Codage,9,cerdic,2025-01-21,1740,Project
closed,Papotage,43,RealET,2025-01-22,1740,Issue
pushed new,Codage,9,cerdic,2025-01-22,1740,Project
pushed to,Codage,9,cerdic,2025-01-22,1740,Project
commented on,Papotage,15,tcharlss,2025-01-29,1740,DiffNote
commented on,Papotage,15,tcharlss,2025-01-29,1740,DiffNote
commented on,Papotage,15,tcharlss,2025-01-29,1740,DiscussionNote
commented on,Papotage,15,tcharlss,2025-01-29,1740,DiscussionNote
commented on,Papotage,43,RealET,2025-01-29,1740,DiscussionNote
commented on,Papotage,43,RealET,2025-01-29,1740,DiscussionNote
commented on,Papotage,43,RealET,2025-01-29,1740,DiscussionNote
opened,Papotage,43,RealET,2025-01-29,1740,Issue
approved,Codage,15,tcharlss,2025-01-29,1740,MergeRequest
opened,Codage,43,RealET,2025-01-29,1740,MergeRequest
opened,Codage,43,RealET,2025-01-29,1740,MergeRequest
opened,Codage,43,RealET,2025-01-29,1740,MergeRequest
commented on,Papotage,15,tcharlss,2025-01-29,1740,Note
commented on,Papotage,43,RealET,2025-01-29,1740,Note
commented on,Papotage,43,RealET,2025-01-29,1740,Note
pushed new,Codage,43,RealET,2025-01-29,1740,Project
pushed new,Codage,43,RealET,2025-01-29,1740,Project
pushed new,Codage,43,RealET,2025-01-29,1740,Project
pushed to,Codage,43,RealET,2025-01-29,1740,Project
pushed to,Codage,43,RealET,2025-01-29,1740,Project
pushed to,Codage,43,RealET,2025-01-29,1740,Project
pushed to,Codage,43,RealET,2025-01-29,1740,Project
commented on,Papotage,15,tcharlss,2025-01-30,1740,DiscussionNote
commented on,Papotage,15,tcharlss,2025-01-30,1740,DiscussionNote
commented on,Papotage,15,tcharlss,2025-01-30,1740,DiscussionNote
commented on,Papotage,43,RealET,2025-01-30,1740,DiscussionNote
approved,Codage,15,tcharlss,2025-01-30,1740,MergeRequest
commented on,Papotage,17,nicod,2025-02-02,1740,DiscussionNote
commented on,Papotage,17,nicod,2025-02-02,1740,DiscussionNote
opened,Papotage,17,nicod,2025-02-02,1740,Issue
opened,Papotage,17,nicod,2025-02-02,1740,Issue
approved,Codage,17,nicod,2025-02-02,1740,MergeRequest
commented on,Papotage,17,nicod,2025-02-02,1740,Note
commented on,Papotage,17,nicod,2025-02-03,1740,Note
commented on,Papotage,15,tcharlss,2025-02-04,1740,DiffNote
closed,Papotage,15,tcharlss,2025-02-04,1740,Issue
closed,Papotage,15,tcharlss,2025-02-04,1740,Issue
closed,Papotage,15,tcharlss,2025-02-04,1740,Issue
closed,Papotage,15,tcharlss,2025-02-04,1740,Issue
closed,Papotage,15,tcharlss,2025-02-04,1740,Issue
accepted,Codage,15,tcharlss,2025-02-04,1740,MergeRequest
accepted,Codage,15,tcharlss,2025-02-04,1740,MergeRequest
accepted,Codage,15,tcharlss,2025-02-04,1740,MergeRequest
approved,Codage,15,tcharlss,2025-02-04,1740,MergeRequest
commented on,Papotage,15,tcharlss,2025-02-04,1740,Note
commented on,Papotage,15,tcharlss,2025-02-04,1740,Note
commented on,Papotage,15,tcharlss,2025-02-04,1740,Note
commented on,Papotage,15,tcharlss,2025-02-04,1740,Note
commented on,Papotage,15,tcharlss,2025-02-04,1740,Note
commented on,Papotage,15,tcharlss,2025-02-04,1740,Note
commented on,Papotage,15,tcharlss,2025-02-04,1740,Note
deleted,Codage,43,RealET,2025-02-04,1740,Project
deleted,Codage,43,RealET,2025-02-04,1740,Project
deleted,Codage,43,RealET,2025-02-04,1740,Project
pushed new,Codage,15,tcharlss,2025-02-04,1740,Project
pushed to,Codage,15,tcharlss,2025-02-04,1740,Project
pushed to,Codage,15,tcharlss,2025-02-04,1740,Project
pushed to,Codage,15,tcharlss,2025-02-04,1740,Project
pushed to,Codage,15,tcharlss,2025-02-04,1740,Project
pushed to,Codage,15,tcharlss,2025-02-04,1740,Project
pushed to,Codage,15,tcharlss,2025-02-04,1740,Project
commented on,Papotage,17,nicod,2025-02-05,1740,DiscussionNote
commented on,Papotage,17,nicod,2025-02-05,1740,DiscussionNote
commented on,Papotage,17,nicod,2025-02-05,1740,DiscussionNote
commented on,Papotage,17,nicod,2025-02-05,1740,DiscussionNote
commented on,Papotage,4,maieul,2025-02-05,1740,DiscussionNote
commented on,Papotage,43,RealET,2025-02-05,1740,DiscussionNote
commented on,Papotage,43,RealET,2025-02-05,1740,DiscussionNote
closed,Papotage,17,nicod,2025-02-05,1740,Issue
closed,Papotage,17,nicod,2025-02-05,1740,Issue
opened,Papotage,15,tcharlss,2025-02-05,1740,Issue
opened,Papotage,17,nicod,2025-02-05,1740,Issue
opened,Papotage,17,nicod,2025-02-05,1740,Issue
opened,Papotage,43,RealET,2025-02-05,1740,Issue
approved,Codage,14,rastapopoulos,2025-02-05,1740,MergeRequest
approved,Codage,43,RealET,2025-02-05,1740,MergeRequest
closed,Codage,15,tcharlss,2025-02-05,1740,MergeRequest
opened,Codage,15,tcharlss,2025-02-05,1740,MergeRequest
opened,Codage,15,tcharlss,2025-02-05,1740,MergeRequest
opened,Codage,43,RealET,2025-02-05,1740,MergeRequest
commented on,Papotage,14,rastapopoulos,2025-02-05,1740,Note
commented on,Papotage,15,tcharlss,2025-02-05,1740,Note
commented on,Papotage,15,tcharlss,2025-02-05,1740,Note
commented on,Papotage,15,tcharlss,2025-02-05,1740,Note
commented on,Papotage,15,tcharlss,2025-02-05,1740,Note
commented on,Papotage,15,tcharlss,2025-02-05,1740,Note
commented on,Papotage,15,tcharlss,2025-02-05,1740,Note
commented on,Papotage,15,tcharlss,2025-02-05,1740,Note
commented on,Papotage,17,nicod,2025-02-05,1740,Note
commented on,Papotage,17,nicod,2025-02-05,1740,Note
commented on,Papotage,4,maieul,2025-02-05,1740,Note
commented on,Papotage,43,RealET,2025-02-05,1740,Note
pushed new,Codage,15,tcharlss,2025-02-05,1740,Project
pushed new,Codage,15,tcharlss,2025-02-05,1740,Project
pushed new,Codage,43,RealET,2025-02-05,1740,Project
pushed to,Codage,15,tcharlss,2025-02-05,1740,Project
commented on,Papotage,15,tcharlss,2025-02-06,1740,DiscussionNote
commented on,Papotage,17,nicod,2025-02-06,1740,DiscussionNote
commented on,Papotage,43,RealET,2025-02-06,1740,DiscussionNote
accepted,Codage,15,tcharlss,2025-02-06,1740,MergeRequest
accepted,Codage,15,tcharlss,2025-02-06,1740,MergeRequest
approved,Codage,17,nicod,2025-02-06,1740,MergeRequest
deleted,Codage,15,tcharlss,2025-02-06,1740,Project
deleted,Codage,15,tcharlss,2025-02-06,1740,Project
pushed new,Codage,15,tcharlss,2025-02-06,1740,Project
pushed to,Codage,15,tcharlss,2025-02-06,1740,Project
pushed to,Codage,15,tcharlss,2025-02-06,1740,Project
pushed to,Codage,15,tcharlss,2025-02-06,1740,Project
pushed to,Codage,15,tcharlss,2025-02-06,1740,Project
commented on,Papotage,17,nicod,2025-02-07,1740,DiscussionNote
