access_level,group_id,id,state,username
30,3899,14,active,rastapopoulos
30,3899,15,active,tcharlss
30,3899,430,active,JLuc
40,3899,10,active,cy.altern
40,3899,16,active,tofulm
40,3899,17,active,nicod
40,3899,18,active,b_b
40,3899,22,active,placido
40,3899,4,active,maieul
40,3899,468,active,bricebou
40,3899,5,active,Bennyb
40,3899,68,active,erational
40,3899,9,active,cerdic
50,3899,12,active,marcimat
50,3899,6,active,JamesRezo
