default_branch,id,path_with_namespace
main,1667,spip-league/cache
main,1669,spip-league/composer-installer
main,1675,spip-league/filesystem
main,1679,spip-league/hasher
main,1681,spip-league/logger
main,1687,spip-league/path
main,3278,spip-league/gitlab-profile
2.x,3330,spip-league/kernel
main,3351,spip-league/rector
main,3412,spip-league/filesystem-contracts
main,3413,spip-league/sdk
main,3414,spip-league/contracts
main,3415,spip-league/compiler-contracts
main,3416,spip-league/text-collection-contracts
main,3419,spip-league/easy-coding-standard
main,3421,spip-league/text-collection
main,3427,spip-league/pipeline
