date,full_path,name,sha
2017-04-02,spip-contrib-extensions/multidomaines,v1,3b2dd8f930970aebfdabf4e887a1bf2370087fcf
2017-08-17,spip-contrib-extensions/multidomaines,v2,892893f3baa89c954e1745c0b14afa0d52971094
2022-10-18,spip-contrib-extensions/multidomaines,issue_3,19c6b49b61bb75257319f6cb4e4579813721674c
2022-10-31,spip-contrib-extensions/multidomaines,issue_1,cc483076a75c2cbcea6cebb86e7275d855bf078e
2022-10-31,spip-contrib-extensions/multidomaines,issue_8,ecf135282620bca5cf94afd6de51aa8dc4e6ffa2
2025-01-31,spip-contrib-extensions/multidomaines,master,0547401c49376b7a3f7c1c7ee0f972a535ac2db8
