date,full_path,name,sha
2017-04-02,spip-contrib-extensions/multidomaines,v1.1.0,3b2dd8f930970aebfdabf4e887a1bf2370087fcf
2019-04-25,spip-contrib-extensions/multidomaines,v3.1.13,b2563ef7c415afd3573cd10b04f6d32a0910a4da
2023-01-05,spip-contrib-extensions/multidomaines,v3.1.14,23deaf35f1fd97a063ea93fbfb14d1a502646ce4
2023-03-26,spip-contrib-extensions/multidomaines,v3.1.15,a86b8b1fd8c064d402b5db8610165129089068f7
2023-04-17,spip-contrib-extensions/multidomaines,v3.1.16,b47f0db20a74b8dfb31618b1c66780b5b7b45a83
2023-07-25,spip-contrib-extensions/multidomaines,v3.1.18,9a842d34234b65c15ad08889e26d0497a9e0fb09
2024-07-05,spip-contrib-extensions/multidomaines,3.2.0,1575d741f457fe99958da54cad375d0ef5cff44e
2025-01-20,spip-contrib-extensions/multidomaines,v3.2.1,a876d4560cc2da62420f5f1b91b0f45e0e3113ef
2025-01-31,spip-contrib-extensions/multidomaines,3.3.0,0547401c49376b7a3f7c1c7ee0f972a535ac2db8
