prefix,full_path
dist_theme_waz,spip-contrib-themes/dist_v1_waz
dist_theme_violette,spip-contrib-themes/dist_v1_violette
dist_theme_distyle,spip-contrib-themes/dist_v1_distyle
dist_theme_roubaix,spip-contrib-themes/dist_v1_roubaix
dist_theme_debug,spip-contrib-themes/dist_v1_debug
dist_theme_penscratch,spip-contrib-themes/dist_v1_penscratch
dist_theme_tonton,spip-contrib-themes/dist_v1_tonton
dist_theme_palatinesque,spip-contrib-themes/dist_v1_palatinesque
