date,full_path,name,sha
2017-05-08,spip-contrib-extensions/memoization,v1,e989c81a6ce2240e2466a9b83a4b3d5ad7d8eee3
2021-02-23,spip-contrib-extensions/memoization,v2,fbee51845a26c9f215cda32ce467cd34a690b039
2021-11-10,spip-contrib-extensions/memoization,gh-0ca05daf/5/unknown/master,b8ff85e83f2a34c15530a3b874e391e05a085dad
2022-05-09,spip-contrib-extensions/memoization,issue_1,dcfb70a22cef556e7e0fdbf93d4329b56755d007
2023-12-21,spip-contrib-extensions/memoization,fix_fatal_changement_config,d2f609c51813a727afdf21384783f75f6060083c
2025-01-29,spip-contrib-extensions/memoization,master,c0f4bd0b801155af0728741e0ddaa9ee3aff2964
