id,iid,labels,milestone_id,project_id,source_branch,source_project_id,target_branch,target_project_id
7696,5,,,2232,gh-0ca05daf/5/unknown/master,2232,master,2232
7691,15,,,2232,fix_fatal_changement_config,2232,master,2232
