due_date,id,iid,project_id,start_date,state,title
,1379,251,1688,,closed,spip-3.2
,1380,252,1688,,closed,spip-4.0
,1381,253,1688,,active,spip-4.1
,1382,254,1688,,active,spip-4.2
,1384,256,1688,,active,spip-4.4
,1387,259,1688,,active,spip-5.0
,1392,486,1688,,closed,< spip-3.2
