date,full_path,name,sha
2018-11-06,spip-contrib-extensions/lazysizes,4.1.5,1d65446bd1b8f18fdeba6bcdf8d29fd9e66ae4c5
2019-11-01,spip-contrib-extensions/lazysizes,v4.1.7.2,969c91e517d30e3233e75309d65e08eab0af0dc1
