date,full_path,name,sha
2023-06-07,spip/stats,3.0,7c30e3b6264fbf652f80a1b653283bd39a48b73b
2024-12-02,spip/stats,3.1,3724cfc292b7a6f23de502d89644cb5afb560a4b
2025-02-05,spip/stats,master,1c0db0ddddffd055f8037c5184be177c69a5eaf9
