date,full_path,name,sha
2009-05-30,spip/stats,v0.1,0d46ac67ef14bcea76d9a6029a66dcd900d5f98b
2009-07-22,spip/stats,v0.1.1,1c8e4f94561664b63d4e0c460c2f73101d77f6cb
2010-09-21,spip/stats,v0.1.2,57bb2c014ccd202b61ac37748fff12cb41a69f75
2010-10-04,spip/stats,v0.1.3,efd1862e563a2e4f982cc60b7c906c05ac710743
2011-02-12,spip/stats,v0.1.4,e40a73a634f500f1e62c76a43ef7eba64ec56ddf
2011-03-17,spip/stats,v0.3.0,e5797df1b81e5195f4eccf89c26d773a77788e12
2011-03-17,spip/stats,v0.3.1,e46e95e2f08993cb22487a506f63b5e4eca5af1f
2011-06-30,spip/stats,v0.3.2,12d812366b960635bf8e3eec046b29c0968034e3
2011-07-31,spip/stats,v0.4.0,cc42b304a2a0043c5a353a98604de68906ba83c9
2011-12-09,spip/stats,v0.4.1,f8836adcebc64368d0e93c8cf52fb48b72c0c35b
2011-12-29,spip/stats,v0.4.2,6ce1c33464b7efc8eedc1d2dc3cd0646024fe8b9
2012-01-05,spip/stats,v0.4.3,3b2405eb3be2a3e8b45e7f9f652805ab8bf8e8a4
2012-01-08,spip/stats,v0.4.4,d6e9b452016fef41cb194577d777ab6c0d4166b0
2012-04-17,spip/stats,v0.4.5,13e4ec6ab0d61dff8502975bf39b09e29149b7e1
2012-04-21,spip/stats,v0.4.6,d04fb64c8b8a92899325dfc9b2cf547072003367
2012-04-27,spip/stats,v0.4.7,d66e4472d0421e3fc7771327b16b54693f839271
2012-06-07,spip/stats,v0.4.8,3ae8cde047146f4261f66a1684e9c6c014bb28d9
2012-06-27,spip/stats,v0.4.9,c5f873f95fb536ca96d733493feafe49c582f089
2012-09-28,spip/stats,v0.4.10,6191c381dd27bf7d9ab2bf76adebbf119fb67a8c
2013-01-24,spip/stats,spip/3.0.0,650b6ffa75bd4db687643bee40baa589b99b5489
2013-01-24,spip/stats,spip/3.0.1,9e3279b81395b6aa2d8bca7ca3e84283d31ea6c5
2013-01-24,spip/stats,spip/3.0.2,e1cb40c4de771e1374daee2295a850ac74f01fee
2013-01-24,spip/stats,spip/3.0.3,04c2e4583c55e62b4975331bffd824472317706b
2013-01-24,spip/stats,spip/3.0.4,c2c1f0f3578a0bab30f8f48dd5af4fcfcaf8ee04
2013-01-24,spip/stats,spip/3.0.5,59581a23a9b61981b3f1f0c1816af9403cfc97fd
2013-03-18,spip/stats,spip/3.0.6,76c146336623f3231d480b1a8bf5f0c8ba327035
2013-03-22,spip/stats,spip/3.0.7,37b8abd54f838bebf3be5c9245e29d3fbb743b66
2013-04-01,spip/stats,v0.4.11,55d526a9778d6bd7fa5ac3a93ddc65aa7ee7408f
2013-04-17,spip/stats,spip/3.0.8,c2605dd7296c1bd43e9f2eb21402833c1d2a4b78
2013-05-11,spip/stats,v0.4.12,94020e57b1e5840e0d1445bcf48a08ed9e0d6c86
2013-05-11,spip/stats,v0.4.13,b5832304f4b72bd7704068710daf178a760bb5dc
2013-05-11,spip/stats,v0.4.14,f25511ac9928008e9576573899e3c26b833c583c
2013-05-24,spip/stats,spip/3.0.9,6302baf194591da135b2e082b9149e922846d3c4
2013-05-25,spip/stats,v0.4.15,8121fc04b9a856b074d9f1c31cde9f0c8f922dde
2013-05-27,spip/stats,spip/3.0.10,2f4897f9b03895e565cc471546f6bb19ee765d8f
2013-06-26,spip/stats,v0.4.16,13f398faba70b4ea058fdff0cb211f2c3700c77c
2013-06-28,spip/stats,v0.4.17,4282666f53a2cc2fd9fe9d1c9e595e9bf57ca4f0
2013-06-29,spip/stats,v0.4.18,e98896fc1d80561be97d563408fa17fe865c91be
2013-07-01,spip/stats,v0.4.19,dbd69f279f70f227ab66de9280314c5fa2836834
2013-08-09,spip/stats,spip/3.0.11,c6179d5ed5dfa1787a62db7f88e86d4c9835376e
2013-10-01,spip/stats,v0.4.20,e07752d8d310613adfb3d08dbf51463f9250b2fa
2013-11-06,spip/stats,v0.4.21,46fdd9f9b1d0f0fa40455a273092e5c25947fded
2013-11-09,spip/stats,spip/3.0.12,b927ce17836494d6cb17e17faeab2c17f93cd3eb
2013-11-10,spip/stats,spip/3.0.13,d8cc0aad634d6fc1a7feb82857cfb93a3e194962
2013-11-11,spip/stats,v0.4.22,b215681df45d2c873bc6a25bc914eb92fc585078
2013-12-14,spip/stats,v0.4.23,8b96092658674664bd167b7c3899cc3ef4f567ef
2014-01-18,spip/stats,v0.4.24,ccf1cb6d7dfaf52bbd5adb76c569fc1db6ce135c
2014-01-19,spip/stats,spip/3.0.14,be462953ba4941407bd76b60c07cf67dc676caf4
2014-01-20,spip/stats,v0.4.25,b6e193cd24d79de04c0d21c02ee181c334063b3c
2014-02-21,spip/stats,spip/3.0.15,39b81383ca87c6a4d8902e335a9ea77da9162f08
2014-03-13,spip/stats,spip/3.0.16,80b86d29b3d6105ef88a2564aa40a07801c12786
2014-08-13,spip/stats,spip/3.0.17,a38abbc78ebff2dea704a787cfb1a36d078e186c
2014-09-16,spip/stats,v0.4.26,352b90fae14c02ec2fd4415814c7d27bb55c9477
2014-10-11,spip/stats,v0.5.0,55ba5c390b8c44ee2c0890b0bdab0f2a9d7dc675
2014-10-11,spip/stats,v0.5.1,6eb011d48ed85766b70964a65ccd838aff8ff9d5
2014-10-11,spip/stats,v0.5.2,91c57de7f2aa2ce7a2d0ef2f6175c75d3c9dff04
2014-10-22,spip/stats,v0.5.3,7aa8c6e7f1022b330171cc326ab8150c0618cf89
2014-11-01,spip/stats,v0.5.4,5a4e2f328836ecd7883353839a9f57a3cfb00a4f
2014-11-29,spip/stats,v0.5.5,fa0f2d467fd7cd727dd8bf62dc38dd7957afc319
2014-11-29,spip/stats,v0.5.6,5e87eaa7b9f3401301f6ade5c432c8cf33e45faf
2014-11-29,spip/stats,v0.5.7,fd92725835adb60f6022fcf49c273de55e409a1d
2014-12-28,spip/stats,v0.6.0,becbba2cbe832d283f826a1d0a514ad7098b7270
2015-02-18,spip/stats,v0.6.1,e3f618768777610dd87e6437f2b7c2df02798239
2015-03-03,spip/stats,v0.6.2,a993495a671ece7459f6bd016a2ac0befb53929e
2015-04-26,spip/stats,spip/3.0.18,83d65b8466d0a9b139de9cc3fb9fa4b54dcd2981
2015-05-08,spip/stats,spip/3.0.19,6d1d6f8388acbf52151ad1780e948709d733adc2
2015-06-19,spip/stats,v0.6.3,cf3f0842c5b509d6ee43df8938e8e0b8aa4f5798
2015-06-23,spip/stats,spip/3.0.20,606647d43807aa2e131030c2ba7c28fd1a732c1b
2015-08-01,spip/stats,v0.6.4,587df36e779365684a7d522fc50c5de02a0b5501
2015-08-07,spip/stats,v0.6.5,9c51cfcf39d03333333e152c615fa265b8e27052
2015-08-16,spip/stats,v0.6.6,1b1d3560d52f4755c60478ebe04c69a62339f724
2015-08-20,spip/stats,v0.6.7,84a56c992c0e0aef778a5d06095bf89a24c972fc
2015-10-31,spip/stats,spip/3.0.21,16b0e5b970bf9482ed73a5124d02ee09b216295c
2015-10-31,spip/stats,v0.6.10,fee8e7cfd2a2e6af63dfe3eaf6242fd06aeadd08
2015-10-31,spip/stats,v0.6.11,32560677b137bf72087e64741ffa0c1e9050e92f
2015-10-31,spip/stats,v0.6.8,75dbdff36f0bbda740670913a4b9d00c43210a54
2015-10-31,spip/stats,v0.6.9,be23012192291f2e36828214a9165fd762879051
2015-11-14,spip/stats,v0.6.12,41425c19ac85622533f5b9c46a971fbd5b383565
2015-12-30,spip/stats,v0.7.0,19a19022df5a921b4a1726531262c6b004ac4d4b
2016-01-04,spip/stats,v0.7.1,cae06e445ada8b604a1958cfa0606ffbf47fc683
2016-01-06,spip/stats,spip/3.1.0,e1af1ccdde63c3d5f597ab6dca4c5d39692888cd
2016-01-06,spip/stats,v1.0.0,2dab6a710c79a00bb27714f6a9f93f5a6b542ff9
2016-01-06,spip/stats,v1.0.1,a6b45945523876d62362df60960c22fb5765a689
2016-03-10,spip/stats,spip/3.0.22,c416765c4090c954e11f44dabc29b50da1d1b47e
2016-03-10,spip/stats,spip/3.1.1,7ea14a0765179bd066dadff19f5740f9ff000e85
2016-05-23,spip/stats,v1.0.2,d303ea135d97f96cc2928c227710038bead9a332
2016-06-27,spip/stats,v1.0.3,2915e7d7a0f897f3b576329914f2b1d15360db02
2016-06-27,spip/stats,v1.0.4,026e88c2b44e3a16eb86f4e88c34f3a41d0148f2
2016-06-27,spip/stats,v1.0.5,8127be70a146a61027d7e467db094b39d70aa9f5
2016-09-23,spip/stats,spip/3.0.23,6934933000ffca853f258f8a520a10f856436d39
2016-09-23,spip/stats,spip/3.1.2,58090e6c3dfe7d6212cde617dd732fb0cd94e7c9
2016-09-30,spip/stats,spip/3.0.24,a4d2fc452e0843ea301c4f361007217ad38ce6fd
2016-09-30,spip/stats,spip/3.1.3,8525f049b75cb295f0a9bdd2c58bb270ff365ac0
2017-01-19,spip/stats,v1.0.6,f45e5dd3e200a00f2c63eb0b2ec982bc245065c8
2017-01-19,spip/stats,v1.1.0,705c13e03c8f5aef62045f2c6f6714a5c6783504
2017-02-07,spip/stats,v1.1.1,8370f2f561bea2b181f0fdd8506ee3eeaf25a1b8
2017-02-07,spip/stats,v1.1.2,5d0a9fea5392d0d831f516a0c9a12bcc598c7786
2017-03-06,spip/stats,spip/3.0.25,226c78d1925d393758f5f8152259572c6a9ee552
2017-03-06,spip/stats,spip/3.1.4,b5a8c6cce562dd02435c63dc81539ece71cc75f7
2017-03-11,spip/stats,v1.1.3,e69d8454d52af919b67b163e2b7bb3f8e5a88e01
2017-03-17,spip/stats,v1.1.4,716f82e8e940bc11154414177f4611583e1af640
2017-03-17,spip/stats,v1.1.5,2a60896047f9946fbf12d15f81b3cdb5fb4b02fb
2017-03-20,spip/stats,v1.1.6,aa0f7d11de40109e806d677bb6dff7f3258fce66
2017-03-28,spip/stats,v1.1.7,81db499a6ebc7c7e6a9ae2f5cb00099efc761418
2017-06-08,spip/stats,spip/3.0.26,ae4c01dce0e0d19c56d3bb9e456183d7d40e138e
2017-06-08,spip/stats,spip/3.1.5,71a472ecca0d9f031e86ea202fd252d8b47238ce
2017-06-12,spip/stats,spip/3.1.6,8b793ea3496c52da8885d205de2b492197c65101
2017-10-08,spip/stats,v1.2.0,f3c9a84ee38ad8a76e2a0f4e8f31321a3aee3469
2017-10-12,spip/stats,spip/3.1.7,1b7bba0b7a1ad3a424c370e55f3e7839425cc52b
2017-10-13,spip/stats,spip/3.2.0,f838113d29487628ddfadafa8a9bff10cb8ef99a
2018-03-12,spip/stats,v1.2.1,69f9555f6e0cf8cf0b5d29b62ba470a91ce6c596
2018-03-14,spip/stats,spip/3.0.27,5977de1f8229a62392258aae70b56a22fc8f66dd
2018-03-14,spip/stats,spip/3.1.8,6d2fb560b54677e93827f3b6432aa82cb89458cf
2018-03-14,spip/stats,spip/3.2.1,2bc76dd4ca599c25d8e1225c6b0225fc452a7237
2018-04-11,spip/stats,v1.2.2,08f541bed0dd0b71d96c1ec46bf01610ad672181
2018-04-16,spip/stats,v1.3.0,7343c4847d9dad6d097bdc6592ed5ad3f5f5a368
2018-11-17,spip/stats,v1.3.1,6c2ee0de3d2d9e0847d56e539a379163084e080b
2019-01-18,spip/stats,spip/3.0.28,1109ad39ed228d62c09b2be2c6b6d285657af4aa
2019-01-18,spip/stats,spip/3.1.9,3f5527f81f7fd7ad56896b48713915287977b3d3
2019-01-18,spip/stats,spip/3.2.2,b8d8ce7ee3fc944437e7b06c31ccfff72f97f768
2019-01-21,spip/stats,spip/3.2.3,2de53c671fea5c2d5a2e42fb93bdaedf7737934d
2019-01-23,spip/stats,v1.3.2,52879fcd9161ba212cd7df94c0b26bd03afd5175
2019-03-04,spip/stats,v1.3.3,4b5ff7604439c06ee4eef81b5737f4973ae7bf13
2019-04-08,spip/stats,spip/3.1.10,04303af49849e073c9b1110957b5ee4d25426c2a
2019-04-08,spip/stats,spip/3.2.4,48a1cf37a3ab0a86eeaa9e253ad9ae223795a65e
2019-09-16,spip/stats,spip/3.1.11,a491cf565c1b88fc5571c0b412d37a6c2488b077
2019-09-16,spip/stats,spip/3.2.5,ca4dc6a187ab4fcf6539854ed48f405ff9be0ee4
2019-12-12,spip/stats,spip/3.1.12,39da8d6958ec4e2e787dff5067fc051cd46b7bd2
2019-12-12,spip/stats,spip/3.2.6,bae795f93e1279bb549e208300d1a71f224e667f
2019-12-12,spip/stats,spip/3.2.7,dff9e2c85a9c4b9925cccf90e9075c8031df4aae
2020-01-01,spip/stats,spip/3.1.13,79b5b967f9069997e324aceb6c57c04dd6f48785
2020-01-01,spip/stats,spip/3.1.14,79b5b967f9069997e324aceb6c57c04dd6f48785
2020-01-01,spip/stats,spip/3.1.15,79b5b967f9069997e324aceb6c57c04dd6f48785
2020-01-01,spip/stats,spip/3.2.8,d64d037490f8eb518795782eafe818f2f508eb88
2020-01-01,spip/stats,spip/3.2.9,d64d037490f8eb518795782eafe818f2f508eb88
2021-03-18,spip/stats,spip/3.2.10,291386bb09ef328536341a02af5ee7855a0e325a
2021-03-18,spip/stats,spip/3.2.11,291386bb09ef328536341a02af5ee7855a0e325a
2021-05-01,spip/stats,spip/4.0.0-alpha,64942cc82edc05b303dee7e38e1a63c54a776073
2021-05-01,spip/stats,v2.0.0,64942cc82edc05b303dee7e38e1a63c54a776073
2021-06-01,spip/stats,spip/4.0.0-beta,2ead0f8a1e2fa004bdc7bbdb5f9847bea6702970
2021-06-01,spip/stats,v2.0.1,2ead0f8a1e2fa004bdc7bbdb5f9847bea6702970
2021-07-08,spip/stats,spip/4.0.0,95733bb61c97ebec001c5df4411e374b49806f5b
2021-07-08,spip/stats,v2.0.2,95733bb61c97ebec001c5df4411e374b49806f5b
2021-12-14,spip/stats,spip/3.2.12,f95d13194dda2aac4ce7a8211a033ad08f3b4fbf
2021-12-14,spip/stats,spip/4.0.1,8250f248bd83d2efb00a80cbb927b14a40b82d6f
2021-12-14,spip/stats,spip/4.0.2,8250f248bd83d2efb00a80cbb927b14a40b82d6f
2021-12-14,spip/stats,v1.1.12,f95d13194dda2aac4ce7a8211a033ad08f3b4fbf
2021-12-14,spip/stats,v2.0.3,8250f248bd83d2efb00a80cbb927b14a40b82d6f
2022-02-01,spip/stats,spip/4.0.3,7ddf810563934b054d9d3662511d283263507f04
2022-02-01,spip/stats,v2.0.4,7ddf810563934b054d9d3662511d283263507f04
2022-02-08,spip/stats,v3.0.0,e81cb5b4bd8e8c16fa89743e5c9b24315b8fc3b9
2022-02-17,spip/stats,v3.0.1,9759c0ffee83d99d84488ee31adf744ad10d345c
2022-03-05,spip/stats,v3.0.2,ababfe24b59b6c055e2e66315c7e4c1d4a889a04
2022-03-25,spip/stats,v3.0.3,063c1bd1683468e6380a4879ecaf4becf620a4c6
2022-05-20,spip/stats,v3.0.4,c35004e27a610a883df830adf487a1f26f3d706d
2023-01-27,spip/stats,v3.1.0,435eb8f5de53c9191a40172e2f7bc4ec57973543
2023-02-23,spip/stats,v3.1.1,4ec3909b8d41e23033b162cecbd4ae84d6ab5be9
2023-02-27,spip/stats,v3.0.5,bb176e30b3347d60c51977dc0cdb43ce2c860914
2023-06-07,spip/stats,v3.0.6,7c30e3b6264fbf652f80a1b653283bd39a48b73b
2023-06-07,spip/stats,v3.1.2,8a3f3849691399ca31731d82e474ade553a3ed44
2023-09-01,spip/stats,v3.1.3,dba3c2ebefbd9caa9d8affc8e13f787345e9d8dc
2024-01-11,spip/stats,v3.1.4,b9f04ff02637216d66a0af943b90e5456a21265d
2024-05-07,spip/stats,v3.1.5,317da4212be439a104cae4348f1319cb8f81a444
2024-10-08,spip/stats,v3.1.6,73d948bd637e62fb9c940fd0d026202493fc84e4
2024-11-12,spip/stats,v3.1.7,d57de67833c1da01e45f3e03fd6cf8c21cce88aa
2024-11-25,spip/stats,3.1.8,8dea5a53dd83cce77e7cb6900d63ceb11e517ec9
2024-11-25,spip/stats,3.2.0,ece5d69fbffb1997f8858603e4b4cb4093b85b50
2024-12-02,spip/stats,v3.1.9,3724cfc292b7a6f23de502d89644cb5afb560a4b
