commented on,Papotage,6,JamesRezo,2024-10-01,1673,DiscussionNote
accepted,Codage,18,b_b,2024-10-01,1673,MergeRequest
opened,Codage,6,JamesRezo,2024-10-01,1673,Milestone
commented on,Papotage,18,b_b,2024-10-01,1673,Note
deleted,Codage,18,b_b,2024-10-01,1673,Project
pushed new,Codage,6,JamesRezo,2024-10-01,1673,Project
pushed to,Codage,18,b_b,2024-10-01,1673,Project
pushed to,Codage,18,b_b,2024-10-01,1673,Project
pushed to,Codage,6,JamesRezo,2024-10-01,1673,Project
commented on,Papotage,18,b_b,2024-10-02,1673,DiscussionNote
pushed to,Codage,18,b_b,2024-10-02,1673,Project
opened,Papotage,4,maieul,2024-10-15,1673,Issue
commented on,Papotage,18,b_b,2024-10-15,1673,Note
commented on,Papotage,18,b_b,2024-10-16,1673,DiscussionNote
commented on,Papotage,4,maieul,2024-10-16,1673,DiscussionNote
commented on,Papotage,4,maieul,2024-10-16,1673,DiscussionNote
commented on,Papotage,4,maieul,2024-10-16,1673,DiscussionNote
commented on,Papotage,4,maieul,2024-10-16,1673,DiscussionNote
closed,Papotage,4,maieul,2024-10-16,1673,Issue
closed,Papotage,4,maieul,2024-10-16,1673,Issue
accepted,Codage,4,maieul,2024-11-21,1673,MergeRequest
approved,Codage,18,b_b,2024-11-21,1673,MergeRequest
approved,Codage,6,JamesRezo,2024-11-21,1673,MergeRequest
opened,Codage,4,maieul,2024-11-21,1673,MergeRequest
commented on,Papotage,4,maieul,2024-11-21,1673,Note
deleted,Codage,4,maieul,2024-11-21,1673,Project
pushed new,Codage,4,maieul,2024-11-21,1673,Project
pushed to,Codage,4,maieul,2024-11-21,1673,Project
pushed to,Codage,4,maieul,2024-11-21,1673,Project
pushed new,Codage,6,JamesRezo,2024-11-25,1673,Project
pushed new,Codage,6,JamesRezo,2024-11-25,1673,Project
pushed to,Codage,6,JamesRezo,2024-11-25,1673,Project
pushed to,Codage,6,JamesRezo,2024-11-25,1673,Project
pushed to,Codage,4,maieul,2024-12-02,1673,Project
pushed new,Codage,12,marcimat,2024-12-03,1673,Project
pushed to,Codage,12,marcimat,2024-12-03,1673,Project
pushed to,Codage,12,marcimat,2024-12-03,1673,Project
approved,Codage,18,b_b,2024-12-11,1673,MergeRequest
opened,Codage,6,JamesRezo,2024-12-11,1673,MergeRequest
opened,Codage,6,JamesRezo,2024-12-11,1673,MergeRequest
pushed new,Codage,6,JamesRezo,2024-12-11,1673,Project
pushed new,Codage,6,JamesRezo,2024-12-11,1673,Project
pushed to,Codage,6,JamesRezo,2024-12-11,1673,Project
accepted,Codage,4,maieul,2024-12-13,1673,MergeRequest
commented on,Papotage,4,maieul,2024-12-13,1673,Note
deleted,Codage,6,JamesRezo,2024-12-13,1673,Project
pushed to,Codage,4,maieul,2024-12-13,1673,Project
pushed to,Codage,4,maieul,2024-12-13,1673,Project
pushed to,Codage,6,JamesRezo,2024-12-13,1673,Project
pushed to,Codage,6,JamesRezo,2024-12-15,1673,Project
commented on,Papotage,18,b_b,2024-12-16,1673,DiscussionNote
accepted,Codage,18,b_b,2024-12-16,1673,MergeRequest
accepted,Codage,6,JamesRezo,2024-12-16,1673,MergeRequest
accepted,Codage,6,JamesRezo,2024-12-16,1673,MergeRequest
approved,Codage,12,marcimat,2024-12-16,1673,MergeRequest
approved,Codage,18,b_b,2024-12-16,1673,MergeRequest
opened,Codage,6,JamesRezo,2024-12-16,1673,MergeRequest
opened,Codage,6,JamesRezo,2024-12-16,1673,MergeRequest
commented on,Papotage,12,marcimat,2024-12-16,1673,Note
commented on,Papotage,18,b_b,2024-12-16,1673,Note
deleted,Codage,6,JamesRezo,2024-12-16,1673,Project
deleted,Codage,6,JamesRezo,2024-12-16,1673,Project
deleted,Codage,6,JamesRezo,2024-12-16,1673,Project
pushed new,Codage,6,JamesRezo,2024-12-16,1673,Project
pushed new,Codage,6,JamesRezo,2024-12-16,1673,Project
pushed to,Codage,18,b_b,2024-12-16,1673,Project
pushed to,Codage,6,JamesRezo,2024-12-16,1673,Project
pushed to,Codage,6,JamesRezo,2024-12-16,1673,Project
accepted,Codage,4,maieul,2025-01-21,1673,MergeRequest
approved,Codage,14,rastapopoulos,2025-01-21,1673,MergeRequest
opened,Codage,18,b_b,2025-01-21,1673,MergeRequest
deleted,Codage,18,b_b,2025-01-21,1673,Project
pushed new,Codage,18,b_b,2025-01-21,1673,Project
pushed to,Codage,4,maieul,2025-01-21,1673,Project
