date,full_path,name,sha
2017-04-02,spip-contrib-extensions/gcalendar,v1.0.10,1ae84a708ce66603908edc99c71172cd4604e03d
2018-12-19,spip-contrib-extensions/gcalendar,v2.0.1,71ea65e7d2c184fe31b455ca45b0857a10912bc0
