date,full_path,name,sha
2018-10-14,spip-contrib-extensions/roles_selections,v1.0.2,152c328597074ec1e3394928adb40499781b410e
2024-07-05,spip-contrib-extensions/roles_selections,1.1.0,512873f195cc34b6a459b504c1ca1edbbcb05b56
