date,full_path,name,sha
2017-04-02,spip-contrib-extensions/contact_libre,v0,3e031206e7b83eb9f1a83e0b396997fe048810de
2020-01-14,spip-contrib-extensions/contact_libre,v1,43204881e43875c310f2834b9b41cf63cad62219
2024-10-10,spip-contrib-extensions/contact_libre,master,c522242d5ffaf8cdf021d8bd664990953a579bb0
