date,full_path,name,sha
2022-04-03,spip-contrib-outils/spip_loader,5.1,c84c3802c8bd92270bd4d3f84b79718c92dc5b1a
2024-09-12,spip-contrib-outils/spip_loader,74-ne-pas-proposer-de-mise-a-jour-si-on-est-deja-a-jour,7f936d5973e4bd83320e4b4401fc261127ac364e
2024-09-30,spip-contrib-outils/spip_loader,suivi-config-spip,685ea95d721ca60cd64e411dd59dd78c70bd27f6
2025-01-28,spip-contrib-outils/spip_loader,master,3698e10a16ec7d5e05a08b38a4196d9b06beaa9c
