date,full_path,name,sha
2016-01-10,spip-contrib-outils/spip_loader,2.5.7,c352d6e7d47181169d53d81f9ac37f694ea1a5e4
2016-02-06,spip-contrib-outils/spip_loader,2.5.8,7c84e853b9776b1f30ee423a7960499864fffe35
2016-03-28,spip-contrib-outils/spip_loader,2.5.9,a837f1bb27166d1bac72b9f9ab529280defac8e8
2017-10-13,spip-contrib-outils/spip_loader,2.5.10,2a5ff8a66468cc17519b4f120d8d18461bc6d5bd
2021-02-18,spip-contrib-outils/spip_loader,4.3.1,f6c72b74a887736747eec841538b633914bc3008
2021-05-02,spip-contrib-outils/spip_loader,4.3.2,52347955d35a5a0303ba255b9f76013d5d94743c
2022-03-31,spip-contrib-outils/spip_loader,5.2.0,34a2415f067dd5976c309bc98204faf7c4eba64f
2022-05-21,spip-contrib-outils/spip_loader,5.2.1,f614b88d4f40b4cd57ec18c9bd76a61f080325cf
2023-01-02,spip-contrib-outils/spip_loader,5.3.0,2fd1a33764d98768a6222268a4f13d7f1bc28bcb
2023-03-06,spip-contrib-outils/spip_loader,6.0.0-alpha,bd2fefe012255608fdb2e33d3a7934a17c779e2d
2023-03-06,spip-contrib-outils/spip_loader,6.0.0-beta,16ea6f671ff8ee6025a55e7457ac32afb3940731
2023-03-07,spip-contrib-outils/spip_loader,6.0.0-rc,c87196340485098cc34921130354698deda272b2
2023-03-09,spip-contrib-outils/spip_loader,6.0.0,0b6eaf69ad204d63f7570b3afe9b807c258dc57d
2023-03-09,spip-contrib-outils/spip_loader,6.0.1,e47f375515602a45af2e7ba03587483e4390b056
2023-03-09,spip-contrib-outils/spip_loader,6.0.2,d06a56d6b66b94620324eb0b9403953896b2fa98
2023-03-29,spip-contrib-outils/spip_loader,6.0.3,1d01578c1259821f9ddc87694d5b0c28bc057be0
2023-04-07,spip-contrib-outils/spip_loader,6.1.0-alpha,a267a36bcfc37af73474e2294a2b5d4c32ca4903
2023-04-07,spip-contrib-outils/spip_loader,6.1.0-beta,2563dfdddd22733a49d95771799fa1bf15453b7b
2023-04-12,spip-contrib-outils/spip_loader,6.1.0,f20eb9d3aa27708181048a2a1a0758b21c026238
2023-05-03,spip-contrib-outils/spip_loader,6.1.1,82a119b0dcba8519dda68abac03385dd201e6049
2023-06-09,spip-contrib-outils/spip_loader,6.1.2,87ee753e159b7c5d40dfd7adb45f19769789fa67
2023-09-21,spip-contrib-outils/spip_loader,6.1.3,f5bb8caf2a301c624bf5752971b221695a3768ec
2024-02-08,spip-contrib-outils/spip_loader,6.1.4,328f0adb4b79445ba875b54243654869ee5a81e9
2024-02-10,spip-contrib-outils/spip_loader,6.1.5,7b7bd81c10a4ca679d14d7a0e63785723784f0dd
2024-02-20,spip-contrib-outils/spip_loader,6.1.6,466db5f5d33dd06cd111fdac0e044de2db4faaf6
2024-08-04,spip-contrib-outils/spip_loader,6.1.7,ab1cff70200379766b3266b71738bdcbf54aaeb1
2025-01-28,spip-contrib-outils/spip_loader,6.1.8,3698e10a16ec7d5e05a08b38a4196d9b06beaa9c
