date,full_path,name,sha
2021-11-01,spip-contrib-extensions/incarner,fix_autoriser,07ddb0be6d13fe090a45d9ff4461056f437a0abd
2021-11-01,spip-contrib-extensions/incarner,v1,df01ac8b545330c445c6cde7205ef20f609d0518
2024-07-05,spip-contrib-extensions/incarner,master,2064741ee71af6f33dbd1214c3882a4059dd84c0
