date,full_path,name,sha
2024-02-01,spip-contrib-extensions/cssvar,issue_1,66378379bf6e28d8338d18592d7ef9f393409f04
2024-12-02,spip-contrib-extensions/cssvar,master,4546ee3f999da6ad24f48f1b47cc8e753be82c8c
