commented on,Papotage,4,maieul,2024-09-11,2218,DiscussionNote
opened,Papotage,4,maieul,2024-09-11,2218,Issue
approved,Codage,18,b_b,2024-09-11,2218,MergeRequest
opened,Codage,4,maieul,2024-09-11,2218,MergeRequest
opened,Codage,4,maieul,2024-09-11,2218,MergeRequest
pushed new,Codage,4,maieul,2024-09-11,2218,Project
pushed new,Codage,4,maieul,2024-09-11,2218,Project
approved,Codage,6,JamesRezo,2024-09-16,2218,MergeRequest
closed,Papotage,4,maieul,2024-09-30,2218,Issue
closed,Papotage,4,maieul,2024-09-30,2218,Issue
accepted,Codage,4,maieul,2024-09-30,2218,MergeRequest
accepted,Codage,4,maieul,2024-09-30,2218,MergeRequest
commented on,Papotage,4,maieul,2024-09-30,2218,Note
deleted,Codage,4,maieul,2024-09-30,2218,Project
deleted,Codage,4,maieul,2024-09-30,2218,Project
pushed new,Codage,4,maieul,2024-09-30,2218,Project
pushed to,Codage,4,maieul,2024-09-30,2218,Project
pushed to,Codage,4,maieul,2024-09-30,2218,Project
pushed to,Codage,4,maieul,2024-09-30,2218,Project
pushed to,Codage,4,maieul,2024-09-30,2218,Project
