date,full_path,name,sha
2017-05-08,spip-contrib-extensions/acces_restreint,v3.3,ec901858e79526d91e7eb38a0548369bb18c1d33
2017-05-08,spip-contrib-extensions/acces_restreint,v3.8,4920a03f56c0a2dcc0c4f355284a8c0707583f74
2019-12-10,spip-contrib-extensions/acces_restreint,v3.15,07bc95c8ecfb34cdbbbf69dbddb8209f5bb71ccd
2022-12-09,spip-contrib-extensions/acces_restreint,v4,39c75250ae3317c0a4e0a019458472e973fe5bc2
2023-03-23,spip-contrib-extensions/acces_restreint,5.0,a8cb272b4339d999503a627155ce0b332cb29863
2025-02-11,spip-contrib-extensions/acces_restreint,master,d253efd352d534bb2db7169289d13ad76b8dbb1c
2025-02-13,spip-contrib-extensions/acces_restreint,dev/issue_28_url_document_fichier,5b0e1d2806cb99b3377eadab0ecd43d32df9c010
