opened,Papotage,793,s-degoul,2024-08-26,1715,Issue
opened,Codage,12,marcimat,2024-10-30,1715,MergeRequest
pushed new,Codage,12,marcimat,2024-10-30,1715,Project
pushed new,Codage,22,placido,2024-12-27,1715,Project
commented on,Papotage,17,nicod,2025-01-21,1715,DiscussionNote
approved,Codage,14,rastapopoulos,2025-01-21,1715,MergeRequest
opened,Codage,15,tcharlss,2025-01-21,1715,MergeRequest
commented on,Papotage,14,rastapopoulos,2025-01-21,1715,Note
pushed new,Codage,15,tcharlss,2025-01-21,1715,Project
commented on,Papotage,15,tcharlss,2025-01-22,1715,DiscussionNote
commented on,Papotage,17,nicod,2025-01-22,1715,DiscussionNote
commented on,Papotage,17,nicod,2025-01-22,1715,DiscussionNote
approved,Codage,15,tcharlss,2025-01-22,1715,MergeRequest
approved,Codage,17,nicod,2025-01-22,1715,MergeRequest
commented on,Papotage,17,nicod,2025-01-22,1715,Note
commented on,Papotage,17,nicod,2025-01-25,1715,DiscussionNote
commented on,Papotage,15,tcharlss,2025-01-30,1715,DiscussionNote
commented on,Papotage,17,nicod,2025-01-30,1715,DiscussionNote
closed,Papotage,15,tcharlss,2025-01-30,1715,Issue
accepted,Codage,12,marcimat,2025-01-30,1715,MergeRequest
accepted,Codage,12,marcimat,2025-01-30,1715,MergeRequest
accepted,Codage,12,marcimat,2025-01-30,1715,MergeRequest
approved,Codage,12,marcimat,2025-01-30,1715,MergeRequest
approved,Codage,12,marcimat,2025-01-30,1715,MergeRequest
opened,Codage,12,marcimat,2025-01-30,1715,MergeRequest
commented on,Papotage,12,marcimat,2025-01-30,1715,Note
commented on,Papotage,12,marcimat,2025-01-30,1715,Note
commented on,Papotage,12,marcimat,2025-01-30,1715,Note
commented on,Papotage,12,marcimat,2025-01-30,1715,Note
commented on,Papotage,15,tcharlss,2025-01-30,1715,Note
deleted,Codage,12,marcimat,2025-01-30,1715,Project
deleted,Codage,15,tcharlss,2025-01-30,1715,Project
deleted,Codage,206,pierretux,2025-01-30,1715,Project
pushed new,Codage,12,marcimat,2025-01-30,1715,Project
pushed to,Codage,12,marcimat,2025-01-30,1715,Project
pushed to,Codage,12,marcimat,2025-01-30,1715,Project
pushed to,Codage,12,marcimat,2025-01-30,1715,Project
pushed to,Codage,12,marcimat,2025-01-30,1715,Project
pushed to,Codage,12,marcimat,2025-01-30,1715,Project
accepted,Codage,12,marcimat,2025-01-31,1715,MergeRequest
accepted,Codage,12,marcimat,2025-01-31,1715,MergeRequest
approved,Codage,12,marcimat,2025-01-31,1715,MergeRequest
approved,Codage,12,marcimat,2025-01-31,1715,MergeRequest
approved,Codage,22,placido,2025-01-31,1715,MergeRequest
opened,Codage,12,marcimat,2025-01-31,1715,MergeRequest
opened,Codage,12,marcimat,2025-01-31,1715,MergeRequest
commented on,Papotage,12,marcimat,2025-01-31,1715,Note
commented on,Papotage,12,marcimat,2025-01-31,1715,Note
commented on,Papotage,12,marcimat,2025-01-31,1715,Note
commented on,Papotage,12,marcimat,2025-01-31,1715,Note
commented on,Papotage,12,marcimat,2025-01-31,1715,Note
deleted,Codage,12,marcimat,2025-01-31,1715,Project
deleted,Codage,12,marcimat,2025-01-31,1715,Project
pushed new,Codage,12,marcimat,2025-01-31,1715,Project
pushed to,Codage,12,marcimat,2025-01-31,1715,Project
pushed to,Codage,12,marcimat,2025-01-31,1715,Project
pushed to,Codage,12,marcimat,2025-01-31,1715,Project
pushed to,Codage,12,marcimat,2025-01-31,1715,Project
pushed to,Codage,12,marcimat,2025-01-31,1715,Project
pushed to,Codage,12,marcimat,2025-01-31,1715,Project
pushed to,Codage,12,marcimat,2025-01-31,1715,Project
accepted,Codage,12,marcimat,2025-02-02,1715,MergeRequest
deleted,Codage,12,marcimat,2025-02-02,1715,Project
pushed to,Codage,12,marcimat,2025-02-02,1715,Project
pushed to,Codage,12,marcimat,2025-02-02,1715,Project
pushed new,Codage,12,marcimat,2025-02-03,1715,Project
pushed to,Codage,12,marcimat,2025-02-03,1715,Project
opened,Papotage,14,rastapopoulos,2025-02-13,1715,Issue
opened,Codage,14,rastapopoulos,2025-02-13,1715,MergeRequest
pushed new,Codage,14,rastapopoulos,2025-02-13,1715,Project
approved,Codage,12,marcimat,2025-02-14,1715,MergeRequest
commented on,Papotage,12,marcimat,2025-02-14,1715,Note
