prefix,full_path
abozones,spip-contrib-extensions/abonnements_zones
arp,spip-contrib-extensions/acces_restreint_partiel
accesrestreintdate,spip-contrib-extensions/acces_restreint_date
accesrestreintvideos,spip-contrib-extensions/acces_restreint_videos
accesrestreintobjets,spip-contrib-extensions/acces_restreint_objets
accesrestreintip,spip-contrib-extensions/acces_restreint_ip
jaz,spip-contrib-extensions/joindre_auto_zone
