pushed to,Codage,562,jo,2024-09-06,3275,Project
pushed to,Codage,562,jo,2024-09-13,3275,Project
pushed to,Codage,562,jo,2024-09-13,3275,Project
pushed to,Codage,562,jo,2024-09-17,3275,Project
pushed to,Codage,562,jo,2024-09-24,3275,Project
pushed to,Codage,562,jo,2024-09-24,3275,Project
pushed to,Codage,562,jo,2024-09-24,3275,Project
pushed to,Codage,562,jo,2024-09-24,3275,Project
pushed to,Codage,562,jo,2024-09-27,3275,Project
pushed to,Codage,562,jo,2024-10-02,3275,Project
pushed new,Codage,562,jo,2024-10-04,3275,Project
pushed to,Codage,562,jo,2024-10-04,3275,Project
pushed to,Codage,562,jo,2024-10-04,3275,Project
pushed to,Codage,562,jo,2024-10-04,3275,Project
pushed to,Codage,562,jo,2024-10-11,3275,Project
pushed to,Codage,562,jo,2024-10-16,3275,Project
pushed new,Codage,562,jo,2024-11-13,3275,Project
pushed to,Codage,562,jo,2024-11-13,3275,Project
pushed to,Codage,562,jo,2024-11-22,3275,Project
pushed to,Codage,562,jo,2024-11-28,3275,Project
pushed to,Codage,562,jo,2024-12-02,3275,Project
pushed to,Codage,562,jo,2024-12-03,3275,Project
pushed to,Codage,562,jo,2024-12-03,3275,Project
pushed to,Codage,562,jo,2024-12-20,3275,Project
