created,Codage,4,maieul,2024-09-22,3328,Project
pushed new,Codage,4,maieul,2024-09-22,3328,Project
pushed to,Codage,4,maieul,2024-09-22,3328,Project
pushed to,Codage,4,maieul,2024-09-22,3328,Project
commented on,Papotage,4,maieul,2024-09-23,3328,Note
pushed to,Codage,68,erational,2024-09-23,3328,Project
pushed to,Codage,68,erational,2024-09-23,3328,Project
pushed new,Codage,4,maieul,2024-09-25,3328,Project
pushed to,Codage,4,maieul,2024-09-25,3328,Project
pushed new,Codage,4,maieul,2024-10-03,3328,Project
pushed to,Codage,4,maieul,2024-10-03,3328,Project
