commented on,Papotage,18,b_b,2024-08-19,1683,Note
approved,Codage,18,b_b,2024-08-20,1683,MergeRequest
commented on,Papotage,12,marcimat,2024-08-20,1683,Note
commented on,Papotage,18,b_b,2024-08-20,1683,Note
opened,Papotage,802,vincent.roger1,2024-08-30,1683,Issue
commented on,Papotage,14,rastapopoulos,2024-08-30,1683,Note
opened,Papotage,4,maieul,2024-09-06,1683,Issue
commented on,Papotage,18,b_b,2024-09-06,1683,Note
approved,Codage,6,JamesRezo,2024-09-10,1683,MergeRequest
pushed to,Codage,6,JamesRezo,2024-09-10,1683,Project
commented on,Papotage,4,maieul,2024-09-11,1683,Note
commented on,Papotage,6,JamesRezo,2024-09-12,1683,DiscussionNote
closed,Papotage,4,maieul,2024-09-13,1683,Issue
accepted,Codage,4,maieul,2024-09-13,1683,MergeRequest
accepted,Codage,4,maieul,2024-09-13,1683,MergeRequest
approved,Codage,18,b_b,2024-09-13,1683,MergeRequest
opened,Codage,4,maieul,2024-09-13,1683,MergeRequest
commented on,Papotage,4,maieul,2024-09-13,1683,Note
commented on,Papotage,4,maieul,2024-09-13,1683,Note
deleted,Codage,18,b_b,2024-09-13,1683,Project
deleted,Codage,4,maieul,2024-09-13,1683,Project
pushed new,Codage,4,maieul,2024-09-13,1683,Project
pushed to,Codage,4,maieul,2024-09-13,1683,Project
pushed to,Codage,4,maieul,2024-09-13,1683,Project
pushed to,Codage,4,maieul,2024-09-13,1683,Project
pushed to,Codage,4,maieul,2024-09-13,1683,Project
commented on,Papotage,43,RealET,2024-09-14,1683,DiscussionNote
commented on,Papotage,4,maieul,2024-09-15,1683,DiscussionNote
commented on,Papotage,4,maieul,2024-09-15,1683,DiscussionNote
accepted,Codage,4,maieul,2024-09-15,1683,MergeRequest
accepted,Codage,4,maieul,2024-09-15,1683,MergeRequest
approved,Codage,18,b_b,2024-09-15,1683,MergeRequest
approved,Codage,18,b_b,2024-09-15,1683,MergeRequest
opened,Codage,4,maieul,2024-09-15,1683,MergeRequest
opened,Codage,4,maieul,2024-09-15,1683,MergeRequest
commented on,Papotage,18,b_b,2024-09-15,1683,Note
commented on,Papotage,18,b_b,2024-09-15,1683,Note
commented on,Papotage,4,maieul,2024-09-15,1683,Note
deleted,Codage,4,maieul,2024-09-15,1683,Project
deleted,Codage,4,maieul,2024-09-15,1683,Project
pushed new,Codage,4,maieul,2024-09-15,1683,Project
pushed new,Codage,4,maieul,2024-09-15,1683,Project
pushed to,Codage,4,maieul,2024-09-15,1683,Project
pushed to,Codage,4,maieul,2024-09-15,1683,Project
pushed to,Codage,4,maieul,2024-09-15,1683,Project
pushed to,Codage,4,maieul,2024-09-15,1683,Project
pushed to,Codage,4,maieul,2024-09-15,1683,Project
approved,Codage,14,rastapopoulos,2024-09-17,1683,MergeRequest
approved,Codage,18,b_b,2024-09-17,1683,MergeRequest
opened,Codage,206,pierretux,2024-09-17,1683,MergeRequest
commented on,Papotage,18,b_b,2024-09-17,1683,Note
approved,Codage,12,marcimat,2024-09-18,1683,MergeRequest
approved,Codage,14,rastapopoulos,2024-09-18,1683,MergeRequest
opened,Codage,9,cerdic,2024-09-18,1683,MergeRequest
pushed new,Codage,9,cerdic,2024-09-18,1683,Project
commented on,Papotage,9,cerdic,2024-09-26,1683,DiffNote
commented on,Papotage,9,cerdic,2024-09-26,1683,DiffNote
commented on,Papotage,9,cerdic,2024-09-26,1683,DiscussionNote
commented on,Papotage,9,cerdic,2024-09-26,1683,DiscussionNote
commented on,Papotage,9,cerdic,2024-09-26,1683,DiscussionNote
approved,Codage,14,rastapopoulos,2024-09-26,1683,MergeRequest
approved,Codage,18,b_b,2024-09-26,1683,MergeRequest
approved,Codage,18,b_b,2024-09-26,1683,MergeRequest
opened,Codage,9,cerdic,2024-09-26,1683,MergeRequest
opened,Codage,9,cerdic,2024-09-26,1683,MergeRequest
commented on,Papotage,9,cerdic,2024-09-26,1683,Note
pushed new,Codage,9,cerdic,2024-09-26,1683,Project
pushed new,Codage,9,cerdic,2024-09-26,1683,Project
commented on,Papotage,9,cerdic,2024-09-27,1683,DiscussionNote
opened,Papotage,802,vincent.roger1,2024-09-27,1683,Issue
commented on,Papotage,18,b_b,2024-09-27,1683,Note
commented on,Papotage,802,vincent.roger1,2024-09-27,1683,Note
approved,Codage,6,JamesRezo,2024-09-28,1683,MergeRequest
approved,Codage,6,JamesRezo,2024-09-28,1683,MergeRequest
approved,Codage,6,JamesRezo,2024-09-28,1683,MergeRequest
closed,Papotage,18,b_b,2024-09-29,1683,Issue
commented on,Papotage,18,b_b,2024-09-29,1683,Note
commented on,Papotage,12,marcimat,2024-10-01,1683,DiscussionNote
commented on,Papotage,18,b_b,2024-10-01,1683,DiscussionNote
commented on,Papotage,4,maieul,2024-10-01,1683,DiscussionNote
commented on,Papotage,6,JamesRezo,2024-10-01,1683,DiscussionNote
closed,Papotage,12,marcimat,2024-10-01,1683,Issue
closed,Papotage,12,marcimat,2024-10-01,1683,Issue
closed,Papotage,12,marcimat,2024-10-01,1683,Issue
closed,Papotage,12,marcimat,2024-10-01,1683,Issue
closed,Papotage,18,b_b,2024-10-01,1683,Issue
opened,Papotage,12,marcimat,2024-10-01,1683,Issue
accepted,Codage,12,marcimat,2024-10-01,1683,MergeRequest
accepted,Codage,12,marcimat,2024-10-01,1683,MergeRequest
accepted,Codage,12,marcimat,2024-10-01,1683,MergeRequest
accepted,Codage,12,marcimat,2024-10-01,1683,MergeRequest
accepted,Codage,12,marcimat,2024-10-01,1683,MergeRequest
accepted,Codage,12,marcimat,2024-10-01,1683,MergeRequest
accepted,Codage,12,marcimat,2024-10-01,1683,MergeRequest
accepted,Codage,18,b_b,2024-10-01,1683,MergeRequest
approved,Codage,12,marcimat,2024-10-01,1683,MergeRequest
approved,Codage,12,marcimat,2024-10-01,1683,MergeRequest
approved,Codage,12,marcimat,2024-10-01,1683,MergeRequest
approved,Codage,18,b_b,2024-10-01,1683,MergeRequest
approved,Codage,4,maieul,2024-10-01,1683,MergeRequest
approved,Codage,4,maieul,2024-10-01,1683,MergeRequest
opened,Codage,6,JamesRezo,2024-10-01,1683,Milestone
commented on,Papotage,12,marcimat,2024-10-01,1683,Note
commented on,Papotage,12,marcimat,2024-10-01,1683,Note
commented on,Papotage,12,marcimat,2024-10-01,1683,Note
commented on,Papotage,12,marcimat,2024-10-01,1683,Note
commented on,Papotage,12,marcimat,2024-10-01,1683,Note
commented on,Papotage,12,marcimat,2024-10-01,1683,Note
commented on,Papotage,18,b_b,2024-10-01,1683,Note
deleted,Codage,12,marcimat,2024-10-01,1683,Project
deleted,Codage,14,rastapopoulos,2024-10-01,1683,Project
deleted,Codage,18,b_b,2024-10-01,1683,Project
deleted,Codage,18,b_b,2024-10-01,1683,Project
deleted,Codage,9,cerdic,2024-10-01,1683,Project
deleted,Codage,9,cerdic,2024-10-01,1683,Project
deleted,Codage,9,cerdic,2024-10-01,1683,Project
pushed new,Codage,6,JamesRezo,2024-10-01,1683,Project
pushed to,Codage,12,marcimat,2024-10-01,1683,Project
pushed to,Codage,12,marcimat,2024-10-01,1683,Project
pushed to,Codage,12,marcimat,2024-10-01,1683,Project
pushed to,Codage,12,marcimat,2024-10-01,1683,Project
pushed to,Codage,12,marcimat,2024-10-01,1683,Project
pushed to,Codage,12,marcimat,2024-10-01,1683,Project
pushed to,Codage,12,marcimat,2024-10-01,1683,Project
pushed to,Codage,12,marcimat,2024-10-01,1683,Project
pushed to,Codage,12,marcimat,2024-10-01,1683,Project
pushed to,Codage,12,marcimat,2024-10-01,1683,Project
pushed to,Codage,12,marcimat,2024-10-01,1683,Project
pushed to,Codage,12,marcimat,2024-10-01,1683,Project
pushed to,Codage,12,marcimat,2024-10-01,1683,Project
pushed to,Codage,12,marcimat,2024-10-01,1683,Project
pushed to,Codage,12,marcimat,2024-10-01,1683,Project
pushed to,Codage,12,marcimat,2024-10-01,1683,Project
pushed to,Codage,12,marcimat,2024-10-01,1683,Project
pushed to,Codage,12,marcimat,2024-10-01,1683,Project
pushed to,Codage,12,marcimat,2024-10-01,1683,Project
pushed to,Codage,12,marcimat,2024-10-01,1683,Project
pushed to,Codage,12,marcimat,2024-10-01,1683,Project
pushed to,Codage,12,marcimat,2024-10-01,1683,Project
pushed to,Codage,12,marcimat,2024-10-01,1683,Project
pushed to,Codage,12,marcimat,2024-10-01,1683,Project
pushed to,Codage,12,marcimat,2024-10-01,1683,Project
pushed to,Codage,12,marcimat,2024-10-01,1683,Project
pushed to,Codage,12,marcimat,2024-10-01,1683,Project
pushed to,Codage,18,b_b,2024-10-01,1683,Project
pushed to,Codage,18,b_b,2024-10-01,1683,Project
pushed to,Codage,18,b_b,2024-10-01,1683,Project
pushed to,Codage,18,b_b,2024-10-01,1683,Project
pushed to,Codage,18,b_b,2024-10-01,1683,Project
pushed to,Codage,6,JamesRezo,2024-10-01,1683,Project
pushed to,Codage,6,JamesRezo,2024-10-01,1683,Project
opened,Codage,6,JamesRezo,2024-10-01,1683,WorkItem
commented on,Papotage,18,b_b,2024-10-02,1683,DiscussionNote
commented on,Papotage,6,JamesRezo,2024-10-02,1683,DiscussionNote
commented on,Papotage,12,marcimat,2024-10-04,1683,Note
commented on,Papotage,12,marcimat,2024-10-04,1683,Note
pushed to,Codage,12,marcimat,2024-10-04,1683,Project
pushed to,Codage,12,marcimat,2024-10-04,1683,Project
pushed to,Codage,12,marcimat,2024-10-04,1683,Project
pushed to,Codage,12,marcimat,2024-10-04,1683,Project
commented on,Papotage,3,touti,2024-10-08,1683,Note
commented on,Papotage,430,JLuc,2024-10-08,1683,Note
pushed new,Codage,12,marcimat,2024-10-08,1683,Project
pushed to,Codage,12,marcimat,2024-10-08,1683,Project
commented on,Papotage,206,pierretux,2024-10-09,1683,DiscussionNote
commented on,Papotage,12,marcimat,2024-10-09,1683,Note
commented on,Papotage,12,marcimat,2024-10-09,1683,Note
commented on,Papotage,12,marcimat,2024-10-09,1683,Note
commented on,Papotage,12,marcimat,2024-10-09,1683,Note
commented on,Papotage,17,nicod,2024-10-09,1683,Note
commented on,Papotage,18,b_b,2024-10-09,1683,Note
commented on,Papotage,430,JLuc,2024-10-09,1683,Note
commented on,Papotage,430,JLuc,2024-10-09,1683,Note
commented on,Papotage,430,JLuc,2024-10-09,1683,Note
commented on,Papotage,12,marcimat,2024-10-10,1683,DiscussionNote
commented on,Papotage,12,marcimat,2024-10-10,1683,DiscussionNote
commented on,Papotage,18,b_b,2024-10-10,1683,DiscussionNote
commented on,Papotage,18,b_b,2024-10-10,1683,DiscussionNote
commented on,Papotage,18,b_b,2024-10-10,1683,DiscussionNote
commented on,Papotage,18,b_b,2024-10-10,1683,DiscussionNote
commented on,Papotage,18,b_b,2024-10-10,1683,DiscussionNote
commented on,Papotage,18,b_b,2024-10-10,1683,DiscussionNote
commented on,Papotage,4,maieul,2024-10-10,1683,DiscussionNote
commented on,Papotage,4,maieul,2024-10-10,1683,DiscussionNote
closed,Papotage,18,b_b,2024-10-10,1683,Issue
opened,Papotage,12,marcimat,2024-10-10,1683,Issue
approved,Codage,14,rastapopoulos,2024-10-10,1683,MergeRequest
approved,Codage,18,b_b,2024-10-10,1683,MergeRequest
approved,Codage,6,JamesRezo,2024-10-10,1683,MergeRequest
opened,Codage,12,marcimat,2024-10-10,1683,MergeRequest
commented on,Papotage,12,marcimat,2024-10-10,1683,Note
commented on,Papotage,12,marcimat,2024-10-10,1683,Note
commented on,Papotage,12,marcimat,2024-10-10,1683,Note
commented on,Papotage,4,maieul,2024-10-10,1683,Note
commented on,Papotage,430,JLuc,2024-10-10,1683,Note
pushed new,Codage,12,marcimat,2024-10-10,1683,Project
pushed to,Codage,12,marcimat,2024-10-10,1683,Project
opened,Papotage,12,marcimat,2024-10-14,1683,Issue
accepted,Codage,12,marcimat,2024-10-14,1683,MergeRequest
approved,Codage,468,bricebou,2024-10-14,1683,MergeRequest
commented on,Papotage,6,JamesRezo,2024-10-14,1683,Note
deleted,Codage,12,marcimat,2024-10-14,1683,Project
pushed to,Codage,12,marcimat,2024-10-14,1683,Project
commented on,Papotage,4,maieul,2024-10-22,1683,DiscussionNote
commented on,Papotage,12,marcimat,2024-10-22,1683,Note
commented on,Papotage,12,marcimat,2024-10-22,1683,Note
commented on,Papotage,12,marcimat,2024-10-22,1683,Note
opened,Codage,468,bricebou,2024-11-06,1683,MergeRequest
commented on,Papotage,14,rastapopoulos,2024-11-06,1683,Note
pushed new,Codage,468,bricebou,2024-11-06,1683,Project
commented on,Papotage,14,rastapopoulos,2024-11-07,1683,DiffNote
commented on,Papotage,18,b_b,2024-11-07,1683,DiffNote
commented on,Papotage,4,maieul,2024-11-07,1683,DiffNote
commented on,Papotage,4,maieul,2024-11-07,1683,DiffNote
commented on,Papotage,4,maieul,2024-11-07,1683,DiffNote
commented on,Papotage,468,bricebou,2024-11-07,1683,DiffNote
commented on,Papotage,468,bricebou,2024-11-07,1683,DiffNote
commented on,Papotage,468,bricebou,2024-11-07,1683,DiffNote
commented on,Papotage,4,maieul,2024-11-07,1683,Note
pushed to,Codage,468,bricebou,2024-11-07,1683,Project
opened,Papotage,68,erational,2024-11-08,1683,Issue
approved,Codage,14,rastapopoulos,2024-11-08,1683,MergeRequest
approved,Codage,18,b_b,2024-11-08,1683,MergeRequest
commented on,Papotage,18,b_b,2024-11-08,1683,Note
commented on,Papotage,4,maieul,2024-11-11,1683,DiscussionNote
commented on,Papotage,360,fa_b,2024-11-11,1683,Note
commented on,Papotage,468,bricebou,2024-11-12,1683,Note
opened,Codage,22,placido,2024-11-14,1683,MergeRequest
pushed new,Codage,22,placido,2024-11-14,1683,Project
commented on,Papotage,12,marcimat,2024-11-15,1683,DiffNote
commented on,Papotage,12,marcimat,2024-11-15,1683,DiffNote
commented on,Papotage,12,marcimat,2024-11-15,1683,DiffNote
commented on,Papotage,4,maieul,2024-11-15,1683,Note
commented on,Papotage,18,b_b,2024-11-18,1683,DiffNote
approved,Codage,18,b_b,2024-11-18,1683,MergeRequest
commented on,Papotage,18,b_b,2024-11-20,1683,DiscussionNote
commented on,Papotage,3,touti,2024-11-20,1683,DiscussionNote
commented on,Papotage,4,maieul,2024-11-20,1683,DiscussionNote
commented on,Papotage,430,JLuc,2024-11-20,1683,DiscussionNote
commented on,Papotage,4,maieul,2024-11-20,1683,Note
commented on,Papotage,4,maieul,2024-11-21,1683,DiscussionNote
accepted,Codage,4,maieul,2024-11-21,1683,MergeRequest
accepted,Codage,4,maieul,2024-11-21,1683,MergeRequest
approved,Codage,12,marcimat,2024-11-21,1683,MergeRequest
approved,Codage,15,tcharlss,2024-11-21,1683,MergeRequest
approved,Codage,18,b_b,2024-11-21,1683,MergeRequest
approved,Codage,6,JamesRezo,2024-11-21,1683,MergeRequest
opened,Codage,4,maieul,2024-11-21,1683,MergeRequest
opened,Codage,4,maieul,2024-11-21,1683,MergeRequest
commented on,Papotage,4,maieul,2024-11-21,1683,Note
deleted,Codage,4,maieul,2024-11-21,1683,Project
deleted,Codage,4,maieul,2024-11-21,1683,Project
pushed new,Codage,4,maieul,2024-11-21,1683,Project
pushed new,Codage,4,maieul,2024-11-21,1683,Project
pushed to,Codage,4,maieul,2024-11-21,1683,Project
pushed to,Codage,4,maieul,2024-11-21,1683,Project
pushed to,Codage,4,maieul,2024-11-21,1683,Project
pushed to,Codage,4,maieul,2024-11-21,1683,Project
commented on,Papotage,468,bricebou,2024-11-22,1683,DiffNote
commented on,Papotage,468,bricebou,2024-11-22,1683,DiffNote
commented on,Papotage,468,bricebou,2024-11-22,1683,DiffNote
approved,Codage,6,JamesRezo,2024-11-22,1683,MergeRequest
pushed to,Codage,468,bricebou,2024-11-22,1683,Project
pushed to,Codage,468,bricebou,2024-11-22,1683,Project
pushed to,Codage,6,JamesRezo,2024-11-22,1683,Project
commented on,Papotage,18,b_b,2024-11-23,1683,DiscussionNote
closed,Papotage,6,JamesRezo,2024-11-23,1683,Issue
opened,Papotage,15,tcharlss,2024-11-23,1683,Issue
accepted,Codage,6,JamesRezo,2024-11-23,1683,MergeRequest
approved,Codage,18,b_b,2024-11-23,1683,MergeRequest
approved,Codage,6,JamesRezo,2024-11-23,1683,MergeRequest
opened,Codage,4,maieul,2024-11-23,1683,MergeRequest
commented on,Papotage,14,rastapopoulos,2024-11-23,1683,Note
deleted,Codage,4,maieul,2024-11-23,1683,Project
pushed new,Codage,4,maieul,2024-11-23,1683,Project
pushed to,Codage,6,JamesRezo,2024-11-23,1683,Project
pushed to,Codage,6,JamesRezo,2024-11-23,1683,Project
pushed to,Codage,6,JamesRezo,2024-11-23,1683,Project
pushed to,Codage,6,JamesRezo,2024-11-23,1683,Project
commented on,Papotage,15,tcharlss,2024-11-24,1683,DiscussionNote
commented on,Papotage,15,tcharlss,2024-11-24,1683,DiscussionNote
commented on,Papotage,15,tcharlss,2024-11-24,1683,DiscussionNote
commented on,Papotage,4,maieul,2024-11-24,1683,DiscussionNote
commented on,Papotage,4,maieul,2024-11-24,1683,DiscussionNote
commented on,Papotage,4,maieul,2024-11-24,1683,DiscussionNote
commented on,Papotage,6,JamesRezo,2024-11-24,1683,DiscussionNote
commented on,Papotage,6,JamesRezo,2024-11-24,1683,DiscussionNote
commented on,Papotage,6,JamesRezo,2024-11-24,1683,DiscussionNote
accepted,Codage,4,maieul,2024-11-24,1683,MergeRequest
commented on,Papotage,15,tcharlss,2024-11-24,1683,Note
commented on,Papotage,4,maieul,2024-11-24,1683,Note
commented on,Papotage,4,maieul,2024-11-24,1683,Note
deleted,Codage,468,bricebou,2024-11-24,1683,Project
pushed to,Codage,4,maieul,2024-11-24,1683,Project
pushed to,Codage,4,maieul,2024-11-24,1683,Project
pushed to,Codage,4,maieul,2024-11-24,1683,Project
commented on,Papotage,6,JamesRezo,2024-11-25,1683,DiffNote
commented on,Papotage,18,b_b,2024-11-25,1683,DiscussionNote
opened,Papotage,297,chankalan,2024-11-25,1683,Issue
commented on,Papotage,6,JamesRezo,2024-11-25,1683,Note
pushed to,Codage,6,JamesRezo,2024-11-25,1683,Project
pushed to,Codage,6,JamesRezo,2024-11-25,1683,Project
commented on,Papotage,12,marcimat,2024-11-26,1683,DiffNote
commented on,Papotage,12,marcimat,2024-11-26,1683,DiffNote
commented on,Papotage,468,bricebou,2024-11-26,1683,DiffNote
commented on,Papotage,468,bricebou,2024-11-26,1683,DiffNote
commented on,Papotage,12,marcimat,2024-11-26,1683,DiscussionNote
commented on,Papotage,12,marcimat,2024-11-26,1683,DiscussionNote
commented on,Papotage,18,b_b,2024-11-26,1683,DiscussionNote
commented on,Papotage,18,b_b,2024-11-26,1683,DiscussionNote
commented on,Papotage,18,b_b,2024-11-26,1683,DiscussionNote
commented on,Papotage,297,chankalan,2024-11-26,1683,DiscussionNote
commented on,Papotage,297,chankalan,2024-11-26,1683,DiscussionNote
commented on,Papotage,468,bricebou,2024-11-26,1683,DiscussionNote
commented on,Papotage,468,bricebou,2024-11-26,1683,DiscussionNote
opened,Papotage,12,marcimat,2024-11-26,1683,Issue
accepted,Codage,4,maieul,2024-11-26,1683,MergeRequest
accepted,Codage,6,JamesRezo,2024-11-26,1683,MergeRequest
approved,Codage,18,b_b,2024-11-26,1683,MergeRequest
approved,Codage,468,bricebou,2024-11-26,1683,MergeRequest
approved,Codage,6,JamesRezo,2024-11-26,1683,MergeRequest
opened,Codage,12,marcimat,2024-11-26,1683,MergeRequest
commented on,Papotage,12,marcimat,2024-11-26,1683,Note
commented on,Papotage,12,marcimat,2024-11-26,1683,Note
commented on,Papotage,12,marcimat,2024-11-26,1683,Note
commented on,Papotage,297,chankalan,2024-11-26,1683,Note
commented on,Papotage,4,maieul,2024-11-26,1683,Note
commented on,Papotage,468,bricebou,2024-11-26,1683,Note
deleted,Codage,12,marcimat,2024-11-26,1683,Project
deleted,Codage,22,placido,2024-11-26,1683,Project
pushed new,Codage,12,marcimat,2024-11-26,1683,Project
pushed to,Codage,12,marcimat,2024-11-26,1683,Project
pushed to,Codage,12,marcimat,2024-11-26,1683,Project
pushed to,Codage,4,maieul,2024-11-26,1683,Project
pushed to,Codage,6,JamesRezo,2024-11-26,1683,Project
closed,Papotage,6,JamesRezo,2024-11-27,1683,Issue
pushed new,Codage,6,JamesRezo,2024-11-27,1683,Project
pushed new,Codage,6,JamesRezo,2024-11-27,1683,Project
pushed new,Codage,6,JamesRezo,2024-11-27,1683,Project
pushed to,Codage,6,JamesRezo,2024-11-27,1683,Project
pushed to,Codage,6,JamesRezo,2024-11-27,1683,Project
commented on,Papotage,14,rastapopoulos,2024-12-02,1683,DiffNote
commented on,Papotage,17,nicod,2024-12-02,1683,DiffNote
commented on,Papotage,17,nicod,2024-12-02,1683,DiffNote
commented on,Papotage,17,nicod,2024-12-02,1683,DiffNote
commented on,Papotage,18,b_b,2024-12-02,1683,DiffNote
commented on,Papotage,18,b_b,2024-12-02,1683,DiffNote
commented on,Papotage,18,b_b,2024-12-02,1683,DiffNote
commented on,Papotage,22,placido,2024-12-02,1683,DiffNote
commented on,Papotage,22,placido,2024-12-02,1683,DiffNote
commented on,Papotage,22,placido,2024-12-02,1683,DiffNote
commented on,Papotage,22,placido,2024-12-02,1683,DiffNote
commented on,Papotage,12,marcimat,2024-12-02,1683,DiscussionNote
commented on,Papotage,12,marcimat,2024-12-02,1683,DiscussionNote
commented on,Papotage,12,marcimat,2024-12-02,1683,DiscussionNote
commented on,Papotage,22,placido,2024-12-02,1683,DiscussionNote
commented on,Papotage,22,placido,2024-12-02,1683,DiscussionNote
approved,Codage,18,b_b,2024-12-02,1683,MergeRequest
opened,Codage,22,placido,2024-12-02,1683,MergeRequest
commented on,Papotage,12,marcimat,2024-12-02,1683,Note
commented on,Papotage,9,cerdic,2024-12-02,1683,Note
pushed new,Codage,22,placido,2024-12-02,1683,Project
pushed to,Codage,22,placido,2024-12-02,1683,Project
pushed to,Codage,4,maieul,2024-12-02,1683,Project
pushed to,Codage,4,maieul,2024-12-02,1683,Project
pushed new,Codage,12,marcimat,2024-12-03,1683,Project
pushed to,Codage,12,marcimat,2024-12-03,1683,Project
pushed to,Codage,12,marcimat,2024-12-03,1683,Project
opened,Papotage,17,nicod,2024-12-07,1683,Issue
approved,Codage,4,maieul,2024-12-08,1683,MergeRequest
opened,Codage,6,JamesRezo,2024-12-08,1683,MergeRequest
commented on,Papotage,4,maieul,2024-12-08,1683,Note
commented on,Papotage,4,maieul,2024-12-08,1683,Note
pushed new,Codage,6,JamesRezo,2024-12-08,1683,Project
commented on,Papotage,6,JamesRezo,2024-12-09,1683,DiscussionNote
accepted,Codage,6,JamesRezo,2024-12-09,1683,MergeRequest
approved,Codage,468,bricebou,2024-12-09,1683,MergeRequest
commented on,Papotage,468,bricebou,2024-12-09,1683,Note
commented on,Papotage,468,bricebou,2024-12-09,1683,Note
deleted,Codage,6,JamesRezo,2024-12-09,1683,Project
pushed to,Codage,6,JamesRezo,2024-12-09,1683,Project
pushed to,Codage,6,JamesRezo,2024-12-09,1683,Project
opened,Papotage,107,patrice4,2024-12-11,1683,Issue
commented on,Papotage,4,maieul,2024-12-11,1683,Note
commented on,Papotage,430,JLuc,2024-12-11,1683,Note
commented on,Papotage,430,JLuc,2024-12-11,1683,Note
commented on,Papotage,9,cerdic,2024-12-11,1683,Note
commented on,Papotage,12,marcimat,2024-12-12,1683,DiscussionNote
commented on,Papotage,12,marcimat,2024-12-12,1683,DiscussionNote
commented on,Papotage,12,marcimat,2024-12-12,1683,DiscussionNote
commented on,Papotage,12,marcimat,2024-12-12,1683,DiscussionNote
commented on,Papotage,12,marcimat,2024-12-12,1683,DiscussionNote
commented on,Papotage,17,nicod,2024-12-12,1683,DiscussionNote
commented on,Papotage,17,nicod,2024-12-12,1683,DiscussionNote
commented on,Papotage,17,nicod,2024-12-12,1683,DiscussionNote
commented on,Papotage,12,marcimat,2024-12-12,1683,Note
commented on,Papotage,12,marcimat,2024-12-12,1683,Note
commented on,Papotage,18,b_b,2024-12-12,1683,Note
commented on,Papotage,17,nicod,2024-12-13,1683,DiffNote
commented on,Papotage,22,placido,2024-12-13,1683,DiffNote
commented on,Papotage,22,placido,2024-12-13,1683,DiscussionNote
commented on,Papotage,4,maieul,2024-12-13,1683,DiscussionNote
commented on,Papotage,4,maieul,2024-12-13,1683,DiscussionNote
commented on,Papotage,4,maieul,2024-12-13,1683,DiscussionNote
accepted,Codage,4,maieul,2024-12-13,1683,MergeRequest
commented on,Papotage,4,maieul,2024-12-13,1683,Note
deleted,Codage,22,placido,2024-12-13,1683,Project
pushed to,Codage,22,placido,2024-12-13,1683,Project
pushed to,Codage,4,maieul,2024-12-13,1683,Project
pushed to,Codage,4,maieul,2024-12-13,1683,Project
opened,Codage,6,JamesRezo,2024-12-14,1683,MergeRequest
pushed new,Codage,6,JamesRezo,2024-12-14,1683,Project
pushed to,Codage,6,JamesRezo,2024-12-15,1683,Project
commented on,Papotage,12,marcimat,2024-12-16,1683,DiffNote
commented on,Papotage,12,marcimat,2024-12-16,1683,DiffNote
commented on,Papotage,12,marcimat,2024-12-16,1683,DiffNote
commented on,Papotage,12,marcimat,2024-12-16,1683,DiffNote
commented on,Papotage,12,marcimat,2024-12-16,1683,DiffNote
commented on,Papotage,18,b_b,2024-12-16,1683,DiffNote
commented on,Papotage,18,b_b,2024-12-16,1683,DiffNote
commented on,Papotage,18,b_b,2024-12-16,1683,DiffNote
commented on,Papotage,6,JamesRezo,2024-12-16,1683,DiffNote
commented on,Papotage,6,JamesRezo,2024-12-16,1683,DiffNote
accepted,Codage,6,JamesRezo,2024-12-16,1683,MergeRequest
approved,Codage,18,b_b,2024-12-16,1683,MergeRequest
approved,Codage,18,b_b,2024-12-16,1683,MergeRequest
opened,Codage,6,JamesRezo,2024-12-16,1683,MergeRequest
deleted,Codage,6,JamesRezo,2024-12-16,1683,Project
pushed new,Codage,6,JamesRezo,2024-12-16,1683,Project
pushed to,Codage,6,JamesRezo,2024-12-16,1683,Project
pushed to,Codage,6,JamesRezo,2024-12-16,1683,Project
accepted,Codage,6,JamesRezo,2024-12-17,1683,MergeRequest
accepted,Codage,6,JamesRezo,2024-12-17,1683,MergeRequest
approved,Codage,12,marcimat,2024-12-17,1683,MergeRequest
approved,Codage,6,JamesRezo,2024-12-17,1683,MergeRequest
opened,Codage,12,marcimat,2024-12-17,1683,MergeRequest
commented on,Papotage,12,marcimat,2024-12-17,1683,Note
deleted,Codage,12,marcimat,2024-12-17,1683,Project
deleted,Codage,6,JamesRezo,2024-12-17,1683,Project
pushed new,Codage,12,marcimat,2024-12-17,1683,Project
pushed to,Codage,12,marcimat,2024-12-17,1683,Project
pushed to,Codage,12,marcimat,2024-12-17,1683,Project
pushed to,Codage,6,JamesRezo,2024-12-17,1683,Project
pushed to,Codage,6,JamesRezo,2024-12-17,1683,Project
commented on,Papotage,12,marcimat,2024-12-18,1683,DiffNote
commented on,Papotage,12,marcimat,2024-12-18,1683,DiffNote
commented on,Papotage,468,bricebou,2024-12-18,1683,DiffNote
commented on,Papotage,468,bricebou,2024-12-18,1683,DiffNote
approved,Codage,18,b_b,2024-12-18,1683,MergeRequest
opened,Codage,12,marcimat,2024-12-18,1683,MergeRequest
pushed new,Codage,12,marcimat,2024-12-18,1683,Project
commented on,Papotage,468,bricebou,2024-12-19,1683,DiffNote
accepted,Codage,12,marcimat,2024-12-19,1683,MergeRequest
approved,Codage,468,bricebou,2024-12-19,1683,MergeRequest
deleted,Codage,12,marcimat,2024-12-19,1683,Project
pushed to,Codage,12,marcimat,2024-12-19,1683,Project
pushed new,Codage,6,JamesRezo,2024-12-21,1683,Project
pushed to,Codage,6,JamesRezo,2024-12-21,1683,Project
pushed to,Codage,14,rastapopoulos,2024-12-22,1683,Project
commented on,Papotage,12,marcimat,2024-12-23,1683,DiffNote
commented on,Papotage,4,maieul,2024-12-23,1683,DiffNote
commented on,Papotage,4,maieul,2024-12-23,1683,DiffNote
commented on,Papotage,4,maieul,2024-12-23,1683,DiffNote
commented on,Papotage,6,JamesRezo,2024-12-23,1683,DiffNote
commented on,Papotage,6,JamesRezo,2024-12-23,1683,DiffNote
accepted,Codage,12,marcimat,2024-12-23,1683,MergeRequest
approved,Codage,22,placido,2024-12-23,1683,MergeRequest
approved,Codage,4,maieul,2024-12-23,1683,MergeRequest
approved,Codage,4,maieul,2024-12-23,1683,MergeRequest
approved,Codage,6,JamesRezo,2024-12-23,1683,MergeRequest
opened,Codage,12,marcimat,2024-12-23,1683,MergeRequest
opened,Codage,12,marcimat,2024-12-23,1683,MergeRequest
opened,Codage,12,marcimat,2024-12-23,1683,MergeRequest
opened,Codage,6,JamesRezo,2024-12-23,1683,MergeRequest
commented on,Papotage,12,marcimat,2024-12-23,1683,Note
commented on,Papotage,12,marcimat,2024-12-23,1683,Note
commented on,Papotage,4,maieul,2024-12-23,1683,Note
deleted,Codage,12,marcimat,2024-12-23,1683,Project
pushed new,Codage,12,marcimat,2024-12-23,1683,Project
pushed new,Codage,12,marcimat,2024-12-23,1683,Project
pushed new,Codage,12,marcimat,2024-12-23,1683,Project
pushed new,Codage,6,JamesRezo,2024-12-23,1683,Project
pushed to,Codage,12,marcimat,2024-12-23,1683,Project
pushed to,Codage,12,marcimat,2024-12-23,1683,Project
pushed to,Codage,12,marcimat,2024-12-23,1683,Project
pushed to,Codage,12,marcimat,2024-12-23,1683,Project
pushed to,Codage,12,marcimat,2024-12-23,1683,Project
pushed to,Codage,12,marcimat,2024-12-23,1683,Project
pushed to,Codage,12,marcimat,2024-12-23,1683,Project
pushed to,Codage,6,JamesRezo,2024-12-23,1683,Project
commented on,Papotage,14,rastapopoulos,2024-12-24,1683,DiscussionNote
commented on,Papotage,14,rastapopoulos,2024-12-24,1683,DiscussionNote
commented on,Papotage,14,rastapopoulos,2024-12-24,1683,DiscussionNote
commented on,Papotage,9,cerdic,2024-12-24,1683,DiscussionNote
commented on,Papotage,9,cerdic,2024-12-24,1683,DiscussionNote
commented on,Papotage,9,cerdic,2024-12-24,1683,DiscussionNote
approved,Codage,14,rastapopoulos,2024-12-24,1683,MergeRequest
opened,Codage,9,cerdic,2024-12-24,1683,MergeRequest
commented on,Papotage,9,cerdic,2024-12-24,1683,Note
commented on,Papotage,9,cerdic,2024-12-24,1683,Note
pushed new,Codage,9,cerdic,2024-12-24,1683,Project
pushed to,Codage,14,rastapopoulos,2024-12-24,1683,Project
commented on,Papotage,4,maieul,2024-12-25,1683,DiffNote
commented on,Papotage,4,maieul,2024-12-25,1683,DiffNote
commented on,Papotage,18,b_b,2024-12-25,1683,DiscussionNote
commented on,Papotage,4,maieul,2024-12-25,1683,DiscussionNote
commented on,Papotage,4,maieul,2024-12-25,1683,DiscussionNote
approved,Codage,18,b_b,2024-12-25,1683,MergeRequest
approved,Codage,18,b_b,2024-12-25,1683,MergeRequest
opened,Codage,4,maieul,2024-12-25,1683,MergeRequest
commented on,Papotage,18,b_b,2024-12-25,1683,Note
commented on,Papotage,4,maieul,2024-12-25,1683,Note
pushed new,Codage,4,maieul,2024-12-25,1683,Project
commented on,Papotage,12,marcimat,2024-12-26,1683,DiffNote
commented on,Papotage,4,maieul,2024-12-26,1683,DiffNote
commented on,Papotage,4,maieul,2024-12-26,1683,DiffNote
commented on,Papotage,4,maieul,2024-12-26,1683,DiffNote
commented on,Papotage,9,cerdic,2024-12-26,1683,DiffNote
commented on,Papotage,9,cerdic,2024-12-26,1683,DiffNote
commented on,Papotage,12,marcimat,2024-12-26,1683,DiscussionNote
commented on,Papotage,14,rastapopoulos,2024-12-26,1683,DiscussionNote
commented on,Papotage,18,b_b,2024-12-26,1683,DiscussionNote
commented on,Papotage,18,b_b,2024-12-26,1683,DiscussionNote
commented on,Papotage,18,b_b,2024-12-26,1683,DiscussionNote
commented on,Papotage,4,maieul,2024-12-26,1683,DiscussionNote
commented on,Papotage,6,JamesRezo,2024-12-26,1683,DiscussionNote
commented on,Papotage,9,cerdic,2024-12-26,1683,DiscussionNote
closed,Papotage,4,maieul,2024-12-26,1683,Issue
accepted,Codage,12,marcimat,2024-12-26,1683,MergeRequest
accepted,Codage,4,maieul,2024-12-26,1683,MergeRequest
approved,Codage,12,marcimat,2024-12-26,1683,MergeRequest
approved,Codage,18,b_b,2024-12-26,1683,MergeRequest
approved,Codage,18,b_b,2024-12-26,1683,MergeRequest
approved,Codage,4,maieul,2024-12-26,1683,MergeRequest
approved,Codage,9,cerdic,2024-12-26,1683,MergeRequest
opened,Codage,9,cerdic,2024-12-26,1683,MergeRequest
commented on,Papotage,4,maieul,2024-12-26,1683,Note
commented on,Papotage,9,cerdic,2024-12-26,1683,Note
deleted,Codage,12,marcimat,2024-12-26,1683,Project
deleted,Codage,4,maieul,2024-12-26,1683,Project
pushed new,Codage,9,cerdic,2024-12-26,1683,Project
pushed to,Codage,12,marcimat,2024-12-26,1683,Project
pushed to,Codage,12,marcimat,2024-12-26,1683,Project
pushed to,Codage,12,marcimat,2024-12-26,1683,Project
pushed to,Codage,4,maieul,2024-12-26,1683,Project
pushed to,Codage,4,maieul,2024-12-26,1683,Project
pushed to,Codage,4,maieul,2024-12-26,1683,Project
pushed to,Codage,9,cerdic,2024-12-26,1683,Project
pushed to,Codage,9,cerdic,2024-12-26,1683,Project
commented on,Papotage,14,rastapopoulos,2024-12-27,1683,DiscussionNote
commented on,Papotage,18,b_b,2024-12-27,1683,DiscussionNote
commented on,Papotage,18,b_b,2024-12-27,1683,DiscussionNote
commented on,Papotage,4,maieul,2024-12-27,1683,DiscussionNote
commented on,Papotage,4,maieul,2024-12-27,1683,DiscussionNote
commented on,Papotage,4,maieul,2024-12-27,1683,DiscussionNote
commented on,Papotage,4,maieul,2024-12-27,1683,DiscussionNote
commented on,Papotage,4,maieul,2024-12-27,1683,DiscussionNote
commented on,Papotage,4,maieul,2024-12-27,1683,DiscussionNote
closed,Papotage,18,b_b,2024-12-27,1683,Issue
opened,Papotage,4,maieul,2024-12-27,1683,Issue
opened,Papotage,4,maieul,2024-12-27,1683,Issue
opened,Papotage,4,maieul,2024-12-27,1683,Issue
commented on,Papotage,14,rastapopoulos,2024-12-27,1683,Note
commented on,Papotage,18,b_b,2024-12-27,1683,Note
commented on,Papotage,4,maieul,2024-12-27,1683,Note
commented on,Papotage,9,cerdic,2024-12-27,1683,Note
commented on,Papotage,9,cerdic,2024-12-27,1683,Note
commented on,Papotage,18,b_b,2024-12-28,1683,DiscussionNote
closed,Papotage,18,b_b,2024-12-28,1683,Issue
approved,Codage,12,marcimat,2025-01-02,1683,MergeRequest
approved,Codage,18,b_b,2025-01-02,1683,MergeRequest
opened,Codage,22,placido,2025-01-02,1683,MergeRequest
pushed new,Codage,22,placido,2025-01-02,1683,Project
pushed to,Codage,12,marcimat,2025-01-06,1683,Project
commented on,Papotage,43,RealET,2025-01-07,1683,Note
pushed to,Codage,14,rastapopoulos,2025-01-07,1683,Project
approved,Codage,16,tofulm,2025-01-09,1683,MergeRequest
commented on,Papotage,22,placido,2025-01-10,1683,DiscussionNote
commented on,Papotage,4,maieul,2025-01-10,1683,DiscussionNote
commented on,Papotage,4,maieul,2025-01-10,1683,Note
pushed to,Codage,4,maieul,2025-01-10,1683,Project
approved,Codage,17,nicod,2025-01-11,1683,MergeRequest
approved,Codage,18,b_b,2025-01-11,1683,MergeRequest
opened,Papotage,17,nicod,2025-01-12,1683,Issue
commented on,Papotage,4,maieul,2025-01-13,1683,Note
pushed to,Codage,14,rastapopoulos,2025-01-13,1683,Project
pushed new,Codage,12,marcimat,2025-01-17,1683,Project
pushed to,Codage,12,marcimat,2025-01-17,1683,Project
pushed to,Codage,18,b_b,2025-01-17,1683,Project
accepted,Codage,4,maieul,2025-01-21,1683,MergeRequest
approved,Codage,14,rastapopoulos,2025-01-21,1683,MergeRequest
opened,Codage,18,b_b,2025-01-21,1683,MergeRequest
deleted,Codage,18,b_b,2025-01-21,1683,Project
pushed new,Codage,18,b_b,2025-01-21,1683,Project
pushed to,Codage,4,maieul,2025-01-21,1683,Project
commented on,Papotage,12,marcimat,2025-01-30,1683,DiffNote
commented on,Papotage,12,marcimat,2025-01-30,1683,DiffNote
commented on,Papotage,14,rastapopoulos,2025-01-30,1683,DiffNote
commented on,Papotage,12,marcimat,2025-01-30,1683,DiscussionNote
commented on,Papotage,12,marcimat,2025-01-30,1683,DiscussionNote
commented on,Papotage,12,marcimat,2025-01-30,1683,DiscussionNote
commented on,Papotage,14,rastapopoulos,2025-01-30,1683,DiscussionNote
commented on,Papotage,14,rastapopoulos,2025-01-30,1683,DiscussionNote
commented on,Papotage,14,rastapopoulos,2025-01-30,1683,DiscussionNote
commented on,Papotage,14,rastapopoulos,2025-01-30,1683,DiscussionNote
commented on,Papotage,14,rastapopoulos,2025-01-30,1683,DiscussionNote
commented on,Papotage,14,rastapopoulos,2025-01-30,1683,DiscussionNote
commented on,Papotage,17,nicod,2025-01-30,1683,DiscussionNote
commented on,Papotage,43,RealET,2025-01-30,1683,DiscussionNote
accepted,Codage,12,marcimat,2025-01-30,1683,MergeRequest
approved,Codage,12,marcimat,2025-01-30,1683,MergeRequest
commented on,Papotage,12,marcimat,2025-01-30,1683,Note
commented on,Papotage,17,nicod,2025-01-30,1683,Note
deleted,Codage,12,marcimat,2025-01-30,1683,Project
pushed to,Codage,12,marcimat,2025-01-30,1683,Project
pushed to,Codage,12,marcimat,2025-01-30,1683,Project
pushed to,Codage,12,marcimat,2025-01-30,1683,Project
pushed to,Codage,12,marcimat,2025-01-30,1683,Project
pushed to,Codage,14,rastapopoulos,2025-01-30,1683,Project
pushed to,Codage,14,rastapopoulos,2025-01-30,1683,Project
commented on,Papotage,12,marcimat,2025-02-03,1683,DiffNote
commented on,Papotage,12,marcimat,2025-02-03,1683,DiscussionNote
accepted,Codage,12,marcimat,2025-02-03,1683,MergeRequest
approved,Codage,12,marcimat,2025-02-03,1683,MergeRequest
closed,Codage,12,marcimat,2025-02-03,1683,MergeRequest
deleted,Codage,12,marcimat,2025-02-03,1683,Project
deleted,Codage,9,cerdic,2025-02-03,1683,Project
pushed to,Codage,12,marcimat,2025-02-03,1683,Project
pushed to,Codage,12,marcimat,2025-02-03,1683,Project
pushed to,Codage,12,marcimat,2025-02-03,1683,Project
pushed to,Codage,12,marcimat,2025-02-03,1683,Project
accepted,Codage,12,marcimat,2025-02-04,1683,MergeRequest
deleted,Codage,22,placido,2025-02-04,1683,Project
pushed to,Codage,12,marcimat,2025-02-04,1683,Project
pushed to,Codage,12,marcimat,2025-02-04,1683,Project
pushed to,Codage,12,marcimat,2025-02-04,1683,Project
commented on,Papotage,12,marcimat,2025-02-05,1683,DiscussionNote
commented on,Papotage,15,tcharlss,2025-02-05,1683,DiscussionNote
commented on,Papotage,4,maieul,2025-02-05,1683,DiscussionNote
commented on,Papotage,459,Graphie,2025-02-05,1683,DiscussionNote
closed,Papotage,17,nicod,2025-02-05,1683,Issue
opened,Papotage,17,nicod,2025-02-05,1683,Issue
opened,Papotage,17,nicod,2025-02-05,1683,Issue
opened,Papotage,384,jeanmarie,2025-02-05,1683,Issue
accepted,Codage,12,marcimat,2025-02-05,1683,MergeRequest
approved,Codage,12,marcimat,2025-02-05,1683,MergeRequest
approved,Codage,15,tcharlss,2025-02-05,1683,MergeRequest
approved,Codage,18,b_b,2025-02-05,1683,MergeRequest
approved,Codage,18,b_b,2025-02-05,1683,MergeRequest
approved,Codage,4,maieul,2025-02-05,1683,MergeRequest
opened,Codage,12,marcimat,2025-02-05,1683,MergeRequest
opened,Codage,12,marcimat,2025-02-05,1683,MergeRequest
commented on,Papotage,12,marcimat,2025-02-05,1683,Note
commented on,Papotage,12,marcimat,2025-02-05,1683,Note
commented on,Papotage,14,rastapopoulos,2025-02-05,1683,Note
commented on,Papotage,15,tcharlss,2025-02-05,1683,Note
commented on,Papotage,17,nicod,2025-02-05,1683,Note
commented on,Papotage,384,jeanmarie,2025-02-05,1683,Note
commented on,Papotage,9,cerdic,2025-02-05,1683,Note
deleted,Codage,9,cerdic,2025-02-05,1683,Project
pushed new,Codage,12,marcimat,2025-02-05,1683,Project
pushed new,Codage,12,marcimat,2025-02-05,1683,Project
pushed to,Codage,12,marcimat,2025-02-05,1683,Project
pushed to,Codage,12,marcimat,2025-02-05,1683,Project
pushed to,Codage,12,marcimat,2025-02-05,1683,Project
pushed to,Codage,18,b_b,2025-02-05,1683,Project
commented on,Papotage,12,marcimat,2025-02-06,1683,DiscussionNote
commented on,Papotage,12,marcimat,2025-02-06,1683,DiscussionNote
commented on,Papotage,12,marcimat,2025-02-06,1683,DiscussionNote
commented on,Papotage,12,marcimat,2025-02-06,1683,DiscussionNote
commented on,Papotage,14,rastapopoulos,2025-02-06,1683,DiscussionNote
commented on,Papotage,14,rastapopoulos,2025-02-06,1683,DiscussionNote
commented on,Papotage,14,rastapopoulos,2025-02-06,1683,DiscussionNote
commented on,Papotage,14,rastapopoulos,2025-02-06,1683,DiscussionNote
commented on,Papotage,17,nicod,2025-02-06,1683,DiscussionNote
commented on,Papotage,17,nicod,2025-02-06,1683,DiscussionNote
commented on,Papotage,18,b_b,2025-02-06,1683,DiscussionNote
commented on,Papotage,4,maieul,2025-02-06,1683,DiscussionNote
closed,Papotage,12,marcimat,2025-02-06,1683,Issue
accepted,Codage,12,marcimat,2025-02-06,1683,MergeRequest
commented on,Papotage,12,marcimat,2025-02-06,1683,Note
commented on,Papotage,12,marcimat,2025-02-06,1683,Note
commented on,Papotage,12,marcimat,2025-02-06,1683,Note
commented on,Papotage,12,marcimat,2025-02-06,1683,Note
deleted,Codage,12,marcimat,2025-02-06,1683,Project
pushed to,Codage,12,marcimat,2025-02-06,1683,Project
pushed to,Codage,12,marcimat,2025-02-06,1683,Project
pushed to,Codage,12,marcimat,2025-02-06,1683,Project
commented on,Papotage,4,maieul,2025-02-07,1683,DiffNote
commented on,Papotage,4,maieul,2025-02-07,1683,DiffNote
commented on,Papotage,4,maieul,2025-02-07,1683,DiffNote
commented on,Papotage,14,rastapopoulos,2025-02-07,1683,DiscussionNote
commented on,Papotage,4,maieul,2025-02-07,1683,DiscussionNote
commented on,Papotage,4,maieul,2025-02-07,1683,DiscussionNote
accepted,Codage,4,maieul,2025-02-07,1683,MergeRequest
approved,Codage,4,maieul,2025-02-07,1683,MergeRequest
commented on,Papotage,4,maieul,2025-02-07,1683,Note
commented on,Papotage,4,maieul,2025-02-07,1683,Note
deleted,Codage,12,marcimat,2025-02-07,1683,Project
pushed to,Codage,14,rastapopoulos,2025-02-07,1683,Project
pushed to,Codage,4,maieul,2025-02-07,1683,Project
opened,Papotage,43,RealET,2025-02-09,1683,Issue
opened,Codage,43,RealET,2025-02-09,1683,MergeRequest
commented on,Papotage,43,RealET,2025-02-09,1683,Note
commented on,Papotage,4,maieul,2025-02-10,1683,DiscussionNote
commented on,Papotage,4,maieul,2025-02-10,1683,DiscussionNote
commented on,Papotage,4,maieul,2025-02-10,1683,DiscussionNote
commented on,Papotage,4,maieul,2025-02-10,1683,DiscussionNote
commented on,Papotage,43,RealET,2025-02-10,1683,DiscussionNote
commented on,Papotage,43,RealET,2025-02-10,1683,DiscussionNote
approved,Codage,18,b_b,2025-02-10,1683,MergeRequest
approved,Codage,4,maieul,2025-02-10,1683,MergeRequest
commented on,Papotage,12,marcimat,2025-02-11,1683,DiffNote
commented on,Papotage,12,marcimat,2025-02-11,1683,DiscussionNote
commented on,Papotage,12,marcimat,2025-02-13,1683,DiscussionNote
commented on,Papotage,14,rastapopoulos,2025-02-13,1683,DiscussionNote
commented on,Papotage,14,rastapopoulos,2025-02-13,1683,DiscussionNote
approved,Codage,12,marcimat,2025-02-13,1683,MergeRequest
commented on,Papotage,12,marcimat,2025-02-13,1683,Note
commented on,Papotage,12,marcimat,2025-02-14,1683,DiscussionNote
commented on,Papotage,12,marcimat,2025-02-14,1683,DiscussionNote
commented on,Papotage,12,marcimat,2025-02-14,1683,DiscussionNote
commented on,Papotage,12,marcimat,2025-02-14,1683,DiscussionNote
commented on,Papotage,18,b_b,2025-02-14,1683,DiscussionNote
commented on,Papotage,18,b_b,2025-02-14,1683,DiscussionNote
commented on,Papotage,4,maieul,2025-02-14,1683,DiscussionNote
commented on,Papotage,430,JLuc,2025-02-14,1683,DiscussionNote
commented on,Papotage,430,JLuc,2025-02-14,1683,DiscussionNote
opened,Papotage,430,JLuc,2025-02-14,1683,Issue
accepted,Codage,12,marcimat,2025-02-14,1683,MergeRequest
accepted,Codage,12,marcimat,2025-02-14,1683,MergeRequest
opened,Codage,12,marcimat,2025-02-14,1683,MergeRequest
commented on,Papotage,12,marcimat,2025-02-14,1683,Note
commented on,Papotage,12,marcimat,2025-02-14,1683,Note
commented on,Papotage,12,marcimat,2025-02-14,1683,Note
commented on,Papotage,458,pierr0t,2025-02-14,1683,Note
pushed new,Codage,12,marcimat,2025-02-14,1683,Project
pushed new,Codage,12,marcimat,2025-02-14,1683,Project
pushed to,Codage,12,marcimat,2025-02-14,1683,Project
pushed to,Codage,12,marcimat,2025-02-14,1683,Project
pushed to,Codage,12,marcimat,2025-02-14,1683,Project
pushed to,Codage,12,marcimat,2025-02-14,1683,Project
commented on,Papotage,430,JLuc,2025-02-15,1683,DiscussionNote
