date,full_path,name,sha
2011-01-21,spip/medias,v0.1.0,839389c534120010da232a8a497f100328b39b33
2011-01-21,spip/medias,v1.6.0,af1db9d3426a57ca3e81ee855bb3aa3a07879e02
2011-02-04,spip/medias,v2.0.0,4ef25a1ef8e6c6ff9aa0de276451e496b3deda31
2011-05-25,spip/medias,v2.0.1,e52f3ff7fb4aeebb03a30153b050bf9f44d9b2c0
2011-06-19,spip/medias,v2.0.2,92a8226453f20492508975cae05a087f31def5cb
2011-07-05,spip/medias,v2.0.3,cbf31a7c9c7ccb992b9af4f441115e133b96e9b1
2011-07-06,spip/medias,v2.0.4,e09715a36de6ad5f244a9bf7dd2a2a7bbf28a49f
2011-07-12,spip/medias,v2.0.5,0473baf9e8ad67152c96bff3e0bb19ae7b3ec819
2011-07-27,spip/medias,v2.1.0,e1f567479d3c985fd70c05c76b4c0529b41d5408
2011-07-31,spip/medias,v2.2.0,780ff71ff160e9d5486e1cbd44ca8d66c8f9b64c
2011-08-14,spip/medias,v2.2.1,c2331aefc5ad261401beb3ea947b1197bfbcc10c
2011-08-15,spip/medias,v2.2.2,335314756bd6a56b1dde67cf4d0a22e7bb4c1e09
2011-08-18,spip/medias,v2.2.3,bb15915ec7867b8cd9ed1f15c17a93799ca79fe0
2011-08-22,spip/medias,v2.3.0,f68cd72e36c4314a1c66616a34ce02a157ac9bec
2011-08-24,spip/medias,v2.3.1,3e6cbdfdb66eb765436f670d1f164796c909506c
2011-09-08,spip/medias,v2.4.0,66266711ed66b50b2c6e435d82eccecff05b1d9e
2011-09-18,spip/medias,v2.4.1,9d7994f3594af13c1ede0a0b1e100fa8157a1b5f
2011-10-28,spip/medias,v2.4.2,6d6fba5f3548306a1fb274989fd4189265a4e112
2011-10-30,spip/medias,v2.5.0,0c0ce023b8f87683eb18137adbe3814f524d818c
2011-11-14,spip/medias,v2.6.0,6a3f385a7bb94acd1b52a7f1a23d18cfc0adb5cd
2011-11-14,spip/medias,v2.7.0,a1f6242c262abdbd84f2a1dcc124df93c8815387
2011-11-14,spip/medias,v2.7.1,767ae7fb1219672746c6c858706aaa6bafd6a93b
2011-11-14,spip/medias,v2.7.2,13b1b3110dc68a662c58b296e49ef8d8ca7b797e
2011-11-14,spip/medias,v2.7.3,5c180ced52b68447e8ab7e24f83f6b74aad152bf
2011-11-22,spip/medias,v2.7.4,370790e92621a4ee0aad4565574da537754f1bfb
2011-11-25,spip/medias,v2.7.5,4576f2b8838ba7c8fe93ea0087688f85157715ee
2011-12-05,spip/medias,v2.7.6,6f5edec89b2065ad0a7f82c8f7b020d8c4cce723
2011-12-22,spip/medias,v2.7.7,21abbfc16a814f8e9c413d9f73981eaa3a36d973
2012-01-30,spip/medias,v2.7.8,1d5ca432b3817e4a93cd53d12fe7ce311a149c57
2012-01-30,spip/medias,v2.7.9,8420fa32b12f4be6e3957071449a84d7840ea91c
2012-02-09,spip/medias,v2.7.10,1cdb2eac7abe240211a3aad7be46dbacf32f1249
2012-02-13,spip/medias,v2.7.11,f911f7a8950f8d442baf08b4b2f6be236d9bb7a2
2012-03-05,spip/medias,v2.7.12,6578cc6670a6b48041fe0e8e7d419259ae10e026
2012-03-16,spip/medias,v2.7.13,da0077d561279d7db672875982917291d74a2783
2012-03-17,spip/medias,v2.7.14,909f75870a89510fbd617be1acbfc62251c12c52
2012-03-22,spip/medias,v2.7.15,86562a6fda8455aba81ae71a2f39f12302ba9c82
2012-03-23,spip/medias,v2.7.16,4dd37d01bf376559a5381a45fcb1b3c1dfb61ff3
2012-03-23,spip/medias,v2.7.17,c9d14c0cc07e3fe16f57c8cf57ab507c79ad88ba
2012-03-23,spip/medias,v2.7.18,2e81a1a68152503dbbaa5ae3fbc1252ed15c0867
2012-03-24,spip/medias,v2.7.19,5c2d258f5477917828cbc5ecff80c650ca7af725
2012-03-26,spip/medias,v2.7.20,55326b5f982ca223a8b245721c5a76d70cb0dcda
2012-03-29,spip/medias,v2.7.21,8a0b3603996e0b0d18ed23566c6304d63331ac05
2012-03-30,spip/medias,v2.7.22,477f7eb002c8d65a2123555496ba1592a9c3416d
2012-04-06,spip/medias,v2.7.23,7bc5a165a1b3c4af4f62e4ddc009282aadc4c8c0
2012-04-30,spip/medias,v2.7.24,e39ae44bee0bf5176a77acab2879f66e054dff07
2012-05-02,spip/medias,v2.7.25,c94ae1248236c4744fe1cfd77a529e626f014207
2012-05-07,spip/medias,v2.7.26,ebfe81c04d6543f0d51ebcc049de8d31c22f0935
2012-05-16,spip/medias,v2.7.27,767f3dd3b56ef91e3658541ce2d223a4c11a85a9
2012-06-08,spip/medias,v2.7.28,39a7282ee24e1206face333e8ae57f4e55714d06
2012-06-28,spip/medias,v2.7.29,42af15e98979c140ccf1b4c7c6d0bd7badca3d12
2012-07-03,spip/medias,v2.7.30,3fd18e9cbd94e9517ac5bcb4c0c923e76835aaff
2012-07-07,spip/medias,v2.7.31,bf357ea4633e5436c66c06bc457b4a4c103521f0
2012-07-27,spip/medias,v2.7.32,b8df9148cfb1a4bea115e472dc83c03f151fab57
2012-08-15,spip/medias,v2.7.33,0151fcc6db267e0490d0b26f521d19881eac2bf5
2012-09-07,spip/medias,v2.7.34,84dd221b830f55b94bc1a3761278ffe978157225
2012-09-10,spip/medias,v2.7.35,234d8a05c3320e23f329509db6b8307ef6cd9e26
2012-09-21,spip/medias,v2.7.36,4df31f407ac53eab08286f38ab21b7ad97467d82
2012-09-25,spip/medias,v2.8.0,0c1052f20e0f8b4f5dcf6bccbde005dbf0cdc42f
2012-11-09,spip/medias,v2.8.1,77fadad1996b70970c476f2e12997ee8ea058534
2012-11-19,spip/medias,v2.8.2,4823710302f208f3e114a604a7673cbf8b680312
2012-12-20,spip/medias,v2.8.3,c5016d334c35ac53e227c0daf77f00068c8ad4ea
2012-12-21,spip/medias,v2.8.4,b01e68cb4dd4aaabc5178e3f95d6d7798ec40f23
2012-12-21,spip/medias,v2.8.5,3355d80dd2e49e73e27ba56eff72202e1e9e76c9
2013-01-11,spip/medias,v2.8.6,59ab4fcfdb42dcdfa8f0c76329deea20d3da651b
2013-01-22,spip/medias,v2.8.7,b74e4b2771cb501310d9f7bcab9cb942267fcd1c
2013-01-22,spip/medias,v2.8.8,bd89f2bcd66f1debb4fd4bc3704afc0a6cd520d3
2013-01-24,spip/medias,spip/3.0.0,76f9d4e47cea8b09cc8c08549cce71fe35d9d746
2013-01-24,spip/medias,spip/3.0.1,193c46999e37ef4f0d7fa06249e3f1744ae75eb5
2013-01-24,spip/medias,spip/3.0.2,f9c15de145e684524419f8da579a1f3c82516b56
2013-01-24,spip/medias,spip/3.0.3,0e705051043892422f366e5df80ccc5161e04b9d
2013-01-24,spip/medias,spip/3.0.4,636db27b4eac77a44635a4b4f929012624dc9b93
2013-01-24,spip/medias,spip/3.0.5,a2f46d36b990b7a155bde59d5bb0ad62a20b8bc5
2013-02-09,spip/medias,v2.8.9,7437013e6862f397ad7489891684a566f3e440fa
2013-02-13,spip/medias,v2.8.10,ddf223678e541a91d2052e28f69bd5939e62a15e
2013-02-15,spip/medias,v2.8.11,d3c26393fd9c509d105bf2b7da27ec35248879de
2013-02-16,spip/medias,v2.8.12,7a08dfed3c44b2fcc7742d9da2a63a9c5d9e9805
2013-03-18,spip/medias,spip/3.0.6,94d77c668a70e855dbe57235659cedcf0e510118
2013-03-22,spip/medias,spip/3.0.7,fbceeed363692865c45d30026a52a0f5f2da259e
2013-04-09,spip/medias,v2.8.13,0e851381e860a31944fedef19954e20fd09c4cbf
2013-04-17,spip/medias,spip/3.0.8,4344ab43812e4ef84176bdbdb2473e64bc6598b3
2013-04-25,spip/medias,v2.8.14,4b9718ce5c87e7a4de5d520d0f9bf797671f41dd
2013-05-24,spip/medias,spip/3.0.9,b4680746164f80fd53b77e9882fd92bbcc46240f
2013-05-27,spip/medias,spip/3.0.10,51c5bf0d8609d2e66cb5fde4fa70e334cec7375e
2013-05-30,spip/medias,v2.8.15,46a6174dc1b4446cb2ff345a4ff803885cf70c20
2013-06-10,spip/medias,v2.8.16,0e4860aac5890e8c646fa2235f2fc0f0673de979
2013-07-05,spip/medias,v2.8.17,7845bbf5d69776a085efcff379a9260b2b777373
2013-08-09,spip/medias,spip/3.0.11,f1604f3810dc749a28746a504cc1a60387e77fe4
2013-10-31,spip/medias,v2.8.18,0dc11e4a426b8166bd35f4666953beccdd4a32cc
2013-11-09,spip/medias,spip/3.0.12,6e4d501a2b24c5f54a24638f32aff4193480c7e5
2013-11-10,spip/medias,spip/3.0.13,1f5a9a031dfbe114e9270732bd7087eb3a5797bb
2013-11-24,spip/medias,v2.8.19,98facb6832f2f385563edd9dd5e215540940f64d
2013-12-08,spip/medias,v2.8.20,658d5325a28b8d2e9f277d3e1cfc1343d076bddc
2014-01-11,spip/medias,v2.8.21,c0b57ed68a9b07fc51c303a35ef1ee21d4655ac2
2014-01-13,spip/medias,v2.8.22,f689944d41940480ab3659b01d24a22e044080bc
2014-01-14,spip/medias,v2.8.23,98f3bb9ba7e38bb32650c66a184e739ca2d00960
2014-01-19,spip/medias,spip/3.0.14,2ad88e35b7b247461ced2e7a7391c100ba4e1452
2014-02-21,spip/medias,spip/3.0.15,db7294ff1561ad1be38ba3b99ea984fa81e20ead
2014-03-05,spip/medias,v2.8.24,66915b84e9c77b8533949299245e1edd6816f11d
2014-03-13,spip/medias,spip/3.0.16,fc16c6bfcedeef4920eb00be9615f1a6e206a12f
2014-06-07,spip/medias,v2.8.25,deb41a49579e6d8b5e069db27c6ebce6ee392a13
2014-08-13,spip/medias,spip/3.0.17,b2a0ab600b338596515c036c603e7afb148c96ce
2014-10-10,spip/medias,v2.8.26,410dd10535db436c9c3d39fb5cb7b7890f0232c3
2014-10-13,spip/medias,v2.9.0,db4e7b432bbe7fd7a4c928a46874eb83885145c0
2014-10-14,spip/medias,v2.9.1,46175d48d2d6ef685b1b088f722271331d2266aa
2014-10-14,spip/medias,v2.9.2,3cafb433069caaf1d292cd45688160703c18bb53
2014-10-14,spip/medias,v2.9.3,dd5e04fe416e4d216a6e6c31aaeb08710d59b3bb
2014-10-14,spip/medias,v2.9.4,37c957c5ffd5c24b805f9e4a6eac514a0cd8d3ad
2014-10-15,spip/medias,v2.9.5,2dad57b681b42dd8dc59cafb897b07f1a2e4f5cc
2014-10-15,spip/medias,v2.9.6,8390f2941594f3d586280f103c3208331a107180
2014-10-17,spip/medias,v2.9.7,d1e830ea1d6ace30da640f6fec62a7662eee64d9
2014-10-19,spip/medias,v2.9.8,b88d2f256f4b1f51597d77d9e09f52fce7f8796f
2014-10-22,spip/medias,v2.9.10,6e89f5da0a0464038caee4baefb84023fee924d3
2014-10-22,spip/medias,v2.9.9,d91d7117685b571129ca2b314b68d99f97181d75
2014-10-23,spip/medias,v2.9.11,76c91f28c24a85ce11343714c5b36223bf394688
2014-10-25,spip/medias,v2.9.12,d7904fe86bfb689b60404b73006ab292d7cc4563
2014-10-25,spip/medias,v2.9.13,aca040eb3d7356831dc6322764d12e780d47ed1f
2014-10-25,spip/medias,v2.9.14,4751499654ea2f2fdcd7370ba62e3ad15173c86d
2014-10-27,spip/medias,v2.9.15,56048e18218abb0862da137d6f254170d2898406
2014-10-29,spip/medias,v2.10.0,cade166404ccfdc5545c0068ce56326b3c873459
2014-10-29,spip/medias,v2.10.1,78e224137ee75e542e0a72090d04b20c32b29ea2
2014-11-28,spip/medias,v2.10.2,fa87f07904374cc19cdcc8934c5243b4106a3786
2014-12-02,spip/medias,v2.10.3,faa5e466596a4e8698e1b6dafed86be76d0f9cfd
2014-12-12,spip/medias,v2.10.4,c6cc0503c36ad011ccdd67198c1fefc94e64343f
2014-12-26,spip/medias,v2.10.5,378e9b6a41fe70e59c90f1426175505f5c8e7baa
2014-12-26,spip/medias,v2.10.6,a77c0231bfc1bca791d568add01f64787e966e76
2015-01-10,spip/medias,v2.10.7,e2e08b3b871a541dd3818b0ceffa0d774040fc5d
2015-01-11,spip/medias,v2.10.8,bb1cbda4958779ec4789b566ede3b96c03f3c303
2015-03-02,spip/medias,v2.10.9,a077064bb9e0efb7f66c166fb2867ca42adc53cb
2015-03-06,spip/medias,v2.10.10,11489cf8344f72cdaa0a2989bc2071f3691e513b
2015-03-17,spip/medias,v2.10.11,3551f5261fff98b7333df0df7aed0e0c5bd107e1
2015-04-08,spip/medias,v2.10.12,311b4d52ca96b06cd60ecc9e2553e3f5e096a265
2015-04-26,spip/medias,spip/3.0.18,71b5982c3bca7fcd99973dea52979a926a120cb3
2015-04-28,spip/medias,v2.10.13,4db24c5e2859fda3e0207c9f986b8bb07ced28e9
2015-05-08,spip/medias,spip/3.0.19,54a9dcc323cc05b55b13e210565acd2867d26ab8
2015-05-08,spip/medias,v2.10.14,1df44ae4ab944800639417233128626da69599f0
2015-05-09,spip/medias,v2.10.15,5e98008919bc14148822045f2c4483fe3e79a801
2015-05-14,spip/medias,v2.10.16,87f298648c9490c3a7f4d09ae1a2be4521959e77
2015-06-09,spip/medias,v2.10.17,a7d25ec0a0f8226c99a9b6248c2cc702cdb52da4
2015-06-11,spip/medias,v2.10.18,132680be806ea6fa5c6e1c4f8cf97c3fbb457c4b
2015-06-19,spip/medias,v2.10.19,1f5b39e964f95c50a0e99af108e82a9b7b23335d
2015-06-19,spip/medias,v2.10.20,3547755cb689cdfe78d7ca79eefb892ee14ebd5e
2015-06-23,spip/medias,spip/3.0.20,4674ecc3465ddab9227a44366f2e3af204ee4b19
2015-07-24,spip/medias,v2.10.21,dc4d95b3993e31047ea1434f0a8f87d27fe360be
2015-07-26,spip/medias,v2.10.22,a1e5415e4e4b374f791d0a28bc56abd397b0283c
2015-07-26,spip/medias,v2.10.23,52cd5c80d0c46166e1b1dbff27cc49d6689fed82
2015-07-26,spip/medias,v2.10.24,e4e8e0422a55e7c515d3b13d6d48e188532fae1e
2015-10-31,spip/medias,spip/3.0.21,9d692c4256dbda9ee6166c5eb2a53831e4b3b870
2015-11-02,spip/medias,v2.10.25,46b8862aace86cd431627e3c941d1eb5b15b0ba1
2015-12-11,spip/medias,v2.10.26,eb5e46c70290b5a94f13759a91bb946ed0b2ec2d
2016-01-06,spip/medias,spip/3.1.0,5e69f44613b9fbc62a1893d15e335d5780694d4b
2016-01-06,spip/medias,v2.10.27,ff5137be7b81da77c71ac1afba555e96319c8582
2016-02-03,spip/medias,v2.11.0,e126eca6007b02331deb8118415f8441d300c3e8
2016-02-11,spip/medias,v2.12.0,a19667b8c8624b2a33b974b6d07bcbb8eafca970
2016-02-14,spip/medias,v2.13.0,5b35b5199275f301f29c5bbe2f7cd9434495c3bb
2016-02-21,spip/medias,v2.13.1,701f19ecffca4418a407d550e214ff7c62510e85
2016-03-10,spip/medias,spip/3.0.22,c071d126e2a75c5716ce250a745642355f8988c9
2016-03-10,spip/medias,spip/3.1.1,ef85562d485b8f76f813587b4cdc33f1242a189b
2016-03-28,spip/medias,v2.13.2,dee24e07ed318b2ff8eb5b9af6e1238922b9efba
2016-03-31,spip/medias,v2.14.0,5faaedfc57d89948c424bf4cd04ac2fa5016c694
2016-06-09,spip/medias,v2.14.1,0a257bbeee4ccf05292a28762836f97f11a19745
2016-06-25,spip/medias,v2.14.2,26480895b57551f856873f76cb4c431822073446
2016-08-16,spip/medias,v2.14.3,64b437c87382af9658f73023eabacb9502467bc5
2016-09-23,spip/medias,spip/3.0.23,1a18d761458df420c41f23632f0ec644e856eedb
2016-09-23,spip/medias,spip/3.1.2,dcab5371b1c7d2dcb64b190567bd6f2f1785b60c
2016-09-27,spip/medias,v2.14.4,912650cb3d6e85dae1a727c3c9ad3a6a31bb07b8
2016-09-30,spip/medias,spip/3.0.24,4e3475931e6fb2491c277d7098fcea1cf317c5b2
2016-09-30,spip/medias,spip/3.1.3,e6c4d0b47d4deaa203ba5fc67122a97d7817ae9b
2017-01-13,spip/medias,v2.15.0,ea2e157518407a5975c1e126cf55e39540f75b57
2017-01-14,spip/medias,v2.16.0,1b7a869d18f62d2146158e48c55e295e1e4f1e3c
2017-01-14,spip/medias,v2.17.0,0ef8d61e0190bfd928fa3f61124143a5c6d24e7b
2017-01-18,spip/medias,v2.17.1,0f2a91ca4fb76aaf77244087bad336222fcad7d0
2017-01-19,spip/medias,v2.17.2,abf13151ecde3c88ae1c667783be6fffade7e079
2017-02-02,spip/medias,v2.17.3,837c109ba11382dceba6370839eda743755ae4f8
2017-02-03,spip/medias,v2.17.4,2700f6d58ee2c6e939a006c8d0be0b25f607ba4f
2017-02-03,spip/medias,v2.17.5,135e9cfcdaf4fef7fbe9aabdccdde8268abfb59a
2017-02-05,spip/medias,v2.17.6,fb61762afa7bbba38b2cadde7d033684b04c585f
2017-03-06,spip/medias,spip/3.0.25,474fbff519ed9f9e017b7303b6798534998a4832
2017-03-06,spip/medias,spip/3.1.4,5f92e16c3e4fee779bb99f79940f3e161fd18b27
2017-03-07,spip/medias,v2.17.7,ede9c65374fbb77405532dab245eef3d99973553
2017-03-17,spip/medias,v2.17.8,77adfb6fdc48193061f9cfe6719d0b72f2015602
2017-04-02,spip/medias,v1.1.1,ad5ca36e1e63f4d76a3a18a99a32129ef7687322
2017-04-02,spip/medias,v2.18.0,7ca7fa14f51ef7a3550a764fe3a577f92fdd2308
2017-06-08,spip/medias,spip/3.0.26,bf728e9814b57d530789bb505b242c8723057b00
2017-06-08,spip/medias,spip/3.1.5,8997c91c5d739ffa98b23fe7422bf3dfa4c0a6c7
2017-06-12,spip/medias,spip/3.1.6,4d75c76784121c0857f5b8885049dce6cc9eb712
2017-10-09,spip/medias,v1.1.2,e241b6ca60e0794371fe0e8c9e112fbea1e7fd7d
2017-10-12,spip/medias,spip/3.1.7,a3ecd97d5660630bced584dfe768b77e8d9bf23f
2017-10-13,spip/medias,spip/3.2.0,e6cfa59eee3f1305e24cff515b63e5506f526fd7
2018-01-03,spip/medias,v4.2.7,91267d679ccfabcad94e9b5cabfd8214a20a5617
2018-03-14,spip/medias,spip/3.0.27,9c83739015906f937f36053b5ddb0221f8e1585d
2018-03-14,spip/medias,spip/3.1.8,1c87a394bc40b2a4e47154ce572e3a7289ff0e8e
2018-03-14,spip/medias,spip/3.2.1,d5a5f50b472da0a63776b983dffd785bed26303f
2019-01-18,spip/medias,spip/3.0.28,f3167134425b7d666cf0dfe79467d75649991a80
2019-01-18,spip/medias,spip/3.1.9,cb226b73cdef826856ce2d627e9d13aef4710eb9
2019-01-18,spip/medias,spip/3.2.2,7167422d8e8c335288727084e1100a8a71a63de6
2019-01-21,spip/medias,spip/3.2.3,cdc369e0f953c77a63d0d075645a2f36704068d7
2019-04-08,spip/medias,spip/3.1.10,f12303d2a733900669b6ea13b638185617cc3033
2019-04-08,spip/medias,spip/3.2.4,dae4e7cd39f76c756608d39a2a9932081a797e7c
2019-09-16,spip/medias,spip/3.1.11,27b1a8f1d683b4491af043c73d23f43f30a1038a
2019-09-16,spip/medias,spip/3.2.5,16fdc560fc69ad774fdd7045f6b775b61ca77cc8
2019-12-12,spip/medias,spip/3.1.12,8802f7bda99b244850b0e4708c9142df1c8edc89
2019-12-12,spip/medias,spip/3.2.6,9355a235125376dcee33b15e3d86a21f900bf77d
2019-12-12,spip/medias,spip/3.2.7,03bed026dcfb0cb1d0bd3e5642cd9e28127120ea
2020-06-05,spip/medias,v2.27.0,c89ee2974807dc609314b588f8840ff0b1bd3884
2020-06-25,spip/medias,spip/3.1.13,0c5185d0c36f9400f8cdc54efa6031313b1f5098
2020-06-25,spip/medias,spip/3.1.14,0c5185d0c36f9400f8cdc54efa6031313b1f5098
2020-06-25,spip/medias,spip/3.2.8,bc5a5175c36237cf12a042d37b30f336255e22e0
2021-02-04,spip/medias,spip/3.1.15,9a3b53f979ec9de3f485e1e8df130197168c2519
2021-02-04,spip/medias,spip/3.2.9,96bf7b265459e414ef35362e2ea7c8b71d247e15
2021-03-26,spip/medias,spip/3.2.10,d096d932d63d2c28b126bf10bdc65ce3104a36bd
2021-03-26,spip/medias,spip/3.2.11,d096d932d63d2c28b126bf10bdc65ce3104a36bd
2021-05-01,spip/medias,spip/4.0.0-alpha,79e79850cbbc35fbe913d7f115c4f6358afc3467
2021-05-01,spip/medias,v3.0.0,79e79850cbbc35fbe913d7f115c4f6358afc3467
2021-06-01,spip/medias,spip/4.0.0-beta,889f88286a9afa3a9dad1a34e9f8489d5f30942f
2021-06-01,spip/medias,v3.1.0,eea58bb669417f28f679a9df279a831fed2448f9
2021-07-08,spip/medias,spip/4.0.0,7c9a62974f9ee99cab0df25880ed6a8ce11330d5
2021-07-08,spip/medias,v3.2.0,7c9a62974f9ee99cab0df25880ed6a8ce11330d5
2021-12-14,spip/medias,spip/3.2.12,72fb68d19756532cc4f6d2bb63c2040fb939b7fc
2021-12-14,spip/medias,spip/4.0.1,03317f76c53aff7e0a09ce6b63b880b535be01fa
2021-12-14,spip/medias,v2.20.36,72fb68d19756532cc4f6d2bb63c2040fb939b7fc
2021-12-14,spip/medias,v3.2.2,03317f76c53aff7e0a09ce6b63b880b535be01fa
2022-01-24,spip/medias,spip/4.0.2,299250d95873f2f52263a05475990aebb55e3878
2022-01-24,spip/medias,v3.2.3,299250d95873f2f52263a05475990aebb55e3878
2022-02-01,spip/medias,spip/4.0.3,239449f66747ed5d17cad09aaa0aa6ac855013c5
2022-02-01,spip/medias,v3.2.4,239449f66747ed5d17cad09aaa0aa6ac855013c5
2022-02-08,spip/medias,v4.0.0,6387faeeee396d3b316aa59b7ccde490e0a95cec
2022-02-17,spip/medias,v4.0.1,7d7977becf09b837b51be6fc9a36f29aba672ca5
2022-03-04,spip/medias,v2.20.37,e4a3137337282806559e64ec68994138eea36cf9
2022-03-04,spip/medias,v3.2.5,55263554b620a19ff850b8dfe5d017b23d6bc64d
2022-03-05,spip/medias,v4.0.2,faf9f77709130a65c113071fdc7a6e3d13abe138
2022-03-25,spip/medias,v4.0.3,98138a3f17edb9d86cf98c0a4363bd487e910334
2022-04-01,spip/medias,v4.0.4,02bf38050b31c94de34fd5c7f7b63fc5860fc31e
2022-05-20,spip/medias,v4.0.5,0a2b0da8e717b23e686e4fea5ba18345b7c931df
2022-07-21,spip/medias,v2.20.38,bca3c96406b3742c8e28ed5796dd994a3429d824
2022-07-21,spip/medias,v3.2.6,fa54ac8ff9c385e09a1175fbf188f21e781ba24e
2022-07-21,spip/medias,v4.0.6,410ac9a0ce488ef6d93c284237ec5b8e86332c7f
2023-01-13,spip/medias,v3.2.7,fc91e61435a67bf4f16ee725504e7f4557871900
2023-01-13,spip/medias,v4.0.7,1a181f6b45df1c142d38987ab8835e2f31661091
2023-01-27,spip/medias,v4.1.0,ed4db8ce2e3837766dd6f4829e2af00ec3d27aec
2023-02-27,spip/medias,v3.2.9,7a7297c1d8b3e80081d29708f56bd77f2cc2cbcc
2023-02-27,spip/medias,v4.0.8,0f98136df922d6411c8f30f6ce68846d13f22511
2023-06-07,spip/medias,v4.1.1,a8cd0748b92a010f5c00774212863bf68344a8a9
2023-09-01,spip/medias,v4.1.2,cabb4b1659bd5dfee4dad95c69d7c3cb22985226
2023-10-05,spip/medias,v4.1.3,e3ebcebdb210b824e5bfccc76f1db8ac695d7ea1
2023-12-18,spip/medias,v4.1.4,a49d9e1496bf4b2150d0c376f180ebbc67c8e32e
2024-01-11,spip/medias,v4.1.5,f270e601c765e6dc9b0359895d9ceb7e35423038
2024-01-11,spip/medias,v4.2.0,6f75148e12700edfa89b14b0b2624c911fea8f96
2024-02-08,spip/medias,v4.2.1,65c2995709800bd29a9d6613dcc02574b15289c4
2024-03-08,spip/medias,v4.2.2,abe89bdbd3f14dde9b19dbd05493dbdfad4d9417
2024-04-05,spip/medias,v4.2.3,66bee0d90976edc6cc13e5db1e73be2d7323313d
2024-05-07,spip/medias,v4.2.4,065f30cc2a18e48264072ae5384a9ab326ad5b40
2024-05-07,spip/medias,v4.3.0,e25598de5d29da6c4093e6563da53fdfabae860d
2024-05-29,spip/medias,v4.0.9,c0cd0fafbbdf35096e0b4215ce7e52c0ff7eb018
2024-05-29,spip/medias,v4.2.5,f663dfdaffcc38d02cb020520abffc99c9a43f2b
2024-05-29,spip/medias,v4.3.1,bbcc857a5921eb2b4e7c14e0fc7aa4993c503206
2024-07-26,spip/medias,v4.3.2,168378a90c9a039d8dad2e00d8b5c73455222e59
2024-10-08,spip/medias,v4.3.3,df82f9ec5a33874737e99b55a5ba8ef128f97a64
2024-11-27,spip/medias,4.4.0,a18ff255622b2eb327ed6e3bde92a63060a3d467
2024-11-27,spip/medias,5.0.0,de571ead6992cf6e95864a660533bcdc9b7015f2
2024-12-03,spip/medias,v4.3.4,9a51d98cf06f1850b6d093085052fd62c59f34a2
2024-12-21,spip/medias,5.0.1,e1bed9fb71dd5e0bf5de4fe66a0f6c56ab047deb
2025-01-17,spip/medias,4.4.1,c62e1e7c1880f5e8b967899e554e8ece0b075f23
2025-02-14,spip/medias,4.4.2,169786fdca7d13b7bbf3992d709998d88e6d3b39
