pushed new,Codage,9,cerdic,2024-12-10,1871,Project
pushed new,Codage,9,cerdic,2024-12-10,1871,Project
pushed to,Codage,9,cerdic,2024-12-10,1871,Project
pushed to,Codage,9,cerdic,2024-12-11,1871,Project
pushed to,Codage,9,cerdic,2024-12-11,1871,Project
pushed to,Codage,9,cerdic,2024-12-11,1871,Project
pushed to,Codage,9,cerdic,2024-12-11,1871,Project
pushed to,Codage,9,cerdic,2024-12-11,1871,Project
pushed to,Codage,9,cerdic,2024-12-11,1871,Project
pushed to,Codage,9,cerdic,2024-12-12,1871,Project
pushed to,Codage,9,cerdic,2024-12-12,1871,Project
pushed to,Codage,9,cerdic,2024-12-12,1871,Project
pushed to,Codage,9,cerdic,2024-12-12,1871,Project
pushed to,Codage,9,cerdic,2024-12-12,1871,Project
pushed to,Codage,9,cerdic,2024-12-12,1871,Project
pushed to,Codage,9,cerdic,2024-12-12,1871,Project
pushed to,Codage,9,cerdic,2024-12-12,1871,Project
pushed to,Codage,9,cerdic,2024-12-18,1871,Project
pushed to,Codage,9,cerdic,2024-12-19,1871,Project
pushed to,Codage,9,cerdic,2024-12-19,1871,Project
pushed to,Codage,9,cerdic,2024-12-19,1871,Project
pushed to,Codage,9,cerdic,2024-12-19,1871,Project
pushed to,Codage,9,cerdic,2024-12-19,1871,Project
pushed to,Codage,9,cerdic,2024-12-19,1871,Project
pushed to,Codage,9,cerdic,2024-12-19,1871,Project
pushed to,Codage,9,cerdic,2024-12-19,1871,Project
pushed to,Codage,9,cerdic,2024-12-19,1871,Project
pushed to,Codage,9,cerdic,2025-01-13,1871,Project
accepted,Codage,9,cerdic,2025-02-12,1871,MergeRequest
opened,Codage,9,cerdic,2025-02-12,1871,MergeRequest
deleted,Codage,9,cerdic,2025-02-12,1871,Project
pushed new,Codage,9,cerdic,2025-02-12,1871,Project
pushed to,Codage,9,cerdic,2025-02-12,1871,Project
pushed to,Codage,9,cerdic,2025-02-12,1871,Project
pushed to,Codage,9,cerdic,2025-02-12,1871,Project
