date,full_path,name,sha
2021-08-26,spip-contrib-extensions/article_accueil,v1,1809a7f57721c29771b179e1e320f4d319138468
2025-01-30,spip-contrib-extensions/article_accueil,master,3d86a87d82cc183a3febfa5e266ece3612374f8f
