pushed new,Codage,3,touti,2024-12-20,2035,Project
pushed to,Codage,3,touti,2024-12-20,2035,Project
pushed to,Codage,3,touti,2024-12-20,2035,Project
pushed to,Codage,3,touti,2024-12-22,2035,Project
pushed to,Codage,3,touti,2024-12-23,2035,Project
pushed to,Codage,3,touti,2024-12-23,2035,Project
pushed to,Codage,3,touti,2024-12-23,2035,Project
pushed to,Codage,3,touti,2024-12-23,2035,Project
pushed to,Codage,3,touti,2024-12-25,2035,Project
pushed to,Codage,3,touti,2024-12-25,2035,Project
pushed to,Codage,3,touti,2024-12-25,2035,Project
