date,full_path,name,sha
2020-09-01,spip-contrib-extensions/tarteaucitron,v1.0.0,6f7bdd4cf3dd13fedf7dbfbf5ee6a646ac4858fa
2020-11-25,spip-contrib-extensions/tarteaucitron,v1.1.0,44f9cda7b8a25df4db01e6ac6e83eeb264dac3d5
2020-12-03,spip-contrib-extensions/tarteaucitron,v1.2.1,945da0ca1417cc487e08acdf26d77469e3d0e046
2020-12-22,spip-contrib-extensions/tarteaucitron,v1.2.2,f21856863c66b67d9ec3f9dcc17820bb55a3bc3b
2020-12-24,spip-contrib-extensions/tarteaucitron,v1.2.3,06bbb726bac061d5ab9fd340ec8e1f3a972caa8a
2021-01-17,spip-contrib-extensions/tarteaucitron,v1.2.4,09f8f0e9ecec756066e620cfcd56b1641a73b20a
2021-03-22,spip-contrib-extensions/tarteaucitron,v1.2.5,b9f522f64f36c128ec80843d5f56860ca6c54b43
2021-03-22,spip-contrib-extensions/tarteaucitron,v1.2.6,3063dee28417145a8e03187e675d8e6ae4616c92
2021-04-30,spip-contrib-extensions/tarteaucitron,v1.2.7,458d27c551577cf1caa1cd7d81ebcc21e18eda78
2021-06-23,spip-contrib-extensions/tarteaucitron,v1.2.8,48efe8da5d44c3bc6e2634f3ee4b1c37f7f6fd65
2021-09-15,spip-contrib-extensions/tarteaucitron,v1.2.9,fba54b2f7210388e9ad275283624937152b58808
2021-10-05,spip-contrib-extensions/tarteaucitron,v1.2.10,7f9ee0d7a1e0db09205442a2c726f884ca88705d
2021-10-22,spip-contrib-extensions/tarteaucitron,v1.3.0,2935475919c3f6dc3ba903d54d55ff4e9d01799b
2022-10-19,spip-contrib-extensions/tarteaucitron,v1.4.0,4c50fc1a7084e1861c3561df7a9afcb870b5ad80
2022-10-24,spip-contrib-extensions/tarteaucitron,v1.4.1,6d89f84bab588590e7304c1c2352a5846ccfae04
2022-11-17,spip-contrib-extensions/tarteaucitron,v1.4.2,e1c9665538a109f1ef242cca08be732637b32cf4
2023-02-15,spip-contrib-extensions/tarteaucitron,v1.5.0,8fabf09480c013d1b19b327decef34cb990729a0
2023-05-06,spip-contrib-extensions/tarteaucitron,v1.5.1,2e60c6c3064b1c7d5f600c359df5ba73b0566a63
2023-06-05,spip-contrib-extensions/tarteaucitron,v1.5.2,b1f89a81d9cb984f0513b0c011d835250a4960af
2023-08-30,spip-contrib-extensions/tarteaucitron,v1.5.3,826737dade12f26dbf288df2dac729d03a2360b9
2024-03-03,spip-contrib-extensions/tarteaucitron,v1.5.4,505f190dddbcb22d062e3bf2d515e4302a11b95f
2024-03-21,spip-contrib-extensions/tarteaucitron,v1.5.5,4057a48c71e08692a2ade63c84fc0bc8896f2c7b
2024-05-15,spip-contrib-extensions/tarteaucitron,v1.5.6,310f0ed230743ea7b159fb91254239ed039ac79d
2024-07-05,spip-contrib-extensions/tarteaucitron,1.6.0,57834bdc9a947c75ad3e275d00f4b40074c5617d
2024-12-04,spip-contrib-extensions/tarteaucitron,v1.7.0,85ea0f7fd5b901a2f3fcaaba74948f32ec82aec2
