date,full_path,name,sha
2017-05-08,spip-contrib-extensions/qrcode,v0.2.1,2be7e13e304baab959e0da4d634a1e0ac623c8ed
2017-10-10,spip-contrib-extensions/qrcode,v1.1.2,45ed2ebd39195dec3b004d2a845e1b50def900e0
2022-04-04,spip-contrib-extensions/qrcode,v1.1.3,1f5ed63401f01d27af47daa83e6ead3a9fabf0d4
2022-04-24,spip-contrib-extensions/qrcode,v1.1.4,60e4960abddab1e15ac5d9b9b7a2428555dd97a2
2023-07-14,spip-contrib-extensions/qrcode,v1.1.5,e4adac0fa969038c084379f06606f5cf4ef5551f
2024-07-05,spip-contrib-extensions/qrcode,1.2.0,4c8be1f9860dcf4911016fdffefa63f6ff9743a6
