id,iid,labels,milestone_id,project_id
32185,1,amélioration,1641,3392
32186,2,,,3392
32187,3,,,3392
32188,4,,,3392
32189,5,,,3392
32190,6,,,3392
32191,7,,,3392
32192,8,,,3392
32193,9,,,3392
32194,10,,,3392
32195,11,,,3392
32196,12,,,3392
32197,13,amélioration,,3392
32199,15,amélioration,,3392
32200,16,amélioration,,3392
32201,17,amélioration,,3392
32202,18,,,3392
32205,19,,1642,3392
32232,23,,,3392
32244,25,,1640,3392
32248,27,,1642,3392
32264,29,,,3392
32317,32,,,3392
32451,37,,,3392
32454,38,,,3392
32471,39,bug,,3392
32474,40,,,3392
