id,iid,labels,milestone_id,project_id,source_branch,source_project_id,target_branch,target_project_id
9543,1,amélioration,1640,3392,issue_4101,3392,5.x,3392
9544,2,amélioration,1641,3392,issue_4845_next,3392,5.x,3392
9545,3,,1642,3392,issue_4943,3392,5.x,3392
9546,4,,,3392,issue_5344,3392,5.x,3392
9547,5,,1640,3392,dev/issue_4626_menu_squelettes,3392,5.x,3392
9548,6,,,3392,issue_5940,3392,5.x,3392
9549,7,,,3392,issue_5095,3392,5.x,3392
9756,28,,,3392,refactor_images_lib,3392,5.x,3392
9811,35,,,3392,issue32_chemins_windows,3429,5.x,3392
9919,45,,,3392,issue_38,3392,5.x,3392
