date,full_path,name,sha
2017-04-02,spip-contrib-extensions/roles,v1,783335fefc1ba5d4d721b6b4132ac9814eb3b071
2024-07-05,spip-contrib-extensions/roles,master,e74dd07f45565daf556d07afc2265f7e9f975ccc
2024-11-18,spip-contrib-extensions/roles,issue_8_remplacer_un_role,101e6feda07f372256bc0e8aefa9ccdc323039a1
