prefix,full_path
bouq,spip-contrib-extensions/bouquinerie
roles_selections,spip-contrib-extensions/roles_selections
roles_gis,spip-contrib-extensions/roles_gis
territoires_cartes,spip-contrib-extensions/territoires_cartes
roles_documents,spip-contrib-extensions/roles_documents
gis_agenda,spip-contrib-extensions/gis_agenda
roles_auteurs,spip-contrib-extensions/roles_auteurs
