date,full_path,name,sha
2017-04-02,spip-contrib-extensions/roles,v1.6.2,783335fefc1ba5d4d721b6b4132ac9814eb3b071
2020-02-06,spip-contrib-extensions/roles,v2.1.0,15a500e298e0c91655c5cd702762381949c609f9
2021-02-12,spip-contrib-extensions/roles,v2.1.1,981920d6048c792098203fed72f34ba66440b5ed
2021-07-03,spip-contrib-extensions/roles,v2.1.2,fbafa18d1145cd8396d3918d019d15c2887ace1b
2023-02-27,spip-contrib-extensions/roles,v2.2.2,e661388ba86059768613f4ef4c8eb1137f433996
2024-07-05,spip-contrib-extensions/roles,2.3.0,e74dd07f45565daf556d07afc2265f7e9f975ccc
