date,full_path,name,sha
2023-04-28,spip-contrib-squelettes/html5up_twenty,v0,105df4f43c12657ef9362834a9284dd9aca9fe03
2025-01-07,spip-contrib-squelettes/html5up_twenty,master,024918a0cdc40748366366642ba4507dfb673566
