created,Codage,6,JamesRezo,2024-12-15,3421,Project
pushed new,Codage,6,JamesRezo,2024-12-15,3421,Project
pushed to,Codage,6,JamesRezo,2024-12-15,3421,Project
pushed to,Codage,6,JamesRezo,2024-12-15,3421,Project
opened,Codage,12,marcimat,2024-12-27,3421,MergeRequest
pushed new,Codage,12,marcimat,2024-12-27,3421,Project
