date,full_path,name,sha
2017-09-05,spip-contrib-extensions/porte_plume_lorem_ipsum,v1.1.3,f69d7458998a03ace419023811c343e2f7ffcfed
2020-05-19,spip-contrib-extensions/porte_plume_lorem_ipsum,v1.1.4,6b93db8e5b830dfae354d8222db51c3a24e6acfd
2021-07-07,spip-contrib-extensions/porte_plume_lorem_ipsum,v1.1.5,69ab63c45cca1e9f842822208e9e855f98696d37
2022-04-28,spip-contrib-extensions/porte_plume_lorem_ipsum,v1.1.6,50f5d9a83612737418de58f4713eb5a862f7a843
2023-06-07,spip-contrib-extensions/porte_plume_lorem_ipsum,v1.1.7,a31cd611079a88b811545606eeadf74eb3751af9
2024-07-05,spip-contrib-extensions/porte_plume_lorem_ipsum,1.2.0,1f5938d789e9eec95f4caf6ed5fb9ff0938dc761
