date,full_path,name,sha
2018-12-19,spip-contrib-extensions/saisies,v1,0fe1cc1f045bd6485ef85022ccdb2886b840149a
2018-12-19,spip-contrib-extensions/saisies,v2,f11c3711b46ff6f666d81d09c2fa62bb797d5d55
2022-02-13,spip-contrib-extensions/saisies,no_submit,d5fa84eeda55d7aaaedba44bfbe09a7709a59e03
2022-02-23,spip-contrib-extensions/saisies,constructeur_glisser_deposer,7708a7c1122d473292fe785169ae2911d86f8761
2022-05-31,spip-contrib-extensions/saisies,explication_simplifier_conteneur,2b62e77a226b65d60af9b010c64fb041c5466de5
2023-05-31,spip-contrib-extensions/saisies,v3,85fdd76984069a43d1fcae2198a68908309ed47f
2023-07-14,spip-contrib-extensions/saisies,issue_48,e8729d9d8a6e177025c4af1a138061b7b58b313c
2023-10-31,spip-contrib-extensions/saisies,v4,842cc051d444bb9b4aea6cad3951d08186a640cf
2024-02-04,spip-contrib-extensions/saisies,bug_data_label,57ec3e104be7346eef5f549c74d3424e1e51f9fb
2024-09-17,spip-contrib-extensions/saisies,elagage_attribut,e99c6dc90d86cb4418082dcd2792e62f6ab45cf9
2025-01-12,spip-contrib-extensions/saisies,459-une-fonction-de-manipulation-de-chaine-dans-afficher_si,12b0d2bbbd6b7706fa9c1993527274a4ae271f8c
2025-01-13,spip-contrib-extensions/saisies,issue_459_substr,4fb5beaf7c35360d3e8ed6e292b6b7173317479f
2025-02-02,spip-contrib-extensions/saisies,issue_463,b80184da4268b0c306ac12b74ac65fc0eafa78df
2025-02-11,spip-contrib-extensions/saisies,dev/js_module_textarea_tabulaire,a9c181affb228d374a35824f166a712f641e2b98
2025-02-12,spip-contrib-extensions/saisies,master,a9c460b62a6ae202be106db8d42cc4d6fc1d67dc
2025-02-16,spip-contrib-extensions/saisies,warning,e7ea173ad62c8dacc022369a94ea666b42edb081
