opened,Papotage,4,maieul,2024-08-28,2451,Issue
opened,Codage,4,maieul,2024-08-28,2451,MergeRequest
opened,Codage,4,maieul,2024-08-28,2451,MergeRequest
opened,Codage,4,maieul,2024-08-28,2451,Milestone
commented on,Papotage,14,rastapopoulos,2024-08-28,2451,Note
commented on,Papotage,4,maieul,2024-08-28,2451,Note
commented on,Papotage,4,maieul,2024-08-28,2451,Note
pushed new,Codage,4,maieul,2024-08-28,2451,Project
pushed new,Codage,4,maieul,2024-08-28,2451,Project
pushed to,Codage,4,maieul,2024-08-28,2451,Project
pushed to,Codage,4,maieul,2024-08-28,2451,Project
pushed to,Codage,4,maieul,2024-08-28,2451,Project
pushed to,Codage,4,maieul,2024-08-28,2451,Project
pushed to,Codage,4,maieul,2024-08-28,2451,Project
closed,Papotage,4,maieul,2024-08-29,2451,Issue
accepted,Codage,4,maieul,2024-08-29,2451,MergeRequest
commented on,Papotage,4,maieul,2024-08-29,2451,Note
deleted,Codage,4,maieul,2024-08-29,2451,Project
pushed to,Codage,4,maieul,2024-08-29,2451,Project
pushed to,Codage,4,maieul,2024-08-29,2451,Project
closed,Papotage,4,maieul,2024-08-30,2451,Issue
opened,Papotage,18,b_b,2024-08-30,2451,Issue
accepted,Codage,4,maieul,2024-08-30,2451,MergeRequest
approved,Codage,18,b_b,2024-08-30,2451,MergeRequest
opened,Codage,4,maieul,2024-08-30,2451,MergeRequest
commented on,Papotage,18,b_b,2024-08-30,2451,Note
deleted,Codage,4,maieul,2024-08-30,2451,Project
pushed new,Codage,4,maieul,2024-08-30,2451,Project
pushed to,Codage,4,maieul,2024-08-30,2451,Project
pushed to,Codage,4,maieul,2024-08-30,2451,Project
commented on,Papotage,4,maieul,2024-09-01,2451,DiscussionNote
opened,Codage,4,maieul,2024-09-01,2451,MergeRequest
commented on,Papotage,14,rastapopoulos,2024-09-01,2451,Note
pushed new,Codage,4,maieul,2024-09-01,2451,Project
commented on,Papotage,18,b_b,2024-09-02,2451,DiscussionNote
commented on,Papotage,4,maieul,2024-09-02,2451,DiscussionNote
commented on,Papotage,18,b_b,2024-09-02,2451,Note
commented on,Papotage,14,rastapopoulos,2024-09-04,2451,DiffNote
commented on,Papotage,14,rastapopoulos,2024-09-04,2451,DiffNote
opened,Papotage,4,maieul,2024-09-04,2451,Issue
opened,Papotage,4,maieul,2024-09-04,2451,Issue
opened,Papotage,4,maieul,2024-09-04,2451,Issue
approved,Codage,14,rastapopoulos,2024-09-04,2451,MergeRequest
approved,Codage,14,rastapopoulos,2024-09-04,2451,MergeRequest
approved,Codage,14,rastapopoulos,2024-09-04,2451,MergeRequest
opened,Codage,4,maieul,2024-09-04,2451,MergeRequest
opened,Codage,4,maieul,2024-09-04,2451,MergeRequest
opened,Codage,4,maieul,2024-09-04,2451,MergeRequest
opened,Codage,4,maieul,2024-09-04,2451,MergeRequest
opened,Codage,4,maieul,2024-09-04,2451,MergeRequest
commented on,Papotage,4,maieul,2024-09-04,2451,Note
deleted,Codage,4,maieul,2024-09-04,2451,Project
deleted,Codage,4,maieul,2024-09-04,2451,Project
deleted,Codage,4,maieul,2024-09-04,2451,Project
deleted,Codage,4,maieul,2024-09-04,2451,Project
deleted,Codage,4,maieul,2024-09-04,2451,Project
deleted,Codage,4,maieul,2024-09-04,2451,Project
pushed new,Codage,4,maieul,2024-09-04,2451,Project
pushed new,Codage,4,maieul,2024-09-04,2451,Project
pushed new,Codage,4,maieul,2024-09-04,2451,Project
pushed new,Codage,4,maieul,2024-09-04,2451,Project
pushed new,Codage,4,maieul,2024-09-04,2451,Project
pushed to,Codage,4,maieul,2024-09-04,2451,Project
pushed to,Codage,4,maieul,2024-09-04,2451,Project
pushed to,Codage,4,maieul,2024-09-04,2451,Project
pushed to,Codage,4,maieul,2024-09-04,2451,Project
pushed to,Codage,4,maieul,2024-09-04,2451,Project
pushed to,Codage,4,maieul,2024-09-04,2451,Project
commented on,Papotage,14,rastapopoulos,2024-09-05,2451,DiffNote
commented on,Papotage,4,maieul,2024-09-05,2451,DiffNote
commented on,Papotage,4,maieul,2024-09-05,2451,DiffNote
commented on,Papotage,4,maieul,2024-09-05,2451,DiffNote
commented on,Papotage,4,maieul,2024-09-05,2451,DiffNote
commented on,Papotage,17,nicod,2024-09-05,2451,DiscussionNote
commented on,Papotage,17,nicod,2024-09-05,2451,DiscussionNote
commented on,Papotage,17,nicod,2024-09-05,2451,DiscussionNote
commented on,Papotage,4,maieul,2024-09-05,2451,DiscussionNote
commented on,Papotage,4,maieul,2024-09-05,2451,DiscussionNote
commented on,Papotage,4,maieul,2024-09-05,2451,DiscussionNote
commented on,Papotage,4,maieul,2024-09-05,2451,DiscussionNote
commented on,Papotage,4,maieul,2024-09-05,2451,DiscussionNote
commented on,Papotage,4,maieul,2024-09-05,2451,DiscussionNote
commented on,Papotage,4,maieul,2024-09-05,2451,DiscussionNote
closed,Papotage,4,maieul,2024-09-05,2451,Issue
closed,Papotage,4,maieul,2024-09-05,2451,Issue
closed,Papotage,4,maieul,2024-09-05,2451,Issue
closed,Papotage,4,maieul,2024-09-05,2451,Issue
closed,Papotage,4,maieul,2024-09-05,2451,Issue
closed,Papotage,4,maieul,2024-09-05,2451,Issue
closed,Papotage,4,maieul,2024-09-05,2451,Issue
opened,Papotage,4,maieul,2024-09-05,2451,Issue
opened,Papotage,4,maieul,2024-09-05,2451,Issue
opened,Papotage,4,maieul,2024-09-05,2451,Issue
opened,Papotage,4,maieul,2024-09-05,2451,Issue
opened,Papotage,4,maieul,2024-09-05,2451,Issue
accepted,Codage,4,maieul,2024-09-05,2451,MergeRequest
accepted,Codage,4,maieul,2024-09-05,2451,MergeRequest
accepted,Codage,4,maieul,2024-09-05,2451,MergeRequest
accepted,Codage,4,maieul,2024-09-05,2451,MergeRequest
accepted,Codage,4,maieul,2024-09-05,2451,MergeRequest
accepted,Codage,4,maieul,2024-09-05,2451,MergeRequest
accepted,Codage,4,maieul,2024-09-05,2451,MergeRequest
accepted,Codage,4,maieul,2024-09-05,2451,MergeRequest
approved,Codage,14,rastapopoulos,2024-09-05,2451,MergeRequest
approved,Codage,14,rastapopoulos,2024-09-05,2451,MergeRequest
approved,Codage,14,rastapopoulos,2024-09-05,2451,MergeRequest
approved,Codage,14,rastapopoulos,2024-09-05,2451,MergeRequest
approved,Codage,14,rastapopoulos,2024-09-05,2451,MergeRequest
opened,Codage,4,maieul,2024-09-05,2451,MergeRequest
opened,Codage,4,maieul,2024-09-05,2451,MergeRequest
opened,Codage,4,maieul,2024-09-05,2451,MergeRequest
commented on,Papotage,17,nicod,2024-09-05,2451,Note
commented on,Papotage,17,nicod,2024-09-05,2451,Note
commented on,Papotage,17,nicod,2024-09-05,2451,Note
commented on,Papotage,17,nicod,2024-09-05,2451,Note
commented on,Papotage,4,maieul,2024-09-05,2451,Note
commented on,Papotage,4,maieul,2024-09-05,2451,Note
commented on,Papotage,4,maieul,2024-09-05,2451,Note
commented on,Papotage,4,maieul,2024-09-05,2451,Note
commented on,Papotage,4,maieul,2024-09-05,2451,Note
commented on,Papotage,4,maieul,2024-09-05,2451,Note
deleted,Codage,4,maieul,2024-09-05,2451,Project
deleted,Codage,4,maieul,2024-09-05,2451,Project
deleted,Codage,4,maieul,2024-09-05,2451,Project
deleted,Codage,4,maieul,2024-09-05,2451,Project
deleted,Codage,4,maieul,2024-09-05,2451,Project
deleted,Codage,4,maieul,2024-09-05,2451,Project
deleted,Codage,4,maieul,2024-09-05,2451,Project
deleted,Codage,4,maieul,2024-09-05,2451,Project
pushed new,Codage,4,maieul,2024-09-05,2451,Project
pushed new,Codage,4,maieul,2024-09-05,2451,Project
pushed new,Codage,4,maieul,2024-09-05,2451,Project
pushed to,Codage,4,maieul,2024-09-05,2451,Project
pushed to,Codage,4,maieul,2024-09-05,2451,Project
pushed to,Codage,4,maieul,2024-09-05,2451,Project
pushed to,Codage,4,maieul,2024-09-05,2451,Project
pushed to,Codage,4,maieul,2024-09-05,2451,Project
pushed to,Codage,4,maieul,2024-09-05,2451,Project
pushed to,Codage,4,maieul,2024-09-05,2451,Project
pushed to,Codage,4,maieul,2024-09-05,2451,Project
pushed to,Codage,4,maieul,2024-09-05,2451,Project
pushed to,Codage,4,maieul,2024-09-05,2451,Project
pushed to,Codage,4,maieul,2024-09-05,2451,Project
pushed to,Codage,4,maieul,2024-09-05,2451,Project
pushed to,Codage,4,maieul,2024-09-05,2451,Project
pushed to,Codage,4,maieul,2024-09-05,2451,Project
pushed to,Codage,4,maieul,2024-09-05,2451,Project
pushed to,Codage,4,maieul,2024-09-05,2451,Project
pushed to,Codage,4,maieul,2024-09-05,2451,Project
pushed to,Codage,4,maieul,2024-09-05,2451,Project
pushed to,Codage,4,maieul,2024-09-05,2451,Project
pushed to,Codage,4,maieul,2024-09-05,2451,Project
pushed to,Codage,4,maieul,2024-09-05,2451,Project
pushed to,Codage,4,maieul,2024-09-05,2451,Project
pushed to,Codage,4,maieul,2024-09-05,2451,Project
commented on,Papotage,14,rastapopoulos,2024-09-06,2451,DiffNote
commented on,Papotage,4,maieul,2024-09-06,2451,DiffNote
commented on,Papotage,4,maieul,2024-09-06,2451,DiffNote
commented on,Papotage,14,rastapopoulos,2024-09-06,2451,DiscussionNote
commented on,Papotage,4,maieul,2024-09-06,2451,DiscussionNote
closed,Papotage,4,maieul,2024-09-06,2451,Issue
closed,Papotage,4,maieul,2024-09-06,2451,Issue
closed,Papotage,4,maieul,2024-09-06,2451,Issue
closed,Papotage,4,maieul,2024-09-06,2451,Issue
opened,Papotage,4,maieul,2024-09-06,2451,Issue
opened,Papotage,4,maieul,2024-09-06,2451,Issue
accepted,Codage,4,maieul,2024-09-06,2451,MergeRequest
accepted,Codage,4,maieul,2024-09-06,2451,MergeRequest
accepted,Codage,4,maieul,2024-09-06,2451,MergeRequest
accepted,Codage,4,maieul,2024-09-06,2451,MergeRequest
accepted,Codage,4,maieul,2024-09-06,2451,MergeRequest
accepted,Codage,4,maieul,2024-09-06,2451,MergeRequest
accepted,Codage,4,maieul,2024-09-06,2451,MergeRequest
accepted,Codage,4,maieul,2024-09-06,2451,MergeRequest
approved,Codage,14,rastapopoulos,2024-09-06,2451,MergeRequest
approved,Codage,14,rastapopoulos,2024-09-06,2451,MergeRequest
approved,Codage,14,rastapopoulos,2024-09-06,2451,MergeRequest
approved,Codage,14,rastapopoulos,2024-09-06,2451,MergeRequest
approved,Codage,14,rastapopoulos,2024-09-06,2451,MergeRequest
approved,Codage,14,rastapopoulos,2024-09-06,2451,MergeRequest
approved,Codage,14,rastapopoulos,2024-09-06,2451,MergeRequest
approved,Codage,14,rastapopoulos,2024-09-06,2451,MergeRequest
opened,Codage,4,maieul,2024-09-06,2451,MergeRequest
opened,Codage,4,maieul,2024-09-06,2451,MergeRequest
opened,Codage,4,maieul,2024-09-06,2451,MergeRequest
opened,Codage,4,maieul,2024-09-06,2451,MergeRequest
opened,Codage,4,maieul,2024-09-06,2451,MergeRequest
opened,Codage,4,maieul,2024-09-06,2451,MergeRequest
opened,Codage,4,maieul,2024-09-06,2451,MergeRequest
opened,Codage,4,maieul,2024-09-06,2451,MergeRequest
commented on,Papotage,4,maieul,2024-09-06,2451,Note
commented on,Papotage,4,maieul,2024-09-06,2451,Note
commented on,Papotage,4,maieul,2024-09-06,2451,Note
commented on,Papotage,4,maieul,2024-09-06,2451,Note
commented on,Papotage,4,maieul,2024-09-06,2451,Note
deleted,Codage,4,maieul,2024-09-06,2451,Project
deleted,Codage,4,maieul,2024-09-06,2451,Project
deleted,Codage,4,maieul,2024-09-06,2451,Project
deleted,Codage,4,maieul,2024-09-06,2451,Project
deleted,Codage,4,maieul,2024-09-06,2451,Project
deleted,Codage,4,maieul,2024-09-06,2451,Project
deleted,Codage,4,maieul,2024-09-06,2451,Project
deleted,Codage,4,maieul,2024-09-06,2451,Project
pushed new,Codage,4,maieul,2024-09-06,2451,Project
pushed new,Codage,4,maieul,2024-09-06,2451,Project
pushed new,Codage,4,maieul,2024-09-06,2451,Project
pushed new,Codage,4,maieul,2024-09-06,2451,Project
pushed new,Codage,4,maieul,2024-09-06,2451,Project
pushed new,Codage,4,maieul,2024-09-06,2451,Project
pushed new,Codage,4,maieul,2024-09-06,2451,Project
pushed new,Codage,4,maieul,2024-09-06,2451,Project
pushed to,Codage,4,maieul,2024-09-06,2451,Project
pushed to,Codage,4,maieul,2024-09-06,2451,Project
pushed to,Codage,4,maieul,2024-09-06,2451,Project
pushed to,Codage,4,maieul,2024-09-06,2451,Project
pushed to,Codage,4,maieul,2024-09-06,2451,Project
pushed to,Codage,4,maieul,2024-09-06,2451,Project
pushed to,Codage,4,maieul,2024-09-06,2451,Project
pushed to,Codage,4,maieul,2024-09-06,2451,Project
pushed to,Codage,4,maieul,2024-09-06,2451,Project
pushed to,Codage,4,maieul,2024-09-06,2451,Project
pushed to,Codage,4,maieul,2024-09-06,2451,Project
pushed to,Codage,4,maieul,2024-09-06,2451,Project
pushed to,Codage,4,maieul,2024-09-06,2451,Project
pushed to,Codage,4,maieul,2024-09-06,2451,Project
pushed to,Codage,4,maieul,2024-09-06,2451,Project
pushed to,Codage,4,maieul,2024-09-06,2451,Project
pushed to,Codage,4,maieul,2024-09-06,2451,Project
pushed to,Codage,4,maieul,2024-09-06,2451,Project
pushed to,Codage,4,maieul,2024-09-06,2451,Project
accepted,Codage,4,maieul,2024-09-07,2451,MergeRequest
approved,Codage,14,rastapopoulos,2024-09-07,2451,MergeRequest
deleted,Codage,4,maieul,2024-09-07,2451,Project
pushed to,Codage,4,maieul,2024-09-07,2451,Project
closed,Papotage,4,maieul,2024-09-09,2451,Issue
opened,Papotage,4,maieul,2024-09-09,2451,Issue
accepted,Codage,4,maieul,2024-09-09,2451,MergeRequest
accepted,Codage,4,maieul,2024-09-09,2451,MergeRequest
accepted,Codage,4,maieul,2024-09-09,2451,MergeRequest
approved,Codage,14,rastapopoulos,2024-09-09,2451,MergeRequest
approved,Codage,14,rastapopoulos,2024-09-09,2451,MergeRequest
approved,Codage,14,rastapopoulos,2024-09-09,2451,MergeRequest
opened,Codage,4,maieul,2024-09-09,2451,MergeRequest
opened,Codage,4,maieul,2024-09-09,2451,MergeRequest
opened,Codage,4,maieul,2024-09-09,2451,MergeRequest
deleted,Codage,4,maieul,2024-09-09,2451,Project
deleted,Codage,4,maieul,2024-09-09,2451,Project
deleted,Codage,4,maieul,2024-09-09,2451,Project
pushed new,Codage,4,maieul,2024-09-09,2451,Project
pushed new,Codage,4,maieul,2024-09-09,2451,Project
pushed new,Codage,4,maieul,2024-09-09,2451,Project
pushed to,Codage,4,maieul,2024-09-09,2451,Project
pushed to,Codage,4,maieul,2024-09-09,2451,Project
pushed to,Codage,4,maieul,2024-09-09,2451,Project
pushed to,Codage,4,maieul,2024-09-09,2451,Project
pushed to,Codage,4,maieul,2024-09-09,2451,Project
pushed to,Codage,4,maieul,2024-09-09,2451,Project
pushed to,Codage,4,maieul,2024-09-09,2451,Project
opened,Papotage,4,maieul,2024-09-14,2451,Issue
opened,Papotage,4,maieul,2024-09-15,2451,Issue
opened,Codage,4,maieul,2024-09-15,2451,MergeRequest
pushed new,Codage,4,maieul,2024-09-15,2451,Project
pushed to,Codage,4,maieul,2024-09-15,2451,Project
commented on,Papotage,14,rastapopoulos,2024-09-16,2451,DiscussionNote
commented on,Papotage,4,maieul,2024-09-16,2451,DiscussionNote
commented on,Papotage,4,maieul,2024-09-16,2451,DiscussionNote
commented on,Papotage,4,maieul,2024-09-16,2451,DiscussionNote
closed,Papotage,4,maieul,2024-09-16,2451,Issue
closed,Codage,4,maieul,2024-09-16,2451,MergeRequest
commented on,Papotage,14,rastapopoulos,2024-09-16,2451,Note
commented on,Papotage,4,maieul,2024-09-16,2451,Note
commented on,Papotage,14,rastapopoulos,2024-09-17,2451,DiscussionNote
commented on,Papotage,4,maieul,2024-09-17,2451,DiscussionNote
commented on,Papotage,4,maieul,2024-09-17,2451,DiscussionNote
commented on,Papotage,4,maieul,2024-09-17,2451,DiscussionNote
closed,Papotage,4,maieul,2024-09-17,2451,Issue
closed,Papotage,4,maieul,2024-09-17,2451,Issue
opened,Papotage,4,maieul,2024-09-17,2451,Issue
accepted,Codage,4,maieul,2024-09-17,2451,MergeRequest
accepted,Codage,4,maieul,2024-09-17,2451,MergeRequest
approved,Codage,14,rastapopoulos,2024-09-17,2451,MergeRequest
approved,Codage,14,rastapopoulos,2024-09-17,2451,MergeRequest
approved,Codage,14,rastapopoulos,2024-09-17,2451,MergeRequest
approved,Codage,14,rastapopoulos,2024-09-17,2451,MergeRequest
opened,Codage,4,maieul,2024-09-17,2451,MergeRequest
opened,Codage,4,maieul,2024-09-17,2451,MergeRequest
opened,Codage,4,maieul,2024-09-17,2451,MergeRequest
opened,Codage,4,maieul,2024-09-17,2451,MergeRequest
opened,Codage,4,maieul,2024-09-17,2451,MergeRequest
commented on,Papotage,14,rastapopoulos,2024-09-17,2451,Note
commented on,Papotage,4,maieul,2024-09-17,2451,Note
commented on,Papotage,4,maieul,2024-09-17,2451,Note
commented on,Papotage,4,maieul,2024-09-17,2451,Note
commented on,Papotage,4,maieul,2024-09-17,2451,Note
commented on,Papotage,4,maieul,2024-09-17,2451,Note
deleted,Codage,4,maieul,2024-09-17,2451,Project
deleted,Codage,4,maieul,2024-09-17,2451,Project
deleted,Codage,4,maieul,2024-09-17,2451,Project
pushed new,Codage,4,maieul,2024-09-17,2451,Project
pushed new,Codage,4,maieul,2024-09-17,2451,Project
pushed new,Codage,4,maieul,2024-09-17,2451,Project
pushed new,Codage,4,maieul,2024-09-17,2451,Project
pushed new,Codage,4,maieul,2024-09-17,2451,Project
pushed new,Codage,4,maieul,2024-09-17,2451,Project
pushed to,Codage,4,maieul,2024-09-17,2451,Project
pushed to,Codage,4,maieul,2024-09-17,2451,Project
pushed to,Codage,4,maieul,2024-09-17,2451,Project
pushed to,Codage,4,maieul,2024-09-17,2451,Project
commented on,Papotage,14,rastapopoulos,2024-09-18,2451,DiscussionNote
commented on,Papotage,14,rastapopoulos,2024-09-18,2451,DiscussionNote
commented on,Papotage,4,maieul,2024-09-18,2451,DiscussionNote
commented on,Papotage,4,maieul,2024-09-18,2451,DiscussionNote
commented on,Papotage,4,maieul,2024-09-18,2451,DiscussionNote
closed,Papotage,4,maieul,2024-09-18,2451,Issue
closed,Papotage,4,maieul,2024-09-18,2451,Issue
opened,Papotage,4,maieul,2024-09-18,2451,Issue
accepted,Codage,4,maieul,2024-09-18,2451,MergeRequest
accepted,Codage,4,maieul,2024-09-18,2451,MergeRequest
accepted,Codage,4,maieul,2024-09-18,2451,MergeRequest
accepted,Codage,4,maieul,2024-09-18,2451,MergeRequest
approved,Codage,14,rastapopoulos,2024-09-18,2451,MergeRequest
approved,Codage,14,rastapopoulos,2024-09-18,2451,MergeRequest
approved,Codage,14,rastapopoulos,2024-09-18,2451,MergeRequest
approved,Codage,14,rastapopoulos,2024-09-18,2451,MergeRequest
opened,Codage,4,maieul,2024-09-18,2451,MergeRequest
opened,Codage,4,maieul,2024-09-18,2451,MergeRequest
opened,Codage,4,maieul,2024-09-18,2451,MergeRequest
opened,Codage,4,maieul,2024-09-18,2451,MergeRequest
opened,Codage,4,maieul,2024-09-18,2451,MergeRequest
commented on,Papotage,14,rastapopoulos,2024-09-18,2451,Note
commented on,Papotage,14,rastapopoulos,2024-09-18,2451,Note
commented on,Papotage,4,maieul,2024-09-18,2451,Note
deleted,Codage,4,maieul,2024-09-18,2451,Project
deleted,Codage,4,maieul,2024-09-18,2451,Project
deleted,Codage,4,maieul,2024-09-18,2451,Project
deleted,Codage,4,maieul,2024-09-18,2451,Project
pushed new,Codage,4,maieul,2024-09-18,2451,Project
pushed new,Codage,4,maieul,2024-09-18,2451,Project
pushed new,Codage,4,maieul,2024-09-18,2451,Project
pushed new,Codage,4,maieul,2024-09-18,2451,Project
pushed new,Codage,4,maieul,2024-09-18,2451,Project
pushed to,Codage,4,maieul,2024-09-18,2451,Project
pushed to,Codage,4,maieul,2024-09-18,2451,Project
pushed to,Codage,4,maieul,2024-09-18,2451,Project
pushed to,Codage,4,maieul,2024-09-18,2451,Project
pushed to,Codage,4,maieul,2024-09-18,2451,Project
pushed to,Codage,4,maieul,2024-09-18,2451,Project
pushed to,Codage,4,maieul,2024-09-18,2451,Project
pushed to,Codage,4,maieul,2024-09-18,2451,Project
pushed to,Codage,4,maieul,2024-09-18,2451,Project
pushed to,Codage,4,maieul,2024-09-18,2451,Project
pushed to,Codage,4,maieul,2024-09-18,2451,Project
pushed to,Codage,4,maieul,2024-09-18,2451,Project
commented on,Papotage,4,maieul,2024-09-19,2451,DiscussionNote
accepted,Codage,4,maieul,2024-09-19,2451,MergeRequest
deleted,Codage,4,maieul,2024-09-19,2451,Project
pushed to,Codage,4,maieul,2024-09-19,2451,Project
commented on,Papotage,17,nicod,2024-09-20,2451,DiscussionNote
commented on,Papotage,4,maieul,2024-09-20,2451,DiscussionNote
commented on,Papotage,4,maieul,2024-09-20,2451,DiscussionNote
accepted,Codage,4,maieul,2024-09-20,2451,MergeRequest
commented on,Papotage,17,nicod,2024-09-20,2451,Note
deleted,Codage,4,maieul,2024-09-20,2451,Project
pushed new,Codage,4,maieul,2024-09-20,2451,Project
pushed to,Codage,4,maieul,2024-09-20,2451,Project
pushed to,Codage,4,maieul,2024-09-20,2451,Project
pushed to,Codage,4,maieul,2024-09-20,2451,Project
closed,Papotage,431,Jack31,2024-09-25,2451,Issue
opened,Papotage,43,RealET,2024-09-25,2451,Issue
opened,Papotage,431,Jack31,2024-09-25,2451,Issue
approved,Codage,14,rastapopoulos,2024-09-25,2451,MergeRequest
opened,Codage,4,maieul,2024-09-25,2451,MergeRequest
commented on,Papotage,14,rastapopoulos,2024-09-25,2451,Note
commented on,Papotage,4,maieul,2024-09-25,2451,Note
commented on,Papotage,43,RealET,2024-09-25,2451,Note
commented on,Papotage,431,Jack31,2024-09-25,2451,Note
pushed new,Codage,4,maieul,2024-09-25,2451,Project
closed,Papotage,4,maieul,2024-09-26,2451,Issue
closed,Papotage,4,maieul,2024-09-26,2451,Issue
accepted,Codage,4,maieul,2024-09-26,2451,MergeRequest
approved,Codage,43,RealET,2024-09-26,2451,MergeRequest
commented on,Papotage,43,RealET,2024-09-26,2451,Note
deleted,Codage,4,maieul,2024-09-26,2451,Project
pushed new,Codage,4,maieul,2024-09-26,2451,Project
pushed to,Codage,4,maieul,2024-09-26,2451,Project
pushed to,Codage,4,maieul,2024-09-26,2451,Project
commented on,Papotage,14,rastapopoulos,2024-09-30,2451,DiscussionNote
commented on,Papotage,14,rastapopoulos,2024-09-30,2451,DiscussionNote
commented on,Papotage,4,maieul,2024-09-30,2451,DiscussionNote
commented on,Papotage,4,maieul,2024-09-30,2451,DiscussionNote
commented on,Papotage,4,maieul,2024-09-30,2451,DiscussionNote
commented on,Papotage,4,maieul,2024-09-30,2451,DiscussionNote
accepted,Codage,4,maieul,2024-09-30,2451,MergeRequest
approved,Codage,14,rastapopoulos,2024-09-30,2451,MergeRequest
approved,Codage,14,rastapopoulos,2024-09-30,2451,MergeRequest
deleted,Codage,4,maieul,2024-09-30,2451,Project
pushed to,Codage,4,maieul,2024-09-30,2451,Project
pushed to,Codage,4,maieul,2024-09-30,2451,Project
pushed to,Codage,4,maieul,2024-09-30,2451,Project
pushed to,Codage,4,maieul,2024-09-30,2451,Project
commented on,Papotage,4,maieul,2024-10-01,2451,DiscussionNote
commented on,Papotage,430,JLuc,2024-10-01,2451,DiscussionNote
closed,Papotage,4,maieul,2024-10-01,2451,Issue
closed,Papotage,4,maieul,2024-10-01,2451,Issue
opened,Papotage,43,RealET,2024-10-01,2451,Issue
opened,Papotage,43,RealET,2024-10-01,2451,Issue
accepted,Codage,4,maieul,2024-10-01,2451,MergeRequest
commented on,Papotage,4,maieul,2024-10-01,2451,Note
commented on,Papotage,4,maieul,2024-10-01,2451,Note
deleted,Codage,4,maieul,2024-10-01,2451,Project
pushed to,Codage,4,maieul,2024-10-01,2451,Project
pushed to,Codage,4,maieul,2024-10-01,2451,Project
commented on,Papotage,17,nicod,2024-10-02,2451,DiffNote
commented on,Papotage,17,nicod,2024-10-02,2451,DiscussionNote
commented on,Papotage,17,nicod,2024-10-02,2451,DiscussionNote
commented on,Papotage,4,maieul,2024-10-02,2451,DiscussionNote
commented on,Papotage,4,maieul,2024-10-02,2451,DiscussionNote
commented on,Papotage,4,maieul,2024-10-02,2451,DiscussionNote
accepted,Codage,4,maieul,2024-10-02,2451,MergeRequest
approved,Codage,14,rastapopoulos,2024-10-02,2451,MergeRequest
approved,Codage,14,rastapopoulos,2024-10-02,2451,MergeRequest
opened,Codage,4,maieul,2024-10-02,2451,MergeRequest
opened,Codage,4,maieul,2024-10-02,2451,MergeRequest
commented on,Papotage,14,rastapopoulos,2024-10-02,2451,Note
commented on,Papotage,4,maieul,2024-10-02,2451,Note
deleted,Codage,4,maieul,2024-10-02,2451,Project
pushed new,Codage,4,maieul,2024-10-02,2451,Project
pushed new,Codage,4,maieul,2024-10-02,2451,Project
pushed to,Codage,4,maieul,2024-10-02,2451,Project
pushed to,Codage,4,maieul,2024-10-02,2451,Project
pushed to,Codage,4,maieul,2024-10-02,2451,Project
pushed to,Codage,4,maieul,2024-10-02,2451,Project
commented on,Papotage,4,maieul,2024-10-03,2451,DiffNote
accepted,Codage,4,maieul,2024-10-03,2451,MergeRequest
opened,Codage,4,maieul,2024-10-03,2451,MergeRequest
deleted,Codage,4,maieul,2024-10-03,2451,Project
pushed new,Codage,4,maieul,2024-10-03,2451,Project
pushed to,Codage,4,maieul,2024-10-03,2451,Project
pushed to,Codage,4,maieul,2024-10-03,2451,Project
accepted,Codage,4,maieul,2024-10-04,2451,MergeRequest
accepted,Codage,4,maieul,2024-10-04,2451,MergeRequest
approved,Codage,14,rastapopoulos,2024-10-04,2451,MergeRequest
opened,Codage,4,maieul,2024-10-04,2451,MergeRequest
deleted,Codage,4,maieul,2024-10-04,2451,Project
deleted,Codage,4,maieul,2024-10-04,2451,Project
pushed new,Codage,4,maieul,2024-10-04,2451,Project
pushed new,Codage,4,maieul,2024-10-04,2451,Project
pushed to,Codage,4,maieul,2024-10-04,2451,Project
pushed to,Codage,4,maieul,2024-10-04,2451,Project
pushed to,Codage,4,maieul,2024-10-04,2451,Project
pushed to,Codage,4,maieul,2024-10-04,2451,Project
commented on,Papotage,14,rastapopoulos,2024-10-06,2451,DiffNote
commented on,Papotage,4,maieul,2024-10-06,2451,DiffNote
commented on,Papotage,4,maieul,2024-10-06,2451,DiffNote
commented on,Papotage,4,maieul,2024-10-06,2451,DiffNote
commented on,Papotage,431,Jack31,2024-10-06,2451,DiffNote
commented on,Papotage,4,maieul,2024-10-06,2451,DiscussionNote
commented on,Papotage,4,maieul,2024-10-06,2451,DiscussionNote
commented on,Papotage,4,maieul,2024-10-06,2451,DiscussionNote
approved,Codage,12,marcimat,2024-10-06,2451,MergeRequest
approved,Codage,431,Jack31,2024-10-06,2451,MergeRequest
opened,Codage,4,maieul,2024-10-06,2451,MergeRequest
opened,Codage,4,maieul,2024-10-06,2451,MergeRequest
opened,Codage,4,maieul,2024-10-06,2451,MergeRequest
opened,Codage,4,maieul,2024-10-06,2451,MergeRequest
opened,Codage,4,maieul,2024-10-06,2451,MergeRequest
opened,Codage,4,maieul,2024-10-06,2451,MergeRequest
commented on,Papotage,14,rastapopoulos,2024-10-06,2451,Note
commented on,Papotage,4,maieul,2024-10-06,2451,Note
commented on,Papotage,4,maieul,2024-10-06,2451,Note
pushed new,Codage,4,maieul,2024-10-06,2451,Project
pushed new,Codage,4,maieul,2024-10-06,2451,Project
pushed new,Codage,4,maieul,2024-10-06,2451,Project
pushed new,Codage,4,maieul,2024-10-06,2451,Project
pushed new,Codage,4,maieul,2024-10-06,2451,Project
pushed new,Codage,4,maieul,2024-10-06,2451,Project
pushed to,Codage,4,maieul,2024-10-06,2451,Project
pushed to,Codage,4,maieul,2024-10-06,2451,Project
pushed to,Codage,4,maieul,2024-10-06,2451,Project
pushed to,Codage,4,maieul,2024-10-06,2451,Project
pushed to,Codage,4,maieul,2024-10-06,2451,Project
pushed to,Codage,4,maieul,2024-10-06,2451,Project
pushed to,Codage,4,maieul,2024-10-06,2451,Project
pushed to,Codage,4,maieul,2024-10-06,2451,Project
pushed to,Codage,4,maieul,2024-10-06,2451,Project
pushed to,Codage,4,maieul,2024-10-06,2451,Project
pushed to,Codage,4,maieul,2024-10-06,2451,Project
pushed to,Codage,4,maieul,2024-10-06,2451,Project
commented on,Papotage,14,rastapopoulos,2024-10-07,2451,DiffNote
commented on,Papotage,14,rastapopoulos,2024-10-07,2451,DiffNote
commented on,Papotage,14,rastapopoulos,2024-10-07,2451,DiffNote
commented on,Papotage,14,rastapopoulos,2024-10-07,2451,DiffNote
commented on,Papotage,14,rastapopoulos,2024-10-07,2451,DiffNote
commented on,Papotage,3,touti,2024-10-07,2451,DiffNote
commented on,Papotage,4,maieul,2024-10-07,2451,DiffNote
commented on,Papotage,4,maieul,2024-10-07,2451,DiffNote
commented on,Papotage,4,maieul,2024-10-07,2451,DiffNote
commented on,Papotage,4,maieul,2024-10-07,2451,DiffNote
commented on,Papotage,4,maieul,2024-10-07,2451,DiffNote
commented on,Papotage,14,rastapopoulos,2024-10-07,2451,DiscussionNote
commented on,Papotage,4,maieul,2024-10-07,2451,DiscussionNote
commented on,Papotage,4,maieul,2024-10-07,2451,DiscussionNote
accepted,Codage,4,maieul,2024-10-07,2451,MergeRequest
accepted,Codage,4,maieul,2024-10-07,2451,MergeRequest
accepted,Codage,4,maieul,2024-10-07,2451,MergeRequest
accepted,Codage,4,maieul,2024-10-07,2451,MergeRequest
approved,Codage,14,rastapopoulos,2024-10-07,2451,MergeRequest
approved,Codage,14,rastapopoulos,2024-10-07,2451,MergeRequest
approved,Codage,14,rastapopoulos,2024-10-07,2451,MergeRequest
commented on,Papotage,14,rastapopoulos,2024-10-07,2451,Note
deleted,Codage,4,maieul,2024-10-07,2451,Project
deleted,Codage,4,maieul,2024-10-07,2451,Project
deleted,Codage,4,maieul,2024-10-07,2451,Project
deleted,Codage,4,maieul,2024-10-07,2451,Project
pushed to,Codage,4,maieul,2024-10-07,2451,Project
pushed to,Codage,4,maieul,2024-10-07,2451,Project
pushed to,Codage,4,maieul,2024-10-07,2451,Project
pushed to,Codage,4,maieul,2024-10-07,2451,Project
pushed to,Codage,4,maieul,2024-10-07,2451,Project
pushed to,Codage,4,maieul,2024-10-07,2451,Project
pushed to,Codage,4,maieul,2024-10-07,2451,Project
pushed to,Codage,4,maieul,2024-10-07,2451,Project
pushed to,Codage,4,maieul,2024-10-07,2451,Project
commented on,Papotage,4,maieul,2024-10-08,2451,DiffNote
opened,Papotage,230,jcvilleneuve,2024-10-08,2451,Issue
commented on,Papotage,3,touti,2024-10-08,2451,Note
commented on,Papotage,4,maieul,2024-10-08,2451,Note
pushed to,Codage,4,maieul,2024-10-08,2451,Project
pushed to,Codage,4,maieul,2024-10-08,2451,Project
commented on,Papotage,14,rastapopoulos,2024-10-09,2451,DiscussionNote
commented on,Papotage,17,nicod,2024-10-09,2451,DiscussionNote
commented on,Papotage,17,nicod,2024-10-09,2451,DiscussionNote
commented on,Papotage,17,nicod,2024-10-09,2451,DiscussionNote
commented on,Papotage,17,nicod,2024-10-09,2451,DiscussionNote
commented on,Papotage,17,nicod,2024-10-09,2451,DiscussionNote
commented on,Papotage,17,nicod,2024-10-09,2451,DiscussionNote
commented on,Papotage,17,nicod,2024-10-09,2451,DiscussionNote
commented on,Papotage,4,maieul,2024-10-09,2451,DiscussionNote
commented on,Papotage,4,maieul,2024-10-09,2451,DiscussionNote
commented on,Papotage,4,maieul,2024-10-09,2451,DiscussionNote
commented on,Papotage,4,maieul,2024-10-09,2451,DiscussionNote
commented on,Papotage,17,nicod,2024-10-09,2451,Note
commented on,Papotage,230,jcvilleneuve,2024-10-09,2451,Note
commented on,Papotage,4,maieul,2024-10-09,2451,Note
commented on,Papotage,14,rastapopoulos,2024-10-10,2451,DiscussionNote
commented on,Papotage,230,jcvilleneuve,2024-10-10,2451,DiscussionNote
commented on,Papotage,230,jcvilleneuve,2024-10-10,2451,DiscussionNote
commented on,Papotage,230,jcvilleneuve,2024-10-10,2451,DiscussionNote
commented on,Papotage,230,jcvilleneuve,2024-10-10,2451,DiscussionNote
commented on,Papotage,4,maieul,2024-10-10,2451,DiscussionNote
commented on,Papotage,4,maieul,2024-10-10,2451,DiscussionNote
commented on,Papotage,4,maieul,2024-10-10,2451,DiscussionNote
commented on,Papotage,4,maieul,2024-10-10,2451,DiscussionNote
commented on,Papotage,230,jcvilleneuve,2024-10-10,2451,Note
commented on,Papotage,230,jcvilleneuve,2024-10-10,2451,Note
pushed new,Codage,4,maieul,2024-10-10,2451,Project
pushed to,Codage,4,maieul,2024-10-10,2451,Project
opened,Papotage,4,maieul,2024-10-15,2451,Issue
commented on,Papotage,17,nicod,2024-10-22,2451,DiscussionNote
commented on,Papotage,4,maieul,2024-10-22,2451,DiscussionNote
commented on,Papotage,4,maieul,2024-10-22,2451,DiscussionNote
closed,Papotage,4,maieul,2024-10-22,2451,Issue
opened,Papotage,17,nicod,2024-10-22,2451,Issue
opened,Papotage,17,nicod,2024-10-22,2451,Issue
opened,Papotage,478,JuL_BLoBuL,2024-10-22,2451,Issue
opened,Codage,17,nicod,2024-10-22,2451,MergeRequest
commented on,Papotage,17,nicod,2024-10-22,2451,Note
commented on,Papotage,4,maieul,2024-10-22,2451,Note
commented on,Papotage,4,maieul,2024-10-22,2451,Note
pushed new,Codage,17,nicod,2024-10-22,2451,Project
pushed to,Codage,17,nicod,2024-10-22,2451,Project
pushed to,Codage,4,maieul,2024-10-22,2451,Project
commented on,Papotage,14,rastapopoulos,2024-10-23,2451,DiscussionNote
commented on,Papotage,14,rastapopoulos,2024-10-23,2451,DiscussionNote
commented on,Papotage,15,tcharlss,2024-10-23,2451,DiscussionNote
commented on,Papotage,17,nicod,2024-10-23,2451,DiscussionNote
commented on,Papotage,17,nicod,2024-10-23,2451,DiscussionNote
commented on,Papotage,4,maieul,2024-10-23,2451,DiscussionNote
commented on,Papotage,4,maieul,2024-10-23,2451,DiscussionNote
commented on,Papotage,4,maieul,2024-10-23,2451,DiscussionNote
commented on,Papotage,4,maieul,2024-10-23,2451,DiscussionNote
commented on,Papotage,4,maieul,2024-10-23,2451,DiscussionNote
commented on,Papotage,4,maieul,2024-10-23,2451,DiscussionNote
commented on,Papotage,4,maieul,2024-10-23,2451,DiscussionNote
commented on,Papotage,4,maieul,2024-10-23,2451,DiscussionNote
commented on,Papotage,4,maieul,2024-10-23,2451,DiscussionNote
commented on,Papotage,4,maieul,2024-10-23,2451,DiscussionNote
closed,Papotage,4,maieul,2024-10-23,2451,Issue
closed,Papotage,4,maieul,2024-10-23,2451,Issue
opened,Papotage,15,tcharlss,2024-10-23,2451,Issue
accepted,Codage,4,maieul,2024-10-23,2451,MergeRequest
opened,Codage,4,maieul,2024-10-23,2451,MergeRequest
commented on,Papotage,15,tcharlss,2024-10-23,2451,Note
commented on,Papotage,15,tcharlss,2024-10-23,2451,Note
commented on,Papotage,15,tcharlss,2024-10-23,2451,Note
commented on,Papotage,17,nicod,2024-10-23,2451,Note
commented on,Papotage,17,nicod,2024-10-23,2451,Note
commented on,Papotage,4,maieul,2024-10-23,2451,Note
deleted,Codage,4,maieul,2024-10-23,2451,Project
pushed new,Codage,4,maieul,2024-10-23,2451,Project
pushed to,Codage,17,nicod,2024-10-23,2451,Project
pushed to,Codage,4,maieul,2024-10-23,2451,Project
pushed to,Codage,4,maieul,2024-10-23,2451,Project
commented on,Papotage,14,rastapopoulos,2024-10-24,2451,DiffNote
commented on,Papotage,17,nicod,2024-10-24,2451,DiffNote
commented on,Papotage,4,maieul,2024-10-24,2451,DiffNote
commented on,Papotage,4,maieul,2024-10-24,2451,DiffNote
commented on,Papotage,4,maieul,2024-10-24,2451,DiffNote
commented on,Papotage,4,maieul,2024-10-24,2451,DiffNote
commented on,Papotage,14,rastapopoulos,2024-10-24,2451,DiscussionNote
commented on,Papotage,14,rastapopoulos,2024-10-24,2451,DiscussionNote
commented on,Papotage,14,rastapopoulos,2024-10-24,2451,DiscussionNote
commented on,Papotage,14,rastapopoulos,2024-10-24,2451,DiscussionNote
commented on,Papotage,15,tcharlss,2024-10-24,2451,DiscussionNote
commented on,Papotage,15,tcharlss,2024-10-24,2451,DiscussionNote
commented on,Papotage,17,nicod,2024-10-24,2451,DiscussionNote
commented on,Papotage,17,nicod,2024-10-24,2451,DiscussionNote
commented on,Papotage,17,nicod,2024-10-24,2451,DiscussionNote
commented on,Papotage,17,nicod,2024-10-24,2451,DiscussionNote
commented on,Papotage,17,nicod,2024-10-24,2451,DiscussionNote
commented on,Papotage,4,maieul,2024-10-24,2451,DiscussionNote
commented on,Papotage,4,maieul,2024-10-24,2451,DiscussionNote
commented on,Papotage,4,maieul,2024-10-24,2451,DiscussionNote
closed,Papotage,15,tcharlss,2024-10-24,2451,Issue
closed,Papotage,4,maieul,2024-10-24,2451,Issue
closed,Papotage,4,maieul,2024-10-24,2451,Issue
accepted,Codage,4,maieul,2024-10-24,2451,MergeRequest
accepted,Codage,4,maieul,2024-10-24,2451,MergeRequest
opened,Codage,15,tcharlss,2024-10-24,2451,MergeRequest
commented on,Papotage,15,tcharlss,2024-10-24,2451,Note
commented on,Papotage,4,maieul,2024-10-24,2451,Note
commented on,Papotage,4,maieul,2024-10-24,2451,Note
commented on,Papotage,4,maieul,2024-10-24,2451,Note
deleted,Codage,15,tcharlss,2024-10-24,2451,Project
deleted,Codage,17,nicod,2024-10-24,2451,Project
pushed new,Codage,15,tcharlss,2024-10-24,2451,Project
pushed new,Codage,4,maieul,2024-10-24,2451,Project
pushed to,Codage,4,maieul,2024-10-24,2451,Project
pushed to,Codage,4,maieul,2024-10-24,2451,Project
pushed to,Codage,4,maieul,2024-10-24,2451,Project
pushed to,Codage,4,maieul,2024-10-24,2451,Project
pushed to,Codage,4,maieul,2024-10-24,2451,Project
commented on,Papotage,17,nicod,2024-10-25,2451,DiscussionNote
commented on,Papotage,17,nicod,2024-10-26,2451,DiscussionNote
commented on,Papotage,4,maieul,2024-10-26,2451,Note
commented on,Papotage,13,Eric,2024-11-03,2451,DiscussionNote
commented on,Papotage,14,rastapopoulos,2024-11-03,2451,DiscussionNote
commented on,Papotage,4,maieul,2024-11-03,2451,DiscussionNote
opened,Papotage,13,Eric,2024-11-03,2451,Issue
commented on,Papotage,13,Eric,2024-11-03,2451,Note
commented on,Papotage,14,rastapopoulos,2024-11-03,2451,Note
opened,Papotage,4,maieul,2024-11-12,2451,Issue
approved,Codage,14,rastapopoulos,2024-11-12,2451,MergeRequest
opened,Codage,4,maieul,2024-11-12,2451,MergeRequest
commented on,Papotage,17,nicod,2024-11-12,2451,Note
commented on,Papotage,17,nicod,2024-11-12,2451,Note
pushed new,Codage,4,maieul,2024-11-12,2451,Project
commented on,Papotage,4,maieul,2024-11-13,2451,DiscussionNote
commented on,Papotage,4,maieul,2024-11-13,2451,DiscussionNote
accepted,Codage,4,maieul,2024-11-13,2451,MergeRequest
opened,Codage,4,maieul,2024-11-13,2451,MergeRequest
commented on,Papotage,12,marcimat,2024-11-13,2451,Note
deleted,Codage,4,maieul,2024-11-13,2451,Project
pushed new,Codage,4,maieul,2024-11-13,2451,Project
pushed to,Codage,4,maieul,2024-11-13,2451,Project
pushed new,Codage,4,maieul,2024-11-15,2451,Project
opened,Papotage,17,nicod,2024-11-16,2451,Issue
opened,Codage,17,nicod,2024-11-16,2451,MergeRequest
commented on,Papotage,17,nicod,2024-11-16,2451,Note
pushed new,Codage,17,nicod,2024-11-16,2451,Project
approved,Codage,14,rastapopoulos,2024-11-17,2451,MergeRequest
commented on,Papotage,4,maieul,2024-11-17,2451,Note
commented on,Papotage,14,rastapopoulos,2024-11-18,2451,DiscussionNote
commented on,Papotage,14,rastapopoulos,2024-11-18,2451,DiscussionNote
commented on,Papotage,4,maieul,2024-11-18,2451,DiscussionNote
commented on,Papotage,4,maieul,2024-11-18,2451,DiscussionNote
commented on,Papotage,4,maieul,2024-11-18,2451,DiscussionNote
commented on,Papotage,4,maieul,2024-11-18,2451,DiscussionNote
commented on,Papotage,4,maieul,2024-11-18,2451,DiscussionNote
closed,Papotage,4,maieul,2024-11-18,2451,Issue
closed,Papotage,4,maieul,2024-11-18,2451,Issue
accepted,Codage,4,maieul,2024-11-18,2451,MergeRequest
accepted,Codage,4,maieul,2024-11-18,2451,MergeRequest
approved,Codage,14,rastapopoulos,2024-11-18,2451,MergeRequest
opened,Codage,4,maieul,2024-11-18,2451,MergeRequest
commented on,Papotage,4,maieul,2024-11-18,2451,Note
deleted,Codage,17,nicod,2024-11-18,2451,Project
deleted,Codage,4,maieul,2024-11-18,2451,Project
pushed to,Codage,4,maieul,2024-11-18,2451,Project
pushed to,Codage,4,maieul,2024-11-18,2451,Project
pushed to,Codage,4,maieul,2024-11-18,2451,Project
pushed to,Codage,4,maieul,2024-11-18,2451,Project
pushed to,Codage,4,maieul,2024-11-18,2451,Project
pushed to,Codage,4,maieul,2024-11-18,2451,Project
commented on,Papotage,14,rastapopoulos,2024-11-19,2451,DiscussionNote
commented on,Papotage,14,rastapopoulos,2024-11-19,2451,DiscussionNote
commented on,Papotage,4,maieul,2024-11-19,2451,DiscussionNote
commented on,Papotage,4,maieul,2024-11-19,2451,DiscussionNote
commented on,Papotage,4,maieul,2024-11-19,2451,DiscussionNote
commented on,Papotage,14,rastapopoulos,2024-11-21,2451,DiscussionNote
accepted,Codage,4,maieul,2024-11-21,2451,MergeRequest
approved,Codage,14,rastapopoulos,2024-11-21,2451,MergeRequest
commented on,Papotage,4,maieul,2024-11-21,2451,Note
commented on,Papotage,4,maieul,2024-11-21,2451,Note
deleted,Codage,4,maieul,2024-11-21,2451,Project
pushed to,Codage,4,maieul,2024-11-21,2451,Project
pushed to,Codage,4,maieul,2024-11-21,2451,Project
pushed to,Codage,4,maieul,2024-11-21,2451,Project
commented on,Papotage,4,maieul,2024-11-22,2451,DiscussionNote
accepted,Codage,4,maieul,2024-11-22,2451,MergeRequest
commented on,Papotage,4,maieul,2024-11-22,2451,Note
commented on,Papotage,4,maieul,2024-11-22,2451,Note
deleted,Codage,4,maieul,2024-11-22,2451,Project
pushed new,Codage,4,maieul,2024-11-22,2451,Project
pushed to,Codage,4,maieul,2024-11-22,2451,Project
pushed to,Codage,4,maieul,2024-11-22,2451,Project
pushed to,Codage,4,maieul,2024-11-22,2451,Project
pushed to,Codage,4,maieul,2024-11-22,2451,Project
pushed to,Codage,4,maieul,2024-11-22,2451,Project
pushed to,Codage,4,maieul,2024-11-22,2451,Project
pushed to,Codage,4,maieul,2024-11-22,2451,Project
approved,Codage,14,rastapopoulos,2024-11-23,2451,MergeRequest
opened,Codage,4,maieul,2024-11-23,2451,MergeRequest
pushed new,Codage,4,maieul,2024-11-23,2451,Project
pushed to,Codage,4,maieul,2024-11-23,2451,Project
pushed to,Codage,4,maieul,2024-11-23,2451,Project
pushed to,Codage,4,maieul,2024-11-23,2451,Project
pushed to,Codage,4,maieul,2024-11-23,2451,Project
pushed to,Codage,4,maieul,2024-11-23,2451,Project
closed,Papotage,4,maieul,2024-11-24,2451,Issue
accepted,Codage,4,maieul,2024-11-24,2451,MergeRequest
approved,Codage,14,rastapopoulos,2024-11-24,2451,MergeRequest
closed,Codage,4,maieul,2024-11-24,2451,MergeRequest
opened,Codage,4,maieul,2024-11-24,2451,MergeRequest
commented on,Papotage,4,maieul,2024-11-24,2451,Note
commented on,Papotage,4,maieul,2024-11-24,2451,Note
deleted,Codage,4,maieul,2024-11-24,2451,Project
deleted,Codage,4,maieul,2024-11-24,2451,Project
pushed new,Codage,4,maieul,2024-11-24,2451,Project
pushed to,Codage,4,maieul,2024-11-24,2451,Project
pushed to,Codage,4,maieul,2024-11-24,2451,Project
commented on,Papotage,15,tcharlss,2024-11-25,2451,DiscussionNote
commented on,Papotage,15,tcharlss,2024-11-25,2451,DiscussionNote
commented on,Papotage,4,maieul,2024-11-25,2451,DiscussionNote
commented on,Papotage,4,maieul,2024-11-25,2451,DiscussionNote
commented on,Papotage,4,maieul,2024-11-25,2451,DiscussionNote
commented on,Papotage,4,maieul,2024-11-25,2451,DiscussionNote
commented on,Papotage,4,maieul,2024-11-25,2451,DiscussionNote
opened,Papotage,3,touti,2024-11-25,2451,Issue
opened,Codage,15,tcharlss,2024-11-25,2451,MergeRequest
commented on,Papotage,14,rastapopoulos,2024-11-25,2451,Note
commented on,Papotage,15,tcharlss,2024-11-25,2451,Note
commented on,Papotage,15,tcharlss,2024-11-25,2451,Note
commented on,Papotage,3,touti,2024-11-25,2451,Note
commented on,Papotage,4,maieul,2024-11-25,2451,Note
pushed new,Codage,15,tcharlss,2024-11-25,2451,Project
pushed to,Codage,15,tcharlss,2024-11-25,2451,Project
commented on,Papotage,14,rastapopoulos,2024-11-26,2451,DiffNote
commented on,Papotage,14,rastapopoulos,2024-11-26,2451,DiffNote
commented on,Papotage,15,tcharlss,2024-11-26,2451,DiffNote
commented on,Papotage,4,maieul,2024-11-26,2451,DiffNote
commented on,Papotage,4,maieul,2024-11-26,2451,DiffNote
commented on,Papotage,15,tcharlss,2024-11-26,2451,DiscussionNote
commented on,Papotage,15,tcharlss,2024-11-26,2451,DiscussionNote
commented on,Papotage,4,maieul,2024-11-26,2451,DiscussionNote
commented on,Papotage,4,maieul,2024-11-26,2451,Note
commented on,Papotage,4,maieul,2024-11-26,2451,Note
pushed to,Codage,15,tcharlss,2024-11-26,2451,Project
pushed to,Codage,15,tcharlss,2024-11-26,2451,Project
commented on,Papotage,3,touti,2024-11-27,2451,DiscussionNote
commented on,Papotage,3,touti,2024-11-27,2451,DiscussionNote
commented on,Papotage,4,maieul,2024-11-27,2451,DiscussionNote
commented on,Papotage,4,maieul,2024-11-27,2451,DiscussionNote
commented on,Papotage,4,maieul,2024-11-27,2451,DiscussionNote
commented on,Papotage,3,touti,2024-11-28,2451,DiscussionNote
commented on,Papotage,3,touti,2024-11-28,2451,DiscussionNote
commented on,Papotage,3,touti,2024-11-28,2451,DiscussionNote
commented on,Papotage,4,maieul,2024-11-28,2451,DiscussionNote
commented on,Papotage,4,maieul,2024-11-29,2451,DiscussionNote
commented on,Papotage,4,maieul,2024-11-29,2451,DiscussionNote
opened,Codage,4,maieul,2024-11-29,2451,MergeRequest
commented on,Papotage,4,maieul,2024-11-29,2451,Note
commented on,Papotage,4,maieul,2024-11-29,2451,Note
commented on,Papotage,4,maieul,2024-11-29,2451,Note
pushed new,Codage,4,maieul,2024-11-29,2451,Project
pushed to,Codage,4,maieul,2024-11-29,2451,Project
pushed to,Codage,4,maieul,2024-11-29,2451,Project
pushed to,Codage,4,maieul,2024-11-29,2451,Project
pushed to,Codage,4,maieul,2024-11-29,2451,Project
pushed to,Codage,4,maieul,2024-11-29,2451,Project
commented on,Papotage,14,rastapopoulos,2024-11-30,2451,DiffNote
commented on,Papotage,14,rastapopoulos,2024-11-30,2451,DiffNote
commented on,Papotage,4,maieul,2024-11-30,2451,DiffNote
commented on,Papotage,17,nicod,2024-11-30,2451,DiscussionNote
commented on,Papotage,17,nicod,2024-11-30,2451,DiscussionNote
commented on,Papotage,4,maieul,2024-11-30,2451,DiscussionNote
approved,Codage,14,rastapopoulos,2024-11-30,2451,MergeRequest
pushed to,Codage,4,maieul,2024-11-30,2451,Project
pushed to,Codage,4,maieul,2024-11-30,2451,Project
pushed to,Codage,4,maieul,2024-11-30,2451,Project
commented on,Papotage,3,touti,2024-12-01,2451,DiscussionNote
commented on,Papotage,4,maieul,2024-12-01,2451,DiscussionNote
accepted,Codage,4,maieul,2024-12-01,2451,MergeRequest
opened,Codage,4,maieul,2024-12-01,2451,MergeRequest
commented on,Papotage,22,placido,2024-12-01,2451,Note
deleted,Codage,4,maieul,2024-12-01,2451,Project
pushed new,Codage,4,maieul,2024-12-01,2451,Project
pushed to,Codage,4,maieul,2024-12-01,2451,Project
pushed to,Codage,4,maieul,2024-12-01,2451,Project
pushed to,Codage,4,maieul,2024-12-01,2451,Project
commented on,Papotage,3,touti,2024-12-02,2451,DiffNote
commented on,Papotage,4,maieul,2024-12-02,2451,DiffNote
commented on,Papotage,17,nicod,2024-12-02,2451,DiscussionNote
commented on,Papotage,3,touti,2024-12-02,2451,DiscussionNote
commented on,Papotage,3,touti,2024-12-02,2451,DiscussionNote
commented on,Papotage,4,maieul,2024-12-02,2451,DiscussionNote
commented on,Papotage,4,maieul,2024-12-02,2451,DiscussionNote
commented on,Papotage,4,maieul,2024-12-02,2451,DiscussionNote
approved,Codage,15,tcharlss,2024-12-02,2451,MergeRequest
opened,Codage,4,maieul,2024-12-02,2451,MergeRequest
opened,Codage,4,maieul,2024-12-02,2451,MergeRequest
commented on,Papotage,15,tcharlss,2024-12-02,2451,Note
pushed new,Codage,4,maieul,2024-12-02,2451,Project
pushed new,Codage,4,maieul,2024-12-02,2451,Project
commented on,Papotage,14,rastapopoulos,2024-12-03,2451,DiscussionNote
commented on,Papotage,14,rastapopoulos,2024-12-03,2451,DiscussionNote
commented on,Papotage,4,maieul,2024-12-03,2451,DiscussionNote
opened,Papotage,4,maieul,2024-12-03,2451,Issue
accepted,Codage,14,rastapopoulos,2024-12-03,2451,MergeRequest
approved,Codage,14,rastapopoulos,2024-12-03,2451,MergeRequest
commented on,Papotage,14,rastapopoulos,2024-12-03,2451,Note
commented on,Papotage,14,rastapopoulos,2024-12-03,2451,Note
commented on,Papotage,14,rastapopoulos,2024-12-03,2451,Note
deleted,Codage,4,maieul,2024-12-03,2451,Project
pushed to,Codage,14,rastapopoulos,2024-12-03,2451,Project
commented on,Papotage,14,rastapopoulos,2024-12-04,2451,DiscussionNote
commented on,Papotage,4,maieul,2024-12-04,2451,DiscussionNote
commented on,Papotage,4,maieul,2024-12-04,2451,DiscussionNote
commented on,Papotage,4,maieul,2024-12-04,2451,DiscussionNote
accepted,Codage,4,maieul,2024-12-04,2451,MergeRequest
deleted,Codage,4,maieul,2024-12-04,2451,Project
pushed to,Codage,4,maieul,2024-12-04,2451,Project
pushed to,Codage,4,maieul,2024-12-04,2451,Project
commented on,Papotage,14,rastapopoulos,2024-12-07,2451,DiffNote
commented on,Papotage,14,rastapopoulos,2024-12-07,2451,DiffNote
commented on,Papotage,4,maieul,2024-12-07,2451,DiffNote
commented on,Papotage,4,maieul,2024-12-07,2451,DiscussionNote
closed,Papotage,4,maieul,2024-12-07,2451,Issue
closed,Papotage,4,maieul,2024-12-07,2451,Issue
opened,Papotage,4,maieul,2024-12-07,2451,Issue
accepted,Codage,4,maieul,2024-12-07,2451,MergeRequest
accepted,Codage,4,maieul,2024-12-07,2451,MergeRequest
approved,Codage,14,rastapopoulos,2024-12-07,2451,MergeRequest
approved,Codage,14,rastapopoulos,2024-12-07,2451,MergeRequest
approved,Codage,14,rastapopoulos,2024-12-07,2451,MergeRequest
opened,Codage,4,maieul,2024-12-07,2451,MergeRequest
opened,Codage,4,maieul,2024-12-07,2451,MergeRequest
commented on,Papotage,14,rastapopoulos,2024-12-07,2451,Note
commented on,Papotage,4,maieul,2024-12-07,2451,Note
deleted,Codage,4,maieul,2024-12-07,2451,Project
deleted,Codage,4,maieul,2024-12-07,2451,Project
pushed new,Codage,4,maieul,2024-12-07,2451,Project
pushed new,Codage,4,maieul,2024-12-07,2451,Project
pushed to,Codage,4,maieul,2024-12-07,2451,Project
pushed to,Codage,4,maieul,2024-12-07,2451,Project
pushed to,Codage,4,maieul,2024-12-07,2451,Project
pushed to,Codage,4,maieul,2024-12-07,2451,Project
pushed to,Codage,4,maieul,2024-12-07,2451,Project
commented on,Papotage,4,maieul,2024-12-08,2451,DiscussionNote
closed,Papotage,4,maieul,2024-12-08,2451,Issue
accepted,Codage,4,maieul,2024-12-08,2451,MergeRequest
accepted,Codage,4,maieul,2024-12-08,2451,MergeRequest
accepted,Codage,4,maieul,2024-12-08,2451,MergeRequest
approved,Codage,14,rastapopoulos,2024-12-08,2451,MergeRequest
approved,Codage,14,rastapopoulos,2024-12-08,2451,MergeRequest
opened,Codage,4,maieul,2024-12-08,2451,MergeRequest
opened,Codage,4,maieul,2024-12-08,2451,MergeRequest
opened,Codage,4,maieul,2024-12-08,2451,MergeRequest
deleted,Codage,4,maieul,2024-12-08,2451,Project
deleted,Codage,4,maieul,2024-12-08,2451,Project
deleted,Codage,4,maieul,2024-12-08,2451,Project
deleted,Codage,4,maieul,2024-12-08,2451,Project
pushed new,Codage,4,maieul,2024-12-08,2451,Project
pushed new,Codage,4,maieul,2024-12-08,2451,Project
pushed new,Codage,4,maieul,2024-12-08,2451,Project
pushed new,Codage,4,maieul,2024-12-08,2451,Project
pushed to,Codage,4,maieul,2024-12-08,2451,Project
pushed to,Codage,4,maieul,2024-12-08,2451,Project
pushed to,Codage,4,maieul,2024-12-08,2451,Project
pushed to,Codage,4,maieul,2024-12-08,2451,Project
pushed to,Codage,4,maieul,2024-12-08,2451,Project
accepted,Codage,4,maieul,2024-12-09,2451,MergeRequest
approved,Codage,14,rastapopoulos,2024-12-09,2451,MergeRequest
opened,Codage,4,maieul,2024-12-09,2451,MergeRequest
deleted,Codage,4,maieul,2024-12-09,2451,Project
pushed new,Codage,4,maieul,2024-12-09,2451,Project
pushed to,Codage,4,maieul,2024-12-09,2451,Project
pushed to,Codage,4,maieul,2024-12-09,2451,Project
pushed to,Codage,4,maieul,2024-12-09,2451,Project
closed,Papotage,4,maieul,2024-12-11,2451,Issue
opened,Papotage,17,nicod,2024-12-11,2451,Issue
accepted,Codage,4,maieul,2024-12-11,2451,MergeRequest
opened,Codage,17,nicod,2024-12-11,2451,MergeRequest
commented on,Papotage,4,maieul,2024-12-11,2451,Note
deleted,Codage,17,nicod,2024-12-11,2451,Project
pushed new,Codage,17,nicod,2024-12-11,2451,Project
pushed to,Codage,4,maieul,2024-12-11,2451,Project
commented on,Papotage,14,rastapopoulos,2024-12-13,2451,DiscussionNote
commented on,Papotage,206,pierretux,2024-12-13,2451,DiscussionNote
commented on,Papotage,4,maieul,2024-12-13,2451,DiscussionNote
commented on,Papotage,4,maieul,2024-12-13,2451,DiscussionNote
closed,Papotage,15,tcharlss,2024-12-13,2451,Issue
closed,Papotage,4,maieul,2024-12-13,2451,Issue
opened,Papotage,206,pierretux,2024-12-13,2451,Issue
accepted,Codage,4,maieul,2024-12-13,2451,MergeRequest
accepted,Codage,4,maieul,2024-12-13,2451,MergeRequest
accepted,Codage,4,maieul,2024-12-13,2451,MergeRequest
closed,Codage,4,maieul,2024-12-13,2451,MergeRequest
commented on,Papotage,14,rastapopoulos,2024-12-13,2451,Note
commented on,Papotage,4,maieul,2024-12-13,2451,Note
commented on,Papotage,4,maieul,2024-12-13,2451,Note
commented on,Papotage,4,maieul,2024-12-13,2451,Note
deleted,Codage,15,tcharlss,2024-12-13,2451,Project
deleted,Codage,4,maieul,2024-12-13,2451,Project
deleted,Codage,4,maieul,2024-12-13,2451,Project
deleted,Codage,4,maieul,2024-12-13,2451,Project
pushed new,Codage,4,maieul,2024-12-13,2451,Project
pushed to,Codage,4,maieul,2024-12-13,2451,Project
pushed to,Codage,4,maieul,2024-12-13,2451,Project
pushed to,Codage,4,maieul,2024-12-13,2451,Project
pushed to,Codage,4,maieul,2024-12-13,2451,Project
pushed to,Codage,4,maieul,2024-12-13,2451,Project
pushed to,Codage,4,maieul,2024-12-13,2451,Project
pushed to,Codage,4,maieul,2024-12-13,2451,Project
accepted,Codage,4,maieul,2024-12-14,2451,MergeRequest
approved,Codage,17,nicod,2024-12-14,2451,MergeRequest
opened,Codage,4,maieul,2024-12-14,2451,MergeRequest
deleted,Codage,4,maieul,2024-12-14,2451,Project
deleted,Codage,4,maieul,2024-12-14,2451,Project
pushed new,Codage,4,maieul,2024-12-14,2451,Project
pushed new,Codage,4,maieul,2024-12-14,2451,Project
pushed to,Codage,4,maieul,2024-12-14,2451,Project
pushed to,Codage,4,maieul,2024-12-14,2451,Project
opened,Codage,4,maieul,2024-12-15,2451,MergeRequest
commented on,Papotage,4,maieul,2024-12-15,2451,Note
commented on,Papotage,4,maieul,2024-12-15,2451,Note
pushed new,Codage,4,maieul,2024-12-15,2451,Project
pushed to,Codage,4,maieul,2024-12-15,2451,Project
accepted,Codage,4,maieul,2024-12-25,2451,MergeRequest
approved,Codage,14,rastapopoulos,2024-12-25,2451,MergeRequest
opened,Codage,4,maieul,2024-12-25,2451,MergeRequest
deleted,Codage,4,maieul,2024-12-25,2451,Project
pushed new,Codage,4,maieul,2024-12-25,2451,Project
pushed to,Codage,4,maieul,2024-12-25,2451,Project
pushed to,Codage,4,maieul,2024-12-31,2451,Project
commented on,Papotage,14,rastapopoulos,2025-01-01,2451,DiscussionNote
commented on,Papotage,14,rastapopoulos,2025-01-01,2451,DiscussionNote
commented on,Papotage,4,maieul,2025-01-01,2451,DiscussionNote
commented on,Papotage,4,maieul,2025-01-01,2451,DiscussionNote
commented on,Papotage,4,maieul,2025-01-01,2451,DiscussionNote
commented on,Papotage,4,maieul,2025-01-01,2451,DiscussionNote
commented on,Papotage,4,maieul,2025-01-01,2451,DiscussionNote
commented on,Papotage,4,maieul,2025-01-01,2451,DiscussionNote
commented on,Papotage,4,maieul,2025-01-01,2451,DiscussionNote
closed,Papotage,4,maieul,2025-01-01,2451,Issue
accepted,Codage,4,maieul,2025-01-01,2451,MergeRequest
approved,Codage,14,rastapopoulos,2025-01-01,2451,MergeRequest
opened,Codage,4,maieul,2025-01-01,2451,MergeRequest
commented on,Papotage,12,marcimat,2025-01-01,2451,Note
commented on,Papotage,4,maieul,2025-01-01,2451,Note
deleted,Codage,4,maieul,2025-01-01,2451,Project
pushed new,Codage,4,maieul,2025-01-01,2451,Project
pushed to,Codage,4,maieul,2025-01-01,2451,Project
pushed to,Codage,4,maieul,2025-01-01,2451,Project
pushed to,Codage,4,maieul,2025-01-01,2451,Project
pushed to,Codage,4,maieul,2025-01-01,2451,Project
opened,Papotage,13,Eric,2025-01-02,2451,Issue
commented on,Papotage,13,Eric,2025-01-03,2451,DiscussionNote
commented on,Papotage,14,rastapopoulos,2025-01-03,2451,DiscussionNote
commented on,Papotage,4,maieul,2025-01-03,2451,DiscussionNote
commented on,Papotage,4,maieul,2025-01-03,2451,DiscussionNote
commented on,Papotage,4,maieul,2025-01-03,2451,DiscussionNote
commented on,Papotage,13,Eric,2025-01-03,2451,Note
commented on,Papotage,4,maieul,2025-01-03,2451,Note
commented on,Papotage,13,Eric,2025-01-04,2451,DiscussionNote
commented on,Papotage,13,Eric,2025-01-04,2451,DiscussionNote
commented on,Papotage,14,rastapopoulos,2025-01-04,2451,DiscussionNote
commented on,Papotage,14,rastapopoulos,2025-01-04,2451,DiscussionNote
commented on,Papotage,13,Eric,2025-01-05,2451,Note
commented on,Papotage,14,rastapopoulos,2025-01-06,2451,DiffNote
commented on,Papotage,14,rastapopoulos,2025-01-06,2451,DiffNote
commented on,Papotage,14,rastapopoulos,2025-01-06,2451,DiffNote
commented on,Papotage,4,maieul,2025-01-06,2451,DiffNote
commented on,Papotage,4,maieul,2025-01-06,2451,DiffNote
commented on,Papotage,14,rastapopoulos,2025-01-06,2451,DiscussionNote
commented on,Papotage,14,rastapopoulos,2025-01-06,2451,DiscussionNote
commented on,Papotage,4,maieul,2025-01-06,2451,DiscussionNote
approved,Codage,14,rastapopoulos,2025-01-06,2451,MergeRequest
commented on,Papotage,14,rastapopoulos,2025-01-07,2451,DiffNote
commented on,Papotage,4,maieul,2025-01-07,2451,DiffNote
commented on,Papotage,13,Eric,2025-01-07,2451,DiscussionNote
commented on,Papotage,14,rastapopoulos,2025-01-07,2451,DiscussionNote
commented on,Papotage,4,maieul,2025-01-07,2451,DiscussionNote
accepted,Codage,4,maieul,2025-01-07,2451,MergeRequest
deleted,Codage,4,maieul,2025-01-07,2451,Project
pushed to,Codage,4,maieul,2025-01-07,2451,Project
pushed to,Codage,4,maieul,2025-01-07,2451,Project
pushed to,Codage,4,maieul,2025-01-07,2451,Project
commented on,Papotage,4,maieul,2025-01-08,2451,DiscussionNote
commented on,Papotage,4,maieul,2025-01-08,2451,DiscussionNote
commented on,Papotage,4,maieul,2025-01-08,2451,DiscussionNote
commented on,Papotage,4,maieul,2025-01-08,2451,DiscussionNote
opened,Papotage,478,JuL_BLoBuL,2025-01-08,2451,Issue
commented on,Papotage,4,maieul,2025-01-08,2451,Note
commented on,Papotage,478,JuL_BLoBuL,2025-01-08,2451,Note
commented on,Papotage,478,JuL_BLoBuL,2025-01-08,2451,Note
commented on,Papotage,478,JuL_BLoBuL,2025-01-08,2451,Note
commented on,Papotage,13,Eric,2025-01-09,2451,DiscussionNote
commented on,Papotage,17,nicod,2025-01-09,2451,DiscussionNote
commented on,Papotage,17,nicod,2025-01-09,2451,DiscussionNote
commented on,Papotage,4,maieul,2025-01-09,2451,DiscussionNote
commented on,Papotage,4,maieul,2025-01-09,2451,DiscussionNote
commented on,Papotage,4,maieul,2025-01-09,2451,DiscussionNote
opened,Papotage,4,maieul,2025-01-09,2451,Issue
opened,Codage,4,maieul,2025-01-10,2451,MergeRequest
commented on,Papotage,4,maieul,2025-01-10,2451,Note
pushed new,Codage,4,maieul,2025-01-10,2451,Project
commented on,Papotage,13,Eric,2025-01-11,2451,DiscussionNote
commented on,Papotage,13,Eric,2025-01-11,2451,DiscussionNote
commented on,Papotage,17,nicod,2025-01-11,2451,DiscussionNote
commented on,Papotage,4,maieul,2025-01-11,2451,DiscussionNote
commented on,Papotage,4,maieul,2025-01-11,2451,DiscussionNote
commented on,Papotage,4,maieul,2025-01-11,2451,DiscussionNote
commented on,Papotage,4,maieul,2025-01-11,2451,DiscussionNote
commented on,Papotage,17,nicod,2025-01-11,2451,Note
commented on,Papotage,13,Eric,2025-01-12,2451,DiscussionNote
commented on,Papotage,13,Eric,2025-01-12,2451,DiscussionNote
commented on,Papotage,13,Eric,2025-01-12,2451,DiscussionNote
commented on,Papotage,13,Eric,2025-01-12,2451,DiscussionNote
commented on,Papotage,13,Eric,2025-01-12,2451,DiscussionNote
commented on,Papotage,13,Eric,2025-01-12,2451,DiscussionNote
commented on,Papotage,14,rastapopoulos,2025-01-12,2451,DiscussionNote
commented on,Papotage,4,maieul,2025-01-12,2451,DiscussionNote
commented on,Papotage,4,maieul,2025-01-12,2451,DiscussionNote
commented on,Papotage,4,maieul,2025-01-12,2451,DiscussionNote
commented on,Papotage,4,maieul,2025-01-12,2451,DiscussionNote
commented on,Papotage,4,maieul,2025-01-12,2451,DiscussionNote
opened,Papotage,13,Eric,2025-01-12,2451,Issue
opened,Papotage,17,nicod,2025-01-12,2451,Issue
accepted,Codage,4,maieul,2025-01-12,2451,MergeRequest
accepted,Codage,4,maieul,2025-01-12,2451,MergeRequest
approved,Codage,14,rastapopoulos,2025-01-12,2451,MergeRequest
approved,Codage,14,rastapopoulos,2025-01-12,2451,MergeRequest
approved,Codage,4,maieul,2025-01-12,2451,MergeRequest
opened,Codage,17,nicod,2025-01-12,2451,MergeRequest
opened,Codage,4,maieul,2025-01-12,2451,MergeRequest
commented on,Papotage,13,Eric,2025-01-12,2451,Note
commented on,Papotage,13,Eric,2025-01-12,2451,Note
commented on,Papotage,4,maieul,2025-01-12,2451,Note
deleted,Codage,4,maieul,2025-01-12,2451,Project
deleted,Codage,4,maieul,2025-01-12,2451,Project
pushed new,Codage,13,Eric,2025-01-12,2451,Project
pushed new,Codage,17,nicod,2025-01-12,2451,Project
pushed new,Codage,4,maieul,2025-01-12,2451,Project
pushed to,Codage,13,Eric,2025-01-12,2451,Project
pushed to,Codage,17,nicod,2025-01-12,2451,Project
pushed to,Codage,4,maieul,2025-01-12,2451,Project
pushed to,Codage,4,maieul,2025-01-12,2451,Project
pushed to,Codage,4,maieul,2025-01-12,2451,Project
commented on,Papotage,13,Eric,2025-01-13,2451,DiscussionNote
pushed to,Codage,13,Eric,2025-01-13,2451,Project
pushed to,Codage,13,Eric,2025-01-13,2451,Project
pushed to,Codage,13,Eric,2025-01-13,2451,Project
commented on,Papotage,17,nicod,2025-01-14,2451,DiscussionNote
commented on,Papotage,4,maieul,2025-01-14,2451,DiscussionNote
commented on,Papotage,4,maieul,2025-01-14,2451,DiscussionNote
opened,Codage,13,Eric,2025-01-14,2451,MergeRequest
pushed new,Codage,13,Eric,2025-01-14,2451,Project
commented on,Papotage,4,maieul,2025-01-15,2451,DiscussionNote
opened,Papotage,17,nicod,2025-01-15,2451,Issue
opened,Codage,17,nicod,2025-01-15,2451,MergeRequest
commented on,Papotage,4,maieul,2025-01-15,2451,Note
commented on,Papotage,4,maieul,2025-01-15,2451,Note
pushed new,Codage,17,nicod,2025-01-15,2451,Project
commented on,Papotage,4,maieul,2025-01-16,2451,DiffNote
commented on,Papotage,4,maieul,2025-01-16,2451,DiffNote
commented on,Papotage,4,maieul,2025-01-16,2451,DiffNote
commented on,Papotage,4,maieul,2025-01-16,2451,DiffNote
commented on,Papotage,4,maieul,2025-01-16,2451,DiffNote
commented on,Papotage,17,nicod,2025-01-16,2451,DiscussionNote
commented on,Papotage,4,maieul,2025-01-16,2451,DiscussionNote
opened,Codage,4,maieul,2025-01-16,2451,MergeRequest
commented on,Papotage,17,nicod,2025-01-16,2451,Note
commented on,Papotage,17,nicod,2025-01-16,2451,Note
commented on,Papotage,4,maieul,2025-01-16,2451,Note
commented on,Papotage,4,maieul,2025-01-16,2451,Note
pushed new,Codage,4,maieul,2025-01-16,2451,Project
commented on,Papotage,14,rastapopoulos,2025-01-17,2451,DiscussionNote
commented on,Papotage,14,rastapopoulos,2025-01-17,2451,DiscussionNote
commented on,Papotage,20,cam.lafit,2025-01-17,2451,DiscussionNote
commented on,Papotage,20,cam.lafit,2025-01-17,2451,DiscussionNote
commented on,Papotage,20,cam.lafit,2025-01-17,2451,DiscussionNote
commented on,Papotage,4,maieul,2025-01-17,2451,DiscussionNote
commented on,Papotage,4,maieul,2025-01-17,2451,DiscussionNote
commented on,Papotage,4,maieul,2025-01-17,2451,DiscussionNote
commented on,Papotage,4,maieul,2025-01-17,2451,DiscussionNote
commented on,Papotage,4,maieul,2025-01-17,2451,DiscussionNote
commented on,Papotage,478,JuL_BLoBuL,2025-01-17,2451,DiscussionNote
opened,Papotage,20,cam.lafit,2025-01-17,2451,Issue
opened,Papotage,4,maieul,2025-01-17,2451,Issue
accepted,Codage,4,maieul,2025-01-17,2451,MergeRequest
accepted,Codage,4,maieul,2025-01-17,2451,MergeRequest
approved,Codage,14,rastapopoulos,2025-01-17,2451,MergeRequest
approved,Codage,14,rastapopoulos,2025-01-17,2451,MergeRequest
opened,Codage,4,maieul,2025-01-17,2451,MergeRequest
commented on,Papotage,4,maieul,2025-01-17,2451,Note
deleted,Codage,4,maieul,2025-01-17,2451,Project
deleted,Codage,4,maieul,2025-01-17,2451,Project
pushed new,Codage,4,maieul,2025-01-17,2451,Project
pushed to,Codage,4,maieul,2025-01-17,2451,Project
pushed to,Codage,4,maieul,2025-01-17,2451,Project
pushed to,Codage,4,maieul,2025-01-17,2451,Project
commented on,Papotage,14,rastapopoulos,2025-01-19,2451,DiscussionNote
commented on,Papotage,14,rastapopoulos,2025-01-19,2451,DiscussionNote
commented on,Papotage,17,nicod,2025-01-19,2451,DiscussionNote
commented on,Papotage,20,cam.lafit,2025-01-19,2451,DiscussionNote
closed,Papotage,4,maieul,2025-01-19,2451,Issue
commented on,Papotage,4,maieul,2025-01-19,2451,Note
commented on,Papotage,14,rastapopoulos,2025-01-21,2451,DiffNote
commented on,Papotage,14,rastapopoulos,2025-01-21,2451,DiffNote
commented on,Papotage,14,rastapopoulos,2025-01-21,2451,DiffNote
commented on,Papotage,4,maieul,2025-01-21,2451,DiscussionNote
closed,Papotage,4,maieul,2025-01-21,2451,Issue
accepted,Codage,4,maieul,2025-01-21,2451,MergeRequest
approved,Codage,14,rastapopoulos,2025-01-21,2451,MergeRequest
closed,Codage,4,maieul,2025-01-21,2451,MergeRequest
opened,Codage,4,maieul,2025-01-21,2451,MergeRequest
opened,Codage,4,maieul,2025-01-21,2451,MergeRequest
opened,Codage,4,maieul,2025-01-21,2451,MergeRequest
commented on,Papotage,14,rastapopoulos,2025-01-21,2451,Note
commented on,Papotage,14,rastapopoulos,2025-01-21,2451,Note
commented on,Papotage,4,maieul,2025-01-21,2451,Note
commented on,Papotage,4,maieul,2025-01-21,2451,Note
deleted,Codage,4,maieul,2025-01-21,2451,Project
deleted,Codage,4,maieul,2025-01-21,2451,Project
pushed new,Codage,4,maieul,2025-01-21,2451,Project
pushed new,Codage,4,maieul,2025-01-21,2451,Project
pushed new,Codage,4,maieul,2025-01-21,2451,Project
pushed to,Codage,4,maieul,2025-01-21,2451,Project
pushed to,Codage,4,maieul,2025-01-21,2451,Project
commented on,Papotage,14,rastapopoulos,2025-01-22,2451,DiscussionNote
commented on,Papotage,17,nicod,2025-01-22,2451,DiscussionNote
commented on,Papotage,20,cam.lafit,2025-01-22,2451,DiscussionNote
commented on,Papotage,4,maieul,2025-01-22,2451,DiscussionNote
commented on,Papotage,4,maieul,2025-01-22,2451,DiscussionNote
commented on,Papotage,4,maieul,2025-01-22,2451,DiscussionNote
commented on,Papotage,4,maieul,2025-01-22,2451,DiscussionNote
closed,Papotage,4,maieul,2025-01-22,2451,Issue
accepted,Codage,4,maieul,2025-01-22,2451,MergeRequest
accepted,Codage,4,maieul,2025-01-22,2451,MergeRequest
accepted,Codage,4,maieul,2025-01-22,2451,MergeRequest
accepted,Codage,4,maieul,2025-01-22,2451,MergeRequest
approved,Codage,14,rastapopoulos,2025-01-22,2451,MergeRequest
approved,Codage,14,rastapopoulos,2025-01-22,2451,MergeRequest
approved,Codage,15,tcharlss,2025-01-22,2451,MergeRequest
opened,Codage,17,nicod,2025-01-22,2451,MergeRequest
opened,Codage,4,maieul,2025-01-22,2451,MergeRequest
commented on,Papotage,14,rastapopoulos,2025-01-22,2451,Note
commented on,Papotage,4,maieul,2025-01-22,2451,Note
deleted,Codage,17,nicod,2025-01-22,2451,Project
deleted,Codage,17,nicod,2025-01-22,2451,Project
deleted,Codage,4,maieul,2025-01-22,2451,Project
deleted,Codage,4,maieul,2025-01-22,2451,Project
pushed new,Codage,17,nicod,2025-01-22,2451,Project
pushed new,Codage,4,maieul,2025-01-22,2451,Project
pushed new,Codage,4,maieul,2025-01-22,2451,Project
pushed to,Codage,17,nicod,2025-01-22,2451,Project
pushed to,Codage,4,maieul,2025-01-22,2451,Project
pushed to,Codage,4,maieul,2025-01-22,2451,Project
pushed to,Codage,4,maieul,2025-01-22,2451,Project
pushed to,Codage,4,maieul,2025-01-22,2451,Project
pushed to,Codage,4,maieul,2025-01-22,2451,Project
pushed to,Codage,4,maieul,2025-01-22,2451,Project
pushed to,Codage,4,maieul,2025-01-22,2451,Project
pushed to,Codage,4,maieul,2025-01-22,2451,Project
pushed to,Codage,4,maieul,2025-01-22,2451,Project
pushed to,Codage,4,maieul,2025-01-22,2451,Project
pushed to,Codage,4,maieul,2025-01-22,2451,Project
pushed to,Codage,4,maieul,2025-01-22,2451,Project
commented on,Papotage,14,rastapopoulos,2025-01-23,2451,DiscussionNote
pushed to,Codage,17,nicod,2025-01-23,2451,Project
commented on,Papotage,17,nicod,2025-01-24,2451,DiscussionNote
commented on,Papotage,20,cam.lafit,2025-01-24,2451,DiscussionNote
commented on,Papotage,4,maieul,2025-01-24,2451,DiscussionNote
closed,Papotage,4,maieul,2025-01-24,2451,Issue
closed,Papotage,4,maieul,2025-01-27,2451,Issue
opened,Papotage,17,nicod,2025-01-27,2451,Issue
opened,Papotage,17,nicod,2025-01-27,2451,Issue
accepted,Codage,4,maieul,2025-01-27,2451,MergeRequest
approved,Codage,14,rastapopoulos,2025-01-27,2451,MergeRequest
opened,Codage,17,nicod,2025-01-27,2451,MergeRequest
commented on,Papotage,4,maieul,2025-01-27,2451,Note
deleted,Codage,17,nicod,2025-01-27,2451,Project
pushed new,Codage,17,nicod,2025-01-27,2451,Project
pushed to,Codage,17,nicod,2025-01-27,2451,Project
pushed to,Codage,4,maieul,2025-01-27,2451,Project
pushed to,Codage,4,maieul,2025-01-27,2451,Project
commented on,Papotage,14,rastapopoulos,2025-01-29,2451,DiscussionNote
commented on,Papotage,14,rastapopoulos,2025-01-29,2451,DiscussionNote
commented on,Papotage,4,maieul,2025-01-29,2451,DiscussionNote
commented on,Papotage,4,maieul,2025-01-29,2451,DiscussionNote
commented on,Papotage,17,nicod,2025-01-29,2451,Note
commented on,Papotage,17,nicod,2025-01-29,2451,Note
commented on,Papotage,14,rastapopoulos,2025-01-30,2451,DiscussionNote
commented on,Papotage,4,maieul,2025-01-30,2451,DiscussionNote
commented on,Papotage,4,maieul,2025-01-30,2451,DiscussionNote
commented on,Papotage,17,nicod,2025-01-31,2451,DiscussionNote
commented on,Papotage,17,nicod,2025-01-31,2451,DiscussionNote
pushed to,Codage,17,nicod,2025-02-02,2451,Project
pushed new,Codage,15,tcharlss,2025-02-09,2451,Project
pushed to,Codage,15,tcharlss,2025-02-11,2451,Project
pushed to,Codage,15,tcharlss,2025-02-11,2451,Project
opened,Papotage,4,maieul,2025-02-12,2451,Issue
pushed new,Codage,4,maieul,2025-02-12,2451,Project
pushed to,Codage,15,tcharlss,2025-02-12,2451,Project
pushed to,Codage,4,maieul,2025-02-12,2451,Project
commented on,Papotage,13,Eric,2025-02-16,2451,DiffNote
opened,Codage,4,maieul,2025-02-16,2451,MergeRequest
commented on,Papotage,4,maieul,2025-02-16,2451,Note
pushed new,Codage,4,maieul,2025-02-16,2451,Project
