id,iid,labels,milestone_id,project_id,source_branch,source_project_id,target_branch,target_project_id
8032,179,,,2451,explication_simplifier_conteneur,2451,master,2451
8039,164,,,2451,no_submit,2451,master,2451
8057,114,,,2451,issue_48,2451,master,2451
9179,450,,1622,2451,elagage_attribut,2451,master,2451
9790,495,,,2451,issue_463,2451,master,2451
9793,496,,,2451,issue_459_substr,2451,master,2451
9944,506,,,2451,warning,2451,master,2451
