approved,Codage,14,rastapopoulos,2024-09-25,2515,MergeRequest
opened,Codage,12,marcimat,2024-09-25,2515,MergeRequest
commented on,Papotage,18,b_b,2024-09-25,2515,Note
pushed new,Codage,12,marcimat,2024-09-25,2515,Project
accepted,Codage,12,marcimat,2024-09-26,2515,MergeRequest
deleted,Codage,12,marcimat,2024-09-26,2515,Project
pushed to,Codage,12,marcimat,2024-09-26,2515,Project
