closed_issues_count,id,name,open_issues_count,open_merge_requests_count,project_id,sum
0,1602,duplicate,0,0,2515,0
1,1603,enhancement,0,0,2515,1
0,1604,help wanted,0,0,2515,0
0,1605,invalid,0,0,2515,0
0,1607,wontfix,0,0,2515,0
