date,full_path,name,sha
2017-03-24,spip-contrib-themes/spipr_v1_beige,v1.1.7,e865f8c08d1e8562b101560533266222798515db
2024-07-05,spip-contrib-themes/spipr_v1_beige,1.2.0,75b42ecd43056a1b1e3e33700b1a9a63b8a9030d
