opened,Papotage,43,RealET,2024-12-17,2214,Issue
commented on,Papotage,14,rastapopoulos,2024-12-24,2214,DiscussionNote
closed,Papotage,9,cerdic,2024-12-24,2214,Issue
commented on,Papotage,9,cerdic,2024-12-24,2214,Note
