date,full_path,name,sha
2023-01-21,spip-contrib-extensions/gis_plus,v1.2.0,c458b5de68dd49bb0b23dfb35e1656f7def4b58a
2023-05-13,spip-contrib-extensions/gis_plus,v1.2.1,6150330f04107149a9adb3fdcec5852425600a28
2023-06-29,spip-contrib-extensions/gis_plus,v1.3.0,339912efb85d27ae9294fb2f8e6e8cd2814e0e88
2023-06-30,spip-contrib-extensions/gis_plus,v1.3.1,130033b8078d03a295b10b3401e33354cfbc27d2
2023-06-30,spip-contrib-extensions/gis_plus,v1.3.2,bbc912d3e55e2f101b3b3bc0001a1d07ab0ee7ab
2023-10-05,spip-contrib-extensions/gis_plus,v1.4.0,a95e0fae1e591c39e12e9b080c583d85f63ce1ee
2023-10-07,spip-contrib-extensions/gis_plus,v1.4.1,3127cbaa53e0eb16eab7274b819db60f40e1861e
2024-07-05,spip-contrib-extensions/gis_plus,1.5.0,7f05a166ace4d59a0ae95372e99933880ea44b2f
