date,full_path,name,sha
2023-05-06,spip-contrib-extensions/medias_logos,obsolete,0483e37560eb1804f7f84719f246c167187647f7
2024-07-13,spip-contrib-extensions/medias_logos,master,ca143361c0fa99efa587d3361bdde76531aee065
