date,full_path,name,sha
2020-01-24,spip-contrib-extensions/medias_logos,v0.1.2,eed7e592de0a9575755179359a0cc4cbef9e3838
2024-07-13,spip-contrib-extensions/medias_logos,0.2.0,ca143361c0fa99efa587d3361bdde76531aee065
