date,full_path,name,sha
2024-01-14,spip-contrib-extensions/ezcodec,issue_01_add_import_export,ee88c2915cf6b9c36862f4c6141e9f5ec5eda515
2024-07-05,spip-contrib-extensions/ezcodec,master,a94fbb91f579b0579ac9e0ef7db82d3212105b75
