id,iid,labels,milestone_id,project_id
23369,4830,bug,1410,1690
23374,4479,amélioration,1410,1690
23378,3909,amélioration,1415,1690
23379,3908,amélioration,1410,1690
23383,3720,amélioration,1410,1690
23386,3415,bug,1410,1690
23389,3237,amélioration,1410,1690
23393,2021,amélioration,1410,1690
31035,4831,bug,1410,1690
31988,4832,,,1690
