due_date,id,iid,project_id,start_date,state,title
,1407,275,1690,,closed,spip-3.2
,1408,276,1690,,closed,spip-4.0
2025-01-23,1409,277,1690,,active,porte-plume-3.0
2027-07-21,1410,278,1690,,active,porte-plume-3.1
2025-01-23,1415,283,1690,,active,porte-plume-3.2
,1420,488,1690,,closed,< spip-3.2
