prefix,full_path
pp_chgt_lg,spip-contrib-extensions/porte_plume_changement_langue
spipopup,spip-contrib-extensions/popup
pp_codes_spip,spip-contrib-extensions/porte_plume_codes_spip
pp_blocs,spip-contrib-extensions/porte_plume_blocs
pp_loremipsum,spip-contrib-extensions/porte_plume_lorem_ipsum
typoenluminee,spip-contrib-extensions/typoenluminee
pp_codes,spip-contrib-extensions/porte_plume_codes
ppp,spip-contrib-extensions/porte_plume_partout
pp_citations,spip-contrib-extensions/porte_plume_citations
