pushed to,Codage,13,Eric,2024-12-28,2822,Project
pushed to,Codage,13,Eric,2024-12-28,2822,Project
pushed to,Codage,13,Eric,2024-12-29,2822,Project
pushed to,Codage,13,Eric,2024-12-29,2822,Project
pushed to,Codage,13,Eric,2024-12-30,2822,Project
pushed to,Codage,13,Eric,2025-01-05,2822,Project
pushed to,Codage,13,Eric,2025-01-05,2822,Project
pushed to,Codage,13,Eric,2025-01-05,2822,Project
pushed to,Codage,13,Eric,2025-01-11,2822,Project
pushed to,Codage,13,Eric,2025-02-15,2822,Project
