date,full_path,name,sha
2015-12-11,seenthis/seenthis,syndic_plain_text,0c3ad7902398f2917b19bcb97e5fa18625fbd920
2018-10-29,seenthis/seenthis,spip21,98cf902dc34d7e32d05ca82d652c5912eb238b39
2022-04-09,seenthis/seenthis,2.3,2f7afd2beb6d1d3cdc0d2a513ab3b4efac01c143
2022-04-09,seenthis/seenthis,v2,2f7afd2beb6d1d3cdc0d2a513ab3b4efac01c143
2024-12-05,seenthis/seenthis,master,fa27bef01624b05fe4a312ecd7ab71153de557d1
