date,full_path,name,sha
2024-04-09,spip-contrib-extensions/decouleurs_spip,v1.1.0,e32097066c053d0188340a515911d76f3c3022c2
2024-07-05,spip-contrib-extensions/decouleurs_spip,1.2.0,e7ff8103356d13369980c0e025191d28853a392c
