date,full_path,name,sha
2018-12-24,spip-contrib-extensions/zotspip,v1,8825eb62bdb920be0b1c81cb026093408ee95957
2022-10-19,spip-contrib-extensions/zotspip,v3,7ece4eb5069507b4aa13e11e747ca33d6e0aacd4
2024-11-23,spip-contrib-extensions/zotspip,master,6aeb47b4f3e3c26ee25c3d47aac100e73aef41a5
