date,full_path,name,sha
2019-01-05,spip-contrib-extensions/alertes,v1.3.5,c1367e175e11b86fa8fbd16c1125fda8d0464efd
2019-01-05,spip-contrib-extensions/alertes,v2.1.2,be5968070b93b5f93480e151d04063b3f8d2a01b
