date,full_path,name,sha
2023-03-04,spip-contrib-extensions/n-core,v0,9e76f8f41a1f653be49642d280a108c2dfb48a43
2024-07-05,spip-contrib-extensions/n-core,master,b385528f78de2a91df2d0235f0eebdccc68dbde7
