date,full_path,name,sha
2020-08-17,spip-contrib-extensions/n-core,v0.11.0,f1c4960ad8bc8ba3d5d475531aaef8e29bc84b11
2021-01-12,spip-contrib-extensions/n-core,v0.11.1,adda2dab5a7224bad4bbbdce47bba8bac55574ea
2021-01-13,spip-contrib-extensions/n-core,v0.11.2,afdc22471be84e78924a07ec9ca25485f0f5cc0e
2021-05-11,spip-contrib-extensions/n-core,v0.17.5,f9f19e77dc1092724670caac37f26f9dcc4f53cb
2021-10-09,spip-contrib-extensions/n-core,v0.17.6,048a79168a0b470ba11229b769fc96b67c7e0838
2021-10-10,spip-contrib-extensions/n-core,v0.17.7,9951c85d0c4010d543abdbcb7abc351313c40723
2022-05-21,spip-contrib-extensions/n-core,v0.17.9,d04f7fb012f19856d6936a29fc9a0381326772e9
2022-06-04,spip-contrib-extensions/n-core,v0.17.10,7364533b7cafcfc4a7f890e18de6b69cfdda0896
2022-11-03,spip-contrib-extensions/n-core,v0.17.11,04bfd9fc2dc6946e03fe60b4bbff75babb85cdd9
2023-03-04,spip-contrib-extensions/n-core,v0.17.12,c1d59ba6d0d456346e559f925ca80b61b91859ab
2023-03-04,spip-contrib-extensions/n-core,v0.17.13,9e76f8f41a1f653be49642d280a108c2dfb48a43
2023-03-05,spip-contrib-extensions/n-core,v1.0.1,5a8373bf3f9ccec3deb80a54addfcebce07513eb
2023-03-05,spip-contrib-extensions/n-core,v1.0.2,f14079990e74977225b7be90dee4e03f12848cd3
2023-03-12,spip-contrib-extensions/n-core,v1.0.3,e84999b34b21a9db5e1c23af1250f97829ce43c1
2024-07-05,spip-contrib-extensions/n-core,1.1.0,b385528f78de2a91df2d0235f0eebdccc68dbde7
