date,full_path,name,sha
2020-04-02,spip-contrib-extensions/rezosocios,v0,1dc398262e6b91c87a46acbe5cebca5d67cd71d8
2022-06-23,spip-contrib-extensions/rezosocios,compat_spip_410,2b1aabf5e93df53d8e443f975775216be06ab564
2023-06-09,spip-contrib-extensions/rezosocios,v1,95470449a06d635897518ce959f94f24ff54aba2
2024-09-13,spip-contrib-extensions/rezosocios,master,cac5b8d08edab604e80c79dca2a0ce5d0a69a806
