pushed new,Codage,13,Eric,2024-10-12,1870,Project
pushed to,Codage,13,Eric,2024-10-12,1870,Project
pushed to,Codage,13,Eric,2024-10-12,1870,Project
pushed to,Codage,13,Eric,2024-10-12,1870,Project
pushed to,Codage,13,Eric,2024-10-12,1870,Project
pushed to,Codage,13,Eric,2024-10-12,1870,Project
pushed to,Codage,13,Eric,2024-10-14,1870,Project
