date,full_path,name,sha
2014-07-28,spip-contrib-extensions/alerte_urgence,v1,75b7b6ca731af986466dc5d2ec460f0ffaccd0a0
2021-04-13,spip-contrib-extensions/alerte_urgence,dev_divers,83bcca18c15036c65a9022634919074e416a1a3d
2024-07-05,spip-contrib-extensions/alerte_urgence,master,e35e910240c94495893f1e1cfc8c25f763db15b9
