created,Codage,12,marcimat,2024-12-14,3419,Project
pushed new,Codage,12,marcimat,2024-12-14,3419,Project
pushed new,Codage,12,marcimat,2024-12-14,3419,Project
pushed to,Codage,12,marcimat,2024-12-14,3419,Project
accepted,Codage,6,JamesRezo,2024-12-15,3419,MergeRequest
approved,Codage,12,marcimat,2024-12-15,3419,MergeRequest
opened,Codage,6,JamesRezo,2024-12-15,3419,MergeRequest
deleted,Codage,12,marcimat,2024-12-15,3419,Project
deleted,Codage,12,marcimat,2024-12-15,3419,Project
deleted,Codage,6,JamesRezo,2024-12-15,3419,Project
pushed new,Codage,12,marcimat,2024-12-15,3419,Project
pushed new,Codage,12,marcimat,2024-12-15,3419,Project
pushed new,Codage,12,marcimat,2024-12-15,3419,Project
pushed new,Codage,6,JamesRezo,2024-12-15,3419,Project
pushed to,Codage,12,marcimat,2024-12-15,3419,Project
pushed to,Codage,12,marcimat,2024-12-15,3419,Project
pushed to,Codage,12,marcimat,2024-12-15,3419,Project
pushed to,Codage,12,marcimat,2024-12-15,3419,Project
pushed to,Codage,6,JamesRezo,2024-12-15,3419,Project
accepted,Codage,12,marcimat,2024-12-21,3419,MergeRequest
approved,Codage,6,JamesRezo,2024-12-21,3419,MergeRequest
opened,Codage,12,marcimat,2024-12-21,3419,MergeRequest
deleted,Codage,12,marcimat,2024-12-21,3419,Project
pushed new,Codage,12,marcimat,2024-12-21,3419,Project
pushed new,Codage,12,marcimat,2024-12-21,3419,Project
pushed to,Codage,12,marcimat,2024-12-21,3419,Project
accepted,Codage,12,marcimat,2024-12-27,3419,MergeRequest
approved,Codage,6,JamesRezo,2024-12-27,3419,MergeRequest
opened,Codage,12,marcimat,2024-12-27,3419,MergeRequest
deleted,Codage,12,marcimat,2024-12-27,3419,Project
pushed new,Codage,12,marcimat,2024-12-27,3419,Project
pushed to,Codage,12,marcimat,2024-12-27,3419,Project
pushed to,Codage,12,marcimat,2024-12-27,3419,Project
pushed to,Codage,12,marcimat,2024-12-27,3419,Project
