date,full_path,name,sha
2024-12-14,spip-league/easy-coding-standard,1.0.0,ff35374c6314ce8e81024d340ea8090c36bf71fd
2024-12-15,spip-league/easy-coding-standard,1.1.0,180f9b9df04defb08c00d1358ef1757732b6952f
2024-12-21,spip-league/easy-coding-standard,1.1.1,38fcc73d8b3e62c7ea9ecb6cf42f37e796d4a5c0
