pushed to,Codage,430,JLuc,2024-11-01,1810,Project
pushed to,Codage,430,JLuc,2024-11-02,1810,Project
pushed to,Codage,430,JLuc,2024-11-05,1810,Project
pushed to,Codage,430,JLuc,2024-11-05,1810,Project
pushed to,Codage,430,JLuc,2024-11-05,1810,Project
pushed to,Codage,430,JLuc,2024-11-05,1810,Project
pushed to,Codage,430,JLuc,2024-11-06,1810,Project
opened,Papotage,430,JLuc,2024-11-09,1810,Issue
closed,Papotage,430,JLuc,2024-11-12,1810,Issue
commented on,Papotage,430,JLuc,2024-11-12,1810,Note
pushed to,Codage,430,JLuc,2024-11-12,1810,Project
pushed to,Codage,430,JLuc,2024-11-25,1810,Project
commented on,Papotage,430,JLuc,2024-12-25,1810,Note
pushed to,Codage,430,JLuc,2024-12-25,1810,Project
