date,full_path,name,sha
2024-07-05,spip-contrib-extensions/massicot,master,1867da13c97c1901d8a1f85e13917a7c330e5f62
2024-09-23,spip-contrib-extensions/massicot,compat_42,3dc0100c56f0c8b7c2838d36c7580d6c30a0633f
