commented on,Papotage,43,RealET,2024-09-23,2216,Note
pushed to,Codage,43,RealET,2024-09-23,2216,Project
opened,Papotage,478,JuL_BLoBuL,2024-11-28,2216,Issue
commented on,Papotage,43,RealET,2024-11-28,2216,Note
