date,full_path,name,sha
2020-02-05,spip-contrib-extensions/massicot,v0.8.7,55c800621d8e6c8b82157e27ae7f5d209f98723d
2021-02-04,spip-contrib-extensions/massicot,v0.8.8,5f626cbfaba976b38e561aac0b66bc189d5f2969
2021-02-08,spip-contrib-extensions/massicot,v0.8.9,10bd6748479f66c4b49c8e57cf69e62bdd243e69
2021-03-21,spip-contrib-extensions/massicot,v0.8.10,e701017c00aa31ff9e34f9d4fc29903f93bea98d
2021-03-30,spip-contrib-extensions/massicot,v0.8.11,5a50588eb79221f15af3905d2d0d6585d107963c
2023-07-18,spip-contrib-extensions/massicot,v0.8.12,4699a74a425cc1df570096473a72471e7c841a89
2024-07-05,spip-contrib-extensions/massicot,0.9.0,1867da13c97c1901d8a1f85e13917a7c330e5f62
