pushed new,Codage,6,JamesRezo,2024-07-13,1847,Project
pushed to,Codage,6,JamesRezo,2024-07-13,1847,Project
closed,Papotage,430,JLuc,2024-07-24,1847,Issue
closed,Papotage,430,JLuc,2024-07-24,1847,Issue
opened,Papotage,430,JLuc,2024-07-24,1847,Issue
commented on,Papotage,430,JLuc,2024-07-24,1847,Note
pushed to,Codage,430,JLuc,2024-07-24,1847,Project
pushed to,Codage,430,JLuc,2024-07-28,1847,Project
