date,full_path,name,sha
2020-03-11,spip-contrib-extensions/rubriqueur,v2.2.0,ab35a4a732608ed5797b43a8ddfce6b43bbd992b
2021-04-09,spip-contrib-extensions/rubriqueur,v2.2.1,edee16a032c67a13a17ed3c943838b72e4254a0f
2021-05-02,spip-contrib-extensions/rubriqueur,v2.2.2,7ab1a58a9d6fee59a7124d015569be512d8d6a85
2022-05-25,spip-contrib-extensions/rubriqueur,v2.2.3,9b2b01822a973931e26350fcfaec2213f4b1121b
2022-11-28,spip-contrib-extensions/rubriqueur,v2.2.4,cbbdfad017018f12896a01eeb7c87b7082edfdc0
2023-06-25,spip-contrib-extensions/rubriqueur,v2.2.5,27f06b68e0e4ae7e6b8b2cd82ae18945e488f20a
2024-07-05,spip-contrib-extensions/rubriqueur,2.3.0,d5a083acb3075db098add172ee5c97fc50ee9c1e
2024-11-09,spip-contrib-extensions/rubriqueur,v2.3.1,3fa0bd3a804647659385bb41ecc94f06594439a0
