date,full_path,name,sha
2022-05-31,spip-contrib-extensions/saisie_classer_choix,v1.0.0,1265b4cdcc86a217b2a3193a9c5383a91a7e95e0
2023-10-02,spip-contrib-extensions/saisie_classer_choix,v2.0.0,5d9de31beeb12dceb262bba36ceb012f6bf41af8
2024-07-05,spip-contrib-extensions/saisie_classer_choix,2.1.0,07cf0cca5673aa7662a0d3c0d4d05c7f477c112b
