date,full_path,name,sha
2017-03-24,spip-contrib-themes/spipr_v1_united,v2.2.3,5bbff89b830fa057b915ca0ee5ef7b270c799e00
2024-07-05,spip-contrib-themes/spipr_v1_united,2.3.0,4bacddedd69c867ce86e3f5d7c3799fb1490d9da
