date,full_path,name,sha
2019-04-27,seenthis/microcache,v1,afa067c25a985bb69af60e84284ac86d44327488
2024-03-03,seenthis/microcache,2.0,364a19e92bccdc5ea66d5b7739183f699cd1d164
2024-08-01,seenthis/microcache,master,42ffc825e1a5cfb7590a0dfc207fab80c0673125
