date,full_path,name,sha
2021-05-06,spip-contrib-extensions/bellespuces,v0,64d4a2a005be7a67ee8b80f98f8a8236c17473a2
2024-10-13,spip-contrib-extensions/bellespuces,master,0af7f98a96b140774a17963ae4817da652e24d2a
