opened,Papotage,4,maieul,2024-09-23,1783,Issue
opened,Codage,4,maieul,2024-09-23,1783,MergeRequest
commented on,Papotage,4,maieul,2024-09-23,1783,Note
pushed new,Codage,4,maieul,2024-09-23,1783,Project
pushed to,Codage,4,maieul,2024-09-23,1783,Project
commented on,Papotage,4,maieul,2024-09-30,1783,Note
commented on,Papotage,4,maieul,2024-10-07,1783,DiscussionNote
commented on,Papotage,43,RealET,2024-10-07,1783,DiscussionNote
commented on,Papotage,43,RealET,2024-10-07,1783,DiscussionNote
commented on,Papotage,4,maieul,2024-10-07,1783,Note
closed,Papotage,4,maieul,2024-10-13,1783,Issue
accepted,Codage,4,maieul,2024-10-13,1783,MergeRequest
deleted,Codage,4,maieul,2024-10-13,1783,Project
pushed new,Codage,4,maieul,2024-10-13,1783,Project
pushed to,Codage,4,maieul,2024-10-13,1783,Project
pushed to,Codage,4,maieul,2024-10-13,1783,Project
