date,full_path,name,sha
2019-10-02,spip-contrib-extensions/spip_hal_auteurs,v0,28f555ff5f50c175e49d557e01551d762a7d5146
2024-09-12,spip-contrib-extensions/spip_hal_auteurs,master,a2aeafc238793bb48a7705134322cb163f3bb7e2
