closed_issues_count,id,name,open_issues_count,open_merge_requests_count,project_id,sum
0,2049,duplicate,0,0,3322,0
0,2050,enhancement,0,0,3322,0
0,2051,help wanted,0,0,3322,0
0,2052,invalid,0,0,3322,0
0,2053,wontfix,0,0,3322,0
