due_date,id,iid,project_id,start_date,state,title
,1532,419,1700,,closed,spip-3.2
,1533,420,1700,,closed,spip-4.0
,1534,421,1700,,active,spip-4.1
,1535,422,1700,,active,spip-4.2
,1537,424,1700,,active,spip-4.4
,1540,427,1700,,active,spip-5.0
,1545,500,1700,,closed,< spip-3.2
