date,full_path,name,sha
2019-08-06,spip-contrib-extensions/medias_nettoyage,v0,797926068c38ebf44bec9a96b58bff05842d76f9
2019-08-31,spip-contrib-extensions/medias_nettoyage,master,f116c8dfab9102796b6d9068d03569cd828c1d27
