date,full_path,name,sha
2019-08-06,spip-contrib-extensions/medias_nettoyage,0.10.4,c2bc35a16a0a816769311768c41c64cfeca2c215
2019-08-06,spip-contrib-extensions/medias_nettoyage,v0.11.2,797926068c38ebf44bec9a96b58bff05842d76f9
