date,full_path,name,sha
2021-11-12,spip-contrib-extensions/billetteries_profils,v1.1.0,136e7eb6686eec2997813369710fd801016b15c3
2023-06-28,spip-contrib-extensions/billetteries_profils,v1.2.0,e3c2063b49537921211bb46821d4bce0b3ba02ab
2024-07-05,spip-contrib-extensions/billetteries_profils,1.3.0,1e7897075eab2bae771995d317d0b61248689a8f
