date,full_path,name,sha
2020-01-22,spip-galaxie/trad.spip.net,v2,882e3a288cf17f183f62008bc6af75effc3d779a
2023-03-10,spip-galaxie/trad.spip.net,v3,f9c1d10bdc1c97feb2145e0ab0df8233a7a12957
2024-07-26,spip-galaxie/trad.spip.net,master,e130d15c28c0ad720b9f3f3742e02637ac90bb17
