date,full_path,name,sha
2017-05-08,spip-contrib-extensions/palette,v1.3.6,4de4ab669a7bbd3718ee9c722777c4a3d445f095
2017-08-21,spip-contrib-extensions/palette,v3.0.8,d875b7c0d469d31a7fbd2e871f7bc30e1edc9527
2020-02-24,spip-contrib-extensions/palette,v4.0.8,f43a15661200a9cb171a36fc5a9ae1f653ec7444
2021-06-22,spip-contrib-extensions/palette,v4.0.9,ba6a8bddbb833f4ad84cef6dfc5f3b59ee44d6f2
2022-04-21,spip-contrib-extensions/palette,v4.0.10,4ba42c103d3092cd4da742aaf2d475a13fcc87f6
2023-05-03,spip-contrib-extensions/palette,v4.0.11,da4da76c1961630741a9f0809dee26eaf5479f5a
2024-07-05,spip-contrib-extensions/palette,4.1.0,db00593c7157bb9456659f62fb99212e470a6398
