pushed to,Codage,536,JMarc_64,2024-09-23,2725,Project
pushed to,Codage,536,JMarc_64,2024-09-23,2725,Project
pushed to,Codage,536,JMarc_64,2024-09-27,2725,Project
pushed to,Codage,536,JMarc_64,2024-09-27,2725,Project
pushed new,Codage,536,JMarc_64,2024-09-29,2725,Project
pushed to,Codage,536,JMarc_64,2024-09-29,2725,Project
pushed to,Codage,536,JMarc_64,2024-09-30,2725,Project
pushed to,Codage,536,JMarc_64,2024-09-30,2725,Project
pushed new,Codage,536,JMarc_64,2024-10-02,2725,Project
pushed to,Codage,536,JMarc_64,2024-10-02,2725,Project
pushed to,Codage,536,JMarc_64,2024-10-02,2725,Project
pushed to,Codage,536,JMarc_64,2024-10-02,2725,Project
pushed to,Codage,536,JMarc_64,2024-10-02,2725,Project
pushed new,Codage,536,JMarc_64,2024-10-03,2725,Project
pushed to,Codage,536,JMarc_64,2024-10-03,2725,Project
pushed to,Codage,536,JMarc_64,2024-10-03,2725,Project
pushed new,Codage,536,JMarc_64,2024-10-13,2725,Project
pushed to,Codage,536,JMarc_64,2024-10-13,2725,Project
pushed to,Codage,536,JMarc_64,2024-10-13,2725,Project
pushed to,Codage,536,JMarc_64,2024-10-14,2725,Project
pushed to,Codage,536,JMarc_64,2024-10-14,2725,Project
pushed new,Codage,536,JMarc_64,2024-10-29,2725,Project
pushed to,Codage,536,JMarc_64,2024-10-29,2725,Project
pushed to,Codage,536,JMarc_64,2024-10-29,2725,Project
pushed to,Codage,536,JMarc_64,2024-11-01,2725,Project
closed,Papotage,536,JMarc_64,2024-11-15,2725,Issue
opened,Papotage,458,pierr0t,2024-11-15,2725,Issue
commented on,Papotage,536,JMarc_64,2024-11-15,2725,Note
pushed new,Codage,536,JMarc_64,2024-11-15,2725,Project
pushed to,Codage,536,JMarc_64,2024-11-15,2725,Project
pushed to,Codage,536,JMarc_64,2024-11-15,2725,Project
pushed to,Codage,536,JMarc_64,2024-11-15,2725,Project
pushed to,Codage,536,JMarc_64,2024-11-19,2725,Project
pushed to,Codage,536,JMarc_64,2024-11-23,2725,Project
pushed new,Codage,536,JMarc_64,2024-12-03,2725,Project
pushed to,Codage,536,JMarc_64,2024-12-03,2725,Project
pushed to,Codage,536,JMarc_64,2024-12-03,2725,Project
pushed to,Codage,536,JMarc_64,2025-01-03,2725,Project
pushed to,Codage,536,JMarc_64,2025-01-03,2725,Project
pushed to,Codage,536,JMarc_64,2025-01-03,2725,Project
pushed new,Codage,536,JMarc_64,2025-01-10,2725,Project
pushed to,Codage,536,JMarc_64,2025-01-10,2725,Project
pushed to,Codage,536,JMarc_64,2025-01-10,2725,Project
pushed new,Codage,536,JMarc_64,2025-01-11,2725,Project
pushed to,Codage,536,JMarc_64,2025-01-11,2725,Project
pushed to,Codage,536,JMarc_64,2025-01-12,2725,Project
pushed to,Codage,536,JMarc_64,2025-01-22,2725,Project
pushed to,Codage,536,JMarc_64,2025-01-31,2725,Project
pushed to,Codage,536,JMarc_64,2025-01-31,2725,Project
