date,full_path,name,sha
2017-10-31,spip-contrib-extensions/modelexergue,v1.0.2,b826b17802896644bb45425e0a643b28c465cd63
2021-06-16,spip-contrib-extensions/modelexergue,v1.0.3,82689e940cdb81c548f108b2b741cdc6519b252a
2022-04-29,spip-contrib-extensions/modelexergue,v1.0.4,af2dcfdf79548d45f784671bbc2fd89397f32a69
2023-06-23,spip-contrib-extensions/modelexergue,v1.0.5,d3b08df04964e2dacc8e2c14a2d3f0b1c4e78f43
2024-07-05,spip-contrib-extensions/modelexergue,1.1.0,8306577a54e0ee0bdf56aa64b87869ebc1e165bd
