date,full_path,name,sha
2022-07-04,spip-contrib-extensions/carto_itineraire,v1.0.1,ae3c91a4d9f6c647f151df869e67d71a106c8ede
2023-07-16,spip-contrib-extensions/carto_itineraire,v1.0.2,018098d3d8afa32d309ce7cf597fe8d9ff74ed64
2024-07-05,spip-contrib-extensions/carto_itineraire,1.1.0,2e360f07d79b654109e7319855e459cc7d0371a7
