date,full_path,name,sha
2019-04-28,spip-contrib-extensions/iterateurs-simplexml,v0.1.5,3c05fa4c282b3ebb626b54f678b026022cf54cfa
2022-01-20,spip-contrib-extensions/iterateurs-simplexml,v1.0.0,c93a969e5d179055582b3f88a94d887e0ee2aaaf
2023-06-07,spip-contrib-extensions/iterateurs-simplexml,v2.0.0,5042cf7284799055f1c0f7989bce0faf80908dbd
2024-07-05,spip-contrib-extensions/iterateurs-simplexml,2.1.0,cc0583b194ae42c51616ad5825e22cd45179632e
