commented on,Papotage,14,rastapopoulos,2024-09-09,3318,DiffNote
commented on,Papotage,18,b_b,2024-09-09,3318,DiffNote
commented on,Papotage,18,b_b,2024-09-09,3318,DiffNote
commented on,Papotage,4,maieul,2024-09-09,3318,DiffNote
commented on,Papotage,4,maieul,2024-09-09,3318,DiffNote
commented on,Papotage,4,maieul,2024-09-09,3318,DiffNote
commented on,Papotage,4,maieul,2024-09-09,3318,DiffNote
commented on,Papotage,18,b_b,2024-09-09,3318,DiscussionNote
commented on,Papotage,4,maieul,2024-09-09,3318,DiscussionNote
commented on,Papotage,6,JamesRezo,2024-09-09,3318,DiscussionNote
commented on,Papotage,6,JamesRezo,2024-09-09,3318,DiscussionNote
opened,Papotage,6,JamesRezo,2024-09-09,3318,Issue
opened,Papotage,6,JamesRezo,2024-09-09,3318,Issue
opened,Papotage,6,JamesRezo,2024-09-09,3318,Issue
accepted,Codage,6,JamesRezo,2024-09-09,3318,MergeRequest
accepted,Codage,6,JamesRezo,2024-09-09,3318,MergeRequest
approved,Codage,14,rastapopoulos,2024-09-09,3318,MergeRequest
approved,Codage,14,rastapopoulos,2024-09-09,3318,MergeRequest
approved,Codage,14,rastapopoulos,2024-09-09,3318,MergeRequest
approved,Codage,18,b_b,2024-09-09,3318,MergeRequest
approved,Codage,18,b_b,2024-09-09,3318,MergeRequest
approved,Codage,4,maieul,2024-09-09,3318,MergeRequest
approved,Codage,6,JamesRezo,2024-09-09,3318,MergeRequest
opened,Codage,12,marcimat,2024-09-09,3318,MergeRequest
opened,Codage,12,marcimat,2024-09-09,3318,MergeRequest
opened,Codage,14,rastapopoulos,2024-09-09,3318,MergeRequest
opened,Codage,17,nicod,2024-09-09,3318,MergeRequest
opened,Codage,17,nicod,2024-09-09,3318,MergeRequest
opened,Codage,18,b_b,2024-09-09,3318,MergeRequest
opened,Codage,4,maieul,2024-09-09,3318,MergeRequest
opened,Codage,4,maieul,2024-09-09,3318,MergeRequest
opened,Codage,6,JamesRezo,2024-09-09,3318,Milestone
opened,Codage,6,JamesRezo,2024-09-09,3318,Milestone
commented on,Papotage,6,JamesRezo,2024-09-09,3318,Note
commented on,Papotage,6,JamesRezo,2024-09-09,3318,Note
created,Codage,6,JamesRezo,2024-09-09,3318,Project
deleted,Codage,12,marcimat,2024-09-09,3318,Project
deleted,Codage,17,nicod,2024-09-09,3318,Project
pushed new,Codage,6,JamesRezo,2024-09-09,3318,Project
pushed to,Codage,6,JamesRezo,2024-09-09,3318,Project
pushed to,Codage,6,JamesRezo,2024-09-09,3318,Project
pushed to,Codage,6,JamesRezo,2024-09-09,3318,Project
pushed to,Codage,6,JamesRezo,2024-09-09,3318,Project
pushed to,Codage,6,JamesRezo,2024-09-09,3318,Project
pushed to,Codage,6,JamesRezo,2024-09-09,3318,Project
pushed to,Codage,6,JamesRezo,2024-09-09,3318,Project
pushed to,Codage,6,JamesRezo,2024-09-09,3318,Project
pushed to,Codage,6,JamesRezo,2024-09-09,3318,Project
pushed to,Codage,6,JamesRezo,2024-09-09,3318,Project
pushed to,Codage,6,JamesRezo,2024-09-09,3318,Project
pushed to,Codage,6,JamesRezo,2024-09-09,3318,Project
opened,Codage,6,JamesRezo,2024-09-10,3318,MergeRequest
pushed to,Codage,6,JamesRezo,2024-09-10,3318,Project
pushed to,Codage,6,JamesRezo,2024-09-10,3318,Project
pushed to,Codage,6,JamesRezo,2024-09-10,3318,Project
pushed to,Codage,6,JamesRezo,2024-09-10,3318,Project
commented on,Papotage,18,b_b,2024-09-11,3318,DiscussionNote
commented on,Papotage,18,b_b,2024-09-11,3318,DiscussionNote
commented on,Papotage,18,b_b,2024-09-11,3318,DiscussionNote
commented on,Papotage,35,arno,2024-09-11,3318,DiscussionNote
commented on,Papotage,4,maieul,2024-09-11,3318,DiscussionNote
commented on,Papotage,4,maieul,2024-09-11,3318,DiscussionNote
commented on,Papotage,430,JLuc,2024-09-11,3318,DiscussionNote
commented on,Papotage,430,JLuc,2024-09-11,3318,DiscussionNote
commented on,Papotage,430,JLuc,2024-09-11,3318,DiscussionNote
commented on,Papotage,6,JamesRezo,2024-09-11,3318,DiscussionNote
commented on,Papotage,6,JamesRezo,2024-09-11,3318,DiscussionNote
opened,Papotage,35,arno,2024-09-11,3318,Issue
opened,Papotage,6,JamesRezo,2024-09-11,3318,Issue
approved,Codage,4,maieul,2024-09-11,3318,MergeRequest
approved,Codage,6,JamesRezo,2024-09-11,3318,MergeRequest
closed,Codage,35,arno,2024-09-11,3318,MergeRequest
opened,Codage,206,pierretux,2024-09-11,3318,MergeRequest
opened,Codage,35,arno,2024-09-11,3318,MergeRequest
opened,Codage,35,arno,2024-09-11,3318,MergeRequest
opened,Codage,430,JLuc,2024-09-11,3318,MergeRequest
commented on,Papotage,18,b_b,2024-09-11,3318,Note
commented on,Papotage,18,b_b,2024-09-11,3318,Note
commented on,Papotage,18,b_b,2024-09-11,3318,Note
commented on,Papotage,206,pierretux,2024-09-11,3318,Note
commented on,Papotage,35,arno,2024-09-11,3318,Note
commented on,Papotage,35,arno,2024-09-11,3318,Note
commented on,Papotage,35,arno,2024-09-11,3318,Note
commented on,Papotage,4,maieul,2024-09-11,3318,Note
commented on,Papotage,4,maieul,2024-09-11,3318,Note
commented on,Papotage,430,JLuc,2024-09-11,3318,Note
commented on,Papotage,430,JLuc,2024-09-11,3318,Note
commented on,Papotage,6,JamesRezo,2024-09-11,3318,Note
pushed new,Codage,35,arno,2024-09-11,3318,Project
pushed new,Codage,35,arno,2024-09-11,3318,Project
pushed new,Codage,35,arno,2024-09-11,3318,Project
pushed new,Codage,35,arno,2024-09-11,3318,Project
pushed to,Codage,35,arno,2024-09-11,3318,Project
commented on,Papotage,12,marcimat,2024-09-12,3318,DiffNote
commented on,Papotage,35,arno,2024-09-12,3318,DiffNote
commented on,Papotage,206,pierretux,2024-09-12,3318,DiscussionNote
commented on,Papotage,4,maieul,2024-09-12,3318,DiscussionNote
commented on,Papotage,6,JamesRezo,2024-09-12,3318,DiscussionNote
commented on,Papotage,6,JamesRezo,2024-09-12,3318,DiscussionNote
commented on,Papotage,6,JamesRezo,2024-09-12,3318,DiscussionNote
commented on,Papotage,6,JamesRezo,2024-09-12,3318,DiscussionNote
closed,Papotage,6,JamesRezo,2024-09-12,3318,Issue
closed,Papotage,6,JamesRezo,2024-09-12,3318,Issue
accepted,Codage,6,JamesRezo,2024-09-12,3318,MergeRequest
accepted,Codage,6,JamesRezo,2024-09-12,3318,MergeRequest
approved,Codage,18,b_b,2024-09-12,3318,MergeRequest
approved,Codage,18,b_b,2024-09-12,3318,MergeRequest
approved,Codage,6,JamesRezo,2024-09-12,3318,MergeRequest
commented on,Papotage,18,b_b,2024-09-12,3318,Note
commented on,Papotage,430,JLuc,2024-09-12,3318,Note
deleted,Codage,18,b_b,2024-09-12,3318,Project
deleted,Codage,18,b_b,2024-09-12,3318,Project
deleted,Codage,18,b_b,2024-09-12,3318,Project
deleted,Codage,6,JamesRezo,2024-09-12,3318,Project
pushed to,Codage,35,arno,2024-09-12,3318,Project
pushed to,Codage,6,JamesRezo,2024-09-12,3318,Project
pushed to,Codage,6,JamesRezo,2024-09-12,3318,Project
pushed to,Codage,6,JamesRezo,2024-09-12,3318,Project
pushed to,Codage,6,JamesRezo,2024-09-12,3318,Project
commented on,Papotage,18,b_b,2024-09-13,3318,DiffNote
commented on,Papotage,12,marcimat,2024-09-13,3318,DiscussionNote
commented on,Papotage,18,b_b,2024-09-13,3318,DiscussionNote
commented on,Papotage,18,b_b,2024-09-13,3318,DiscussionNote
commented on,Papotage,18,b_b,2024-09-13,3318,DiscussionNote
commented on,Papotage,18,b_b,2024-09-13,3318,DiscussionNote
commented on,Papotage,18,b_b,2024-09-13,3318,DiscussionNote
commented on,Papotage,4,maieul,2024-09-13,3318,DiscussionNote
commented on,Papotage,4,maieul,2024-09-13,3318,DiscussionNote
commented on,Papotage,4,maieul,2024-09-13,3318,DiscussionNote
opened,Papotage,4,maieul,2024-09-13,3318,Issue
opened,Papotage,4,maieul,2024-09-13,3318,Issue
accepted,Codage,4,maieul,2024-09-13,3318,MergeRequest
commented on,Papotage,12,marcimat,2024-09-13,3318,Note
commented on,Papotage,12,marcimat,2024-09-13,3318,Note
commented on,Papotage,12,marcimat,2024-09-13,3318,Note
commented on,Papotage,12,marcimat,2024-09-13,3318,Note
commented on,Papotage,12,marcimat,2024-09-13,3318,Note
commented on,Papotage,4,maieul,2024-09-13,3318,Note
commented on,Papotage,4,maieul,2024-09-13,3318,Note
commented on,Papotage,4,maieul,2024-09-13,3318,Note
commented on,Papotage,4,maieul,2024-09-13,3318,Note
commented on,Papotage,4,maieul,2024-09-13,3318,Note
deleted,Codage,18,b_b,2024-09-13,3318,Project
pushed to,Codage,12,marcimat,2024-09-13,3318,Project
pushed to,Codage,18,b_b,2024-09-13,3318,Project
pushed to,Codage,4,maieul,2024-09-13,3318,Project
pushed to,Codage,4,maieul,2024-09-13,3318,Project
pushed to,Codage,4,maieul,2024-09-13,3318,Project
pushed to,Codage,4,maieul,2024-09-13,3318,Project
commented on,Papotage,4,maieul,2024-09-14,3318,DiffNote
pushed to,Codage,4,maieul,2024-09-14,3318,Project
pushed to,Codage,4,maieul,2024-09-14,3318,Project
commented on,Papotage,18,b_b,2024-09-15,3318,DiscussionNote
commented on,Papotage,4,maieul,2024-09-15,3318,DiscussionNote
approved,Codage,18,b_b,2024-09-15,3318,MergeRequest
opened,Codage,4,maieul,2024-09-15,3318,MergeRequest
commented on,Papotage,18,b_b,2024-09-15,3318,Note
commented on,Papotage,4,maieul,2024-09-15,3318,Note
pushed new,Codage,4,maieul,2024-09-15,3318,Project
accepted,Codage,4,maieul,2024-09-16,3318,MergeRequest
approved,Codage,14,rastapopoulos,2024-09-16,3318,MergeRequest
commented on,Papotage,4,maieul,2024-09-16,3318,Note
deleted,Codage,4,maieul,2024-09-16,3318,Project
pushed to,Codage,4,maieul,2024-09-16,3318,Project
pushed to,Codage,4,maieul,2024-09-16,3318,Project
commented on,Papotage,18,b_b,2024-09-17,3318,DiscussionNote
commented on,Papotage,4,maieul,2024-09-17,3318,DiscussionNote
commented on,Papotage,4,maieul,2024-09-17,3318,DiscussionNote
closed,Papotage,4,maieul,2024-09-17,3318,Issue
opened,Papotage,4,maieul,2024-09-17,3318,Issue
commented on,Papotage,14,rastapopoulos,2024-09-19,3318,DiscussionNote
commented on,Papotage,206,pierretux,2024-09-19,3318,DiscussionNote
commented on,Papotage,206,pierretux,2024-09-19,3318,DiscussionNote
opened,Codage,206,pierretux,2024-09-19,3318,MergeRequest
opened,Codage,6,JamesRezo,2024-09-19,3318,MergeRequest
commented on,Papotage,18,b_b,2024-09-19,3318,Note
pushed new,Codage,6,JamesRezo,2024-09-19,3318,Project
commented on,Papotage,18,b_b,2024-09-20,3318,DiscussionNote
commented on,Papotage,18,b_b,2024-09-20,3318,DiscussionNote
commented on,Papotage,18,b_b,2024-09-20,3318,DiscussionNote
commented on,Papotage,3,touti,2024-09-20,3318,DiscussionNote
commented on,Papotage,3,touti,2024-09-20,3318,DiscussionNote
commented on,Papotage,3,touti,2024-09-20,3318,DiscussionNote
commented on,Papotage,3,touti,2024-09-20,3318,DiscussionNote
commented on,Papotage,3,touti,2024-09-20,3318,DiscussionNote
approved,Codage,12,marcimat,2024-09-20,3318,MergeRequest
pushed to,Codage,6,JamesRezo,2024-09-20,3318,Project
commented on,Papotage,18,b_b,2024-09-22,3318,DiscussionNote
commented on,Papotage,18,b_b,2024-09-22,3318,DiscussionNote
commented on,Papotage,3,touti,2024-09-22,3318,DiscussionNote
commented on,Papotage,3,touti,2024-09-22,3318,DiscussionNote
commented on,Papotage,3,touti,2024-09-22,3318,Note
commented on,Papotage,206,pierretux,2024-09-23,3318,DiffNote
commented on,Papotage,206,pierretux,2024-09-23,3318,DiffNote
commented on,Papotage,3,touti,2024-09-23,3318,DiffNote
commented on,Papotage,3,touti,2024-09-23,3318,DiffNote
commented on,Papotage,206,pierretux,2024-09-23,3318,DiscussionNote
commented on,Papotage,18,b_b,2024-09-24,3318,DiffNote
commented on,Papotage,18,b_b,2024-09-24,3318,DiffNote
commented on,Papotage,6,JamesRezo,2024-09-24,3318,DiffNote
approved,Codage,18,b_b,2024-09-24,3318,MergeRequest
approved,Codage,18,b_b,2024-09-24,3318,MergeRequest
opened,Codage,6,JamesRezo,2024-09-24,3318,MergeRequest
pushed new,Codage,6,JamesRezo,2024-09-24,3318,Project
pushed to,Codage,6,JamesRezo,2024-09-24,3318,Project
commented on,Papotage,12,marcimat,2024-09-25,3318,DiscussionNote
commented on,Papotage,4,maieul,2024-09-25,3318,DiscussionNote
closed,Papotage,6,JamesRezo,2024-09-25,3318,Issue
opened,Papotage,6,JamesRezo,2024-09-25,3318,Issue
accepted,Codage,4,maieul,2024-09-25,3318,MergeRequest
accepted,Codage,6,JamesRezo,2024-09-25,3318,MergeRequest
accepted,Codage,6,JamesRezo,2024-09-25,3318,MergeRequest
approved,Codage,12,marcimat,2024-09-25,3318,MergeRequest
approved,Codage,18,b_b,2024-09-25,3318,MergeRequest
approved,Codage,6,JamesRezo,2024-09-25,3318,MergeRequest
opened,Codage,12,marcimat,2024-09-25,3318,MergeRequest
commented on,Papotage,12,marcimat,2024-09-25,3318,Note
commented on,Papotage,4,maieul,2024-09-25,3318,Note
deleted,Codage,12,marcimat,2024-09-25,3318,Project
deleted,Codage,6,JamesRezo,2024-09-25,3318,Project
deleted,Codage,6,JamesRezo,2024-09-25,3318,Project
pushed new,Codage,12,marcimat,2024-09-25,3318,Project
pushed to,Codage,4,maieul,2024-09-25,3318,Project
pushed to,Codage,6,JamesRezo,2024-09-25,3318,Project
pushed to,Codage,6,JamesRezo,2024-09-25,3318,Project
pushed to,Codage,6,JamesRezo,2024-09-25,3318,Project
pushed to,Codage,6,JamesRezo,2024-09-25,3318,Project
pushed to,Codage,6,JamesRezo,2024-09-25,3318,Project
pushed to,Codage,6,JamesRezo,2024-09-25,3318,Project
opened,Codage,3,touti,2024-09-26,3318,MergeRequest
pushed new,Codage,3,touti,2024-09-26,3318,Project
pushed to,Codage,3,touti,2024-09-26,3318,Project
pushed to,Codage,3,touti,2024-09-26,3318,Project
opened,Codage,9,cerdic,2024-09-27,3318,MergeRequest
commented on,Papotage,9,cerdic,2024-09-27,3318,Note
pushed new,Codage,9,cerdic,2024-09-27,3318,Project
closed,Codage,206,pierretux,2024-09-28,3318,MergeRequest
commented on,Papotage,4,maieul,2024-09-29,3318,DiffNote
commented on,Papotage,4,maieul,2024-09-29,3318,DiffNote
commented on,Papotage,4,maieul,2024-09-29,3318,Note
commented on,Papotage,12,marcimat,2024-09-30,3318,DiffNote
approved,Codage,12,marcimat,2024-09-30,3318,MergeRequest
pushed to,Codage,12,marcimat,2024-09-30,3318,Project
commented on,Papotage,12,marcimat,2024-10-01,3318,DiscussionNote
commented on,Papotage,14,rastapopoulos,2024-10-01,3318,DiscussionNote
commented on,Papotage,18,b_b,2024-10-01,3318,DiscussionNote
commented on,Papotage,4,maieul,2024-10-01,3318,DiscussionNote
commented on,Papotage,4,maieul,2024-10-01,3318,DiscussionNote
commented on,Papotage,6,JamesRezo,2024-10-01,3318,DiscussionNote
commented on,Papotage,6,JamesRezo,2024-10-01,3318,DiscussionNote
opened,Papotage,4,maieul,2024-10-01,3318,Issue
accepted,Codage,12,marcimat,2024-10-01,3318,MergeRequest
accepted,Codage,12,marcimat,2024-10-01,3318,MergeRequest
accepted,Codage,4,maieul,2024-10-01,3318,MergeRequest
approved,Codage,12,marcimat,2024-10-01,3318,MergeRequest
approved,Codage,18,b_b,2024-10-01,3318,MergeRequest
approved,Codage,18,b_b,2024-10-01,3318,MergeRequest
approved,Codage,4,maieul,2024-10-01,3318,MergeRequest
approved,Codage,6,JamesRezo,2024-10-01,3318,MergeRequest
opened,Codage,12,marcimat,2024-10-01,3318,MergeRequest
opened,Codage,12,marcimat,2024-10-01,3318,MergeRequest
commented on,Papotage,12,marcimat,2024-10-01,3318,Note
commented on,Papotage,18,b_b,2024-10-01,3318,Note
commented on,Papotage,6,JamesRezo,2024-10-01,3318,Note
deleted,Codage,12,marcimat,2024-10-01,3318,Project
deleted,Codage,12,marcimat,2024-10-01,3318,Project
deleted,Codage,35,arno,2024-10-01,3318,Project
pushed new,Codage,12,marcimat,2024-10-01,3318,Project
pushed new,Codage,12,marcimat,2024-10-01,3318,Project
pushed to,Codage,12,marcimat,2024-10-01,3318,Project
pushed to,Codage,12,marcimat,2024-10-01,3318,Project
pushed to,Codage,12,marcimat,2024-10-01,3318,Project
pushed to,Codage,12,marcimat,2024-10-01,3318,Project
pushed to,Codage,12,marcimat,2024-10-01,3318,Project
pushed to,Codage,12,marcimat,2024-10-01,3318,Project
pushed to,Codage,4,maieul,2024-10-01,3318,Project
opened,Codage,6,JamesRezo,2024-10-01,3318,WorkItem
approved,Codage,22,placido,2024-10-04,3318,MergeRequest
closed,Codage,22,placido,2024-10-04,3318,MergeRequest
deleted,Codage,22,placido,2024-10-04,3318,Project
pushed to,Codage,22,placido,2024-10-04,3318,Project
pushed to,Codage,22,placido,2024-10-04,3318,Project
commented on,Papotage,3,touti,2024-10-05,3318,DiffNote
commented on,Papotage,3,touti,2024-10-06,3318,DiffNote
commented on,Papotage,14,rastapopoulos,2024-10-07,3318,DiscussionNote
commented on,Papotage,12,marcimat,2024-10-07,3318,Note
pushed to,Codage,3,touti,2024-10-07,3318,Project
commented on,Papotage,12,marcimat,2024-10-08,3318,DiffNote
commented on,Papotage,12,marcimat,2024-10-08,3318,DiffNote
commented on,Papotage,12,marcimat,2024-10-08,3318,DiffNote
commented on,Papotage,4,maieul,2024-10-08,3318,DiffNote
commented on,Papotage,4,maieul,2024-10-08,3318,DiffNote
commented on,Papotage,4,maieul,2024-10-08,3318,DiffNote
commented on,Papotage,4,maieul,2024-10-08,3318,DiffNote
accepted,Codage,18,b_b,2024-10-08,3318,MergeRequest
approved,Codage,18,b_b,2024-10-08,3318,MergeRequest
opened,Codage,4,maieul,2024-10-08,3318,MergeRequest
opened,Codage,4,maieul,2024-10-08,3318,MergeRequest
deleted,Codage,4,maieul,2024-10-08,3318,Project
pushed new,Codage,4,maieul,2024-10-08,3318,Project
pushed new,Codage,4,maieul,2024-10-08,3318,Project
pushed to,Codage,18,b_b,2024-10-08,3318,Project
pushed to,Codage,4,maieul,2024-10-08,3318,Project
pushed to,Codage,4,maieul,2024-10-08,3318,Project
pushed to,Codage,4,maieul,2024-10-08,3318,Project
commented on,Papotage,3,touti,2024-10-10,3318,DiffNote
commented on,Papotage,3,touti,2024-10-10,3318,DiffNote
commented on,Papotage,3,touti,2024-10-10,3318,DiffNote
commented on,Papotage,4,maieul,2024-10-10,3318,DiffNote
commented on,Papotage,4,maieul,2024-10-10,3318,DiffNote
commented on,Papotage,6,JamesRezo,2024-10-10,3318,DiffNote
commented on,Papotage,4,maieul,2024-10-10,3318,Note
pushed to,Codage,3,touti,2024-10-10,3318,Project
pushed to,Codage,3,touti,2024-10-10,3318,Project
commented on,Papotage,4,maieul,2024-10-11,3318,DiffNote
commented on,Papotage,4,maieul,2024-10-11,3318,DiffNote
commented on,Papotage,4,maieul,2024-10-11,3318,DiffNote
pushed to,Codage,3,touti,2024-10-11,3318,Project
pushed to,Codage,3,touti,2024-10-11,3318,Project
commented on,Papotage,3,touti,2024-10-12,3318,DiffNote
commented on,Papotage,3,touti,2024-10-12,3318,DiffNote
commented on,Papotage,6,JamesRezo,2024-10-12,3318,DiffNote
approved,Codage,4,maieul,2024-10-12,3318,MergeRequest
commented on,Papotage,4,maieul,2024-10-12,3318,Note
commented on,Papotage,3,touti,2024-10-13,3318,DiffNote
commented on,Papotage,3,touti,2024-10-13,3318,DiffNote
commented on,Papotage,4,maieul,2024-10-13,3318,DiscussionNote
commented on,Papotage,3,touti,2024-10-13,3318,Note
commented on,Papotage,3,touti,2024-10-13,3318,Note
commented on,Papotage,3,touti,2024-10-13,3318,Note
commented on,Papotage,4,maieul,2024-10-13,3318,Note
commented on,Papotage,4,maieul,2024-10-13,3318,Note
commented on,Papotage,4,maieul,2024-10-13,3318,Note
commented on,Papotage,4,maieul,2024-10-13,3318,Note
pushed to,Codage,4,maieul,2024-10-13,3318,Project
commented on,Papotage,14,rastapopoulos,2024-10-14,3318,DiscussionNote
commented on,Papotage,14,rastapopoulos,2024-10-14,3318,DiscussionNote
commented on,Papotage,17,nicod,2024-10-14,3318,DiscussionNote
commented on,Papotage,22,placido,2024-10-14,3318,DiscussionNote
opened,Papotage,18,b_b,2024-10-14,3318,Issue
opened,Papotage,22,placido,2024-10-14,3318,Issue
opened,Codage,18,b_b,2024-10-14,3318,MergeRequest
commented on,Papotage,14,rastapopoulos,2024-10-14,3318,Note
commented on,Papotage,18,b_b,2024-10-14,3318,Note
commented on,Papotage,18,b_b,2024-10-14,3318,Note
commented on,Papotage,22,placido,2024-10-14,3318,Note
pushed new,Codage,18,b_b,2024-10-14,3318,Project
commented on,Papotage,15,tcharlss,2024-10-15,3318,Note
pushed to,Codage,15,tcharlss,2024-10-15,3318,Project
commented on,Papotage,15,tcharlss,2024-10-16,3318,DiffNote
commented on,Papotage,15,tcharlss,2024-10-16,3318,DiffNote
commented on,Papotage,15,tcharlss,2024-10-16,3318,DiffNote
commented on,Papotage,17,nicod,2024-10-16,3318,DiffNote
commented on,Papotage,18,b_b,2024-10-16,3318,DiffNote
commented on,Papotage,4,maieul,2024-10-16,3318,DiffNote
commented on,Papotage,4,maieul,2024-10-16,3318,DiffNote
commented on,Papotage,4,maieul,2024-10-16,3318,DiffNote
commented on,Papotage,12,marcimat,2024-10-16,3318,DiscussionNote
commented on,Papotage,15,tcharlss,2024-10-16,3318,DiscussionNote
commented on,Papotage,15,tcharlss,2024-10-16,3318,DiscussionNote
commented on,Papotage,18,b_b,2024-10-16,3318,DiscussionNote
commented on,Papotage,18,b_b,2024-10-16,3318,DiscussionNote
commented on,Papotage,4,maieul,2024-10-16,3318,DiscussionNote
commented on,Papotage,6,JamesRezo,2024-10-16,3318,DiscussionNote
commented on,Papotage,6,JamesRezo,2024-10-16,3318,DiscussionNote
commented on,Papotage,6,JamesRezo,2024-10-16,3318,DiscussionNote
opened,Papotage,18,b_b,2024-10-16,3318,Issue
approved,Codage,18,b_b,2024-10-16,3318,MergeRequest
opened,Codage,12,marcimat,2024-10-16,3318,MergeRequest
commented on,Papotage,12,marcimat,2024-10-16,3318,Note
commented on,Papotage,17,nicod,2024-10-16,3318,Note
commented on,Papotage,6,JamesRezo,2024-10-16,3318,Note
pushed new,Codage,12,marcimat,2024-10-16,3318,Project
pushed to,Codage,15,tcharlss,2024-10-16,3318,Project
commented on,Papotage,15,tcharlss,2024-10-17,3318,DiscussionNote
commented on,Papotage,17,nicod,2024-10-17,3318,DiscussionNote
commented on,Papotage,17,nicod,2024-10-17,3318,DiscussionNote
approved,Codage,17,nicod,2024-10-17,3318,MergeRequest
commented on,Papotage,14,rastapopoulos,2024-10-26,3318,DiffNote
commented on,Papotage,14,rastapopoulos,2024-10-26,3318,DiffNote
commented on,Papotage,14,rastapopoulos,2024-10-26,3318,DiffNote
commented on,Papotage,15,tcharlss,2024-10-26,3318,DiffNote
commented on,Papotage,4,maieul,2024-10-26,3318,DiffNote
commented on,Papotage,4,maieul,2024-10-26,3318,DiffNote
commented on,Papotage,4,maieul,2024-10-26,3318,DiffNote
commented on,Papotage,14,rastapopoulos,2024-10-26,3318,DiscussionNote
commented on,Papotage,3,touti,2024-10-26,3318,DiscussionNote
commented on,Papotage,4,maieul,2024-10-26,3318,DiscussionNote
approved,Codage,14,rastapopoulos,2024-10-26,3318,MergeRequest
commented on,Papotage,4,maieul,2024-10-26,3318,Note
commented on,Papotage,4,maieul,2024-10-26,3318,Note
commented on,Papotage,4,maieul,2024-10-26,3318,Note
pushed to,Codage,4,maieul,2024-10-26,3318,Project
pushed to,Codage,4,maieul,2024-10-26,3318,Project
pushed to,Codage,4,maieul,2024-10-26,3318,Project
closed,Papotage,4,maieul,2024-10-27,3318,Issue
accepted,Codage,4,maieul,2024-10-27,3318,MergeRequest
approved,Codage,4,maieul,2024-10-27,3318,MergeRequest
approved,Codage,4,maieul,2024-10-27,3318,MergeRequest
commented on,Papotage,4,maieul,2024-10-27,3318,Note
commented on,Papotage,4,maieul,2024-10-27,3318,Note
commented on,Papotage,4,maieul,2024-10-27,3318,Note
deleted,Codage,12,marcimat,2024-10-27,3318,Project
pushed to,Codage,4,maieul,2024-10-27,3318,Project
pushed to,Codage,4,maieul,2024-10-27,3318,Project
pushed to,Codage,4,maieul,2024-10-27,3318,Project
pushed to,Codage,4,maieul,2024-10-27,3318,Project
pushed to,Codage,4,maieul,2024-10-27,3318,Project
pushed to,Codage,4,maieul,2024-10-27,3318,Project
commented on,Papotage,15,tcharlss,2024-10-28,3318,DiffNote
commented on,Papotage,14,rastapopoulos,2024-10-28,3318,DiscussionNote
commented on,Papotage,15,tcharlss,2024-10-28,3318,DiscussionNote
commented on,Papotage,17,nicod,2024-10-28,3318,DiscussionNote
commented on,Papotage,18,b_b,2024-10-28,3318,DiscussionNote
commented on,Papotage,18,b_b,2024-10-28,3318,DiscussionNote
commented on,Papotage,18,b_b,2024-10-28,3318,DiscussionNote
commented on,Papotage,18,b_b,2024-10-28,3318,DiscussionNote
commented on,Papotage,18,b_b,2024-10-28,3318,DiscussionNote
commented on,Papotage,4,maieul,2024-10-28,3318,DiscussionNote
commented on,Papotage,4,maieul,2024-10-28,3318,DiscussionNote
commented on,Papotage,4,maieul,2024-10-28,3318,DiscussionNote
commented on,Papotage,4,maieul,2024-10-28,3318,DiscussionNote
commented on,Papotage,4,maieul,2024-10-28,3318,DiscussionNote
commented on,Papotage,4,maieul,2024-10-28,3318,DiscussionNote
commented on,Papotage,4,maieul,2024-10-28,3318,DiscussionNote
commented on,Papotage,4,maieul,2024-10-28,3318,DiscussionNote
commented on,Papotage,462,glopglop,2024-10-28,3318,DiscussionNote
commented on,Papotage,462,glopglop,2024-10-28,3318,DiscussionNote
opened,Papotage,462,glopglop,2024-10-28,3318,Issue
accepted,Codage,4,maieul,2024-10-28,3318,MergeRequest
approved,Codage,14,rastapopoulos,2024-10-28,3318,MergeRequest
approved,Codage,18,b_b,2024-10-28,3318,MergeRequest
closed,Codage,4,maieul,2024-10-28,3318,MergeRequest
opened,Codage,462,glopglop,2024-10-28,3318,MergeRequest
commented on,Papotage,18,b_b,2024-10-28,3318,Note
commented on,Papotage,18,b_b,2024-10-28,3318,Note
commented on,Papotage,18,b_b,2024-10-28,3318,Note
commented on,Papotage,4,maieul,2024-10-28,3318,Note
commented on,Papotage,4,maieul,2024-10-28,3318,Note
commented on,Papotage,4,maieul,2024-10-28,3318,Note
deleted,Codage,4,maieul,2024-10-28,3318,Project
deleted,Codage,4,maieul,2024-10-28,3318,Project
pushed to,Codage,15,tcharlss,2024-10-28,3318,Project
pushed to,Codage,4,maieul,2024-10-28,3318,Project
pushed to,Codage,4,maieul,2024-10-28,3318,Project
pushed to,Codage,4,maieul,2024-10-28,3318,Project
commented on,Papotage,17,nicod,2024-10-29,3318,DiscussionNote
commented on,Papotage,17,nicod,2024-10-29,3318,DiscussionNote
commented on,Papotage,462,glopglop,2024-10-29,3318,DiscussionNote
commented on,Papotage,6,JamesRezo,2024-10-29,3318,DiscussionNote
commented on,Papotage,17,nicod,2024-10-30,3318,DiscussionNote
commented on,Papotage,18,b_b,2024-10-30,3318,DiscussionNote
commented on,Papotage,462,glopglop,2024-10-30,3318,DiscussionNote
approved,Codage,18,b_b,2024-10-30,3318,MergeRequest
approved,Codage,4,maieul,2024-10-30,3318,MergeRequest
commented on,Papotage,14,rastapopoulos,2024-11-01,3318,DiscussionNote
commented on,Papotage,3,touti,2024-11-01,3318,DiscussionNote
commented on,Papotage,3,touti,2024-11-01,3318,Note
commented on,Papotage,1114,christo93,2024-11-02,3318,DiscussionNote
commented on,Papotage,1114,christo93,2024-11-04,3318,DiscussionNote
commented on,Papotage,14,rastapopoulos,2024-11-04,3318,DiscussionNote
commented on,Papotage,22,placido,2024-11-04,3318,DiscussionNote
opened,Papotage,206,pierretux,2024-11-07,3318,Issue
commented on,Papotage,18,b_b,2024-11-07,3318,Note
commented on,Papotage,12,marcimat,2024-11-08,3318,DiscussionNote
commented on,Papotage,14,rastapopoulos,2024-11-08,3318,DiscussionNote
commented on,Papotage,14,rastapopoulos,2024-11-08,3318,DiscussionNote
commented on,Papotage,18,b_b,2024-11-08,3318,DiscussionNote
commented on,Papotage,18,b_b,2024-11-08,3318,DiscussionNote
commented on,Papotage,206,pierretux,2024-11-08,3318,DiscussionNote
commented on,Papotage,4,maieul,2024-11-08,3318,DiscussionNote
closed,Papotage,4,maieul,2024-11-08,3318,Issue
closed,Papotage,4,maieul,2024-11-08,3318,Issue
closed,Papotage,4,maieul,2024-11-08,3318,Issue
closed,Papotage,462,glopglop,2024-11-08,3318,Issue
accepted,Codage,4,maieul,2024-11-08,3318,MergeRequest
accepted,Codage,4,maieul,2024-11-08,3318,MergeRequest
approved,Codage,14,rastapopoulos,2024-11-08,3318,MergeRequest
approved,Codage,18,b_b,2024-11-08,3318,MergeRequest
opened,Codage,4,maieul,2024-11-08,3318,MergeRequest
commented on,Papotage,4,maieul,2024-11-08,3318,Note
deleted,Codage,4,maieul,2024-11-08,3318,Project
pushed new,Codage,4,maieul,2024-11-08,3318,Project
pushed to,Codage,4,maieul,2024-11-08,3318,Project
pushed to,Codage,4,maieul,2024-11-08,3318,Project
pushed to,Codage,4,maieul,2024-11-08,3318,Project
pushed to,Codage,4,maieul,2024-11-08,3318,Project
commented on,Papotage,18,b_b,2024-11-09,3318,DiffNote
commented on,Papotage,4,maieul,2024-11-09,3318,DiffNote
opened,Codage,22,placido,2024-11-14,3318,MergeRequest
pushed new,Codage,22,placido,2024-11-14,3318,Project
commented on,Papotage,206,pierretux,2024-11-16,3318,DiscussionNote
opened,Papotage,3,touti,2024-11-16,3318,Issue
commented on,Papotage,14,rastapopoulos,2024-11-17,3318,DiscussionNote
commented on,Papotage,18,b_b,2024-11-17,3318,DiscussionNote
commented on,Papotage,18,b_b,2024-11-18,3318,DiffNote
commented on,Papotage,14,rastapopoulos,2024-11-18,3318,DiscussionNote
commented on,Papotage,14,rastapopoulos,2024-11-18,3318,DiscussionNote
commented on,Papotage,18,b_b,2024-11-18,3318,DiscussionNote
commented on,Papotage,453,thrax,2024-11-18,3318,DiscussionNote
opened,Papotage,18,b_b,2024-11-18,3318,Issue
commented on,Papotage,18,b_b,2024-11-18,3318,Note
commented on,Papotage,22,placido,2024-11-18,3318,Note
commented on,Papotage,14,rastapopoulos,2024-11-19,3318,DiscussionNote
commented on,Papotage,18,b_b,2024-11-19,3318,DiscussionNote
commented on,Papotage,206,pierretux,2024-11-19,3318,DiscussionNote
closed,Papotage,18,b_b,2024-11-19,3318,Issue
opened,Papotage,18,b_b,2024-11-19,3318,Issue
approved,Codage,18,b_b,2024-11-19,3318,MergeRequest
commented on,Papotage,14,rastapopoulos,2024-11-19,3318,Note
commented on,Papotage,18,b_b,2024-11-19,3318,Note
commented on,Papotage,18,b_b,2024-11-20,3318,DiffNote
commented on,Papotage,4,maieul,2024-11-20,3318,DiffNote
commented on,Papotage,14,rastapopoulos,2024-11-20,3318,DiscussionNote
commented on,Papotage,15,tcharlss,2024-11-20,3318,DiscussionNote
commented on,Papotage,3,touti,2024-11-20,3318,DiscussionNote
commented on,Papotage,3,touti,2024-11-20,3318,DiscussionNote
commented on,Papotage,3,touti,2024-11-20,3318,DiscussionNote
approved,Codage,12,marcimat,2024-11-20,3318,MergeRequest
approved,Codage,12,marcimat,2024-11-20,3318,MergeRequest
commented on,Papotage,4,maieul,2024-11-20,3318,Note
commented on,Papotage,4,maieul,2024-11-20,3318,Note
pushed to,Codage,22,placido,2024-11-20,3318,Project
pushed to,Codage,4,maieul,2024-11-20,3318,Project
pushed to,Codage,4,maieul,2024-11-20,3318,Project
pushed to,Codage,4,maieul,2024-11-20,3318,Project
commented on,Papotage,18,b_b,2024-11-21,3318,DiffNote
commented on,Papotage,22,placido,2024-11-21,3318,DiffNote
commented on,Papotage,22,placido,2024-11-21,3318,DiffNote
commented on,Papotage,22,placido,2024-11-21,3318,DiffNote
commented on,Papotage,4,maieul,2024-11-21,3318,DiffNote
commented on,Papotage,4,maieul,2024-11-21,3318,DiffNote
commented on,Papotage,12,marcimat,2024-11-21,3318,DiscussionNote
commented on,Papotage,14,rastapopoulos,2024-11-21,3318,DiscussionNote
commented on,Papotage,15,tcharlss,2024-11-21,3318,DiscussionNote
commented on,Papotage,15,tcharlss,2024-11-21,3318,DiscussionNote
commented on,Papotage,4,maieul,2024-11-21,3318,DiscussionNote
accepted,Codage,4,maieul,2024-11-21,3318,MergeRequest
accepted,Codage,4,maieul,2024-11-21,3318,MergeRequest
accepted,Codage,4,maieul,2024-11-21,3318,MergeRequest
accepted,Codage,4,maieul,2024-11-21,3318,MergeRequest
approved,Codage,12,marcimat,2024-11-21,3318,MergeRequest
approved,Codage,15,tcharlss,2024-11-21,3318,MergeRequest
approved,Codage,18,b_b,2024-11-21,3318,MergeRequest
approved,Codage,18,b_b,2024-11-21,3318,MergeRequest
approved,Codage,18,b_b,2024-11-21,3318,MergeRequest
approved,Codage,6,JamesRezo,2024-11-21,3318,MergeRequest
opened,Codage,4,maieul,2024-11-21,3318,MergeRequest
opened,Codage,4,maieul,2024-11-21,3318,MergeRequest
commented on,Papotage,4,maieul,2024-11-21,3318,Note
commented on,Papotage,4,maieul,2024-11-21,3318,Note
commented on,Papotage,4,maieul,2024-11-21,3318,Note
commented on,Papotage,4,maieul,2024-11-21,3318,Note
deleted,Codage,4,maieul,2024-11-21,3318,Project
deleted,Codage,4,maieul,2024-11-21,3318,Project
deleted,Codage,4,maieul,2024-11-21,3318,Project
deleted,Codage,6,JamesRezo,2024-11-21,3318,Project
pushed new,Codage,4,maieul,2024-11-21,3318,Project
pushed new,Codage,4,maieul,2024-11-21,3318,Project
pushed to,Codage,22,placido,2024-11-21,3318,Project
pushed to,Codage,4,maieul,2024-11-21,3318,Project
pushed to,Codage,4,maieul,2024-11-21,3318,Project
pushed to,Codage,4,maieul,2024-11-21,3318,Project
pushed to,Codage,4,maieul,2024-11-21,3318,Project
pushed to,Codage,4,maieul,2024-11-21,3318,Project
pushed to,Codage,4,maieul,2024-11-21,3318,Project
pushed to,Codage,4,maieul,2024-11-21,3318,Project
pushed to,Codage,4,maieul,2024-11-21,3318,Project
pushed to,Codage,4,maieul,2024-11-21,3318,Project
pushed to,Codage,4,maieul,2024-11-21,3318,Project
pushed to,Codage,6,JamesRezo,2024-11-21,3318,Project
commented on,Papotage,12,marcimat,2024-11-22,3318,DiscussionNote
commented on,Papotage,15,tcharlss,2024-11-22,3318,DiscussionNote
commented on,Papotage,4,maieul,2024-11-22,3318,DiscussionNote
commented on,Papotage,4,maieul,2024-11-22,3318,DiscussionNote
commented on,Papotage,4,maieul,2024-11-22,3318,DiscussionNote
commented on,Papotage,453,thrax,2024-11-22,3318,DiscussionNote
commented on,Papotage,453,thrax,2024-11-22,3318,DiscussionNote
commented on,Papotage,453,thrax,2024-11-22,3318,DiscussionNote
closed,Papotage,6,JamesRezo,2024-11-22,3318,Issue
opened,Papotage,15,tcharlss,2024-11-22,3318,Issue
opened,Papotage,6,JamesRezo,2024-11-22,3318,Issue
opened,Papotage,6,JamesRezo,2024-11-22,3318,Issue
opened,Papotage,6,JamesRezo,2024-11-22,3318,Issue
opened,Papotage,6,JamesRezo,2024-11-22,3318,Issue
opened,Papotage,6,JamesRezo,2024-11-22,3318,Issue
opened,Papotage,6,JamesRezo,2024-11-22,3318,Issue
opened,Papotage,6,JamesRezo,2024-11-22,3318,Issue
opened,Papotage,6,JamesRezo,2024-11-22,3318,Issue
opened,Papotage,6,JamesRezo,2024-11-22,3318,Issue
opened,Papotage,6,JamesRezo,2024-11-22,3318,Issue
opened,Papotage,6,JamesRezo,2024-11-22,3318,Issue
opened,Papotage,6,JamesRezo,2024-11-22,3318,Issue
opened,Papotage,6,JamesRezo,2024-11-22,3318,Issue
opened,Papotage,6,JamesRezo,2024-11-22,3318,Issue
opened,Papotage,6,JamesRezo,2024-11-22,3318,Issue
opened,Papotage,6,JamesRezo,2024-11-22,3318,Issue
opened,Papotage,6,JamesRezo,2024-11-22,3318,Issue
opened,Papotage,6,JamesRezo,2024-11-22,3318,Issue
opened,Papotage,6,JamesRezo,2024-11-22,3318,Issue
opened,Papotage,6,JamesRezo,2024-11-22,3318,Issue
opened,Papotage,6,JamesRezo,2024-11-22,3318,Issue
opened,Papotage,6,JamesRezo,2024-11-22,3318,Issue
opened,Papotage,6,JamesRezo,2024-11-22,3318,Issue
opened,Papotage,6,JamesRezo,2024-11-22,3318,Issue
opened,Papotage,6,JamesRezo,2024-11-22,3318,Issue
accepted,Codage,6,JamesRezo,2024-11-22,3318,MergeRequest
approved,Codage,12,marcimat,2024-11-22,3318,MergeRequest
approved,Codage,14,rastapopoulos,2024-11-22,3318,MergeRequest
approved,Codage,14,rastapopoulos,2024-11-22,3318,MergeRequest
approved,Codage,4,maieul,2024-11-22,3318,MergeRequest
approved,Codage,468,bricebou,2024-11-22,3318,MergeRequest
approved,Codage,6,JamesRezo,2024-11-22,3318,MergeRequest
opened,Codage,15,tcharlss,2024-11-22,3318,MergeRequest
opened,Codage,15,tcharlss,2024-11-22,3318,MergeRequest
opened,Codage,453,thrax,2024-11-22,3318,MergeRequest
opened,Codage,453,thrax,2024-11-22,3318,MergeRequest
commented on,Papotage,12,marcimat,2024-11-22,3318,Note
commented on,Papotage,12,marcimat,2024-11-22,3318,Note
commented on,Papotage,12,marcimat,2024-11-22,3318,Note
commented on,Papotage,14,rastapopoulos,2024-11-22,3318,Note
commented on,Papotage,15,tcharlss,2024-11-22,3318,Note
commented on,Papotage,4,maieul,2024-11-22,3318,Note
deleted,Codage,15,tcharlss,2024-11-22,3318,Project
pushed new,Codage,15,tcharlss,2024-11-22,3318,Project
pushed new,Codage,15,tcharlss,2024-11-22,3318,Project
pushed to,Codage,6,JamesRezo,2024-11-22,3318,Project
pushed to,Codage,6,JamesRezo,2024-11-22,3318,Project
commented on,Papotage,14,rastapopoulos,2024-11-23,3318,DiscussionNote
commented on,Papotage,4,maieul,2024-11-23,3318,DiscussionNote
commented on,Papotage,453,thrax,2024-11-23,3318,DiscussionNote
closed,Papotage,4,maieul,2024-11-23,3318,Issue
accepted,Codage,4,maieul,2024-11-23,3318,MergeRequest
commented on,Papotage,15,tcharlss,2024-11-23,3318,Note
commented on,Papotage,4,maieul,2024-11-23,3318,Note
commented on,Papotage,4,maieul,2024-11-23,3318,Note
deleted,Codage,15,tcharlss,2024-11-23,3318,Project
pushed to,Codage,4,maieul,2024-11-23,3318,Project
pushed to,Codage,4,maieul,2024-11-23,3318,Project
pushed to,Codage,4,maieul,2024-11-23,3318,Project
commented on,Papotage,14,rastapopoulos,2024-11-24,3318,DiscussionNote
commented on,Papotage,14,rastapopoulos,2024-11-24,3318,DiscussionNote
commented on,Papotage,18,b_b,2024-11-24,3318,DiscussionNote
commented on,Papotage,18,b_b,2024-11-24,3318,DiscussionNote
commented on,Papotage,4,maieul,2024-11-24,3318,DiscussionNote
commented on,Papotage,4,maieul,2024-11-24,3318,DiscussionNote
commented on,Papotage,4,maieul,2024-11-24,3318,DiscussionNote
commented on,Papotage,12,marcimat,2024-11-25,3318,DiffNote
commented on,Papotage,12,marcimat,2024-11-25,3318,DiffNote
commented on,Papotage,12,marcimat,2024-11-25,3318,DiffNote
commented on,Papotage,12,marcimat,2024-11-25,3318,DiscussionNote
commented on,Papotage,12,marcimat,2024-11-25,3318,DiscussionNote
commented on,Papotage,12,marcimat,2024-11-25,3318,DiscussionNote
commented on,Papotage,14,rastapopoulos,2024-11-25,3318,DiscussionNote
commented on,Papotage,14,rastapopoulos,2024-11-25,3318,DiscussionNote
commented on,Papotage,14,rastapopoulos,2024-11-25,3318,DiscussionNote
commented on,Papotage,15,tcharlss,2024-11-25,3318,DiscussionNote
commented on,Papotage,15,tcharlss,2024-11-25,3318,DiscussionNote
commented on,Papotage,15,tcharlss,2024-11-25,3318,DiscussionNote
commented on,Papotage,18,b_b,2024-11-25,3318,DiscussionNote
commented on,Papotage,15,tcharlss,2024-11-25,3318,Note
pushed to,Codage,22,placido,2024-11-25,3318,Project
pushed to,Codage,6,JamesRezo,2024-11-25,3318,Project
commented on,Papotage,453,thrax,2024-11-26,3318,DiffNote
commented on,Papotage,453,thrax,2024-11-26,3318,DiffNote
commented on,Papotage,453,thrax,2024-11-26,3318,DiffNote
commented on,Papotage,18,b_b,2024-11-26,3318,DiscussionNote
commented on,Papotage,4,maieul,2024-11-26,3318,DiscussionNote
commented on,Papotage,453,thrax,2024-11-26,3318,DiscussionNote
commented on,Papotage,453,thrax,2024-11-26,3318,DiscussionNote
opened,Papotage,12,marcimat,2024-11-26,3318,Issue
accepted,Codage,6,JamesRezo,2024-11-26,3318,MergeRequest
commented on,Papotage,12,marcimat,2024-11-26,3318,Note
commented on,Papotage,12,marcimat,2024-11-26,3318,Note
commented on,Papotage,22,placido,2024-11-26,3318,Note
commented on,Papotage,442,Yohooo,2024-11-26,3318,Note
deleted,Codage,22,placido,2024-11-26,3318,Project
pushed to,Codage,6,JamesRezo,2024-11-26,3318,Project
commented on,Papotage,12,marcimat,2024-11-27,3318,DiffNote
commented on,Papotage,12,marcimat,2024-11-27,3318,DiffNote
commented on,Papotage,18,b_b,2024-11-27,3318,DiffNote
closed,Papotage,6,JamesRezo,2024-11-27,3318,Issue
accepted,Codage,4,maieul,2024-11-27,3318,MergeRequest
approved,Codage,12,marcimat,2024-11-27,3318,MergeRequest
commented on,Papotage,4,maieul,2024-11-27,3318,Note
deleted,Codage,3,touti,2024-11-27,3318,Project
pushed to,Codage,4,maieul,2024-11-27,3318,Project
pushed to,Codage,4,maieul,2024-11-27,3318,Project
pushed to,Codage,4,maieul,2024-11-27,3318,Project
commented on,Papotage,18,b_b,2024-11-29,3318,DiffNote
approved,Codage,18,b_b,2024-11-29,3318,MergeRequest
opened,Codage,4,maieul,2024-11-29,3318,MergeRequest
pushed new,Codage,4,maieul,2024-11-29,3318,Project
commented on,Papotage,453,thrax,2024-11-30,3318,DiffNote
commented on,Papotage,453,thrax,2024-11-30,3318,DiffNote
commented on,Papotage,17,nicod,2024-11-30,3318,DiscussionNote
commented on,Papotage,453,thrax,2024-11-30,3318,Note
commented on,Papotage,453,thrax,2024-11-30,3318,Note
commented on,Papotage,18,b_b,2024-12-01,3318,DiffNote
commented on,Papotage,453,thrax,2024-12-01,3318,DiffNote
commented on,Papotage,14,rastapopoulos,2024-12-01,3318,DiscussionNote
commented on,Papotage,4,maieul,2024-12-02,3318,DiffNote
commented on,Papotage,14,rastapopoulos,2024-12-02,3318,DiscussionNote
commented on,Papotage,18,b_b,2024-12-02,3318,DiscussionNote
commented on,Papotage,18,b_b,2024-12-02,3318,DiscussionNote
commented on,Papotage,22,placido,2024-12-02,3318,DiscussionNote
commented on,Papotage,22,placido,2024-12-02,3318,DiscussionNote
approved,Codage,12,marcimat,2024-12-02,3318,MergeRequest
approved,Codage,18,b_b,2024-12-02,3318,MergeRequest
approved,Codage,4,maieul,2024-12-02,3318,MergeRequest
opened,Codage,22,placido,2024-12-02,3318,MergeRequest
opened,Codage,22,placido,2024-12-02,3318,MergeRequest
commented on,Papotage,14,rastapopoulos,2024-12-02,3318,Note
commented on,Papotage,22,placido,2024-12-02,3318,Note
commented on,Papotage,4,maieul,2024-12-02,3318,Note
pushed new,Codage,22,placido,2024-12-02,3318,Project
pushed new,Codage,22,placido,2024-12-02,3318,Project
commented on,Papotage,18,b_b,2024-12-03,3318,DiffNote
commented on,Papotage,18,b_b,2024-12-03,3318,DiscussionNote
commented on,Papotage,9,cerdic,2024-12-03,3318,DiscussionNote
accepted,Codage,18,b_b,2024-12-03,3318,MergeRequest
accepted,Codage,18,b_b,2024-12-03,3318,MergeRequest
accepted,Codage,18,b_b,2024-12-03,3318,MergeRequest
approved,Codage,12,marcimat,2024-12-03,3318,MergeRequest
approved,Codage,18,b_b,2024-12-03,3318,MergeRequest
approved,Codage,6,JamesRezo,2024-12-03,3318,MergeRequest
commented on,Papotage,18,b_b,2024-12-03,3318,Note
deleted,Codage,22,placido,2024-12-03,3318,Project
deleted,Codage,22,placido,2024-12-03,3318,Project
deleted,Codage,4,maieul,2024-12-03,3318,Project
deleted,Codage,6,JamesRezo,2024-12-03,3318,Project
deleted,Codage,6,JamesRezo,2024-12-03,3318,Project
deleted,Codage,6,JamesRezo,2024-12-03,3318,Project
deleted,Codage,6,JamesRezo,2024-12-03,3318,Project
deleted,Codage,6,JamesRezo,2024-12-03,3318,Project
deleted,Codage,6,JamesRezo,2024-12-03,3318,Project
deleted,Codage,6,JamesRezo,2024-12-03,3318,Project
deleted,Codage,6,JamesRezo,2024-12-03,3318,Project
deleted,Codage,6,JamesRezo,2024-12-03,3318,Project
deleted,Codage,6,JamesRezo,2024-12-03,3318,Project
deleted,Codage,6,JamesRezo,2024-12-03,3318,Project
deleted,Codage,6,JamesRezo,2024-12-03,3318,Project
deleted,Codage,6,JamesRezo,2024-12-03,3318,Project
deleted,Codage,6,JamesRezo,2024-12-03,3318,Project
deleted,Codage,6,JamesRezo,2024-12-03,3318,Project
deleted,Codage,6,JamesRezo,2024-12-03,3318,Project
deleted,Codage,6,JamesRezo,2024-12-03,3318,Project
deleted,Codage,6,JamesRezo,2024-12-03,3318,Project
deleted,Codage,6,JamesRezo,2024-12-03,3318,Project
deleted,Codage,6,JamesRezo,2024-12-03,3318,Project
deleted,Codage,6,JamesRezo,2024-12-03,3318,Project
deleted,Codage,6,JamesRezo,2024-12-03,3318,Project
deleted,Codage,6,JamesRezo,2024-12-03,3318,Project
deleted,Codage,6,JamesRezo,2024-12-03,3318,Project
deleted,Codage,6,JamesRezo,2024-12-03,3318,Project
deleted,Codage,6,JamesRezo,2024-12-03,3318,Project
deleted,Codage,6,JamesRezo,2024-12-03,3318,Project
deleted,Codage,6,JamesRezo,2024-12-03,3318,Project
deleted,Codage,6,JamesRezo,2024-12-03,3318,Project
deleted,Codage,6,JamesRezo,2024-12-03,3318,Project
deleted,Codage,6,JamesRezo,2024-12-03,3318,Project
deleted,Codage,6,JamesRezo,2024-12-03,3318,Project
deleted,Codage,6,JamesRezo,2024-12-03,3318,Project
deleted,Codage,6,JamesRezo,2024-12-03,3318,Project
deleted,Codage,6,JamesRezo,2024-12-03,3318,Project
deleted,Codage,6,JamesRezo,2024-12-03,3318,Project
deleted,Codage,6,JamesRezo,2024-12-03,3318,Project
deleted,Codage,6,JamesRezo,2024-12-03,3318,Project
deleted,Codage,6,JamesRezo,2024-12-03,3318,Project
deleted,Codage,6,JamesRezo,2024-12-03,3318,Project
deleted,Codage,6,JamesRezo,2024-12-03,3318,Project
deleted,Codage,6,JamesRezo,2024-12-03,3318,Project
deleted,Codage,6,JamesRezo,2024-12-03,3318,Project
deleted,Codage,6,JamesRezo,2024-12-03,3318,Project
deleted,Codage,6,JamesRezo,2024-12-03,3318,Project
deleted,Codage,6,JamesRezo,2024-12-03,3318,Project
deleted,Codage,6,JamesRezo,2024-12-03,3318,Project
deleted,Codage,6,JamesRezo,2024-12-03,3318,Project
deleted,Codage,6,JamesRezo,2024-12-03,3318,Project
deleted,Codage,6,JamesRezo,2024-12-03,3318,Project
deleted,Codage,6,JamesRezo,2024-12-03,3318,Project
deleted,Codage,6,JamesRezo,2024-12-03,3318,Project
deleted,Codage,6,JamesRezo,2024-12-03,3318,Project
deleted,Codage,6,JamesRezo,2024-12-03,3318,Project
deleted,Codage,6,JamesRezo,2024-12-03,3318,Project
pushed new,Codage,6,JamesRezo,2024-12-03,3318,Project
pushed new,Codage,6,JamesRezo,2024-12-03,3318,Project
pushed new,Codage,6,JamesRezo,2024-12-03,3318,Project
pushed new,Codage,6,JamesRezo,2024-12-03,3318,Project
pushed new,Codage,6,JamesRezo,2024-12-03,3318,Project
pushed to,Codage,18,b_b,2024-12-03,3318,Project
pushed to,Codage,18,b_b,2024-12-03,3318,Project
pushed to,Codage,18,b_b,2024-12-03,3318,Project
pushed to,Codage,18,b_b,2024-12-03,3318,Project
pushed to,Codage,18,b_b,2024-12-03,3318,Project
pushed to,Codage,18,b_b,2024-12-03,3318,Project
pushed to,Codage,18,b_b,2024-12-03,3318,Project
pushed to,Codage,18,b_b,2024-12-03,3318,Project
pushed to,Codage,18,b_b,2024-12-03,3318,Project
pushed to,Codage,6,JamesRezo,2024-12-03,3318,Project
pushed to,Codage,6,JamesRezo,2024-12-03,3318,Project
pushed new,Codage,6,JamesRezo,2024-12-04,3318,Project
pushed to,Codage,6,JamesRezo,2024-12-04,3318,Project
commented on,Papotage,1114,christo93,2024-12-05,3318,DiscussionNote
commented on,Papotage,22,placido,2024-12-05,3318,DiscussionNote
closed,Papotage,22,placido,2024-12-05,3318,Issue
commented on,Papotage,18,b_b,2024-12-05,3318,Note
pushed to,Codage,6,JamesRezo,2024-12-06,3318,Project
pushed to,Codage,6,JamesRezo,2024-12-06,3318,Project
pushed new,Codage,22,placido,2024-12-08,3318,Project
pushed to,Codage,22,placido,2024-12-09,3318,Project
closed,Papotage,17,nicod,2024-12-10,3318,Issue
opened,Papotage,17,nicod,2024-12-10,3318,Issue
commented on,Papotage,12,marcimat,2024-12-10,3318,Note
commented on,Papotage,17,nicod,2024-12-10,3318,Note
pushed to,Codage,22,placido,2024-12-10,3318,Project
pushed to,Codage,22,placido,2024-12-11,3318,Project
pushed to,Codage,22,placido,2024-12-11,3318,Project
commented on,Papotage,18,b_b,2024-12-12,3318,DiffNote
commented on,Papotage,22,placido,2024-12-12,3318,DiffNote
commented on,Papotage,12,marcimat,2024-12-12,3318,DiscussionNote
commented on,Papotage,12,marcimat,2024-12-12,3318,DiscussionNote
commented on,Papotage,14,rastapopoulos,2024-12-12,3318,DiscussionNote
commented on,Papotage,17,nicod,2024-12-12,3318,DiscussionNote
commented on,Papotage,17,nicod,2024-12-12,3318,DiscussionNote
commented on,Papotage,17,nicod,2024-12-12,3318,DiscussionNote
commented on,Papotage,17,nicod,2024-12-12,3318,DiscussionNote
commented on,Papotage,17,nicod,2024-12-12,3318,DiscussionNote
commented on,Papotage,17,nicod,2024-12-12,3318,DiscussionNote
commented on,Papotage,17,nicod,2024-12-12,3318,DiscussionNote
commented on,Papotage,18,b_b,2024-12-12,3318,DiscussionNote
commented on,Papotage,18,b_b,2024-12-12,3318,DiscussionNote
commented on,Papotage,18,b_b,2024-12-12,3318,DiscussionNote
commented on,Papotage,18,b_b,2024-12-12,3318,DiscussionNote
commented on,Papotage,18,b_b,2024-12-12,3318,DiscussionNote
opened,Papotage,17,nicod,2024-12-12,3318,Issue
approved,Codage,18,b_b,2024-12-12,3318,MergeRequest
opened,Codage,22,placido,2024-12-12,3318,MergeRequest
commented on,Papotage,17,nicod,2024-12-12,3318,Note
commented on,Papotage,17,nicod,2024-12-12,3318,Note
commented on,Papotage,17,nicod,2024-12-12,3318,Note
commented on,Papotage,18,b_b,2024-12-12,3318,Note
commented on,Papotage,4,maieul,2024-12-12,3318,Note
pushed to,Codage,22,placido,2024-12-12,3318,Project
commented on,Papotage,14,rastapopoulos,2024-12-13,3318,DiscussionNote
commented on,Papotage,18,b_b,2024-12-13,3318,DiscussionNote
commented on,Papotage,18,b_b,2024-12-13,3318,DiscussionNote
commented on,Papotage,22,placido,2024-12-13,3318,DiscussionNote
commented on,Papotage,22,placido,2024-12-13,3318,DiscussionNote
commented on,Papotage,4,maieul,2024-12-13,3318,DiscussionNote
commented on,Papotage,4,maieul,2024-12-13,3318,DiscussionNote
closed,Papotage,4,maieul,2024-12-13,3318,Issue
closed,Papotage,453,thrax,2024-12-13,3318,Issue
accepted,Codage,4,maieul,2024-12-13,3318,MergeRequest
approved,Codage,4,maieul,2024-12-13,3318,MergeRequest
opened,Codage,22,placido,2024-12-13,3318,MergeRequest
commented on,Papotage,22,placido,2024-12-13,3318,Note
commented on,Papotage,4,maieul,2024-12-13,3318,Note
commented on,Papotage,4,maieul,2024-12-13,3318,Note
commented on,Papotage,4,maieul,2024-12-13,3318,Note
commented on,Papotage,4,maieul,2024-12-13,3318,Note
pushed to,Codage,22,placido,2024-12-13,3318,Project
pushed to,Codage,4,maieul,2024-12-13,3318,Project
pushed to,Codage,4,maieul,2024-12-13,3318,Project
commented on,Papotage,18,b_b,2024-12-14,3318,DiffNote
commented on,Papotage,18,b_b,2024-12-14,3318,DiffNote
approved,Codage,18,b_b,2024-12-14,3318,MergeRequest
opened,Codage,12,marcimat,2024-12-14,3318,MergeRequest
opened,Codage,6,JamesRezo,2024-12-14,3318,MergeRequest
commented on,Papotage,18,b_b,2024-12-14,3318,Note
pushed new,Codage,12,marcimat,2024-12-14,3318,Project
pushed to,Codage,6,JamesRezo,2024-12-14,3318,Project
commented on,Papotage,4,maieul,2024-12-15,3318,DiffNote
commented on,Papotage,4,maieul,2024-12-15,3318,DiffNote
approved,Codage,4,maieul,2024-12-15,3318,MergeRequest
approved,Codage,6,JamesRezo,2024-12-15,3318,MergeRequest
pushed to,Codage,6,JamesRezo,2024-12-15,3318,Project
commented on,Papotage,12,marcimat,2024-12-16,3318,DiffNote
commented on,Papotage,12,marcimat,2024-12-16,3318,DiffNote
commented on,Papotage,18,b_b,2024-12-16,3318,DiffNote
commented on,Papotage,22,placido,2024-12-16,3318,DiffNote
commented on,Papotage,10,cy.altern,2024-12-16,3318,DiscussionNote
commented on,Papotage,22,placido,2024-12-16,3318,DiscussionNote
opened,Papotage,10,cy.altern,2024-12-16,3318,Issue
accepted,Codage,12,marcimat,2024-12-16,3318,MergeRequest
approved,Codage,15,tcharlss,2024-12-16,3318,MergeRequest
approved,Codage,18,b_b,2024-12-16,3318,MergeRequest
approved,Codage,22,placido,2024-12-16,3318,MergeRequest
approved,Codage,6,JamesRezo,2024-12-16,3318,MergeRequest
opened,Codage,10,cy.altern,2024-12-16,3318,MergeRequest
opened,Codage,12,marcimat,2024-12-16,3318,MergeRequest
commented on,Papotage,10,cy.altern,2024-12-16,3318,Note
commented on,Papotage,12,marcimat,2024-12-16,3318,Note
commented on,Papotage,15,tcharlss,2024-12-16,3318,Note
deleted,Codage,12,marcimat,2024-12-16,3318,Project
pushed new,Codage,10,cy.altern,2024-12-16,3318,Project
pushed new,Codage,12,marcimat,2024-12-16,3318,Project
pushed to,Codage,10,cy.altern,2024-12-16,3318,Project
pushed to,Codage,12,marcimat,2024-12-16,3318,Project
commented on,Papotage,10,cy.altern,2024-12-17,3318,DiffNote
commented on,Papotage,4,maieul,2024-12-17,3318,DiffNote
commented on,Papotage,10,cy.altern,2024-12-17,3318,DiscussionNote
commented on,Papotage,12,marcimat,2024-12-17,3318,DiscussionNote
commented on,Papotage,12,marcimat,2024-12-17,3318,DiscussionNote
commented on,Papotage,18,b_b,2024-12-17,3318,DiscussionNote
commented on,Papotage,18,b_b,2024-12-17,3318,DiscussionNote
commented on,Papotage,18,b_b,2024-12-17,3318,DiscussionNote
commented on,Papotage,22,placido,2024-12-17,3318,DiscussionNote
closed,Papotage,22,placido,2024-12-17,3318,Issue
opened,Papotage,22,placido,2024-12-17,3318,Issue
accepted,Codage,22,placido,2024-12-17,3318,MergeRequest
approved,Codage,12,marcimat,2024-12-17,3318,MergeRequest
approved,Codage,18,b_b,2024-12-17,3318,MergeRequest
opened,Codage,22,placido,2024-12-17,3318,MergeRequest
commented on,Papotage,12,marcimat,2024-12-17,3318,Note
commented on,Papotage,22,placido,2024-12-17,3318,Note
commented on,Papotage,4,maieul,2024-12-17,3318,Note
deleted,Codage,22,placido,2024-12-17,3318,Project
deleted,Codage,22,placido,2024-12-17,3318,Project
pushed new,Codage,22,placido,2024-12-17,3318,Project
pushed new,Codage,22,placido,2024-12-17,3318,Project
pushed to,Codage,12,marcimat,2024-12-17,3318,Project
pushed to,Codage,22,placido,2024-12-17,3318,Project
pushed to,Codage,22,placido,2024-12-17,3318,Project
pushed to,Codage,22,placido,2024-12-17,3318,Project
commented on,Papotage,22,placido,2024-12-18,3318,DiscussionNote
accepted,Codage,12,marcimat,2024-12-18,3318,MergeRequest
accepted,Codage,22,placido,2024-12-18,3318,MergeRequest
approved,Codage,12,marcimat,2024-12-18,3318,MergeRequest
commented on,Papotage,12,marcimat,2024-12-18,3318,Note
deleted,Codage,12,marcimat,2024-12-18,3318,Project
deleted,Codage,22,placido,2024-12-18,3318,Project
pushed to,Codage,12,marcimat,2024-12-18,3318,Project
pushed to,Codage,12,marcimat,2024-12-18,3318,Project
pushed to,Codage,22,placido,2024-12-18,3318,Project
pushed to,Codage,22,placido,2024-12-18,3318,Project
pushed to,Codage,22,placido,2024-12-18,3318,Project
pushed to,Codage,6,JamesRezo,2024-12-18,3318,Project
pushed to,Codage,6,JamesRezo,2024-12-18,3318,Project
pushed to,Codage,6,JamesRezo,2024-12-19,3318,Project
accepted,Codage,6,JamesRezo,2024-12-20,3318,MergeRequest
approved,Codage,12,marcimat,2024-12-20,3318,MergeRequest
deleted,Codage,6,JamesRezo,2024-12-20,3318,Project
pushed to,Codage,6,JamesRezo,2024-12-20,3318,Project
commented on,Papotage,10,cy.altern,2024-12-21,3318,DiscussionNote
commented on,Papotage,4,maieul,2024-12-21,3318,DiscussionNote
opened,Papotage,22,placido,2024-12-24,3318,Issue
approved,Codage,12,marcimat,2024-12-24,3318,MergeRequest
approved,Codage,6,JamesRezo,2024-12-24,3318,MergeRequest
opened,Codage,9,cerdic,2024-12-24,3318,MergeRequest
commented on,Papotage,12,marcimat,2024-12-24,3318,Note
pushed new,Codage,22,placido,2024-12-24,3318,Project
pushed new,Codage,9,cerdic,2024-12-24,3318,Project
accepted,Codage,4,maieul,2024-12-25,3318,MergeRequest
commented on,Papotage,4,maieul,2024-12-25,3318,Note
deleted,Codage,9,cerdic,2024-12-25,3318,Project
pushed to,Codage,4,maieul,2024-12-25,3318,Project
opened,Papotage,12,marcimat,2024-12-26,3318,Issue
commented on,Papotage,22,placido,2024-12-26,3318,Note
pushed new,Codage,22,placido,2024-12-26,3318,Project
approved,Codage,18,b_b,2024-12-27,3318,MergeRequest
opened,Codage,22,placido,2024-12-27,3318,MergeRequest
deleted,Codage,22,placido,2024-12-27,3318,Project
pushed new,Codage,22,placido,2024-12-27,3318,Project
commented on,Papotage,9,cerdic,2024-12-28,3318,DiscussionNote
commented on,Papotage,9,cerdic,2024-12-28,3318,DiscussionNote
opened,Papotage,9,cerdic,2024-12-28,3318,Issue
closed,Codage,22,placido,2024-12-28,3318,MergeRequest
commented on,Papotage,22,placido,2024-12-28,3318,Note
commented on,Papotage,22,placido,2024-12-28,3318,Note
commented on,Papotage,22,placido,2024-12-28,3318,Note
commented on,Papotage,22,placido,2024-12-28,3318,Note
deleted,Codage,22,placido,2024-12-28,3318,Project
pushed new,Codage,22,placido,2024-12-28,3318,Project
pushed to,Codage,22,placido,2024-12-28,3318,Project
commented on,Papotage,22,placido,2024-12-30,3318,DiscussionNote
commented on,Papotage,453,thrax,2024-12-30,3318,DiscussionNote
pushed to,Codage,22,placido,2024-12-30,3318,Project
commented on,Papotage,22,placido,2025-01-02,3318,DiscussionNote
commented on,Papotage,22,placido,2025-01-02,3318,DiscussionNote
opened,Papotage,22,placido,2025-01-02,3318,Issue
approved,Codage,18,b_b,2025-01-02,3318,MergeRequest
opened,Codage,22,placido,2025-01-02,3318,MergeRequest
opened,Codage,22,placido,2025-01-02,3318,MergeRequest
commented on,Papotage,22,placido,2025-01-02,3318,Note
commented on,Papotage,9,cerdic,2025-01-02,3318,Note
deleted,Codage,22,placido,2025-01-02,3318,Project
pushed new,Codage,22,placido,2025-01-02,3318,Project
pushed to,Codage,22,placido,2025-01-02,3318,Project
pushed to,Codage,22,placido,2025-01-04,3318,Project
pushed to,Codage,12,marcimat,2025-01-06,3318,Project
pushed to,Codage,12,marcimat,2025-01-06,3318,Project
opened,Papotage,22,placido,2025-01-07,3318,Issue
approved,Codage,12,marcimat,2025-01-07,3318,MergeRequest
approved,Codage,18,b_b,2025-01-07,3318,MergeRequest
opened,Codage,22,placido,2025-01-07,3318,MergeRequest
pushed new,Codage,22,placido,2025-01-07,3318,Project
pushed to,Codage,22,placido,2025-01-07,3318,Project
pushed to,Codage,22,placido,2025-01-07,3318,Project
opened,Papotage,9,cerdic,2025-01-08,3318,Issue
approved,Codage,18,b_b,2025-01-08,3318,MergeRequest
opened,Codage,22,placido,2025-01-08,3318,MergeRequest
commented on,Papotage,22,placido,2025-01-08,3318,Note
commented on,Papotage,9,cerdic,2025-01-08,3318,Note
pushed new,Codage,22,placido,2025-01-08,3318,Project
commented on,Papotage,18,b_b,2025-01-09,3318,DiscussionNote
closed,Papotage,22,placido,2025-01-09,3318,Issue
closed,Papotage,22,placido,2025-01-09,3318,Issue
closed,Papotage,22,placido,2025-01-09,3318,Issue
opened,Papotage,18,b_b,2025-01-09,3318,Issue
accepted,Codage,22,placido,2025-01-09,3318,MergeRequest
accepted,Codage,22,placido,2025-01-09,3318,MergeRequest
accepted,Codage,22,placido,2025-01-09,3318,MergeRequest
approved,Codage,16,tofulm,2025-01-09,3318,MergeRequest
approved,Codage,16,tofulm,2025-01-09,3318,MergeRequest
approved,Codage,16,tofulm,2025-01-09,3318,MergeRequest
commented on,Papotage,4,maieul,2025-01-09,3318,Note
deleted,Codage,22,placido,2025-01-09,3318,Project
deleted,Codage,22,placido,2025-01-09,3318,Project
deleted,Codage,22,placido,2025-01-09,3318,Project
pushed to,Codage,22,placido,2025-01-09,3318,Project
pushed to,Codage,22,placido,2025-01-09,3318,Project
pushed to,Codage,22,placido,2025-01-09,3318,Project
pushed to,Codage,22,placido,2025-01-09,3318,Project
pushed to,Codage,22,placido,2025-01-09,3318,Project
pushed to,Codage,22,placido,2025-01-09,3318,Project
pushed to,Codage,22,placido,2025-01-09,3318,Project
pushed to,Codage,22,placido,2025-01-09,3318,Project
pushed to,Codage,22,placido,2025-01-09,3318,Project
commented on,Papotage,4,maieul,2025-01-10,3318,Note
commented on,Papotage,18,b_b,2025-01-11,3318,DiscussionNote
commented on,Papotage,22,placido,2025-01-11,3318,DiscussionNote
commented on,Papotage,4,maieul,2025-01-11,3318,DiscussionNote
closed,Codage,4,maieul,2025-01-11,3318,MergeRequest
commented on,Papotage,18,b_b,2025-01-11,3318,Note
commented on,Papotage,4,maieul,2025-01-11,3318,Note
commented on,Papotage,15,tcharlss,2025-01-13,3318,DiffNote
commented on,Papotage,4,maieul,2025-01-13,3318,DiffNote
commented on,Papotage,22,placido,2025-01-13,3318,DiscussionNote
approved,Codage,18,b_b,2025-01-13,3318,MergeRequest
pushed new,Codage,22,placido,2025-01-13,3318,Project
pushed to,Codage,22,placido,2025-01-13,3318,Project
pushed to,Codage,4,maieul,2025-01-13,3318,Project
accepted,Codage,12,marcimat,2025-01-16,3318,MergeRequest
approved,Codage,12,marcimat,2025-01-16,3318,MergeRequest
approved,Codage,17,nicod,2025-01-16,3318,MergeRequest
approved,Codage,4,maieul,2025-01-16,3318,MergeRequest
opened,Codage,18,b_b,2025-01-16,3318,MergeRequest
commented on,Papotage,18,b_b,2025-01-16,3318,Note
deleted,Codage,18,b_b,2025-01-16,3318,Project
pushed new,Codage,18,b_b,2025-01-16,3318,Project
pushed to,Codage,12,marcimat,2025-01-16,3318,Project
pushed to,Codage,12,marcimat,2025-01-16,3318,Project
pushed to,Codage,18,b_b,2025-01-16,3318,Project
pushed to,Codage,18,b_b,2025-01-16,3318,Project
pushed new,Codage,12,marcimat,2025-01-17,3318,Project
pushed to,Codage,12,marcimat,2025-01-17,3318,Project
commented on,Papotage,12,marcimat,2025-01-27,3318,DiscussionNote
commented on,Papotage,15,tcharlss,2025-01-27,3318,DiscussionNote
commented on,Papotage,18,b_b,2025-01-27,3318,DiscussionNote
commented on,Papotage,18,b_b,2025-01-27,3318,DiscussionNote
opened,Papotage,4,maieul,2025-01-27,3318,Issue
commented on,Papotage,12,marcimat,2025-01-27,3318,Note
commented on,Papotage,12,marcimat,2025-01-27,3318,Note
commented on,Papotage,18,b_b,2025-01-27,3318,Note
pushed to,Codage,4,maieul,2025-01-27,3318,Project
commented on,Papotage,12,marcimat,2025-01-29,3318,DiscussionNote
commented on,Papotage,18,b_b,2025-01-29,3318,DiscussionNote
closed,Papotage,12,marcimat,2025-01-29,3318,Issue
opened,Papotage,18,b_b,2025-01-29,3318,Issue
opened,Papotage,43,RealET,2025-01-29,3318,Issue
opened,Papotage,43,RealET,2025-01-29,3318,Issue
approved,Codage,12,marcimat,2025-01-29,3318,MergeRequest
approved,Codage,12,marcimat,2025-01-29,3318,MergeRequest
approved,Codage,18,b_b,2025-01-29,3318,MergeRequest
opened,Codage,12,marcimat,2025-01-29,3318,MergeRequest
opened,Codage,18,b_b,2025-01-29,3318,MergeRequest
commented on,Papotage,43,RealET,2025-01-29,3318,Note
commented on,Papotage,6,JamesRezo,2025-01-29,3318,Note
pushed new,Codage,12,marcimat,2025-01-29,3318,Project
pushed new,Codage,18,b_b,2025-01-29,3318,Project
pushed to,Codage,12,marcimat,2025-01-29,3318,Project
commented on,Papotage,12,marcimat,2025-01-30,3318,DiscussionNote
accepted,Codage,12,marcimat,2025-01-30,3318,MergeRequest
approved,Codage,12,marcimat,2025-01-30,3318,MergeRequest
deleted,Codage,12,marcimat,2025-01-30,3318,Project
pushed to,Codage,12,marcimat,2025-01-30,3318,Project
pushed to,Codage,12,marcimat,2025-01-30,3318,Project
opened,Papotage,435,Franck,2025-02-02,3318,Issue
commented on,Papotage,22,placido,2025-02-03,3318,DiscussionNote
commented on,Papotage,12,marcimat,2025-02-03,3318,Note
commented on,Papotage,12,marcimat,2025-02-04,3318,DiscussionNote
commented on,Papotage,12,marcimat,2025-02-04,3318,DiscussionNote
commented on,Papotage,12,marcimat,2025-02-04,3318,DiscussionNote
commented on,Papotage,12,marcimat,2025-02-04,3318,DiscussionNote
commented on,Papotage,15,tcharlss,2025-02-04,3318,DiscussionNote
commented on,Papotage,17,nicod,2025-02-04,3318,DiscussionNote
commented on,Papotage,17,nicod,2025-02-04,3318,DiscussionNote
commented on,Papotage,18,b_b,2025-02-04,3318,DiscussionNote
commented on,Papotage,18,b_b,2025-02-04,3318,DiscussionNote
commented on,Papotage,22,placido,2025-02-04,3318,DiscussionNote
commented on,Papotage,22,placido,2025-02-04,3318,DiscussionNote
commented on,Papotage,43,RealET,2025-02-04,3318,DiscussionNote
commented on,Papotage,43,RealET,2025-02-04,3318,DiscussionNote
commented on,Papotage,431,Jack31,2025-02-04,3318,DiscussionNote
closed,Papotage,12,marcimat,2025-02-04,3318,Issue
closed,Papotage,12,marcimat,2025-02-04,3318,Issue
closed,Papotage,12,marcimat,2025-02-04,3318,Issue
closed,Papotage,22,placido,2025-02-04,3318,Issue
opened,Papotage,22,placido,2025-02-04,3318,Issue
opened,Papotage,43,RealET,2025-02-04,3318,Issue
accepted,Codage,12,marcimat,2025-02-04,3318,MergeRequest
accepted,Codage,12,marcimat,2025-02-04,3318,MergeRequest
approved,Codage,12,marcimat,2025-02-04,3318,MergeRequest
approved,Codage,15,tcharlss,2025-02-04,3318,MergeRequest
approved,Codage,18,b_b,2025-02-04,3318,MergeRequest
closed,Codage,22,placido,2025-02-04,3318,MergeRequest
opened,Codage,22,placido,2025-02-04,3318,MergeRequest
commented on,Papotage,12,marcimat,2025-02-04,3318,Note
commented on,Papotage,12,marcimat,2025-02-04,3318,Note
commented on,Papotage,12,marcimat,2025-02-04,3318,Note
commented on,Papotage,12,marcimat,2025-02-04,3318,Note
commented on,Papotage,15,tcharlss,2025-02-04,3318,Note
deleted,Codage,22,placido,2025-02-04,3318,Project
deleted,Codage,22,placido,2025-02-04,3318,Project
pushed new,Codage,22,placido,2025-02-04,3318,Project
pushed to,Codage,12,marcimat,2025-02-04,3318,Project
pushed to,Codage,12,marcimat,2025-02-04,3318,Project
pushed to,Codage,12,marcimat,2025-02-04,3318,Project
pushed to,Codage,12,marcimat,2025-02-04,3318,Project
pushed to,Codage,12,marcimat,2025-02-04,3318,Project
pushed to,Codage,22,placido,2025-02-04,3318,Project
commented on,Papotage,12,marcimat,2025-02-05,3318,DiscussionNote
commented on,Papotage,12,marcimat,2025-02-05,3318,DiscussionNote
commented on,Papotage,12,marcimat,2025-02-05,3318,DiscussionNote
commented on,Papotage,12,marcimat,2025-02-05,3318,DiscussionNote
commented on,Papotage,12,marcimat,2025-02-05,3318,DiscussionNote
commented on,Papotage,15,tcharlss,2025-02-05,3318,DiscussionNote
commented on,Papotage,15,tcharlss,2025-02-05,3318,DiscussionNote
commented on,Papotage,471,MathieuAlphamosa,2025-02-05,3318,DiscussionNote
commented on,Papotage,471,MathieuAlphamosa,2025-02-05,3318,DiscussionNote
opened,Papotage,12,marcimat,2025-02-05,3318,Issue
opened,Papotage,22,placido,2025-02-05,3318,Issue
accepted,Codage,4,maieul,2025-02-05,3318,MergeRequest
approved,Codage,12,marcimat,2025-02-05,3318,MergeRequest
approved,Codage,14,rastapopoulos,2025-02-05,3318,MergeRequest
approved,Codage,15,tcharlss,2025-02-05,3318,MergeRequest
approved,Codage,18,b_b,2025-02-05,3318,MergeRequest
approved,Codage,18,b_b,2025-02-05,3318,MergeRequest
approved,Codage,4,maieul,2025-02-05,3318,MergeRequest
opened,Codage,12,marcimat,2025-02-05,3318,MergeRequest
opened,Codage,12,marcimat,2025-02-05,3318,MergeRequest
opened,Codage,22,placido,2025-02-05,3318,MergeRequest
opened,Codage,4,maieul,2025-02-05,3318,MergeRequest
commented on,Papotage,12,marcimat,2025-02-05,3318,Note
commented on,Papotage,4,maieul,2025-02-05,3318,Note
deleted,Codage,12,marcimat,2025-02-05,3318,Project
pushed new,Codage,12,marcimat,2025-02-05,3318,Project
pushed new,Codage,12,marcimat,2025-02-05,3318,Project
pushed new,Codage,22,placido,2025-02-05,3318,Project
pushed new,Codage,4,maieul,2025-02-05,3318,Project
pushed to,Codage,12,marcimat,2025-02-05,3318,Project
pushed to,Codage,12,marcimat,2025-02-05,3318,Project
pushed to,Codage,4,maieul,2025-02-05,3318,Project
commented on,Papotage,15,tcharlss,2025-02-06,3318,DiffNote
commented on,Papotage,17,nicod,2025-02-06,3318,DiffNote
commented on,Papotage,16,tofulm,2025-02-06,3318,DiscussionNote
commented on,Papotage,16,tofulm,2025-02-06,3318,DiscussionNote
commented on,Papotage,16,tofulm,2025-02-06,3318,DiscussionNote
commented on,Papotage,18,b_b,2025-02-06,3318,DiscussionNote
closed,Papotage,12,marcimat,2025-02-06,3318,Issue
opened,Papotage,17,nicod,2025-02-06,3318,Issue
accepted,Codage,12,marcimat,2025-02-06,3318,MergeRequest
approved,Codage,15,tcharlss,2025-02-06,3318,MergeRequest
approved,Codage,18,b_b,2025-02-06,3318,MergeRequest
closed,Codage,17,nicod,2025-02-06,3318,MergeRequest
opened,Codage,17,nicod,2025-02-06,3318,MergeRequest
opened,Codage,17,nicod,2025-02-06,3318,MergeRequest
commented on,Papotage,12,marcimat,2025-02-06,3318,Note
commented on,Papotage,15,tcharlss,2025-02-06,3318,Note
commented on,Papotage,16,tofulm,2025-02-06,3318,Note
commented on,Papotage,16,tofulm,2025-02-06,3318,Note
commented on,Papotage,17,nicod,2025-02-06,3318,Note
commented on,Papotage,17,nicod,2025-02-06,3318,Note
commented on,Papotage,4,maieul,2025-02-06,3318,Note
deleted,Codage,12,marcimat,2025-02-06,3318,Project
pushed new,Codage,17,nicod,2025-02-06,3318,Project
pushed to,Codage,12,marcimat,2025-02-06,3318,Project
pushed to,Codage,12,marcimat,2025-02-06,3318,Project
pushed to,Codage,17,nicod,2025-02-06,3318,Project
pushed to,Codage,17,nicod,2025-02-06,3318,Project
commented on,Papotage,18,b_b,2025-02-07,3318,DiffNote
commented on,Papotage,4,maieul,2025-02-07,3318,DiffNote
commented on,Papotage,4,maieul,2025-02-07,3318,DiffNote
commented on,Papotage,4,maieul,2025-02-07,3318,DiffNote
commented on,Papotage,4,maieul,2025-02-07,3318,DiffNote
commented on,Papotage,4,maieul,2025-02-07,3318,DiffNote
commented on,Papotage,14,rastapopoulos,2025-02-07,3318,DiscussionNote
commented on,Papotage,18,b_b,2025-02-07,3318,DiscussionNote
commented on,Papotage,18,b_b,2025-02-07,3318,DiscussionNote
commented on,Papotage,18,b_b,2025-02-07,3318,DiscussionNote
commented on,Papotage,4,maieul,2025-02-07,3318,DiscussionNote
commented on,Papotage,4,maieul,2025-02-07,3318,DiscussionNote
commented on,Papotage,4,maieul,2025-02-07,3318,DiscussionNote
commented on,Papotage,4,maieul,2025-02-07,3318,DiscussionNote
closed,Papotage,4,maieul,2025-02-07,3318,Issue
closed,Papotage,4,maieul,2025-02-07,3318,Issue
closed,Papotage,4,maieul,2025-02-07,3318,Issue
opened,Papotage,4,maieul,2025-02-07,3318,Issue
accepted,Codage,12,marcimat,2025-02-07,3318,MergeRequest
accepted,Codage,4,maieul,2025-02-07,3318,MergeRequest
accepted,Codage,4,maieul,2025-02-07,3318,MergeRequest
approved,Codage,12,marcimat,2025-02-07,3318,MergeRequest
approved,Codage,4,maieul,2025-02-07,3318,MergeRequest
commented on,Papotage,4,maieul,2025-02-07,3318,Note
commented on,Papotage,4,maieul,2025-02-07,3318,Note
commented on,Papotage,4,maieul,2025-02-07,3318,Note
commented on,Papotage,4,maieul,2025-02-07,3318,Note
commented on,Papotage,4,maieul,2025-02-07,3318,Note
commented on,Papotage,4,maieul,2025-02-07,3318,Note
commented on,Papotage,4,maieul,2025-02-07,3318,Note
commented on,Papotage,4,maieul,2025-02-07,3318,Note
commented on,Papotage,4,maieul,2025-02-07,3318,Note
deleted,Codage,17,nicod,2025-02-07,3318,Project
deleted,Codage,18,b_b,2025-02-07,3318,Project
deleted,Codage,4,maieul,2025-02-07,3318,Project
pushed to,Codage,12,marcimat,2025-02-07,3318,Project
pushed to,Codage,12,marcimat,2025-02-07,3318,Project
pushed to,Codage,12,marcimat,2025-02-07,3318,Project
pushed to,Codage,4,maieul,2025-02-07,3318,Project
pushed to,Codage,4,maieul,2025-02-07,3318,Project
pushed to,Codage,4,maieul,2025-02-07,3318,Project
pushed to,Codage,4,maieul,2025-02-07,3318,Project
pushed to,Codage,4,maieul,2025-02-07,3318,Project
pushed to,Codage,4,maieul,2025-02-07,3318,Project
commented on,Papotage,18,b_b,2025-02-09,3318,DiscussionNote
approved,Codage,468,bricebou,2025-02-09,3318,MergeRequest
commented on,Papotage,468,bricebou,2025-02-09,3318,Note
commented on,Papotage,4,maieul,2025-02-10,3318,DiscussionNote
closed,Papotage,4,maieul,2025-02-10,3318,Issue
accepted,Codage,4,maieul,2025-02-10,3318,MergeRequest
opened,Codage,22,placido,2025-02-10,3318,MergeRequest
deleted,Codage,18,b_b,2025-02-10,3318,Project
pushed new,Codage,22,placido,2025-02-10,3318,Project
pushed to,Codage,4,maieul,2025-02-10,3318,Project
pushed to,Codage,4,maieul,2025-02-10,3318,Project
pushed to,Codage,4,maieul,2025-02-10,3318,Project
pushed to,Codage,4,maieul,2025-02-10,3318,Project
pushed to,Codage,4,maieul,2025-02-10,3318,Project
approved,Codage,18,b_b,2025-02-12,3318,MergeRequest
opened,Codage,22,placido,2025-02-12,3318,MergeRequest
pushed to,Codage,22,placido,2025-02-12,3318,Project
pushed to,Codage,22,placido,2025-02-12,3318,Project
opened,Papotage,12,marcimat,2025-02-13,3318,Issue
approved,Codage,12,marcimat,2025-02-13,3318,MergeRequest
approved,Codage,12,marcimat,2025-02-13,3318,MergeRequest
approved,Codage,12,marcimat,2025-02-13,3318,MergeRequest
approved,Codage,18,b_b,2025-02-13,3318,MergeRequest
commented on,Papotage,12,marcimat,2025-02-13,3318,Note
commented on,Papotage,12,marcimat,2025-02-13,3318,Note
commented on,Papotage,18,b_b,2025-02-13,3318,Note
closed,Papotage,12,marcimat,2025-02-14,3318,Issue
closed,Papotage,12,marcimat,2025-02-14,3318,Issue
closed,Papotage,12,marcimat,2025-02-14,3318,Issue
accepted,Codage,12,marcimat,2025-02-14,3318,MergeRequest
accepted,Codage,12,marcimat,2025-02-14,3318,MergeRequest
accepted,Codage,12,marcimat,2025-02-14,3318,MergeRequest
accepted,Codage,12,marcimat,2025-02-14,3318,MergeRequest
approved,Codage,12,marcimat,2025-02-14,3318,MergeRequest
approved,Codage,468,bricebou,2025-02-14,3318,MergeRequest
closed,Codage,22,placido,2025-02-14,3318,MergeRequest
opened,Codage,22,placido,2025-02-14,3318,MergeRequest
opened,Codage,22,placido,2025-02-14,3318,MergeRequest
commented on,Papotage,12,marcimat,2025-02-14,3318,Note
deleted,Codage,22,placido,2025-02-14,3318,Project
deleted,Codage,22,placido,2025-02-14,3318,Project
pushed new,Codage,12,marcimat,2025-02-14,3318,Project
pushed to,Codage,12,marcimat,2025-02-14,3318,Project
pushed to,Codage,12,marcimat,2025-02-14,3318,Project
pushed to,Codage,12,marcimat,2025-02-14,3318,Project
pushed to,Codage,12,marcimat,2025-02-14,3318,Project
pushed to,Codage,12,marcimat,2025-02-14,3318,Project
pushed to,Codage,12,marcimat,2025-02-14,3318,Project
