id,iid,labels,milestone_id,project_id,source_branch,source_project_id,target_branch,target_project_id
9111,3,,,3318,issue_5940,3318,2.x,3318
9115,7,,1623,3318,dev/issue_5763_titre_login,3318,2.x,3318
9116,8,,1623,3318,issue_4845_next,3318,2.x,3318
9502,33,,,3318,issue19,3384,2.x,3318
