date,full_path,name,sha
2021-08-14,spip-contrib-extensions/boussole_spip,v1,d13842cc756d96ad1223970348e40fb6fedae5f7
2025-01-29,spip-contrib-extensions/boussole_spip,master,93227d0a94954a479c302f7308926b908ace13c1
