date,full_path,name,sha
2017-06-06,spip-contrib-extensions/paniers_commandes_quantites_decimal,issue_3,fc7158290129eefbda13902ddfbf57c88524a3f9
2024-07-05,spip-contrib-extensions/paniers_commandes_quantites_decimal,master,a3517756586f1a33dc62cd1ffde9cbf29188cad8
