date,full_path,name,sha
2023-12-10,spip-contrib-squelettes/Navigation_EP,v2.1.2,33e380db6f2b745ef0ce6d6fc088ba8de129445a
2024-07-05,spip-contrib-squelettes/Navigation_EP,2.2.0,1d261e5667d1360a22197deaa14b3dc38da2623b
