date,full_path,name,sha
2021-02-14,spip-contrib-extensions/immeubles,v1,e2e762862eba59beb76961bcca1a18fc78657352
2021-05-15,spip-contrib-extensions/immeubles,master,bfe84812ace5f5ee7d4a89c05ebca95a2d36b8e3
