date,full_path,name,sha
2017-04-10,spip-contrib-extensions/etiquettes,v1,9bbdc0e306bba5c6696092d88662d8d7c9ef68b4
2021-09-27,spip-contrib-extensions/etiquettes,v2,132b6d32b653d1b160f34f8d65653a659ef0c090
2024-07-05,spip-contrib-extensions/etiquettes,master,0d12f1d604e9d9c5a47287a3271bb36aedea031d
