date,full_path,name,sha
2023-07-18,spip-contrib-extensions/campagnes,v1.5.4,3139f8ed868a767cdcfc7683bfa25c55fa0c4592
2024-07-05,spip-contrib-extensions/campagnes,1.6.0,fb9b5c503b94ab828b70a029785f470ce88d6bae
2024-10-24,spip-contrib-extensions/campagnes,v1.7.0,0f635adf1c22fd4962bbcd5c17120dc66544c84e
2024-12-04,spip-contrib-extensions/campagnes,v1.8.0,16ebfc2b5ce54a91961c18ffed76b76f4ce16869
