date,full_path,name,sha
2018-05-02,spip-league/composer-installer,0.1,b62747543b2f5c01996d5d813fb3346116e1e41c
2018-05-02,spip-league/composer-installer,0.2,78633d6205b481a495917f785d5393efc19cd75d
2019-05-01,spip-league/composer-installer,0.3.0,a617ae8287f02052f61d9289570b341faa1a9166
2020-08-20,spip-league/composer-installer,0.4.0,1c04b4cec031bfe0a84850177301243d45d84b63
2020-08-21,spip-league/composer-installer,0.4.1,4d71c45e1d2ed2c428ff0c123edb5dd862f9168a
2021-05-02,spip-league/composer-installer,0.4.2,10d24f88ede8108f324ead85c7a6b8e9f9f42c8c
2021-10-06,spip-league/composer-installer,0.4.3,9e0ea60bd16feaf04a9ba1a06151006477075021
2023-03-19,spip-league/composer-installer,0.5.0,779ab95dbed3a25168165cd12756a069e55813fa
2023-03-24,spip-league/composer-installer,0.5.1,5687c59f66899abdf33522858beb2182085d370f
2023-03-27,spip-league/composer-installer,0.6.0,02cf919d89abe8ed4060b8d4abfb008bed046b11
2023-04-05,spip-league/composer-installer,0.6.1,053ca2507f4ec6149182c797d59a8ab06e89cb25
2024-09-18,spip-league/composer-installer,0.6.2,a2a0c7818c35112a6938dacf1cc9dd276ae5a2a5
2024-09-30,spip-league/composer-installer,0.6.3,347c3bea6f7557aacd4787db28780ca7cd82aca8
2024-10-10,spip-league/composer-installer,0.6.4,2a7385ba32f270713b43d07074bff425046178d1
2024-11-12,spip-league/composer-installer,0.7.0,c6d3187039b171972883a9791d5498db141a8a3d
2024-11-12,spip-league/composer-installer,0.7.1,d294ad299b00287bddf907ea01ef5fb66efd2020
2024-11-19,spip-league/composer-installer,0.7.2,9663ae26be9955216fa75209871b995f65fcbf3a
2024-11-29,spip-league/composer-installer,0.8.0,dce484e7bba21bd5b32ecedabcb3ebdb901224c1
2024-12-10,spip-league/composer-installer,0.8.1,d64df8d5711d73128a2bafc91274ad3c8b82a60f
2025-01-17,spip-league/composer-installer,0.8.2,29a0de367af0e6d88f4f9ce571c9bc1187edc047
