commented on,Papotage,18,b_b,2024-08-28,2061,DiscussionNote
closed,Papotage,18,b_b,2024-08-28,2061,Issue
commented on,Papotage,468,bricebou,2024-08-28,2061,Note
commented on,Papotage,18,b_b,2024-08-29,2061,DiscussionNote
commented on,Papotage,18,b_b,2024-08-29,2061,DiscussionNote
commented on,Papotage,430,JLuc,2024-08-29,2061,Note
commented on,Papotage,430,JLuc,2024-08-29,2061,Note
commented on,Papotage,430,JLuc,2024-08-31,2061,DiscussionNote
commented on,Papotage,430,JLuc,2024-09-02,2061,Note
commented on,Papotage,14,rastapopoulos,2024-09-08,2061,DiscussionNote
commented on,Papotage,14,rastapopoulos,2024-09-08,2061,DiscussionNote
commented on,Papotage,18,b_b,2024-09-08,2061,Note
commented on,Papotage,18,b_b,2024-09-09,2061,DiscussionNote
commented on,Papotage,18,b_b,2024-09-09,2061,DiscussionNote
commented on,Papotage,430,JLuc,2024-09-09,2061,DiscussionNote
commented on,Papotage,430,JLuc,2024-09-09,2061,DiscussionNote
commented on,Papotage,430,JLuc,2024-09-09,2061,DiscussionNote
commented on,Papotage,14,rastapopoulos,2024-09-10,2061,DiscussionNote
commented on,Papotage,18,b_b,2024-09-22,2061,DiscussionNote
commented on,Papotage,18,b_b,2024-09-22,2061,DiscussionNote
commented on,Papotage,18,b_b,2024-09-22,2061,DiscussionNote
commented on,Papotage,4,maieul,2024-09-22,2061,DiscussionNote
commented on,Papotage,4,maieul,2024-09-22,2061,DiscussionNote
opened,Papotage,4,maieul,2024-09-22,2061,Issue
accepted,Codage,18,b_b,2024-09-22,2061,MergeRequest
approved,Codage,18,b_b,2024-09-22,2061,MergeRequest
opened,Codage,4,maieul,2024-09-22,2061,MergeRequest
commented on,Papotage,18,b_b,2024-09-22,2061,Note
commented on,Papotage,18,b_b,2024-09-22,2061,Note
commented on,Papotage,4,maieul,2024-09-22,2061,Note
deleted,Codage,14,rastapopoulos,2024-09-22,2061,Project
pushed new,Codage,4,maieul,2024-09-22,2061,Project
pushed to,Codage,18,b_b,2024-09-22,2061,Project
pushed to,Codage,18,b_b,2024-09-22,2061,Project
pushed to,Codage,4,maieul,2024-09-22,2061,Project
pushed to,Codage,4,maieul,2024-09-22,2061,Project
pushed to,Codage,4,maieul,2024-09-22,2061,Project
commented on,Papotage,18,b_b,2024-09-23,2061,DiffNote
commented on,Papotage,18,b_b,2024-09-23,2061,DiffNote
commented on,Papotage,4,maieul,2024-09-23,2061,DiffNote
commented on,Papotage,4,maieul,2024-09-23,2061,DiffNote
closed,Papotage,18,b_b,2024-09-23,2061,Issue
accepted,Codage,18,b_b,2024-09-23,2061,MergeRequest
approved,Codage,18,b_b,2024-09-23,2061,MergeRequest
deleted,Codage,4,maieul,2024-09-23,2061,Project
pushed to,Codage,18,b_b,2024-09-23,2061,Project
pushed to,Codage,4,maieul,2024-09-23,2061,Project
opened,Codage,18,b_b,2024-10-03,2061,MergeRequest
pushed new,Codage,18,b_b,2024-10-03,2061,Project
pushed new,Codage,18,b_b,2024-10-03,2061,Project
pushed to,Codage,18,b_b,2024-10-03,2061,Project
pushed to,Codage,18,b_b,2024-10-03,2061,Project
accepted,Codage,18,b_b,2024-10-04,2061,MergeRequest
deleted,Codage,18,b_b,2024-10-04,2061,Project
pushed to,Codage,18,b_b,2024-10-04,2061,Project
pushed to,Codage,18,b_b,2024-10-04,2061,Project
pushed to,Codage,18,b_b,2024-10-04,2061,Project
pushed to,Codage,18,b_b,2024-10-09,2061,Project
commented on,Papotage,18,b_b,2025-01-16,2061,DiscussionNote
commented on,Papotage,12,marcimat,2025-01-28,2061,DiscussionNote
commented on,Papotage,18,b_b,2025-01-28,2061,DiscussionNote
commented on,Papotage,18,b_b,2025-01-28,2061,DiscussionNote
commented on,Papotage,4,maieul,2025-01-28,2061,DiscussionNote
commented on,Papotage,4,maieul,2025-01-28,2061,DiscussionNote
commented on,Papotage,4,maieul,2025-01-28,2061,DiscussionNote
opened,Papotage,18,b_b,2025-01-28,2061,Issue
commented on,Papotage,18,b_b,2025-01-28,2061,Note
commented on,Papotage,12,marcimat,2025-01-29,2061,DiscussionNote
commented on,Papotage,18,b_b,2025-02-06,2061,DiscussionNote
closed,Papotage,18,b_b,2025-02-06,2061,Issue
accepted,Codage,18,b_b,2025-02-06,2061,MergeRequest
opened,Codage,18,b_b,2025-02-06,2061,MergeRequest
opened,Codage,18,b_b,2025-02-06,2061,MergeRequest
commented on,Papotage,18,b_b,2025-02-06,2061,Note
deleted,Codage,18,b_b,2025-02-06,2061,Project
pushed new,Codage,18,b_b,2025-02-06,2061,Project
pushed new,Codage,18,b_b,2025-02-06,2061,Project
pushed to,Codage,18,b_b,2025-02-06,2061,Project
pushed to,Codage,18,b_b,2025-02-06,2061,Project
pushed to,Codage,18,b_b,2025-02-06,2061,Project
