prefix,full_path
itineraires,spip-contrib-extensions/itineraires
optimages,spip-contrib-extensions/optimages
simplecal,spip-contrib-extensions/simple_calendrier
getid3,spip-contrib-extensions/getID3
soyezcreateurs,spip-contrib-squelettes/soyezcreateurs
zoundation,spip-contrib-squelettes/zoundation
