date,full_path,name,sha
2017-04-02,spip-contrib-extensions/compositions,v2.1.8,f4038d3b8f02db80c80b909c578c4d56f1be95ea
2020-03-25,spip-contrib-extensions/compositions,v3.8.0,91dcc685f13bc2dc489da8d542590ef4e79bc2fe
2020-10-06,spip-contrib-extensions/compositions,v3.8.1,ad1099507500381a66673bd5dc7303c34d3cea8e
2020-12-17,spip-contrib-extensions/compositions,v3.8.2,13d96f1d3d8044e090b575d9622d8ef328785822
2021-04-21,spip-contrib-extensions/compositions,v3.9.0,088424e518092d50965beac3e1b52bcb3a410aca
2021-05-25,spip-contrib-extensions/compositions,v3.9.1,347953dc06a4f3d8a435eb89a726c298b3e85cd1
2021-06-11,spip-contrib-extensions/compositions,v3.9.2,1052aca29a57b883c3ded08626ebfae4d7960ce7
2021-08-03,spip-contrib-extensions/compositions,v3.9.3,c220352cec790f7bf677d30ed1bd1372122cdf88
2022-05-02,spip-contrib-extensions/compositions,v3.9.4,e82273316c067bcff6d60f0f729dd2a78dd868e4
2023-06-14,spip-contrib-extensions/compositions,v3.9.5,6948489fbbb9a7cc1bf59e309d5f002b635788ce
2023-11-21,spip-contrib-extensions/compositions,v4.0.0,51fdc5d7c034173d89d000c3f32edabbb85eb4fa
2023-12-15,spip-contrib-extensions/compositions,v4.0.1,c4bb7565300c6d9c658a3ffd992d5adede4441ef
2024-06-17,spip-contrib-extensions/compositions,v4.0.2,666bc93874148a59c8654eb3755dd72a4b62a428
2024-07-05,spip-contrib-extensions/compositions,4.1.0,506a6afcecc669d12d8123722d030fa2ff0f4f30
