commented on,Papotage,18,b_b,2024-08-21,3032,DiffNote
opened,Codage,3,touti,2024-08-21,3032,MergeRequest
pushed new,Codage,3,touti,2024-08-21,3032,Project
pushed to,Codage,3,touti,2024-08-21,3032,Project
pushed to,Codage,3,touti,2024-08-21,3032,Project
approved,Codage,18,b_b,2024-08-22,3032,MergeRequest
commented on,Papotage,12,marcimat,2025-02-08,3032,DiscussionNote
opened,Papotage,12,marcimat,2025-02-08,3032,Issue
commented on,Papotage,12,marcimat,2025-02-08,3032,Note
commented on,Papotage,12,marcimat,2025-02-08,3032,Note
commented on,Papotage,12,marcimat,2025-02-09,3032,DiscussionNote
commented on,Papotage,17,nicod,2025-02-09,3032,DiscussionNote
commented on,Papotage,17,nicod,2025-02-09,3032,DiscussionNote
commented on,Papotage,12,marcimat,2025-02-10,3032,DiscussionNote
commented on,Papotage,12,marcimat,2025-02-10,3032,DiscussionNote
commented on,Papotage,12,marcimat,2025-02-10,3032,Note
pushed to,Codage,12,marcimat,2025-02-10,3032,Project
