date,full_path,name,sha
2020-03-10,spip-contrib-extensions/prive_fluide_remix,v1.0.24,dd1ef6f0cbe31738e14bc419b91c085ece71d8a7
2020-06-25,spip-contrib-extensions/prive_fluide_remix,v1.0.25,d680d8a917f7e802eb9464232b4db67e0550f8fb
