access_level,group_id,id,state,username
30,24,20,active,cam.lafit
30,24,35,active,arno
40,24,10,active,cy.altern
40,24,12,active,marcimat
40,24,13,active,Eric
40,24,14,active,rastapopoulos
40,24,15,active,tcharlss
40,24,17,active,nicod
40,24,18,active,b_b
40,24,3,active,touti
40,24,4,active,maieul
40,24,5,active,Bennyb
40,24,68,active,erational
40,24,9,active,cerdic
