date,full_path,name,sha
2017-10-22,spip-contrib-themes/dist_v1_penscratch,v1.0.2,3dd1b93334055e3ddb7841d5ad14b31ae50b6337
2022-04-18,spip-contrib-themes/dist_v1_penscratch,v1.0.3,be49809b0838af0e76f5fbe4028c5741b07ee1c0
2023-01-30,spip-contrib-themes/dist_v1_penscratch,v1.0.4,1893f95c644e42dd10a2491a6175f242cb1c656b
2024-07-05,spip-contrib-themes/dist_v1_penscratch,1.1.0,235d1d56979a822e4a08506d083182f83153ea78
