prefix,full_path
image_responsive,23forward/image_responsive
soyezcreateurs,spip-contrib-squelettes/soyezcreateurs
html5up_phantom,spip-contrib-squelettes/html5up_phantom
html5up_photon,spip-contrib-squelettes/html5up_photon
html5up_massively,spip-contrib-squelettes/html5up_massively
ginza,spip-contrib-squelettes/ginza
parallelism,spip-contrib-squelettes/parallelism4spip
oshiage,spip-contrib-squelettes/oshiage
kamakura,spip-contrib-squelettes/kamakura
aoto,spip-contrib-squelettes/aoto
nezu,spip-contrib-squelettes/nezu
