date,full_path,name,sha
2020-02-24,23forward/centre_image,v0.10.7,f11ec06a2d106abca2aa4ade059cae586389f4ba
2020-06-07,23forward/centre_image,v1.0.0,3495cdc921092227a2f8e2cdc4316543efd04aec
2020-06-07,23forward/centre_image,v1.0.1,84b0f089c63b06a954152659c7b201e6929f852b
2021-02-04,23forward/centre_image,v1.0.2,bfe5a80bfbb87e0004835e3af5571ed49fe032d4
2021-02-05,23forward/centre_image,v1.1.0,6e2602b5c18b5feaaa4e38e24233b160113bfbdf
2021-04-24,23forward/centre_image,v1.2.0,89f98ae0d0e8e4c31902bd0eaca1a4ddc5c75785
2021-04-25,23forward/centre_image,v2.0.0,44ab23bdd9dd9ca5f93a228c5725b379c56fb53f
2021-04-25,23forward/centre_image,v2.1.0,8ed3a97529fc96519b872b020b2a1f1dbdc6e209
2021-04-26,23forward/centre_image,v2.1.1,38e213629088ac3327e7c06d9d0cefadb10db81b
2021-07-12,23forward/centre_image,v2.1.2,c24156d0b803bb4ab2b32eba8ff02f18cd39575a
2021-12-15,23forward/centre_image,v2.1.3,9508cc1db8e96772846a924465b6aff2f40dfa65
2022-04-02,23forward/centre_image,v2.1.4,cfb412c016d9d60f408ce4d7b7dbb77513f8fa07
2022-04-02,23forward/centre_image,v2.1.5,3f9442b248c503a94df36692a5039eb2d8b963f1
2022-04-02,23forward/centre_image,v3.0.0,5758e4e571f4354707aa7a9942670215d60f4f3e
2022-04-23,23forward/centre_image,v3.0.1,03d0dd4a19a4d4c6ddfe1f574537f4cc88df61ce
2022-07-03,23forward/centre_image,v3.0.2,b513798a941c4e3ea2ecc753cb5ba663ea5db0d9
2022-10-06,23forward/centre_image,v3.1.0,ec483700d41c6a09789ddf207a5afa4148e34c14
2023-02-24,23forward/centre_image,v2.1.6,3666bd094230d7f9907c9d66341e70fd3873d6d7
2023-04-21,23forward/centre_image,v3.1.2,0dd80c9b574299d081549c7a7907f46474c25d69
2024-03-14,23forward/centre_image,v3.2.0,772ab63558fb2249e5ebd8ff1d1b12b6d60f4600
2024-07-05,23forward/centre_image,3.3.0,b5553c7c9d72e2fabe10665f7b4284afb2526385
2024-09-30,23forward/centre_image,3.3.1,cf46a8ea3de8b330c759ab4ec092abc9a203ff08
2025-01-22,23forward/centre_image,v3.5.0,68c095179e4081fc84f940eea05e0580c99206f4
