imported,Codage,6,JamesRezo,2024-07-07,3292,Project
pushed new,Codage,6,JamesRezo,2024-07-07,3292,Project
commented on,Papotage,6,JamesRezo,2024-07-12,3292,DiffNote
accepted,Codage,18,b_b,2024-07-12,3292,MergeRequest
approved,Codage,18,b_b,2024-07-12,3292,MergeRequest
deleted,Codage,6,JamesRezo,2024-07-12,3292,Project
pushed new,Codage,6,JamesRezo,2024-07-12,3292,Project
pushed to,Codage,18,b_b,2024-07-12,3292,Project
pushed to,Codage,18,b_b,2024-07-12,3292,Project
closed,Papotage,6,JamesRezo,2024-08-01,3292,Issue
closed,Papotage,6,JamesRezo,2024-08-01,3292,Issue
opened,Papotage,6,JamesRezo,2024-08-01,3292,Issue
accepted,Codage,6,JamesRezo,2024-08-01,3292,MergeRequest
approved,Codage,18,b_b,2024-08-01,3292,MergeRequest
opened,Codage,6,JamesRezo,2024-08-01,3292,MergeRequest
deleted,Codage,6,JamesRezo,2024-08-01,3292,Project
pushed new,Codage,6,JamesRezo,2024-08-01,3292,Project
pushed to,Codage,6,JamesRezo,2024-08-01,3292,Project
closed,Papotage,6,JamesRezo,2024-08-02,3292,Issue
closed,Papotage,6,JamesRezo,2024-08-02,3292,Issue
opened,Papotage,6,JamesRezo,2024-08-02,3292,Issue
accepted,Codage,6,JamesRezo,2024-08-02,3292,MergeRequest
approved,Codage,18,b_b,2024-08-02,3292,MergeRequest
opened,Codage,6,JamesRezo,2024-08-02,3292,MergeRequest
deleted,Codage,6,JamesRezo,2024-08-02,3292,Project
pushed new,Codage,6,JamesRezo,2024-08-02,3292,Project
pushed to,Codage,6,JamesRezo,2024-08-02,3292,Project
pushed to,Codage,6,JamesRezo,2024-08-02,3292,Project
pushed to,Codage,6,JamesRezo,2024-08-02,3292,Project
