opened,Codage,4,maieul,2024-12-15,2037,MergeRequest
pushed new,Codage,4,maieul,2024-12-15,2037,Project
accepted,Codage,4,maieul,2025-02-07,2037,MergeRequest
deleted,Codage,4,maieul,2025-02-07,2037,Project
pushed new,Codage,4,maieul,2025-02-07,2037,Project
pushed new,Codage,4,maieul,2025-02-07,2037,Project
pushed to,Codage,4,maieul,2025-02-07,2037,Project
pushed to,Codage,4,maieul,2025-02-07,2037,Project
pushed to,Codage,4,maieul,2025-02-07,2037,Project
pushed to,Codage,4,maieul,2025-02-07,2037,Project
