date,full_path,name,sha
2017-05-08,spip-contrib-extensions/intranet,v0.3,a173b961b593a2da49d5cce8e9cfcbffe5375f47
2023-07-05,spip-contrib-extensions/intranet,spip42,f2df79de31d06133d9e4e6ae8d4278cb4dc1783d
2024-07-05,spip-contrib-extensions/intranet,master,ea158d1d382c85ecdde6c15db68fca7435056eda
