date,full_path,name,sha
2020-03-25,spip-contrib-squelettes/html5up_massively,v0.6.7,3eddbfc2f5bbb3f4c097c55117703f48ecf42316
2020-07-10,spip-contrib-squelettes/html5up_massively,v0.6.8,7b8250408ac30b1f5edc8cda1d6b9bd1d9352c10
2021-03-24,spip-contrib-squelettes/html5up_massively,v0.6.9,dd5adb75d8adeb603147383a6351da5843ac8894
2021-04-08,spip-contrib-squelettes/html5up_massively,v0.6.10,6f923e484c4af0dd20670aeae735d30f1d2ef5c1
2021-04-22,spip-contrib-squelettes/html5up_massively,v0.6.11,b1bcef89acb99aee32c2c8382de9479b7912755e
2021-04-22,spip-contrib-squelettes/html5up_massively,v0.7.0,485af8db9709be9af408e6d775a6cc340b714db5
2021-04-23,spip-contrib-squelettes/html5up_massively,v0.7.1,4d8724252fb8a26da4c5ccec569d0b98feab8e0a
2022-02-09,spip-contrib-squelettes/html5up_massively,v0.7.2,a728d8de5752e5cbe9f8142435658cc11bee371c
2022-02-10,spip-contrib-squelettes/html5up_massively,v0.7.3,3e50cd61eeeeb926791ce41557e0bc1d1e102f44
2022-02-24,spip-contrib-squelettes/html5up_massively,v0.7.4,6f96dabb89d4984dcc2a282ed5e5e91629a913ec
2022-02-28,spip-contrib-squelettes/html5up_massively,v0.7.5,a93d768cefe4ad6cde2289c6358b199bfcfc4d21
2023-07-14,spip-contrib-squelettes/html5up_massively,v1.0.1,d4ccdb3cdb3b1c14ac5fffe93ae1f79b4b5e559d
2024-07-05,spip-contrib-squelettes/html5up_massively,1.1.0,e40ffbdeb5be28f2ccd63566e35b27990ff87cc0
