date,full_path,name,sha
2018-12-25,spip-contrib-extensions/spipmotion,v0.9.14,038ac71d51708797df987f213eeb5ca482e77838
2023-07-20,spip-contrib-extensions/spipmotion,v0.4.6,d48471dbeb0efa9448a137b90cce8f158eb0fb4d
2024-07-05,spip-contrib-extensions/spipmotion,1.8.0,9dcc030b447f99983dc8a3398faa6ecb17812f1a
