opened,Codage,462,glopglop,2024-11-27,1843,MergeRequest
pushed new,Codage,462,glopglop,2024-11-27,1843,Project
pushed to,Codage,462,glopglop,2024-11-27,1843,Project
pushed to,Codage,462,glopglop,2024-11-27,1843,Project
