date,full_path,name,sha
2023-05-28,spip-contrib-extensions/ezmashup,v1.0.0,61444980c53481d3c6e6b12aac4a3bf1bb82a745
2023-12-23,spip-contrib-extensions/ezmashup,v1.0.1,f9990a91968f228e9af96d4f401789aaac968875
2024-01-21,spip-contrib-extensions/ezmashup,v1.0.2,8c8d92000f452e49ca8c2a5d9fcf376dc6c3370b
2024-01-27,spip-contrib-extensions/ezmashup,v1.0.3,619c2433dc6105a1eda90ccfcb1e7f0fc6701caa
2024-07-01,spip-contrib-extensions/ezmashup,v1.0.4,db82a8ef6f71e62c130e2ee0edf6456158502d02
2024-07-20,spip-contrib-extensions/ezmashup,v1.1.0,10a8c95c13e872046b5685578143aabe613bc83f
2024-07-27,spip-contrib-extensions/ezmashup,v1.1.1,312a018038ea281946334d644eadabb8f14f4e01
2024-08-13,spip-contrib-extensions/ezmashup,v1.1.2,0e656ab364b326efe2debde873dcd05bddff661b
2024-08-20,spip-contrib-extensions/ezmashup,v1.1.3,6df8654af7136889df72232f8e387725eeab3221
