commented on,Papotage,12,marcimat,2024-09-30,1663,DiffNote
commented on,Papotage,18,b_b,2024-09-30,1663,DiffNote
commented on,Papotage,18,b_b,2024-09-30,1663,DiffNote
commented on,Papotage,18,b_b,2024-09-30,1663,DiffNote
commented on,Papotage,18,b_b,2024-09-30,1663,DiffNote
commented on,Papotage,45,george,2024-09-30,1663,DiffNote
commented on,Papotage,45,george,2024-09-30,1663,DiffNote
commented on,Papotage,45,george,2024-09-30,1663,DiffNote
accepted,Codage,6,JamesRezo,2024-09-30,1663,MergeRequest
approved,Codage,18,b_b,2024-09-30,1663,MergeRequest
approved,Codage,6,JamesRezo,2024-09-30,1663,MergeRequest
closed,Codage,18,b_b,2024-09-30,1663,MergeRequest
opened,Codage,18,b_b,2024-09-30,1663,MergeRequest
opened,Codage,45,george,2024-09-30,1663,MergeRequest
commented on,Papotage,18,b_b,2024-09-30,1663,Note
commented on,Papotage,45,george,2024-09-30,1663,Note
deleted,Codage,18,b_b,2024-09-30,1663,Project
deleted,Codage,18,b_b,2024-09-30,1663,Project
deleted,Codage,18,b_b,2024-09-30,1663,Project
pushed new,Codage,18,b_b,2024-09-30,1663,Project
pushed new,Codage,18,b_b,2024-09-30,1663,Project
pushed new,Codage,18,b_b,2024-09-30,1663,Project
pushed to,Codage,18,b_b,2024-09-30,1663,Project
pushed to,Codage,6,JamesRezo,2024-09-30,1663,Project
closed,Codage,12,marcimat,2024-10-04,1663,MergeRequest
commented on,Papotage,12,marcimat,2024-10-04,1663,Note
commented on,Papotage,12,marcimat,2024-10-04,1663,Note
pushed to,Codage,12,marcimat,2024-10-04,1663,Project
pushed new,Codage,12,marcimat,2024-10-08,1663,Project
pushed to,Codage,12,marcimat,2024-10-08,1663,Project
pushed to,Codage,12,marcimat,2024-10-08,1663,Project
commented on,Papotage,18,b_b,2024-10-14,1663,DiscussionNote
commented on,Papotage,431,Jack31,2024-10-14,1663,DiscussionNote
commented on,Papotage,6,JamesRezo,2024-10-14,1663,DiscussionNote
opened,Papotage,431,Jack31,2024-10-14,1663,Issue
accepted,Codage,6,JamesRezo,2024-10-14,1663,MergeRequest
approved,Codage,18,b_b,2024-10-14,1663,MergeRequest
approved,Codage,4,maieul,2024-10-14,1663,MergeRequest
opened,Codage,6,JamesRezo,2024-10-14,1663,MergeRequest
commented on,Papotage,18,b_b,2024-10-14,1663,Note
commented on,Papotage,18,b_b,2024-10-14,1663,Note
deleted,Codage,6,JamesRezo,2024-10-14,1663,Project
pushed new,Codage,6,JamesRezo,2024-10-14,1663,Project
pushed to,Codage,6,JamesRezo,2024-10-14,1663,Project
pushed to,Codage,6,JamesRezo,2024-10-14,1663,Project
opened,Codage,453,thrax,2024-11-08,1663,MergeRequest
commented on,Papotage,14,rastapopoulos,2024-11-08,1663,Note
commented on,Papotage,453,thrax,2024-11-08,1663,Note
pushed new,Codage,12,marcimat,2024-11-12,1663,Project
pushed to,Codage,12,marcimat,2024-11-12,1663,Project
pushed to,Codage,12,marcimat,2024-11-12,1663,Project
commented on,Papotage,18,b_b,2024-11-17,1663,DiscussionNote
commented on,Papotage,453,thrax,2024-11-17,1663,Note
commented on,Papotage,4,maieul,2024-11-20,1663,Note
pushed to,Codage,4,maieul,2024-11-20,1663,Project
commented on,Papotage,12,marcimat,2024-11-22,1663,DiscussionNote
closed,Papotage,6,JamesRezo,2024-11-23,1663,Issue
accepted,Codage,6,JamesRezo,2024-11-23,1663,MergeRequest
approved,Codage,18,b_b,2024-11-23,1663,MergeRequest
approved,Codage,6,JamesRezo,2024-11-23,1663,MergeRequest
opened,Codage,4,maieul,2024-11-23,1663,MergeRequest
deleted,Codage,4,maieul,2024-11-23,1663,Project
pushed new,Codage,4,maieul,2024-11-23,1663,Project
pushed to,Codage,4,maieul,2024-11-23,1663,Project
pushed to,Codage,6,JamesRezo,2024-11-23,1663,Project
commented on,Papotage,4,maieul,2024-11-24,1663,Note
deleted,Codage,4,maieul,2024-11-24,1663,Project
pushed new,Codage,4,maieul,2024-11-24,1663,Project
pushed to,Codage,4,maieul,2024-11-24,1663,Project
pushed new,Codage,6,JamesRezo,2024-11-27,1663,Project
pushed to,Codage,6,JamesRezo,2024-11-27,1663,Project
pushed to,Codage,6,JamesRezo,2024-11-27,1663,Project
pushed to,Codage,4,maieul,2024-12-02,1663,Project
pushed new,Codage,12,marcimat,2024-12-03,1663,Project
pushed to,Codage,12,marcimat,2024-12-03,1663,Project
opened,Codage,6,JamesRezo,2024-12-11,1663,MergeRequest
pushed new,Codage,6,JamesRezo,2024-12-11,1663,Project
commented on,Papotage,4,maieul,2024-12-13,1663,Note
commented on,Papotage,18,b_b,2024-12-14,1663,DiffNote
approved,Codage,18,b_b,2024-12-14,1663,MergeRequest
opened,Codage,12,marcimat,2024-12-14,1663,MergeRequest
pushed new,Codage,12,marcimat,2024-12-14,1663,Project
commented on,Papotage,6,JamesRezo,2024-12-15,1663,DiffNote
commented on,Papotage,6,JamesRezo,2024-12-15,1663,DiffNote
pushed to,Codage,6,JamesRezo,2024-12-15,1663,Project
commented on,Papotage,12,marcimat,2024-12-16,1663,DiffNote
commented on,Papotage,12,marcimat,2024-12-16,1663,DiffNote
commented on,Papotage,18,b_b,2024-12-16,1663,DiffNote
commented on,Papotage,6,JamesRezo,2024-12-16,1663,DiffNote
approved,Codage,18,b_b,2024-12-16,1663,MergeRequest
pushed to,Codage,12,marcimat,2024-12-16,1663,Project
accepted,Codage,6,JamesRezo,2024-12-18,1663,MergeRequest
approved,Codage,12,marcimat,2024-12-18,1663,MergeRequest
deleted,Codage,6,JamesRezo,2024-12-18,1663,Project
pushed to,Codage,12,marcimat,2024-12-18,1663,Project
pushed to,Codage,6,JamesRezo,2024-12-18,1663,Project
pushed to,Codage,12,marcimat,2024-12-19,1663,Project
accepted,Codage,6,JamesRezo,2024-12-20,1663,MergeRequest
approved,Codage,6,JamesRezo,2024-12-20,1663,MergeRequest
deleted,Codage,12,marcimat,2024-12-20,1663,Project
pushed to,Codage,6,JamesRezo,2024-12-20,1663,Project
pushed to,Codage,6,JamesRezo,2024-12-20,1663,Project
accepted,Codage,4,maieul,2025-01-21,1663,MergeRequest
approved,Codage,14,rastapopoulos,2025-01-21,1663,MergeRequest
opened,Codage,18,b_b,2025-01-21,1663,MergeRequest
deleted,Codage,18,b_b,2025-01-21,1663,Project
pushed new,Codage,18,b_b,2025-01-21,1663,Project
pushed to,Codage,18,b_b,2025-01-21,1663,Project
pushed to,Codage,4,maieul,2025-01-21,1663,Project
