due_date,id,iid,project_id,start_date,state,title
,1123,395,1663,,closed,spip-3.2
,1124,396,1663,,closed,spip-4.0
2025-01-23,1125,397,1663,,active,aide-3.0
2027-07-21,1126,398,1663,,active,aide-3.2
2025-01-23,1131,403,1663,,active,aide-3.3
,1136,498,1663,,closed,< spip-3.2
