date,full_path,name,sha
2019-06-04,spip-contrib-extensions/bibliocheck,v1.2.3,fe36dead179bcdb27d948ec3b10e4cee83450890
2021-02-03,spip-contrib-extensions/bibliocheck,v1.2.4,7efd3d76dc70f6d2eff8126276391ae139656b17
2021-03-22,spip-contrib-extensions/bibliocheck,v1.2.6,1b97dfe26989b37182e88ceabd0bc60065041ed0
2021-03-29,spip-contrib-extensions/bibliocheck,v1.2.7,f5da774c567431c5382e15c89fb3dfc584af8639
2021-04-14,spip-contrib-extensions/bibliocheck,v1.3.0,1b3a6a371b6148833c4f245a99bc0dba54d77754
2021-09-20,spip-contrib-extensions/bibliocheck,v1.3.2,928d81a959e4efee5fc60086d244da1846e90360
2021-09-27,spip-contrib-extensions/bibliocheck,v1.3.3,22b7b518263bbf092935b44942f09e2ffe2737bf
2021-11-05,spip-contrib-extensions/bibliocheck,v1.3.4,2589f1ea8a27cc7f7c35ef01422e7cc03245599c
2021-11-08,spip-contrib-extensions/bibliocheck,v1.3.5,207dc805d400430b7340fa5497be6a0110b959a0
