date,full_path,name,sha
2021-03-30,spip-contrib-extensions/curator,v1,32e97b1e73ccb4d58c32a89548eaf89f015edfb3
2024-07-05,spip-contrib-extensions/curator,master,badb7c112c40c4f42573e959dc65ad1c5e95b144
