date,full_path,name,sha
2019-06-26,spip-contrib-extensions/adaptive_images,v1.9,a5c77a4ef3f79c4c15df233dc895f3a5b43736dd
2023-10-31,spip-contrib-extensions/adaptive_images,v2,fb53a4ceb402f4ee33eec64a46e0cac9eb1e4ea7
2024-11-12,spip-contrib-extensions/adaptive_images,master,0356cd76b7548994ededf62a64a258ac32be938c
