date,full_path,name,sha
2020-09-08,spip-contrib-extensions/acces_restreint_objets,v1,9f0310c1e5739d518e3656967e6281ba85b2014b
2024-10-22,spip-contrib-extensions/acces_restreint_objets,master,ceb55a779c3574e4d4dcb4d711c07a6899b7f7de
