date,full_path,name,sha
2019-05-10,spip-contrib-extensions/twitter,v1.7.3,d3ea93c33a1910fc749c86f14dfbebddc7fa7475
2021-03-21,spip-contrib-extensions/twitter,v1.7.4,6b0ffefe84b66e1cfe66f942290806abe127394a
2021-10-20,spip-contrib-extensions/twitter,v2.0.0,1be269b9ff60cc6e6f0212fcefae6955708bcf58
2022-05-17,spip-contrib-extensions/twitter,v2.0.1,ee8ac70043ff5fb79bb049608b2fccd1a42292c1
2023-08-02,spip-contrib-extensions/twitter,v2.0.2,155ff0420935086c5dd1037f89b7fbf7ff7501e0
2024-07-05,spip-contrib-extensions/twitter,2.1.0,2e4fbf0dbeaa513fb7c576d3321cf7653b35c555
