date,full_path,name,sha
2018-12-24,spip-contrib-extensions/tradsync,v1,79c929a46ebce283a7571fe1b1c4c7dcbc802877
2022-01-08,spip-contrib-extensions/tradsync,2.0,5ed0c9eb26f4b05b78df7e95197b3385aa43a473
2025-01-29,spip-contrib-extensions/tradsync,master,1845310f2948d5d62303c335b7aec882d5902903
