prefix,full_path
html5up_future_imperfect,spip-contrib-squelettes/html5up_future_imperfect
html5up_twenty,spip-contrib-squelettes/html5up_twenty
html5up_verti,spip-contrib-squelettes/html5up_verti
zoundation,spip-contrib-squelettes/zoundation
