closed_issues_count,group_id,id,name,open_issues_count,open_merge_requests_count,sum
67,22,1866,amélioration,73,3,143
70,22,1867,bug,45,2,117
0,22,1868,sécurité,1,0,1
2,22,1869,documentation,20,0,22
2,22,1870,question,4,1,7
