date,full_path,name,sha
2018-07-27,spip-contrib-extensions/mediaboxavectexte,master,a641197694abd9522cdab86486126ad45c7b5b81
2018-07-27,spip-contrib-extensions/mediaboxavectexte,v1,5b7a74026e8e1e02aa6c9fda224af8c1988618c1
2018-07-27,spip-contrib-extensions/mediaboxavectexte,v2,87d839178be1ca94ef43c37c30707d3c019e9449
