date,full_path,name,sha
2019-12-30,spip-contrib-extensions/tri_par_rubrique,migration_pr_1,54dfd59126d51a13af6e784070651477fa202725
2023-03-19,spip-contrib-extensions/tri_par_rubrique,v1,e47d367919399cce8712146e36eef5de8e542732
2025-01-29,spip-contrib-extensions/tri_par_rubrique,master,f02800ce9e1fad8f0be5d38be5ddaab0544fcbbe
