date,full_path,name,sha
2019-07-28,spip-contrib-extensions/tri_par_rubrique,v1.0,efc617ff1d2a228edae21afefe3483c078163ff6
2019-07-28,spip-contrib-extensions/tri_par_rubrique,v1.0.0,efc617ff1d2a228edae21afefe3483c078163ff6
2019-08-02,spip-contrib-extensions/tri_par_rubrique,v1.1.0,fe01e1146cc89d7b9f0830d4375d765abfe767e2
2019-08-07,spip-contrib-extensions/tri_par_rubrique,v1.2.0,1b77b1d590a559563555972a19572dacc927d00d
2019-12-27,spip-contrib-extensions/tri_par_rubrique,v1.2.3,6abffc618be7e3f9f4828276e18d21ca542f972f
2019-12-27,spip-contrib-extensions/tri_par_rubrique,v1.2.4,96f83b0a45133f7edfc88fbd5d8098157bb894ec
2019-12-30,spip-contrib-extensions/tri_par_rubrique,pr_1,54dfd59126d51a13af6e784070651477fa202725
2020-01-09,spip-contrib-extensions/tri_par_rubrique,v1.4.0,6b8248ce857451577f190107110cc6547be1a2d5
2020-01-19,spip-contrib-extensions/tri_par_rubrique,v1.4.1,62703eecd801ab041819ac0b61a3396518b190b5
2020-01-27,spip-contrib-extensions/tri_par_rubrique,v1.4.2,4e59b236eec0765fcaf8babff1b45165720e4ead
2020-03-23,spip-contrib-extensions/tri_par_rubrique,v1.4.3,92fb39971d266e85ab074ab5425d3d44e8e1dda3
2020-06-13,spip-contrib-extensions/tri_par_rubrique,v1.4.4,2454d4d08e9003ba3dcb8a7b90c93aa14f61ea77
2021-07-05,spip-contrib-extensions/tri_par_rubrique,v1.4.5,25d10ebc4e9bf3ebae304a4d4a2d587c5f79ee08
2021-07-14,spip-contrib-extensions/tri_par_rubrique,v1.4.6,f144740fb60ae89d250bc18776fc7b22f99dfcc9
2022-05-25,spip-contrib-extensions/tri_par_rubrique,v1.4.7,9b8c28fb46115925d7b3a35309b42dc88cd37c31
2022-11-28,spip-contrib-extensions/tri_par_rubrique,v1.4.8,af20f79daac9ef3aafe09c11a75ff1cffa5b189c
2022-12-06,spip-contrib-extensions/tri_par_rubrique,v1.4.9,a047077e930ff933b0154cec78580725ee44a195
2023-04-16,spip-contrib-extensions/tri_par_rubrique,v1.5.0,050730ade3d01a1533e9d9a7463298405aaeef80
2024-07-05,spip-contrib-extensions/tri_par_rubrique,1.6.0,f966403839edab2a84f6d07c0ca029b69bf8cea8
2024-10-15,spip-contrib-extensions/tri_par_rubrique,1.6.1,52a96216935d59bb53d4e28e6fcb42d893d0f5d1
2024-11-13,spip-contrib-extensions/tri_par_rubrique,v1.7.0,c44b51d224606c17332ce35564ef0d5ef270dfa8
2025-01-05,spip-contrib-extensions/tri_par_rubrique,v1.7.1,9cb4db5ec154e0b5cc40741b994676b79897293f
2025-01-29,spip-contrib-extensions/tri_par_rubrique,1.7.2,f02800ce9e1fad8f0be5d38be5ddaab0544fcbbe
