date,full_path,name,sha
2018-12-24,spip-contrib-extensions/dictionnaires,v0,a75a3004f8334f0b151f885829453cc07400af75
2021-02-21,spip-contrib-extensions/dictionnaires,dev/issue_1_ordre_definitions,3133b97bac543f4bc37814e4170967010921580f
2021-02-21,spip-contrib-extensions/dictionnaires,dev/issue_2_titre_avant_termes,ef3e7600765f7bbb22b2f5db78fb4b41ee864026
2021-02-21,spip-contrib-extensions/dictionnaires,dev/issue_3_delimitateur,623b80a0022cdba19a3e5c02e14014aa66144ea8
2023-04-04,spip-contrib-extensions/dictionnaires,master,eca87fa9a309b0623403fb1344239147f634980a
