date,full_path,name,sha
2017-04-02,spip-contrib-extensions/menuder,Menuder-2.2.X,f0bed91be30b16d0403e2078f0b8cfda59946989
2017-04-02,spip-contrib-extensions/menuder,Menuder-2.3.X,354c765577e117ad07001a537dca76531b5d6e0b
2022-05-23,spip-contrib-extensions/menuder,v2.4,fe7cffcd8fb9d15d3391705887a46cbb00578551
2024-07-05,spip-contrib-extensions/menuder,master,55804d9354dc8ae07ed294f3dc004578b05a162c
