date,full_path,name,sha
2020-02-06,spip-contrib-extensions/menu_langues_liens,v1,57058ef50e436fbb0d173ee6061942921ea61241
2022-09-07,spip-contrib-extensions/menu_langues_liens,dev/issue_2_config_langue_sql,7cbe1ef4c55e75a588e6b926fbf835638ba1793d
2024-07-05,spip-contrib-extensions/menu_langues_liens,master,489984c075c8d90f21c562948dcdf33abdad9bc4
