date,full_path,name,sha
2022-04-13,spip/plan,issue_4828,0748ce1e077f115440a63c03550fca94c838df14
2022-04-13,spip/plan,style_plan_rem_vars,f35e1c764de06174019a8cb1779cb50e7ee4bbfb
2022-05-20,spip/plan,4.0,113c168d5a4bc8217aec860e93a9fcdc5690b640
2022-05-20,spip/plan,changelog_up_40,92b81278f61791e15f79def30f3f18755413c4cd
2024-11-25,spip/plan,4.1,6f9910242319cad979d32b3c3c90e4439a27a8a3
2025-02-09,spip/plan,master,ab18274e5c5bb84a05269efa3e5326d2941b81cc
