approved,Codage,18,b_b,2024-10-14,1689,MergeRequest
opened,Codage,6,JamesRezo,2024-10-14,1689,MergeRequest
deleted,Codage,6,JamesRezo,2024-10-14,1689,Project
pushed new,Codage,6,JamesRezo,2024-10-14,1689,Project
pushed new,Codage,6,JamesRezo,2024-10-14,1689,Project
accepted,Codage,6,JamesRezo,2024-10-15,1689,MergeRequest
deleted,Codage,6,JamesRezo,2024-10-15,1689,Project
pushed to,Codage,6,JamesRezo,2024-10-15,1689,Project
pushed new,Codage,12,marcimat,2024-11-12,1689,Project
pushed to,Codage,12,marcimat,2024-11-12,1689,Project
pushed new,Codage,6,JamesRezo,2024-11-25,1689,Project
pushed to,Codage,6,JamesRezo,2024-11-25,1689,Project
pushed to,Codage,6,JamesRezo,2024-11-25,1689,Project
opened,Codage,6,JamesRezo,2024-12-11,1689,MergeRequest
pushed new,Codage,6,JamesRezo,2024-12-11,1689,Project
pushed to,Codage,6,JamesRezo,2024-12-15,1689,Project
pushed to,Codage,6,JamesRezo,2024-12-15,1689,Project
accepted,Codage,6,JamesRezo,2024-12-16,1689,MergeRequest
approved,Codage,18,b_b,2024-12-16,1689,MergeRequest
approved,Codage,18,b_b,2024-12-16,1689,MergeRequest
opened,Codage,6,JamesRezo,2024-12-16,1689,MergeRequest
deleted,Codage,6,JamesRezo,2024-12-16,1689,Project
pushed new,Codage,6,JamesRezo,2024-12-16,1689,Project
pushed to,Codage,6,JamesRezo,2024-12-16,1689,Project
pushed to,Codage,6,JamesRezo,2024-12-16,1689,Project
accepted,Codage,6,JamesRezo,2024-12-17,1689,MergeRequest
approved,Codage,12,marcimat,2024-12-17,1689,MergeRequest
deleted,Codage,6,JamesRezo,2024-12-17,1689,Project
pushed to,Codage,6,JamesRezo,2024-12-17,1689,Project
accepted,Codage,4,maieul,2025-01-21,1689,MergeRequest
approved,Codage,14,rastapopoulos,2025-01-21,1689,MergeRequest
opened,Codage,18,b_b,2025-01-21,1689,MergeRequest
deleted,Codage,18,b_b,2025-01-21,1689,Project
pushed new,Codage,18,b_b,2025-01-21,1689,Project
pushed to,Codage,4,maieul,2025-01-21,1689,Project
