pushed new,Codage,6,JamesRezo,2024-07-05,2351,Project
pushed to,Codage,6,JamesRezo,2024-07-05,2351,Project
pushed new,Codage,6,JamesRezo,2024-08-01,2351,Project
pushed to,Codage,6,JamesRezo,2024-08-01,2351,Project
