date,full_path,name,sha
2018-12-24,spip-contrib-extensions/inserer_modeles,v0,eaf8178b38fb3bca44b5e6603b3d8a807a4be7b7
2022-02-19,spip-contrib-extensions/inserer_modeles,dev/v2,b9760bf4e0a37a0a93c6f0d5a5f4d4b55afd0a42
2022-02-23,spip-contrib-extensions/inserer_modeles,v1,50a25cb8d1795b6d70e7c34e3736ed60048afc11
2024-12-09,spip-contrib-extensions/inserer_modeles,categorisation,e7d1428febd476fd9d663347bf2d917136f4b5ee
2024-12-10,spip-contrib-extensions/inserer_modeles,master,4c0c5db0ebfa9ce5591358218445cd05d50e556e
