date,full_path,name,sha
2017-04-02,spip-contrib-extensions/rainette,grenouille-193,ca8f8cc574fe47117246b6ab6567efd3497efb39
2017-05-08,spip-contrib-extensions/rainette,v2,6b73b6bda6be6d90bc70cf94ca531a456e268039
2018-02-17,spip-contrib-extensions/rainette,rainette2_compat_spip2_1,1f460bc8c83d3d87aaefe01a0430d8cf81cc3b58
2020-02-06,spip-contrib-extensions/rainette,v1,c8b6e249f505a8c4b5f7768f03da1de97f158b08
2021-03-23,spip-contrib-extensions/rainette,v3,cd044c790b47b6969513b83d2621bbf81aad28e0
2025-02-16,spip-contrib-extensions/rainette,master,7ddde803cf523481d458519d4ad9e858db46d9df
