pushed to,Codage,384,jeanmarie,2024-11-26,2718,Project
pushed to,Codage,384,jeanmarie,2024-11-27,2718,Project
pushed to,Codage,384,jeanmarie,2024-11-27,2718,Project
pushed to,Codage,384,jeanmarie,2024-11-27,2718,Project
pushed to,Codage,384,jeanmarie,2024-11-27,2718,Project
pushed to,Codage,384,jeanmarie,2024-11-27,2718,Project
pushed to,Codage,384,jeanmarie,2024-12-02,2718,Project
pushed to,Codage,384,jeanmarie,2024-12-04,2718,Project
