date,full_path,name,sha
2018-12-24,spip-contrib-extensions/devise,v0.2.0,f8139a6b20d3a6db4e5d84f3513fcd294f964364
2020-03-10,spip-contrib-extensions/devise,v3.1.0,e9337e44a67095fd442dff592a09bbdacbe98eb4
