prefix,full_path
seances2agenda,spip-contrib-extensions/seances2agenda
import_ics,spip-contrib-extensions/import_ics
formidableparticipation,spip-contrib-extensions/formidable_participation
formidable_p_ms,spip-contrib-extensions/formidable_p_ms
agendaflou,spip-contrib-extensions/agenda_dates_floues
formidable_participation_dest,spip-contrib-extensions/formidable_participation_dest
gis_agenda,spip-contrib-extensions/gis_agenda
fullcalendar_facile,spip-contrib-extensions/agenda_fullcalendar_facile
reservation_evenement,spip-contrib-extensions/reservation_evenement
soyezcreateurs,spip-contrib-squelettes/soyezcreateurs
koinos,spip-contrib-squelettes/koinos
escal,spip-contrib-squelettes/escal
