date,full_path,name,sha
2022-11-16,spip-contrib-extensions/page_mobiles,v1.0.6,5ea7c6c050a04bb321b026536164c3bfb6a872b1
2022-11-20,spip-contrib-extensions/page_mobiles,v1.0.7,d3d740ec2a89f9533f6a21a380c8ca0e3d943877
