date,full_path,name,sha
2018-02-21,spip-contrib-extensions/roles_documents,v0,9de6ab996411caa8f0d02b87ba6edd56bd4babe8
2020-04-25,spip-contrib-extensions/roles_documents,gh-e001a36e/2/unknown/master,8983609fcd55b7e6d5ef38ea5631763bae258dea
2020-06-24,spip-contrib-extensions/roles_documents,issue_2,6a97394d602416796a4c7713b2b0098812e8ef39
2021-06-09,spip-contrib-extensions/roles_documents,v1,453b5fe273552b13ca790f68976afa5a3eb7a10c
2021-11-18,spip-contrib-extensions/roles_documents,styles_SPIP4,94985b38d61993679fa52ad7ebba5acf1c3a0bb7
2021-11-23,spip-contrib-extensions/roles_documents,SPIP-4/Chercher-les-vieux-logos,0c8e8db3446443b1a123201ff20070130bca91d5
2022-02-13,spip-contrib-extensions/roles_documents,touti-patch-1,4888f1553388feaf805654f5cf27776675c114d8
2023-06-24,spip-contrib-extensions/roles_documents,issue_40,f0df3c7f53f13f6cb37dba51e1b9eac454634842
2025-02-09,spip-contrib-extensions/roles_documents,issue_73,fc930d41ae6686696d8ceed6ad5e8b7830e472e7
2025-02-14,spip-contrib-extensions/roles_documents,master,d27c0658e621e8108138747116c8ad0d8f0e7259
