opened,Papotage,453,thrax,2024-10-17,1808,Issue
opened,Codage,453,thrax,2024-10-17,1808,MergeRequest
pushed new,Codage,453,thrax,2024-10-17,1808,Project
commented on,Papotage,453,thrax,2024-10-20,1808,Note
commented on,Papotage,13,Eric,2024-10-21,1808,DiscussionNote
commented on,Papotage,4,maieul,2024-10-21,1808,DiscussionNote
