date,full_path,name,sha
2017-03-24,spip-contrib-themes/spipr_v1_slate,v2.1.2,489a9493c4d180cf0ba9ba1f4198e2f14cc8daba
2024-07-05,spip-contrib-themes/spipr_v1_slate,2.2.0,3cd82ef5d9d3a11fc5d503be4531ad71dd5a12c0
