date,full_path,name,sha
2022-09-16,spip-contrib-extensions/icalendar,modele_fusioncalendriers,880851b1b2bf60ba1b4bc1392deb0cc3db687c8e
2023-07-02,spip-contrib-extensions/icalendar,v0,fe71eace3ce0b18ac7f8581d3cac400a540204a9
2024-07-05,spip-contrib-extensions/icalendar,master,be4b2ca1102dab643408937b5535ece6ee6d9f6e
