date,full_path,name,sha
2017-04-02,spip-contrib-extensions/couleurs_spip,v2.0.0,f81331396d909fff1188bdab90251b9e673483de
2020-02-06,spip-contrib-extensions/couleurs_spip,v3.2.0,726de34e22c2ce1385500281a5e08d2e985f6bf2
2021-05-06,spip-contrib-extensions/couleurs_spip,v3.2.1,c31bc15c15643bc6ffdd1f3cbc35c75f1ed75076
2022-05-16,spip-contrib-extensions/couleurs_spip,v3.2.2,3c94e97b2b6866df7b54804294e91fa1eb956403
2023-06-19,spip-contrib-extensions/couleurs_spip,v3.2.3,171a1e5c7dab786edb395f08caf40b389730e4a1
2024-07-05,spip-contrib-extensions/couleurs_spip,3.3.0,724567be0f3c1a393254306a5d9514cb4b3edfb4
