date,full_path,name,sha
2021-01-25,spip-contrib-themes/spipr_v2_marguerite,v2.0.1,b968d630939d22342c16d6f48b9f416baaaddb36
2023-06-10,spip-contrib-themes/spipr_v2_marguerite,v2.0.3,bd2179a9f30c7ec5f7bf31706fb2cbf94b573702
2024-07-05,spip-contrib-themes/spipr_v2_marguerite,2.1.0,4290f4f1a3b4c127efe1b317fda4a83e6c9ec220
