date,full_path,name,sha
2024-08-20,spip/bigup,3.1,52eb740b25ed043bcf6007a6da605e236ab7140e
2024-12-03,spip/bigup,3.2,e15394a21a8bbf2f203e6b5a831635272fb3aff5
2025-02-14,spip/bigup,3.3,88823f19c0af5e90d197cd37d49606ad3856c51f
2025-02-14,spip/bigup,issue_4898,7b4b644d683fb36a4ba8abc813807699f72cad06
2025-02-14,spip/bigup,master,7db010d74109431b0613d8465cbd4d902f863f11
