date,full_path,name,sha
2019-07-31,spip/bigup,v1.0.0,f3b1a6bc8e607d077cfceca908c44076ce2c4172
2019-08-20,spip/bigup,v1.0.1,4a3fb2d138ebf4dd88e540b1624a80d01ac9316e
2019-08-21,spip/bigup,v1.0.2,e3f376866958d3446d58f9979072d09a9419370d
2019-11-18,spip/bigup,v1.0.3,01ffe95a5946c8e6eba5beaccca298e839d4d436
2019-11-26,spip/bigup,v1.0.4,0e8cbd3d63fd4a5b22406137a690b241991aa7d4
2019-12-05,spip/bigup,v1.0.5,789e06c173d81db11575f5703fc5a3db63d93bc0
2020-02-25,spip/bigup,v1.0.6,af593d85995ed0dc41f8505a37cb8f4c9e2422bc
2020-07-03,spip/bigup,v1.0.7,e85407a0dfee4e8f20c5f4ab18e648dd567255ed
2021-02-04,spip/bigup,v1.0.8,588003666ef77ed02f6fa5184f028794bbddc2a8
2021-05-01,spip/bigup,spip/4.0.0-alpha,e588565f65bf0f10f489079b5d7a8f3e193b742a
2021-05-01,spip/bigup,v2.0.0,e588565f65bf0f10f489079b5d7a8f3e193b742a
2021-05-03,spip/bigup,v1.0.9,c871b2c9e1c2d11d647306ae911ea733af42944b
2021-06-01,spip/bigup,v2.0.1,e3ab4a548b1ab073611d1c22c1929e9b125b7b71
2021-06-02,spip/bigup,spip/4.0.0-beta,23f246bbc6533a639602735ec3e7f53da312ca39
2021-07-08,spip/bigup,spip/4.0.0,fe0c30c40bdf3932d42070faa854e77d47b90260
2021-07-08,spip/bigup,v2.0.2,fe0c30c40bdf3932d42070faa854e77d47b90260
2021-12-14,spip/bigup,spip/4.0.1,bfbdf882d0412f54920c49da1fbeb847298d105b
2021-12-14,spip/bigup,spip/4.0.2,bfbdf882d0412f54920c49da1fbeb847298d105b
2021-12-14,spip/bigup,spip/4.0.3,bfbdf882d0412f54920c49da1fbeb847298d105b
2021-12-14,spip/bigup,v1.0.10,edd842239b4afa43672ac99d1983fea7cdfb0186
2021-12-14,spip/bigup,v2.0.3,bfbdf882d0412f54920c49da1fbeb847298d105b
2022-02-08,spip/bigup,v3.0.0,109766b6143cd00303404e0c24e61236c8e90cf0
2022-02-17,spip/bigup,v3.0.1,97290047c18e52eea68cbc7a2e90fe8b8bf98cf7
2022-03-25,spip/bigup,v3.0.2,22a4f43386fb70827a6b56d98330c611525eea13
2022-05-20,spip/bigup,v3.0.3,a13aa33ae2da91cbb9b4eeca2f1eadecd9aaedd5
2022-06-20,spip/bigup,v1.0.11,a0fde88d2f0529130c3cf3d119a304602d18d3a2
2022-07-19,spip/bigup,v1.1.0,29605fc0630b261d9e6ebfd4793caa8b284a8e0f
2022-07-19,spip/bigup,v2.1.0,09d6d73de977d2ead75e6cb734d6de228598de04
2022-07-19,spip/bigup,v3.1.0,dc1ebca303d956b33d0bd9fcfe124759f4529179
2022-07-19,spip/bigup,v3.1.1,cd39479c92d3863c8e79d0cd58ec187a98553531
2023-01-27,spip/bigup,v3.2.0,5c7d4d9dcda398540a1d83ba8b9d97cfedce5213
2023-02-23,spip/bigup,v3.2.1,3c614596eaf42ebab6ed0ebfb77af208884a61e8
2023-02-27,spip/bigup,v3.1.2,53534afc8e964df9a8a5dc62e5da56270c39d708
2023-02-27,spip/bigup,v3.2.2,787e7bccbbba6cf51e444bbf050dc811d038af93
2023-04-16,spip/bigup,3.3.1,853f69e7d716f725c11aefe9adb78473f3ef6e75
2023-05-15,spip/bigup,v3.2.3,a0c4a4dedda8b3f10754c186e3669f810288972c
2023-06-07,spip/bigup,v3.1.3,ebe213803cc95de3ac64d07296550480492fbc2b
2023-06-07,spip/bigup,v3.2.4,398a84c04e854cd544df018c6b1c48ce9e63b7e8
2023-06-10,spip/bigup,3.3.2,22a22183ba84218cbd4a5cdec0036846e63b02cc
2023-09-01,spip/bigup,v3.2.5,5e9cf7832bd819ce9ddf69d40341cc536a0809a7
2023-10-05,spip/bigup,v3.2.6,425803cd18856fedea3f68e49f98357927dc0d18
2024-01-08,spip/bigup,3.3.3,fbb272307128a30141baf4762954fa2c244300c1
2024-01-11,spip/bigup,v3.1.4,e74411e5f2b8629b63f7e9b2b54637b85abb5ced
2024-01-11,spip/bigup,v3.2.7,1f7d30d2f5658c40f595689110c9bb2cc12c00e8
2024-01-12,spip/bigup,3.3.4,60089a6fc7e65bc243c03eaf87bbf7c78eae7f83
2024-01-12,spip/bigup,v3.1.5,ec07e5e8bb2628bd66860b8d29948e3822b2e788
2024-01-12,spip/bigup,v3.2.8,e4c26c3955c4238e19bd4d0af354496a83465e2f
2024-03-08,spip/bigup,v3.2.9,03f08d61877449e162d59979921768e5a947dc7f
2024-05-07,spip/bigup,v3.2.10,bf9689ef32c2a1f046050c104764bb4f9a5669bc
2024-05-29,spip/bigup,v3.2.11,a93ea562e2fd371b628402a56b03b7ddd7d0c7d3
2024-08-20,spip/bigup,v3.1.6,52eb740b25ed043bcf6007a6da605e236ab7140e
2024-08-20,spip/bigup,v3.2.12,a45c3eb684641c57fd89dc0c39413ea2a63d797a
2024-10-08,spip/bigup,v3.2.13,a92c1a9476a772e718bfac51ed027594b541df95
2024-11-27,spip/bigup,3.3.5,1a81611890562c5e159871718b93356ccfe1a6ae
2024-11-27,spip/bigup,3.4.0,5a5f9f4859f2bfeab11655632ff0dde6e4f77329
2024-12-03,spip/bigup,v3.2.14,e15394a21a8bbf2f203e6b5a831635272fb3aff5
2025-01-17,spip/bigup,3.3.6,8f150fe433c745595d60c2696816cd76630b7b08
2025-02-14,spip/bigup,3.3.7,88823f19c0af5e90d197cd37d49606ad3856c51f
