date,full_path,name,sha
2020-02-24,spip-contrib-extensions/porte_plume_changement_langue,issue_3,0869420cd9a303944ed1322194f1ead5e8f047d7
2024-07-05,spip-contrib-extensions/porte_plume_changement_langue,master,b5d5735019d3683efcf148873b2d9bae587ba884
