opened,Codage,20,cam.lafit,2025-01-17,2396,MergeRequest
pushed new,Codage,20,cam.lafit,2025-01-17,2396,Project
closed,Papotage,17,nicod,2025-02-12,2396,Issue
closed,Papotage,17,nicod,2025-02-12,2396,Issue
closed,Papotage,17,nicod,2025-02-12,2396,Issue
closed,Papotage,17,nicod,2025-02-12,2396,Issue
opened,Papotage,17,nicod,2025-02-12,2396,Issue
accepted,Codage,17,nicod,2025-02-12,2396,MergeRequest
accepted,Codage,17,nicod,2025-02-12,2396,MergeRequest
approved,Codage,14,rastapopoulos,2025-02-12,2396,MergeRequest
approved,Codage,14,rastapopoulos,2025-02-12,2396,MergeRequest
opened,Codage,17,nicod,2025-02-12,2396,MergeRequest
opened,Codage,17,nicod,2025-02-12,2396,MergeRequest
commented on,Papotage,17,nicod,2025-02-12,2396,Note
deleted,Codage,17,nicod,2025-02-12,2396,Project
deleted,Codage,17,nicod,2025-02-12,2396,Project
pushed new,Codage,17,nicod,2025-02-12,2396,Project
pushed new,Codage,17,nicod,2025-02-12,2396,Project
pushed new,Codage,17,nicod,2025-02-12,2396,Project
pushed to,Codage,17,nicod,2025-02-12,2396,Project
pushed to,Codage,17,nicod,2025-02-12,2396,Project
pushed to,Codage,17,nicod,2025-02-12,2396,Project
pushed to,Codage,17,nicod,2025-02-12,2396,Project
