prefix,full_path
optionsproduits,spip-contrib-extensions/optionsproduits
coupons,spip-contrib-extensions/coupons
menu_boutique,spip-contrib-extensions/menu_boutique
themefisher_pinwheel,spip-contrib-squelettes/pinwheel
