date,full_path,name,sha
2018-12-25,spip-contrib-extensions/produits,v0.3.3,63a905305da8bc74d890aeeb76f6eb71336d983d
2020-03-11,spip-contrib-extensions/produits,v1.2.15,14564bc2eaf2a37645e5127b4ea29c6427b01937
2020-04-20,spip-contrib-extensions/produits,v1.2.17,4ddb9123584a523c1b6abf3e78b876210ce117fe
2020-04-20,spip-contrib-extensions/produits,v1.2.18,ceac3bce43e54dbc50f7f0788f8bb2e921290f28
2020-06-16,spip-contrib-extensions/produits,v1.2.19,56d87dd1868839db00d4257de141d8ce656085de
2021-02-10,spip-contrib-extensions/produits,v1.2.20,9f97b7e7e96a4a9e3dc19698831e8cf423c047f9
2022-11-03,spip-contrib-extensions/produits,v2.0.4,dc3f6b3b5fa66a79779d063f06a279225a4a70e7
2023-07-06,spip-contrib-extensions/produits,v2.0.5,4ed6f9f009fcffa263a16f7323a5bb86476677ca
2024-07-05,spip-contrib-extensions/produits,2.1.0,1fc9a4d574d88852361cfa1f6e4d6b7b794fc0a3
2025-02-12,spip-contrib-extensions/produits,2.1.1,1bccc17e5e1b3c9afd2e8b6e0549bc45087b52dd
