date,full_path,name,sha
2022-05-01,spip-contrib-extensions/vacances,v3,01a32d99be33fc1d5bc4aa2d4f09d8cbe1f89ed8
2024-07-05,spip-contrib-extensions/vacances,master,4fbde748d595f4c89af26a11c4438d7bcb222aaa
