due_date,id,iid,project_id,start_date,state,title
,1167,95,1668,,closed,spip-3.2
,1168,96,1668,,closed,spip-4.0
2025-01-23,1169,97,1668,,active,compagnon-3.0
2025-07-21,1170,98,1668,,active,compagnon-3.1
2025-01-23,1175,103,1668,2024-10-01,active,compagnon-3.3
,1180,473,1668,,closed,< spip-3.2
2025-01-23,1630,474,1668,2024-10-01,active,compagnon-3.2
