date,full_path,name,sha
2021-06-07,spip-contrib-extensions/ascore,v0.10.01,e16b4bdc426181d9fef47b96077328d69d30b5d6
2021-06-14,spip-contrib-extensions/ascore,v0.10.02,cd3c5c87e7cdeaa5adf214bb0bf9f5844857c5c5
2021-06-15,spip-contrib-extensions/ascore,v0.10.03,853f40f0d67f75c90c04f25287c94ea681c046a4
2021-06-21,spip-contrib-extensions/ascore,v0.10.04,7d81373a234b4978ff383c4a1c0b19a9e9d3cb8c
2022-12-19,spip-contrib-extensions/ascore,v0.10.05,67bcb509e8305ad33856ef93d60007aafc56b921
2024-08-06,spip-contrib-extensions/ascore,v0.10.06,2293d54cd969d52e2728c7e959a17fffcaf4548e
