date,full_path,name,sha
2020-09-28,spip-contrib-extensions/fontawesome,v1.0.0,10eb4ba16b7f29dc3707655ce1532445f8417404
2021-07-08,spip-contrib-extensions/fontawesome,v1.0.1,41d2d01886d2e2e93bec265cb05cfb8cfa8c548b
2021-12-16,spip-contrib-extensions/fontawesome,v1.0.2,c79538b951566d5dcb548d65dd7d369b313277f7
2022-05-11,spip-contrib-extensions/fontawesome,v1.0.3,09cd2c52cc5e80a5aa38b076f808c939a0865b7f
2023-01-01,spip-contrib-extensions/fontawesome,v1.0.4,31ac8428428e13284b2a8284df5f50c476c36645
2023-02-24,spip-contrib-extensions/fontawesome,v1.0.5,6aa82e8ce62e4ecbf6461a71c76eda809e65941b
2024-07-05,spip-contrib-extensions/fontawesome,1.1.0,837ece3508cb8cd73c7272943817f0a152f3ded9
