id,iid,labels,milestone_id,project_id
22831,4866,bug,1185,1670
22832,4864,amélioration,,1670
22833,4863,amélioration,1185,1670
22839,4850,bug,1185,1670
22848,4191,bug,1185,1670
22856,3865,documentation,1185,1670
31018,4868,amélioration,,1670
31019,4869,amélioration,,1670
