date,full_path,name,sha
2018-12-24,spip-contrib-extensions/noizetier,v1.1.5,5d101bc40d4c7225a2a4a82b4894e86b08803c6c
2019-08-31,spip-contrib-extensions/noizetier,v2.7.14,b8deaedd825554832727282c000cda16158ed1f4
2020-03-09,spip-contrib-extensions/noizetier,v3.0.110,754416c1580f31872029d21bf3b2c8597a8d1956
2021-05-09,spip-contrib-extensions/noizetier,v3.6.0,ce5234708379c87e7ff9774ff468b12262f8495d
2022-03-11,spip-contrib-extensions/noizetier,v4.0.4,9294273e3220de52a9870fc628e21e09060e8f95
2022-05-21,spip-contrib-extensions/noizetier,v4.0.5,ea1473d677d8c334b8cb9eaafe70c89399cec469
2022-09-02,spip-contrib-extensions/noizetier,v4.0.6,00827fea8b41079d31bc4caf25314d0fe78e8604
2022-12-22,spip-contrib-extensions/noizetier,v3.6.1,73eed6f6770b116a0ac6697f402976312d4d03bd
2022-12-22,spip-contrib-extensions/noizetier,v4.0.7,7db73f71369e21b095f6d1bbd38a5da9f89651ad
2023-03-12,spip-contrib-extensions/noizetier,v5.0.0,a1f1ad5188b3ec4322909ad29ad706967fa5ad17
2023-04-01,spip-contrib-extensions/noizetier,v5.0.1,652195bc21cb7c0a74ccc20cfe8a189b97aee46f
2024-01-23,spip-contrib-extensions/noizetier,v5.0.2,d71287157c7b665ac6bd4230239f9a76c8d6cd0e
2024-07-05,spip-contrib-extensions/noizetier,5.1.0,87dfe488a991093cef534f6a52dcdcff0de7e45e
