date,full_path,name,sha
2018-12-24,spip-contrib-extensions/tickets,v1,00f80d4bc765e94a387c7dfd87295ef7948f5052
2018-12-24,spip-contrib-extensions/tickets,v1.1,67dba54e9b33c173b6596e3a5aad6f1c8677bc95
2019-08-31,spip-contrib-extensions/tickets,v2,7a234d65d685a1c53b1779d326d9f8d31a523c54
2023-09-14,spip-contrib-extensions/tickets,issue9_notifier,24e4c986de2963e1fe43b31238aede1d93c7a64d
2024-09-30,spip-contrib-extensions/tickets,spip5,64de3e8a6c4ad7351343a597e14976aa4dbbb441
2024-10-03,spip-contrib-extensions/tickets,issue_22_supprimer_css_prive,e59e2a57c08703d1dbf2899d439a15e6bfaa05d5
2024-10-04,spip-contrib-extensions/tickets,issue_23_puce_fermer,8f2ad78370f99169a24b3b25d142ee18bc6db513
2024-10-04,spip-contrib-extensions/tickets,issue_24_trier_les_tickets,b1fd515d916dddb87515077a9c96871cb726bcf7
2025-01-29,spip-contrib-extensions/tickets,master,187d8017e7bdca3f5544d76129af43ba8b079253
