date,full_path,name,sha
2018-12-24,spip-contrib-extensions/tickets,v1.8.7,00f80d4bc765e94a387c7dfd87295ef7948f5052
2019-08-31,spip-contrib-extensions/tickets,v2.9.7,7a234d65d685a1c53b1779d326d9f8d31a523c54
2020-02-05,spip-contrib-extensions/tickets,v4.1.5,f817490761d3bc0413cde561ff4bd0a7c8a31e3b
2021-03-23,spip-contrib-extensions/tickets,v4.1.6,8b3a2233cb1b2db52c163758e51c90adf10a4f79
2021-09-20,spip-contrib-extensions/tickets,v4.1.8,171c5a00a3b718086b8ba317b31ec1e0265d1b22
2021-12-27,spip-contrib-extensions/tickets,v4.1.9,4fde6ebb6306c032fb63d794aa4afef3cc654302
2022-04-05,spip-contrib-extensions/tickets,v4.1.11,7fc8af9bca67309ec13461ac5913edc8be450405
2023-10-06,spip-contrib-extensions/tickets,v4.1.12,4f693d23c20e2421e0d492598af868063a58d52e
2023-11-24,spip-contrib-extensions/tickets,v4.2.0,bd5973ad2818dcafd1f65edf8d5d16698257d895
2023-11-28,spip-contrib-extensions/tickets,v4.2.1,f42d39fa2e10f5bfb2a3d86b640937bd0b3f2f1c
2024-07-05,spip-contrib-extensions/tickets,4.3.0,5150935f165d3b30d54f3b2f7253164464273ab8
