date,full_path,name,sha
2018-01-22,spip-contrib-extensions/acces_restreint_partiel,v1.1.0,4f7c212d09648e9924d1bf20475fe0fd2d382e82
2020-11-13,spip-contrib-extensions/acces_restreint_partiel,v1.2.0,ac0e9e34087450dda96bc7197123b504c13adaa3
2022-04-13,spip-contrib-extensions/acces_restreint_partiel,v1.2.1,82ad042a794af0f84bebf35d2928e30701fb8655
2022-04-14,spip-contrib-extensions/acces_restreint_partiel,v1.2.2,044b2ae6f785a7b5190c1ea92e9762aa1bc01cef
2022-04-27,spip-contrib-extensions/acces_restreint_partiel,v1.2.3,daab8839fad788aea67c06f3eef4dc786ca539db
2023-09-13,spip-contrib-extensions/acces_restreint_partiel,v1.2.4,1542ee8f85938af2e4ac38469ad40114f48aa771
2024-07-05,spip-contrib-extensions/acces_restreint_partiel,1.3.0,b4a06b7da2a94c9bd3d986d57a39cefefd531735
