date,full_path,name,sha
2023-04-13,spip-contrib-extensions/objet_archiver_anonymiser,v.1.0.0,13b5eb5449bb3fd4496a1b6f82e89c3fb5e8ef51
2024-02-13,spip-contrib-extensions/objet_archiver_anonymiser,v1.1.0,9a7b75d49d4ad4b9fd575cb3e35ddf51c4b244dc
2024-07-05,spip-contrib-extensions/objet_archiver_anonymiser,1.2.0,d94dfb86eeffbed9dbf803608b8fd9ee8e25963e
