imported,Codage,12,marcimat,2024-11-25,3387,Project
pushed new,Codage,12,marcimat,2024-11-25,3387,Project
pushed new,Codage,12,marcimat,2024-11-25,3387,Project
pushed to,Codage,12,marcimat,2024-11-25,3387,Project
pushed to,Codage,12,marcimat,2024-12-03,3387,Project
