date,full_path,name,sha
2020-09-29,spip-contrib-outils/spip-archives,v1.0.0,45c4627490e76d2b9411cd49820d03f36694df5c
2021-02-05,spip-contrib-outils/spip-archives,v1.0.1,3bae34c986373b059d16660e0cae432f8003a3f5
2021-02-05,spip-contrib-outils/spip-archives,v1.0.2,6fc8f953eb892b9148310b52f55ad224d7d12722
2021-03-11,spip-contrib-outils/spip-archives,v1.0.3,38820c13af29173a8568b0bc283bbdf60b3125cb
2024-11-25,spip-contrib-outils/spip-archives,2.0.0,d5f480a220b894a9664a7d9152653c25c78ef8c9
2024-11-25,spip-contrib-outils/spip-archives,v1.0.4,123b50c595104fa5755f8b1ab19883dc449d7d5e
