approved,Codage,17,nicod,2024-10-25,2462,MergeRequest
approved,Codage,4,maieul,2024-10-25,2462,MergeRequest
commented on,Papotage,430,JLuc,2024-12-17,2462,DiscussionNote
commented on,Papotage,430,JLuc,2024-12-17,2462,DiscussionNote
opened,Papotage,430,JLuc,2024-12-17,2462,Issue
opened,Codage,430,JLuc,2024-12-17,2462,MergeRequest
commented on,Papotage,12,marcimat,2024-12-17,2462,Note
commented on,Papotage,12,marcimat,2024-12-17,2462,Note
commented on,Papotage,430,JLuc,2024-12-17,2462,Note
commented on,Papotage,430,JLuc,2024-12-17,2462,Note
pushed new,Codage,430,JLuc,2024-12-17,2462,Project
commented on,Papotage,9,cerdic,2024-12-24,2462,DiscussionNote
opened,Papotage,13,Eric,2024-12-30,2462,Issue
opened,Papotage,13,Eric,2024-12-30,2462,Issue
commented on,Papotage,430,JLuc,2025-01-14,2462,DiscussionNote
commented on,Papotage,12,marcimat,2025-01-30,2462,DiscussionNote
closed,Papotage,12,marcimat,2025-01-30,2462,Issue
accepted,Codage,12,marcimat,2025-01-30,2462,MergeRequest
accepted,Codage,12,marcimat,2025-01-30,2462,MergeRequest
approved,Codage,12,marcimat,2025-01-30,2462,MergeRequest
opened,Codage,12,marcimat,2025-01-30,2462,MergeRequest
deleted,Codage,12,marcimat,2025-01-30,2462,Project
pushed new,Codage,12,marcimat,2025-01-30,2462,Project
pushed to,Codage,12,marcimat,2025-01-30,2462,Project
pushed to,Codage,12,marcimat,2025-01-30,2462,Project
pushed to,Codage,12,marcimat,2025-01-30,2462,Project
pushed to,Codage,12,marcimat,2025-01-30,2462,Project
accepted,Codage,12,marcimat,2025-02-03,2462,MergeRequest
deleted,Codage,12,marcimat,2025-02-03,2462,Project
pushed to,Codage,12,marcimat,2025-02-03,2462,Project
opened,Codage,13,Eric,2025-02-15,2462,MergeRequest
pushed new,Codage,13,Eric,2025-02-15,2462,Project
pushed to,Codage,13,Eric,2025-02-15,2462,Project
