prefix,full_path
galactic,spip-galaxie/galactic
colonne,spip-contrib-extensions/colonne_raccourci
bootstrap_scss,spip-contrib-extensions/bootstrap_scss
bootstrap3_sass,spip-contrib-extensions/bootstrap3_sass
bootstrap4,spip-contrib-extensions/bootstrap4
info_sites,spip-contrib-extensions/info_sites
gribouille,spip-contrib-squelettes/gribouille_2
html5up_solid_state,spip-contrib-squelettes/html5up_solid_state
html5up_editorial,spip-contrib-squelettes/html5up_editorial
zboot,spip-contrib-squelettes/zboot
zgala,spip-contrib-squelettes/zgala
html5up_spectral,spip-contrib-squelettes/html5up_spectral
