date,full_path,name,sha
2019-07-20,23forward/lire_aussi,v1.3.0,58d80fd1f4564ef35e8a2337e9dab7ef27d24c1b
2021-09-15,23forward/lire_aussi,v1.3.1,a58a0cb3808aa43b0f227a4d8660fb49a92a8043
2021-09-23,23forward/lire_aussi,v1.3.2,b7567233d23962ab15b8975eba74ec78454b6eb8
2023-07-25,23forward/lire_aussi,v1.3.3,6201d78650bb1083f2602078ff96cb3ba2ad693b
2024-07-05,23forward/lire_aussi,1.4.0,f15670184d11df198fb04a946076981368f2747d
