date,full_path,name,sha
2017-04-02,spip-contrib-extensions/saveauto,1.9.1,a2514d92396f6dfbdc1c1a98f316458116ebc948
2017-04-10,spip-contrib-extensions/saveauto,1.9.2,d5fc61076d38d1f9c6e4c4709d56b57d653a88f2
2017-04-10,spip-contrib-extensions/saveauto,2.0,0a982ce827d9d07c99bedfb3ec09b0f80f89feed
2017-05-08,spip-contrib-extensions/saveauto,2.1,aff97804bfe7504c40954a7a40f531a7fa0c766e
2019-01-05,spip-contrib-extensions/saveauto,3.0,8235da928c57e0c22ab8cef9cca910a783559932
2021-08-04,spip-contrib-extensions/saveauto,4.0,9af80ff1b170e2e92803ba54213943365f0719bf
2021-08-04,spip-contrib-extensions/saveauto,v1,9af80ff1b170e2e92803ba54213943365f0719bf
2025-01-29,spip-contrib-extensions/saveauto,master,f45983be8a1135ab90dafd72850ea168f0378dbe
