date,full_path,name,sha
2013-09-24,spip-contrib-extensions/souscription,feature/abonnements,737cf313cbe61c3dc9d1a2362ff92c3ad27cec21
2013-10-07,spip-contrib-extensions/souscription,devel,cdbb7f7977ff0045274c3d542871c82dccf5599b
2015-09-11,spip-contrib-extensions/souscription,bugfix/correction_envoi_notification,1514315d36d2755bded4b6fa0001138e055d63de
2021-09-10,spip-contrib-extensions/souscription,v2,02c87b8d064bff320cdb462af6c118855c140b1d
2024-06-27,spip-contrib-extensions/souscription,fix_5,39ce71c0ec6ad3090219dd1c798537e9b8ba999e
2024-07-05,spip-contrib-extensions/souscription,master,c76b68bef36772f19392696f81eebafb87a1f798
2024-12-09,spip-contrib-extensions/souscription,issue_6_verifier_date_vide,d43e52fee43511045010baddf8b027782407c671
