date,full_path,name,sha
2025-01-09,spip-contrib-outils/bac_a_sable,1.0.0,8a4ad4f667fadb1ddcad0e42bfe9ada980c5ea09
2025-01-09,spip-contrib-outils/bac_a_sable,1.1.0,87f1b3f4cc2b1db1a6cb66a43f44031b5bff595b
2025-01-10,spip-contrib-outils/bac_a_sable,1.2.0,eef965f0f11d061bc4aad7df9cc93a52001fa285
2025-01-11,spip-contrib-outils/bac_a_sable,1.2.1,3c46bf2508d0802142814a1b0259e5248590c234
2025-01-11,spip-contrib-outils/bac_a_sable,1.2.2,36c73a02dadf680c0c257ae2449142d64c731a4c
2025-01-11,spip-contrib-outils/bac_a_sable,1.3.0,fdc35907ed0f2603d5138dc09283eb85ee4843fc
