commented on,Papotage,12,marcimat,2024-08-27,3004,DiscussionNote
commented on,Papotage,12,marcimat,2024-08-27,3004,DiscussionNote
commented on,Papotage,12,marcimat,2024-08-27,3004,DiscussionNote
commented on,Papotage,12,marcimat,2024-08-27,3004,DiscussionNote
commented on,Papotage,12,marcimat,2024-08-27,3004,DiscussionNote
commented on,Papotage,12,marcimat,2024-08-27,3004,DiscussionNote
commented on,Papotage,16,tofulm,2024-08-27,3004,DiscussionNote
commented on,Papotage,17,nicod,2024-08-27,3004,DiscussionNote
commented on,Papotage,17,nicod,2024-08-27,3004,DiscussionNote
commented on,Papotage,17,nicod,2024-08-27,3004,DiscussionNote
commented on,Papotage,17,nicod,2024-08-27,3004,DiscussionNote
commented on,Papotage,17,nicod,2024-08-27,3004,DiscussionNote
commented on,Papotage,17,nicod,2024-08-27,3004,DiscussionNote
commented on,Papotage,17,nicod,2024-08-27,3004,DiscussionNote
commented on,Papotage,17,nicod,2024-08-27,3004,DiscussionNote
commented on,Papotage,17,nicod,2024-08-27,3004,DiscussionNote
commented on,Papotage,17,nicod,2024-08-27,3004,DiscussionNote
commented on,Papotage,17,nicod,2024-08-27,3004,DiscussionNote
commented on,Papotage,17,nicod,2024-08-27,3004,DiscussionNote
opened,Codage,17,nicod,2024-08-27,3004,MergeRequest
commented on,Papotage,12,marcimat,2024-08-27,3004,Note
commented on,Papotage,12,marcimat,2024-08-27,3004,Note
commented on,Papotage,12,marcimat,2024-08-27,3004,Note
commented on,Papotage,12,marcimat,2024-08-27,3004,Note
commented on,Papotage,17,nicod,2024-08-27,3004,Note
pushed new,Codage,17,nicod,2024-08-27,3004,Project
closed,Papotage,17,nicod,2024-08-29,3004,Issue
accepted,Codage,17,nicod,2024-08-29,3004,MergeRequest
approved,Codage,12,marcimat,2024-08-29,3004,MergeRequest
commented on,Papotage,12,marcimat,2024-08-29,3004,Note
commented on,Papotage,17,nicod,2024-08-29,3004,Note
deleted,Codage,17,nicod,2024-08-29,3004,Project
pushed to,Codage,17,nicod,2024-08-29,3004,Project
commented on,Papotage,12,marcimat,2024-08-30,3004,DiscussionNote
commented on,Papotage,17,nicod,2024-08-30,3004,Note
commented on,Papotage,12,marcimat,2024-09-02,3004,DiscussionNote
commented on,Papotage,12,marcimat,2024-09-02,3004,DiscussionNote
commented on,Papotage,12,marcimat,2024-09-02,3004,DiscussionNote
commented on,Papotage,12,marcimat,2024-09-02,3004,DiscussionNote
commented on,Papotage,12,marcimat,2024-09-02,3004,DiscussionNote
commented on,Papotage,17,nicod,2024-09-02,3004,DiscussionNote
commented on,Papotage,12,marcimat,2024-09-02,3004,Note
commented on,Papotage,16,tofulm,2024-09-02,3004,Note
opened,Codage,12,marcimat,2024-09-04,3004,MergeRequest
pushed new,Codage,12,marcimat,2024-09-04,3004,Project
pushed to,Codage,12,marcimat,2024-09-04,3004,Project
accepted,Codage,17,nicod,2024-09-05,3004,MergeRequest
deleted,Codage,12,marcimat,2024-09-05,3004,Project
pushed to,Codage,17,nicod,2024-09-05,3004,Project
commented on,Papotage,12,marcimat,2024-09-12,3004,DiscussionNote
commented on,Papotage,15,tcharlss,2024-09-12,3004,DiscussionNote
commented on,Papotage,15,tcharlss,2024-09-12,3004,DiscussionNote
commented on,Papotage,17,nicod,2024-09-12,3004,DiscussionNote
opened,Papotage,16,tofulm,2024-09-19,3004,Issue
opened,Papotage,16,tofulm,2024-09-27,3004,Issue
commented on,Papotage,4,maieul,2024-09-28,3004,DiscussionNote
commented on,Papotage,17,nicod,2024-09-28,3004,Note
commented on,Papotage,17,nicod,2024-09-28,3004,Note
closed,Papotage,16,tofulm,2024-09-30,3004,Issue
commented on,Papotage,16,tofulm,2024-09-30,3004,Note
accepted,Codage,4,maieul,2024-10-27,3004,MergeRequest
opened,Codage,4,maieul,2024-10-27,3004,MergeRequest
opened,Codage,4,maieul,2024-10-27,3004,MergeRequest
deleted,Codage,4,maieul,2024-10-27,3004,Project
pushed new,Codage,4,maieul,2024-10-27,3004,Project
pushed new,Codage,4,maieul,2024-10-27,3004,Project
pushed to,Codage,4,maieul,2024-10-27,3004,Project
pushed to,Codage,4,maieul,2024-10-27,3004,Project
commented on,Papotage,17,nicod,2024-10-28,3004,DiffNote
commented on,Papotage,17,nicod,2024-10-28,3004,DiffNote
commented on,Papotage,17,nicod,2024-10-28,3004,DiffNote
commented on,Papotage,4,maieul,2024-10-28,3004,DiffNote
commented on,Papotage,4,maieul,2024-10-28,3004,DiffNote
commented on,Papotage,4,maieul,2024-10-28,3004,DiffNote
accepted,Codage,17,nicod,2024-10-28,3004,MergeRequest
commented on,Papotage,17,nicod,2024-10-28,3004,Note
commented on,Papotage,17,nicod,2024-10-28,3004,Note
commented on,Papotage,4,maieul,2024-10-28,3004,Note
commented on,Papotage,4,maieul,2024-10-28,3004,Note
deleted,Codage,4,maieul,2024-10-28,3004,Project
pushed to,Codage,17,nicod,2024-10-28,3004,Project
pushed to,Codage,17,nicod,2024-10-28,3004,Project
opened,Papotage,16,tofulm,2024-11-05,3004,Issue
commented on,Papotage,4,maieul,2024-11-06,3004,Note
commented on,Papotage,16,tofulm,2024-11-07,3004,Note
closed,Papotage,16,tofulm,2024-11-15,3004,Issue
closed,Papotage,16,tofulm,2024-11-15,3004,Issue
pushed to,Codage,17,nicod,2024-12-07,3004,Project
pushed to,Codage,17,nicod,2025-02-04,3004,Project
pushed to,Codage,17,nicod,2025-02-04,3004,Project
