date,full_path,name,sha
2013-08-02,spip-contrib-squelettes/documentation,v1,673573bc81f95993d265ce0f528afe226d6f9644
2017-05-14,spip-contrib-squelettes/documentation,v2,905b5d3001da9ad625dbd15df75c719581c5ab49
2019-10-08,spip-contrib-squelettes/documentation,master,7f240d3dc4eaa8cde0b8fa6b3c5000a5e69b45b2
