prefix,full_path
api_syntaxe,spip-contrib-extensions/api_syntaxe
collectionjson,spip-contrib-extensions/collection_json
headless,spip-contrib-extensions/headless
ezrest,spip-contrib-extensions/ezREST
