date,full_path,name,sha
2023-01-06,spip-contrib-squelettes/html5up_photon,v1.0.0,948384b99a1b726bd5f87aa0c17f29eb85e70e7a
2023-01-07,spip-contrib-squelettes/html5up_photon,v1.1.0,04817566c37d11661812d136103b0a13e5b4d288
2023-01-14,spip-contrib-squelettes/html5up_photon,v1.1.1,07ad0d8b5e1f305c1c4c70cd86be5f4e3c9c8da2
2023-02-17,spip-contrib-squelettes/html5up_photon,v1.2.0,40340538a4a2a5463d3ddafca03e2043a29e4ff4
2024-07-05,spip-contrib-squelettes/html5up_photon,1.3.0,c9e4b6f3e88da38027b20d76c8fbff4cd66bc2a7
