date,full_path,name,sha
2017-05-08,spip-contrib-extensions/selecteur_generique,v0,cc0d2ec2d35b1529bc237de68295a6e418d34904
2023-03-16,spip-contrib-extensions/selecteur_generique,v1,e8f0686d886225ca1aa88998553a0d497aec88a3
2025-01-29,spip-contrib-extensions/selecteur_generique,master,7a90444f74b250003c7ad37364d66d5fa92996a0
