date,full_path,name,sha
2017-05-08,spip-contrib-extensions/selecteur_generique,v0.7.4,cc0d2ec2d35b1529bc237de68295a6e418d34904
2020-02-05,spip-contrib-extensions/selecteur_generique,v1.1.14,672e30b54aac10ae21e416d6701ff7c2ef53a39f
2022-05-04,spip-contrib-extensions/selecteur_generique,v1.1.15,01e985f13b960bdff592ffd3eaf352fbbab4ef24
2023-05-22,spip-contrib-extensions/selecteur_generique,2.0.0,3f18363998d38fb208ffa110d5ddd79391bc1d7f
2024-04-30,spip-contrib-extensions/selecteur_generique,2.0.1,e038fd295a887cc8eeff964fdc388026f57c7f2c
2024-07-05,spip-contrib-extensions/selecteur_generique,2.1.0,a269b84347ead47b874b114e5205f4a798fd20d2
