date,full_path,name,sha
2020-03-24,spip-contrib-extensions/mailshot,v1.27.7,95b5832adad70e66aac3efdfac5be607445dc50e
2020-07-27,spip-contrib-extensions/mailshot,v1.28.0,7a9f05da28865792e55836a6a70cbb8d51a65ce6
2021-01-04,spip-contrib-extensions/mailshot,v1.30.0,ddbbed0088c8c6e8b6ef38874b854c5f40b08338
2021-01-04,spip-contrib-extensions/mailshot,v1.30.1,5260b76b44e0ad008af3a2ff9752c402a446cc2e
2021-01-12,spip-contrib-extensions/mailshot,v1.31.1,442009220ee00666a054c0d88d2449607368e8ea
2021-01-18,spip-contrib-extensions/mailshot,v1.31.2,ad7bf42b0da5655340a9446169c69f30269a4350
2021-03-25,spip-contrib-extensions/mailshot,v1.31.3,5bfa474ea78ce059e09da3483b3841edb10c921d
2021-05-17,spip-contrib-extensions/mailshot,v1.31.4,151a5cb16214b6f49af8c3884227a391686d274f
2021-07-23,spip-contrib-extensions/mailshot,v2.1.1,bd48c999459e94861cff455696c8ff82ee73604b
2021-07-27,spip-contrib-extensions/mailshot,v2.2.0,60ff3530c96a9496f80b8e9a0a3d540d1f734123
2022-01-24,spip-contrib-extensions/mailshot,v2.2.2,646ba01c53c5262d38b355ef715959d88a9f4d0c
2022-01-27,spip-contrib-extensions/mailshot,v2.2.3,9a9e59b92d71644685985b5fd9411b279f37709f
2022-02-18,spip-contrib-extensions/mailshot,v3.0.3,cc802b4c4724ecbc8ed9e1cf925054228642c362
2022-02-25,spip-contrib-extensions/mailshot,v3.0.4,f52aabb5692fa79cb2f9f01dd55b333e130afa05
2022-03-04,spip-contrib-extensions/mailshot,v3.0.5,67467b3b4351baf98be415e411421bea36268aef
2022-05-02,spip-contrib-extensions/mailshot,v3.0.7,1e6c42eb7952220f5dc026606654006061088a18
2022-10-03,spip-contrib-extensions/mailshot,v3.0.8,e3c9ed089d268d5a5c64e119ca354d74610ba19c
2022-10-21,spip-contrib-extensions/mailshot,v3.0.9,6a8c15894ce9893bc7caccf1d8f3458a2a933aef
2023-03-27,spip-contrib-extensions/mailshot,v3.0.11,2b508151f9dc9cfb48efc51d23c558db946d4852
2023-05-04,spip-contrib-extensions/mailshot,v3.0.12,80bb820a370c19cb59fde7e00fc79bb628aee7c3
2023-11-23,spip-contrib-extensions/mailshot,v3.1.2,65b04efdacef518380a29e9c0d7cbf5b901f0959
2024-04-18,spip-contrib-extensions/mailshot,v3.1.3,d503c7879b328dc9d6eb4f2680407d876f24543a
2024-04-18,spip-contrib-extensions/mailshot,v3.1.4,fc764f03d8fe8f2be91857b0e78991e4b23b12fd
2024-06-21,spip-contrib-extensions/mailshot,v3.1.5,d956909b42741c8c1edbe68cd854255da11d6fd7
2024-07-05,spip-contrib-extensions/mailshot,3.2.0,aab606013597d4f379b827a06af8ca8a7c4128d0
2024-11-14,spip-contrib-extensions/mailshot,v3.3.0,e92e9c54a89a96d79d94ab7812bbcd297c390dbd
2024-12-03,spip-contrib-extensions/mailshot,v3.4.0,61c6439c6197521124aad06149d408b14dc04c5b
2025-01-27,spip-contrib-extensions/mailshot,v3.4.1,5cbaffa996e090aef0bb28cf44c22032aca66cd2
