date,full_path,name,sha
2017-05-08,spip-contrib-extensions/urls_pages,v0,d0315c970eb7a37f43b5bc2e61fa3e549c74b0eb
2022-05-06,spip-contrib-extensions/urls_pages,issue_6,c98d3254b65864e47eace6c2e515b524129af3a6
2022-05-06,spip-contrib-extensions/urls_pages,issue_7_chemins,65ae1e5ddc9284064e1adf492a0b214cd7f2c754
2023-09-21,spip-contrib-extensions/urls_pages,dev/v2,a07c443b0b068d81974adb03aa76998feaccc355
2024-07-13,spip-contrib-extensions/urls_pages,master,ce8fd04e5ac76d2ac458444f5120a98388c2956c
