date,full_path,name,sha
2017-05-08,spip-contrib-extensions/urls_pages,v0.1.13,d0315c970eb7a37f43b5bc2e61fa3e549c74b0eb
2020-04-03,spip-contrib-extensions/urls_pages,v1.0.11,c0a4c9487574ded7cd314cbd06f61eeb8b78ae1e
2020-04-15,spip-contrib-extensions/urls_pages,v1.0.12,e5192d4f4e2b0b5cee4b77f00526629bc1ce0dec
2022-06-18,spip-contrib-extensions/urls_pages,v1.0.13,27e3b37c2906be980b5f874c2b2337e9008dcf0b
2023-09-16,spip-contrib-extensions/urls_pages,v1.1.0,1a174404fb3eea6a32f4b96829599d351df48955
2024-01-22,spip-contrib-extensions/urls_pages,v1.1.1,0905147a0d41fc386dc9aa5f3e7b9ee436d43d24
2024-07-13,spip-contrib-extensions/urls_pages,1.2.0,ce8fd04e5ac76d2ac458444f5120a98388c2956c
