date,full_path,name,sha
2016-11-07,spip-contrib-extensions/extraire_documents,v0,3f81dc80ca80eee41622143637eb9d4617497c11
2024-03-28,spip-contrib-extensions/extraire_documents,v1,cf2e8b6a705f26800bdd4dd096b3cd18bc233aee
2024-07-05,spip-contrib-extensions/extraire_documents,master,98d91e3b0b61f6a54aa828dd86bb1abb2a719f81
