commented on,Papotage,206,pierretux,2024-06-28,1992,DiscussionNote
commented on,Papotage,68,erational,2024-06-28,1992,DiscussionNote
closed,Papotage,206,pierretux,2024-06-28,1992,Issue
pushed new,Codage,68,erational,2024-06-28,1992,Project
pushed to,Codage,68,erational,2024-06-28,1992,Project
pushed to,Codage,68,erational,2024-06-28,1992,Project
pushed new,Codage,6,JamesRezo,2024-07-05,1992,Project
pushed to,Codage,6,JamesRezo,2024-07-05,1992,Project
