date,full_path,name,sha
2021-04-28,spip-contrib-extensions/z-core,v2,75ace45e90d727c56b408f91c739e42413ee954b
2025-01-29,spip-contrib-extensions/z-core,master,b32b241bef7ba49663a193fa85b59028cb8ef66a
