date,full_path,name,sha
2017-04-02,spip-contrib-extensions/hash_documents,v1.2.4,1cc59ca8506ed66633fa9b04a6ce51ede2e09d5b
2017-11-06,spip-contrib-extensions/hash_documents,v2.0.5,7c96eabb2d33c59858bc3695ba84091d76f4b0f2
2021-07-16,spip-contrib-extensions/hash_documents,v2.0.6,8ff84f2ad70b2a940a7b8c725d6ae626d25f0c16
2021-07-16,spip-contrib-extensions/hash_documents,v3.0.0,4f3f5e501d44d5de986cfd144c95239bc3d4bce4
2022-02-14,spip-contrib-extensions/hash_documents,v3.0.1,70725e1cfe8079fe8696696c76fba95b941ef187
2022-12-12,spip-contrib-extensions/hash_documents,v3.0.2,e2d2afa708706ac6201fa9be8487d70e9f12f93a
2023-06-14,spip-contrib-extensions/hash_documents,v3.0.3,cd7ab4c065bc2fc96048b40c222a6c26d98404e0
2024-07-05,spip-contrib-extensions/hash_documents,3.1.0,ff957026f0fb35702d9eef4de750bec2b3c8a336
