date,full_path,name,sha
2020-03-29,spip-contrib-extensions/sidr,v1.5.1,8ee93be644b014b8c10030b73374e3f22ff5cd24
2021-07-11,spip-contrib-extensions/sidr,v1.5.2,077b016f90af88520b380403b1f98a5537cac9f6
2022-04-21,spip-contrib-extensions/sidr,v1.5.3,10d64fda528ce794daa05a7aa8012b122f85b3e0
2023-03-03,spip-contrib-extensions/sidr,v1.5.4,15e71e96602971fa4f38c1dc507108a5c05a73bf
2024-05-24,spip-contrib-extensions/sidr,v1.6.0,dc13d9508f83883d1a2b35965c33365a14adc708
