closed_issues_count,id,name,open_issues_count,open_merge_requests_count,project_id,sum
0,1461,duplicate,0,0,2034,0
0,1462,enhancement,0,0,2034,0
0,1463,help wanted,0,0,2034,0
0,1464,invalid,0,0,2034,0
0,1466,wontfix,0,0,2034,0
