date,full_path,name,sha
2020-05-22,spip-contrib-extensions/newsletters_modeles,v0.1.1,c72835afbb7e32da081524c47571d2361cb2536b
2020-09-29,spip-contrib-extensions/newsletters_modeles,v0.2.0,af7455ea94a0a21c46ed44ebdb4ee9dd3d34ed25
2020-10-23,spip-contrib-extensions/newsletters_modeles,v0.2.1,acbab630202c642d8aa1ee54a6ce2bf6982945a5
2021-02-10,spip-contrib-extensions/newsletters_modeles,v0.3.0,9ac48ff2ce603f6b7ae40b3b52f9a8b68fc6e609
2021-05-03,spip-contrib-extensions/newsletters_modeles,v0.3.1,82bd94a6a645d08abc34cdf09d4a880ae9cac04b
2022-01-06,spip-contrib-extensions/newsletters_modeles,v0.3.2,d901d8f22af9be8a578169f331ae4f46fad51475
2022-04-13,spip-contrib-extensions/newsletters_modeles,v0.3.3,e8d629f34ea53c15c08186e18a76529a9285e79a
2023-06-07,spip-contrib-extensions/newsletters_modeles,v0.3.4,953618d374eb0d19526801f2d9ccad123f95d016
2024-07-05,spip-contrib-extensions/newsletters_modeles,0.4.0,8c17260d28bd11abbc441988f73952c012555bd1
