date,full_path,name,sha
2020-11-27,spip-contrib-extensions/tunnels,dev/accordeon,27afba6e4df45c9be24fb63778223ea57b475e71
2024-07-05,spip-contrib-extensions/tunnels,master,69b5c8f0efa0f417728ef92f2d53be5a0f671229
