date,full_path,name,sha
2018-12-14,spip-contrib-extensions/lister_constantes,v1.1.2,38d896143797149f3bb323a6d8781b78a0298c32
2021-07-25,spip-contrib-extensions/lister_constantes,v2.0.0,3cefae302b9cef749c5d972584bfb368963bef67
2022-07-09,spip-contrib-extensions/lister_constantes,v2.0.1,669f9927162328045e539e5890e7df932c0ced2a
2024-07-05,spip-contrib-extensions/lister_constantes,2.1.0,a1557c8e4d3b8b726a5ac2e8e2456a02134701e2
2024-12-02,spip-contrib-extensions/lister_constantes,v2.1.1,6d6ec54cb502893f28fbfbffcc4fdefc008022bf
