date,full_path,name,sha
2022-11-24,spip-contrib-extensions/cci,v1.0.0,b0917654d0bb066720efebad771f1c9624c98870
2023-06-06,spip-contrib-extensions/cci,v1.1.3,3d2805109be2f3c6aa62a6714573b48fe524a268
2023-06-12,spip-contrib-extensions/cci,v1.2.0,e15351d4bd54c2c25471c18ec5a5496533a787e0
