prefix,full_path
html5up_txt,spip-contrib-squelettes/html5up_txt
soyezcreateurs,spip-contrib-squelettes/soyezcreateurs
sarkaspip,spip-contrib-squelettes/sarkaspip
html5up_zerofour,spip-contrib-squelettes/html5up_zerofour
html5up_forty,spip-contrib-squelettes/html5up_forty
html5up_escape_velocity,spip-contrib-squelettes/html5up_escape_velocity
alpha,spip-contrib-squelettes/html5up_alpha_legacy
alpha,spip-contrib-squelettes/html5up_alpha
zoundation,spip-contrib-squelettes/zoundation
