date,full_path,name,sha
2017-04-02,spip-contrib-extensions/bannieres,bannieres_1.9.2,dd519b9f882eb3ae7f2d96fca5430b0e3217c84f
2017-04-10,spip-contrib-extensions/bannieres,bannieres_2.0,d15bbf452166332149aeb15b15957b3264a3a588
2024-09-30,spip-contrib-extensions/bannieres,master,3dd82c2435d8587a8eb8a2fb9ab48d868697da3c
