date,full_path,name,sha
2019-04-28,spip-contrib-extensions/storify,v0.1.1,f1f238899282b2dd4037c50d20414c2abcd7d36e
2024-07-05,spip-contrib-extensions/storify,1.2.0,018d44ef360c21a2ccaf0c0c464beda2f0fc09dd
