date,full_path,name,sha
2017-07-14,spip-contrib-extensions/exclure_secteur,exclure_secteur_1,c635305529adcd0c3f6323a577fa23ccaf65e77a
2024-07-05,spip-contrib-extensions/exclure_secteur,master,f50674f0f047e0460d460b64a54d142d62ab11d6
