date,full_path,name,sha
2019-08-06,spip-contrib-extensions/info_sites,v0,527b38a159c418704308ef5a180bd62786c98fda
2024-07-05,spip-contrib-extensions/info_sites,master,73361cbdf2ea9cd914ac65ae327790404037ccd4
