date,full_path,name,sha
2023-12-15,spip-contrib-extensions/Hotspots,doc-paquet-xml-seenthis,7b8ff747efa86516f92b01a1a27674f133bfca84
2024-09-26,spip-contrib-extensions/Hotspots,master,6e7d89428e94a5759aee1c312791692abd26ce34
