date,full_path,name,sha
2024-01-19,spip-contrib-extensions/dropbox,v1.0.0,f010c101225657aeaeb8b479b4aab9be25af6b0c
2024-01-30,spip-contrib-extensions/dropbox,v1.0.1,b71d5c9e804373c799c60af9ef17830254fe4dd2
2024-03-03,spip-contrib-extensions/dropbox,v1.1.1,03bff94a063bc63078b29c9a5f46520851a44795
2024-05-27,spip-contrib-extensions/dropbox,v1.1.2,3ee3b7bb5e4b1663f36d1c85414b489bab18e4cb
2024-06-11,spip-contrib-extensions/dropbox,v1.1.3,7740b98b7c5791083aa70fe0bb749fa5df7291d3
2024-07-05,spip-contrib-extensions/dropbox,1.2.0,20fa3c1ab1b6e1817bb83fdf28ff61035537a27f
2024-09-05,spip-contrib-extensions/dropbox,v1.2.1,5931b5a1a840c57b21acf1b86579b29b39d52652
2024-12-29,spip-contrib-extensions/dropbox,v1.3.0,3a89dd93457e37b11c5c175950805a5be26cdebf
