date,full_path,name,sha
2017-05-08,spip-contrib-extensions/basecss,v2.3.8,fc989ca387cf00c42de372bc39716920f5d61e23
2019-03-16,spip-contrib-extensions/basecss,v3.0.7,46fe165cf9384512cf5c395243989ff7a6fca2ef
