date,full_path,name,sha
2019-07-22,spip-contrib-extensions/medias_dereferencer,master,0f2b634ce726196afe9fc0e09ddf6913d9ddfb13
2019-08-31,spip-contrib-extensions/medias_dereferencer,v1,c03a6fe908c2548b33bf1c18765611a27f5939cb
