created,Codage,480,equipement,2024-12-04,3402,Project
pushed new,Codage,480,equipement,2024-12-04,3402,Project
pushed new,Codage,480,equipement,2024-12-04,3402,Project
pushed new,Codage,480,equipement,2025-01-21,3402,Project
pushed to,Codage,480,equipement,2025-01-21,3402,Project
