date,full_path,name,sha
2017-04-10,spip-contrib-extensions/nivoslider,v1,b2006de14e99ea1b5f6f1a891d71dca32b5d1da0
2017-04-10,spip-contrib-extensions/nivoslider,v2,a730008bc4a9051165538b9dd6d49437ca0e3de6
2021-04-28,spip-contrib-extensions/nivoslider,v3,2fc16f04e2bcaf173c20f024f57d05ef9966eebe
2024-07-05,spip-contrib-extensions/nivoslider,master,208a247ff02b649e6a3a54c401ddf8ff4dfeba70
