date,full_path,name,sha
2017-05-08,spip-contrib-extensions/sjcycle,v0,07bb6f35aafaba0d65671f757d4dd1901c294df3
2018-12-24,spip-contrib-extensions/sjcycle,v1,d834b11bdfca1135e8442a0b905afba692458d1f
2019-08-06,spip-contrib-extensions/sjcycle,v2,63d9fac1c6b5435b8ab1ca64a3b69de40ed3746b
2024-07-05,spip-contrib-extensions/sjcycle,master,bec6f16d92847a6edc3a410244b053cb4ec37436
