prefix,full_path
outils_article,spip-contrib-extensions/outils_article
soyezcreateurs,spip-contrib-squelettes/soyezcreateurs
sarkaspip,spip-contrib-squelettes/sarkaspip
ressourcotheque,spip-contrib-squelettes/ressourcotheque
