date,full_path,name,sha
2017-05-08,spip-contrib-extensions/notation,v0.9.6,d0c298f7a1ee0673481f1c8d032b274dabb41211
2020-02-05,spip-contrib-extensions/notation,v2.4.5,d1baeb55727b97ac65a5fee63d88665625f97a61
2020-11-10,spip-contrib-extensions/notation,v2.4.6,d371c8743b102c47ac6725d7f37742c732b73abc
2021-09-13,spip-contrib-extensions/notation,v2.4.8,c5c0c5e3a096458de9f758dc161752465ed73b31
2021-09-17,spip-contrib-extensions/notation,v3.0.0,3340664685a85cfc0aa55e2e69691c11ec7eda2d
2022-05-03,spip-contrib-extensions/notation,v3.0.1,3bd9edea0c168fb9f6112ac5e72e479b2f117feb
2023-05-14,spip-contrib-extensions/notation,v3.0.2,800f507832754a05dcd5d6357f9d062b2fb007cf
2023-12-19,spip-contrib-extensions/notation,v3.0.3,d821f6598296ceeb79c8661953ef9f4f21625fd7
2023-12-19,spip-contrib-extensions/notation,v3.0.4,445ff509addc31cf9d24ee746a6a803072f3b345
2024-07-05,spip-contrib-extensions/notation,3.1.0,67f56e83ac06c4d90cf408e5419df29bff51f021
