date,full_path,name,sha
2023-08-12,spip-contrib-squelettes/archil,v1.0.0,4c2469e4b9e3f16a45539c8201c82b1a8b02978f
2023-08-12,spip-contrib-squelettes/archil,v1.0.1,0eccc6f91300c69660d45d6a19ed78f5e81793ee
2023-08-15,spip-contrib-squelettes/archil,v1.1.0,969a00ec0187388b74076bba9c2c69d54f8cee6c
2023-09-24,spip-contrib-squelettes/archil,v1.1.1,e228d5a0087c9a480931224c4321a0ca48557275
2023-09-26,spip-contrib-squelettes/archil,v1.1.2,a0a54579595402b73d097e9287814dfcbe70dadf
2023-09-26,spip-contrib-squelettes/archil,v1.1.3,153a7f71a538c2a92193c053b1402fb64cde9c8d
2024-03-31,spip-contrib-squelettes/archil,v1.1.7,ea3f951385108a7d4149815302c0ab6317a7dd29
2024-07-05,spip-contrib-squelettes/archil,1.2.0,22f957c0ee7ad338fe5d3dfe2f9d2d30b8dc84aa
2024-10-10,spip-contrib-squelettes/archil,v1.2.1,02b4ec6d151d63302a35be0addc095779cf017d0
