date,full_path,name,sha
2019-10-09,spip-contrib-extensions/frimousses,v1.5.1,918bb59f606252f58cec8ba9df4b610c47d69ef8
2019-10-09,spip-contrib-extensions/frimousses,v2.0.10,918bb59f606252f58cec8ba9df4b610c47d69ef8
2020-02-13,spip-contrib-extensions/frimousses,v2.0.7,6c7516a050e859e202233074bff47e008b9900e6
2021-07-12,spip-contrib-extensions/frimousses,v2.0.8,f3c9822df19f74d7bea61c3a9a57e228d74f029e
2022-05-11,spip-contrib-extensions/frimousses,v2.0.9,9f66767ab552e20b7ddc9b04765f06088b94b0e8
2023-06-18,spip-contrib-extensions/frimousses,v2.0.11,7696035ad2a1c99537bc17075cc9465424db3e56
2024-07-05,spip-contrib-extensions/frimousses,2.1.0,0101f44582a1b7d576bdf60c519645313019b774
