closed_issues_count,id,name,open_issues_count,open_merge_requests_count,project_id,sum
0,1417,duplicate,0,0,1861,0
0,1418,enhancement,2,0,1861,2
0,1419,help wanted,0,0,1861,0
0,1420,invalid,0,0,1861,0
0,1422,wontfix,0,0,1861,0
