date,full_path,name,sha
2017-09-25,spip-contrib-extensions/speedsyndic2,2,8fb30c7c609881795f3a527f3913fb0d87924a11
2018-06-15,spip-contrib-extensions/speedsyndic2,master,d3a5fb337cd376293c95582a50ca899d42d59e3f
