closed_issues_count,id,name,open_issues_count,open_merge_requests_count,project_id,sum
0,1610,doublon,0,0,2563,0
0,1611,good first issue,0,0,2563,0
0,1612,help wanted,0,0,2563,0
0,1613,invalide,0,0,2563,0
0,1615,refusé,0,0,2563,0
