date,full_path,name,sha
2015-03-05,seenthis/lien-court,spip2,034a4b3d63121ff9f5fc5c602285a3b7393cd80f
2020-04-05,seenthis/lien-court,v1,4de2bd69d11fa9e79bd27c8478bb3f9f88984a45
2024-03-04,seenthis/lien-court,2.0,8d0100bf937e8c97a90783a186882d6068398fdb
2024-08-01,seenthis/lien-court,master,e699375fed7e1e0927e133cdb44cecf304a7b65c
