opened,Codage,6,JamesRezo,2024-07-06,2473,MergeRequest
pushed new,Codage,6,JamesRezo,2024-07-06,2473,Project
pushed new,Codage,6,JamesRezo,2024-07-07,2473,Project
pushed to,Codage,6,JamesRezo,2024-07-07,2473,Project
accepted,Codage,18,b_b,2024-07-12,2473,MergeRequest
approved,Codage,18,b_b,2024-07-12,2473,MergeRequest
deleted,Codage,6,JamesRezo,2024-07-12,2473,Project
pushed new,Codage,6,JamesRezo,2024-07-12,2473,Project
pushed to,Codage,18,b_b,2024-07-12,2473,Project
closed,Papotage,6,JamesRezo,2024-08-01,2473,Issue
closed,Papotage,6,JamesRezo,2024-08-01,2473,Issue
opened,Papotage,6,JamesRezo,2024-08-01,2473,Issue
accepted,Codage,6,JamesRezo,2024-08-01,2473,MergeRequest
approved,Codage,18,b_b,2024-08-01,2473,MergeRequest
opened,Codage,6,JamesRezo,2024-08-01,2473,MergeRequest
deleted,Codage,6,JamesRezo,2024-08-01,2473,Project
pushed new,Codage,6,JamesRezo,2024-08-01,2473,Project
pushed to,Codage,6,JamesRezo,2024-08-01,2473,Project
