date,full_path,name,sha
2020-01-23,spip-contrib-squelettes/html5up_story,v1.0.2,0a0cc069705b01a94d06809e892b84ab1a975737
2022-09-05,spip-contrib-squelettes/html5up_story,v1.2.2,02513fb0c8fad30660d694678544d75f5e4dfb47
2022-09-05,spip-contrib-squelettes/html5up_story,v1.2.3,a67bff103904ee0cc259d1ecd723fd649cdfa2ce
2023-12-06,spip-contrib-squelettes/html5up_story,v1.2.4,c7f431d323d88623b1f86e72020fd274031f0efb
2024-01-12,spip-contrib-squelettes/html5up_story,v1.2.5,7ab77342f4395ee938d2544bbff9e9ca84f57ffc
2024-07-05,spip-contrib-squelettes/html5up_story,1.3.0,4d5b5da17be940f3ea9946e95c9a630bc44069e6
