date,full_path,name,sha
2024-05-16,spip-contrib-extensions/dsfr_raccourcis_typographiques,v0.5.0,99aa9c75f9a895e31ba619688300fe61f511a311
2024-05-17,spip-contrib-extensions/dsfr_raccourcis_typographiques,v0.6.0,15a4aa1552ea18eff438e66e94036b79517e89f9
2024-05-24,spip-contrib-extensions/dsfr_raccourcis_typographiques,v0.6.1,9f25e5136c3c4ad5284f58087253768d7e3f8e6c
2024-05-28,spip-contrib-extensions/dsfr_raccourcis_typographiques,v0.7.0,28bb43b9a78df3e426577f60af112b1159233aeb
2024-06-06,spip-contrib-extensions/dsfr_raccourcis_typographiques,v0.8.0,225451f16e3d3c33b50ebc661ec5b094ba861828
2024-07-05,spip-contrib-extensions/dsfr_raccourcis_typographiques,v0.9.0,59ee6ec59c2d45aed0befc737ba7a4008dbf7946
2024-07-19,spip-contrib-extensions/dsfr_raccourcis_typographiques,v0.9.1,61151d696d6e5bd235b15d7d85a090f5c24d1728
2024-10-04,spip-contrib-extensions/dsfr_raccourcis_typographiques,v0.9.2,ce5129ef2ac2ea70f43119ee241411df2ac4426b
