pushed new,Codage,6,JamesRezo,2024-07-05,2624,Project
pushed new,Codage,6,JamesRezo,2024-07-05,2624,Project
pushed to,Codage,6,JamesRezo,2024-07-05,2624,Project
pushed to,Codage,6,JamesRezo,2024-07-05,2624,Project
