closed_issues_count,id,name,open_issues_count,open_merge_requests_count,project_id,sum
0,1671,bug,0,0,2801,0
0,1672,duplicate,0,0,2801,0
0,1673,enhancement,0,0,2801,0
0,1674,help wanted,0,0,2801,0
0,1675,invalid,0,0,2801,0
0,1676,question,0,0,2801,0
0,1677,wontfix,0,0,2801,0
