date,full_path,name,sha
2022-04-22,spip-contrib-squelettes/suip,v0.1.2,4a118461f1ea308748c6f22250d0768e90d00807
2022-11-18,spip-contrib-squelettes/suip,v0.1.3,46ba09a23529a6be21a5289ebb38d8f8a30fcc9f
2024-07-05,spip-contrib-squelettes/suip,0.2.0,2cdca44ceae956e0aad4b23ac8de16606f987ec6
