date,full_path,name,sha
2019-10-04,spip-contrib-extensions/messagerie,v3.1.9,f204e9404734831774f5416e89f62de05ed9ce0f
2020-02-06,spip-contrib-extensions/messagerie,v2.0.1,114c3a816178ea0b49b5b4d280128c24d5bb1b27
2021-11-29,spip-contrib-extensions/messagerie,v3.2.3,928c5d37d54d754ae5d1dbe9e4a3e706eb3557d1
2022-09-05,spip-contrib-extensions/messagerie,v4.0.0,4dff2b5eac8dcd1a4beaaeb358408b45ff8ac9b8
2024-07-09,spip-contrib-extensions/messagerie,v4.0.1,b22be8b943ed6a2728af49e5a7d7647d95255740
