date,full_path,name,sha
2020-03-28,spip-contrib-extensions/citations_bien_balisees,v0.1.6,7e49f433405ea323ddd0970c5fb817b11a1349f0
2021-07-14,spip-contrib-extensions/citations_bien_balisees,v0.1.7,f03db4a21c236cede5eafe164a68378ee4d28d61
2022-04-23,spip-contrib-extensions/citations_bien_balisees,v0.1.8,2fd56b2288b909cc90fd914dca6fe4729bc0c574
2023-05-12,spip-contrib-extensions/citations_bien_balisees,v0.1.9,6a75b4eb1c5be52fae95e450243521951ca802a0
2024-07-05,spip-contrib-extensions/citations_bien_balisees,0.2.0,031bff6a9b76855f374bce8948effcce6dcd21db
