pushed new,Codage,20,cam.lafit,2025-01-09,2235,Project
pushed to,Codage,20,cam.lafit,2025-01-09,2235,Project
pushed to,Codage,20,cam.lafit,2025-01-09,2235,Project
pushed to,Codage,20,cam.lafit,2025-01-09,2235,Project
opened,Codage,20,cam.lafit,2025-01-10,2235,MergeRequest
commented on,Papotage,20,cam.lafit,2025-01-10,2235,Note
commented on,Papotage,14,rastapopoulos,2025-02-10,2235,DiscussionNote
commented on,Papotage,17,nicod,2025-02-10,2235,DiscussionNote
commented on,Papotage,206,pierretux,2025-02-10,2235,DiscussionNote
opened,Papotage,206,pierretux,2025-02-10,2235,Issue
opened,Codage,206,pierretux,2025-02-10,2235,MergeRequest
commented on,Papotage,17,nicod,2025-02-10,2235,Note
pushed new,Codage,206,pierretux,2025-02-10,2235,Project
pushed to,Codage,206,pierretux,2025-02-10,2235,Project
commented on,Papotage,14,rastapopoulos,2025-02-11,2235,Note
commented on,Papotage,14,rastapopoulos,2025-02-12,2235,DiscussionNote
commented on,Papotage,17,nicod,2025-02-12,2235,DiscussionNote
commented on,Papotage,206,pierretux,2025-02-12,2235,DiscussionNote
commented on,Papotage,206,pierretux,2025-02-12,2235,DiscussionNote
commented on,Papotage,14,rastapopoulos,2025-02-12,2235,Note
pushed to,Codage,206,pierretux,2025-02-12,2235,Project
