id,iid,labels,milestone_id,project_id
29333,5,,,2235
29335,3,,,2235
29336,2,,,2235
29337,1,,,2235
29315,32,,,2235
29316,31,,,2235
29319,26,,,2235
29320,25,,,2235
29321,24,,,2235
29323,19,,,2235
29325,17,,,2235
29330,10,,,2235
31239,34,documentation,,2235
31735,35,,,2235
32445,36,,,2235
