created,Codage,480,equipement,2024-11-18,3368,Project
pushed new,Codage,480,equipement,2024-11-18,3368,Project
pushed new,Codage,480,equipement,2024-11-18,3368,Project
pushed to,Codage,480,equipement,2024-11-18,3368,Project
pushed to,Codage,480,equipement,2024-11-18,3368,Project
pushed to,Codage,480,equipement,2024-11-27,3368,Project
