created,Codage,4,maieul,2024-09-06,3317,Project
deleted,Codage,4,maieul,2024-09-06,3317,Project
pushed new,Codage,4,maieul,2024-09-06,3317,Project
pushed new,Codage,4,maieul,2024-09-06,3317,Project
pushed new,Codage,4,maieul,2024-09-06,3317,Project
pushed to,Codage,4,maieul,2024-09-06,3317,Project
pushed to,Codage,4,maieul,2024-09-06,3317,Project
pushed to,Codage,68,erational,2024-09-12,3317,Project
pushed to,Codage,68,erational,2024-09-12,3317,Project
