date,full_path,name,sha
2019-03-11,spip-contrib-extensions/roles_auteurs,v1,d9ea49af69730c5cadcd540f9c4323b124f8f0c0
2024-07-05,spip-contrib-extensions/roles_auteurs,master,6d796e24b934eac1dc8246b7555bffbcfb50e430
