date,full_path,name,sha
2020-03-24,spip-contrib-extensions/location_objets,v1.5.8,233b36d877c4d23341fb4fdf88895a0fd021c3db
2021-03-28,spip-contrib-extensions/location_objets,v1.5.9,c737759faf3a14ec685291f66badb4b616245c96
2021-05-15,spip-contrib-extensions/location_objets,v1.6.0,d30382ca778ee33b7c7cb8d784aba1b4f2a59f54
2021-11-04,spip-contrib-extensions/location_objets,v1.6.1,43b717476349e319db0a2c4948efc605d355dc01
2023-01-30,spip-contrib-extensions/location_objets,v1.6.2,e9c8c63d828c8790316762818a2b1ec05c4f309c
