date,full_path,name,sha
2019-11-27,spip-contrib-extensions/chatbox,v1.0.6,2250822258365c5e2e7a307ccd81f4cabca0dcf2
2021-11-08,spip-contrib-extensions/chatbox,v1.0.7,4f2293a9fa197c241d3d59bfae64af625bae2000
2021-11-23,spip-contrib-extensions/chatbox,v1.1.1,4691fc1f1d1dbfbdb9942cbb13b7edcdb9dda904
