date,full_path,name,sha
2017-04-02,spip-contrib-extensions/sociaux,v1,8d7b627f0e4ca57f1af9260036138327476ceed9
2025-02-04,spip-contrib-extensions/sociaux,master,0e0cfee739ea3d691aade46bbd09ee803db81198
