commented on,Papotage,459,Graphie,2024-11-02,2505,Note
commented on,Papotage,68,erational,2024-11-03,2505,Note
pushed new,Codage,68,erational,2024-11-03,2505,Project
pushed to,Codage,68,erational,2024-11-03,2505,Project
commented on,Papotage,459,Graphie,2024-11-04,2505,Note
opened,Papotage,1319,Dybeweb,2024-11-25,2505,Issue
commented on,Papotage,459,Graphie,2024-11-26,2505,DiscussionNote
commented on,Papotage,459,Graphie,2024-11-26,2505,DiscussionNote
opened,Codage,459,Graphie,2024-11-26,2505,MergeRequest
commented on,Papotage,442,Yohooo,2024-11-26,2505,Note
commented on,Papotage,459,Graphie,2024-11-26,2505,Note
pushed new,Codage,459,Graphie,2024-11-26,2505,Project
commented on,Papotage,1319,Dybeweb,2024-11-27,2505,Note
commented on,Papotage,1319,Dybeweb,2024-11-27,2505,Note
commented on,Papotage,5,Bennyb,2024-11-27,2505,Note
commented on,Papotage,507,Plumf,2024-12-02,2505,Note
closed,Papotage,68,erational,2025-02-04,2505,Issue
closed,Papotage,68,erational,2025-02-04,2505,Issue
accepted,Codage,68,erational,2025-02-04,2505,MergeRequest
commented on,Papotage,459,Graphie,2025-02-04,2505,Note
deleted,Codage,459,Graphie,2025-02-04,2505,Project
deleted,Codage,68,erational,2025-02-04,2505,Project
pushed new,Codage,68,erational,2025-02-04,2505,Project
pushed new,Codage,68,erational,2025-02-04,2505,Project
pushed to,Codage,68,erational,2025-02-04,2505,Project
pushed to,Codage,68,erational,2025-02-04,2505,Project
pushed to,Codage,68,erational,2025-02-04,2505,Project
pushed to,Codage,68,erational,2025-02-04,2505,Project
