date,full_path,name,sha
2018-03-06,spip-contrib-extensions/metasplus,v0,3ede9f20b417b4e6aeabdec214c5571eab8a8a90
2018-03-09,spip-contrib-extensions/metasplus,v1,3d8f16b74fe782c7dc38a97f1e22f2e4297e4967
2021-05-28,spip-contrib-extensions/metasplus,compatibilite-linkedin-patch-1,9e71974142b8e60e9cd51e93e8a5c121fc777728
2021-12-24,spip-contrib-extensions/metasplus,gh-7714a75b/14/unknown/fix/titre_auto,ef6c37014fc01f40ae98907ac54f6a0dd80d6179
2024-11-08,spip-contrib-extensions/metasplus,master,14b38bcc41fbfe01a907fa5933e7de0975c35a43
2024-11-12,spip-contrib-extensions/metasplus,issue_31__recadrage_personnalise_bg,cfa302f4e188c194d1323e46b3a3d7ff9c1d3928
