date,full_path,name,sha
2020-01-26,spip-contrib-extensions/mailcrypt,v2.4.5,11eb75b245a2792ffc49e987affe5127f9a3a94f
2021-05-06,spip-contrib-extensions/mailcrypt,v2.4.6,d7f8311bf1a537d468c3769fba3d5a33e93cf33d
2022-05-17,spip-contrib-extensions/mailcrypt,v2.4.7,a76e37b8fa5036a58716b94e85ea8bcc4028134e
2023-05-31,spip-contrib-extensions/mailcrypt,v3.0.0,c257935ec44c2deb5d169bf81fe8cb881af6f602
2024-07-05,spip-contrib-extensions/mailcrypt,3.1.0,59622a153a2d7cfa2fd9b43d9794b095efaa952b
