date,full_path,name,sha
2017-11-04,spip-contrib-extensions/introduction_distinguante,issue_3,a795bb25e0017c2e1d496f3dac3e61de3d3dc384
2017-11-04,spip-contrib-extensions/introduction_distinguante,v0,a795bb25e0017c2e1d496f3dac3e61de3d3dc384
2022-02-21,spip-contrib-extensions/introduction_distinguante,v1,5b48d41e448eceb9988627887d8c8cfd600a2a90
2024-07-05,spip-contrib-extensions/introduction_distinguante,master,95db00d79340971a399d40743af574b8306c6b53
