date,full_path,name,sha
2017-11-04,spip-contrib-extensions/introduction_distinguante,v0.1.3,a795bb25e0017c2e1d496f3dac3e61de3d3dc384
2022-02-21,spip-contrib-extensions/introduction_distinguante,v1.0.0,5b48d41e448eceb9988627887d8c8cfd600a2a90
2023-06-10,spip-contrib-extensions/introduction_distinguante,v2.0.0,4560f25461750addf898dfeb9eafc16b103f5b06
2024-07-05,spip-contrib-extensions/introduction_distinguante,2.1.0,95db00d79340971a399d40743af574b8306c6b53
