date,full_path,name,sha
2020-02-06,spip-contrib-extensions/facd,v0.4.5,48b770679ce2a6594329c9c14c20f11a590ad7fe
2023-07-20,spip-contrib-extensions/facd,v0.4.6,2d758e9673a2f2e43a4e44b450b394be5f2551d9
2024-07-05,spip-contrib-extensions/facd,0.5.0,2ed2bad618ab9f0b95c3e66d4460050f35e95135
