date,full_path,name,sha
2024-06-20,spip-contrib-extensions/coloration_syntaxique,v0.7.0,e0a1d3194f270b052b1604cc54df9a8432108411
2024-06-24,spip-contrib-extensions/coloration_syntaxique,v0.8.0,cf1dc58fe834d17b9919dc63829bff1b62f44e03
2024-06-25,spip-contrib-extensions/coloration_syntaxique,v0.8.1,92444ce5376e8ef69f6f627e54fb4ccce857bf97
2024-07-19,spip-contrib-extensions/coloration_syntaxique,v0.9.0,73040cc2430fd8a9856adc06c3fab9bd0ad5427f
2024-09-02,spip-contrib-extensions/coloration_syntaxique,v0.9.1,426a75cc12ff45087087fc29b5ccfd3faee4849f
2024-09-23,spip-contrib-extensions/coloration_syntaxique,v1.0.0,24b02a6c33371c7c086adca862a2ad1486bf97a3
2024-09-24,spip-contrib-extensions/coloration_syntaxique,v1.1.0,eb77667f4d7006c64369d41243b7c7748cff4793
