date,full_path,name,sha
2017-04-02,spip-contrib-extensions/numerotation,v0.1.0,1b9afc492ebca12960c1f22eab9c7ff5e85b04e8
2021-07-07,spip-contrib-extensions/numerotation,v3.0.1,1f321ed05d17e6d2665a9cb78492df95eebc0715
2022-05-03,spip-contrib-extensions/numerotation,v3.0.2,f9d5ca962c7883b2cd983e995038d2c63dc0f7db
2023-06-27,spip-contrib-extensions/numerotation,v3.0.3,14321f963633512e67d477667a5782725cdabd8b
2024-07-05,spip-contrib-extensions/numerotation,3.1.0,1e8379a777203801d8cb3112b624bdf5ebcb528b
