pushed new,Codage,6,JamesRezo,2024-07-13,2618,Project
pushed to,Codage,6,JamesRezo,2024-07-13,2618,Project
deleted,Codage,9,cerdic,2024-07-29,2618,Project
pushed to,Codage,9,cerdic,2024-07-29,2618,Project
