date,full_path,name,sha
2017-05-08,spip-contrib-extensions/videos,v0.11.1,5abcfaaab09c52941f6b915027b1567a5e9e97ab
2017-05-08,spip-contrib-extensions/videos,videos_0_9_8,8b455b6edbaad20b2acc5e9203e1242323ea7885
2020-02-05,spip-contrib-extensions/videos,v0.12.9,790c28cdc79d48a540efe7aa5a37e00e58e51cc3
