opened,Papotage,43,RealET,2024-06-24,2582,Issue
accepted,Codage,43,RealET,2024-06-24,2582,MergeRequest
deleted,Codage,43,RealET,2024-06-24,2582,Project
pushed new,Codage,43,RealET,2024-06-24,2582,Project
pushed to,Codage,43,RealET,2024-06-24,2582,Project
pushed to,Codage,43,RealET,2024-06-24,2582,Project
