date,full_path,name,sha
2019-08-06,spip-contrib-extensions/info_spip,0.7.3,a08f99adfb5a77b88f3ef028e96bb5e0bcbaf844
2019-08-06,spip-contrib-extensions/info_spip,0.9.5,efff5098922a7cd20433a757b40e3ae10a8d83f3
2019-08-06,spip-contrib-extensions/info_spip,0.9.6,b655ef161ebfcbac7dec422a113caa3a54e7efe1
2019-08-31,spip-contrib-extensions/info_spip,v0.11.1,d4e4c5678f616ec6f262c15ab57dd87ca22c8bd1
2021-08-12,spip-contrib-extensions/info_spip,v0.20.0,0edff921b45c9f5be44cddb1213e6c53877554a9
2022-12-29,spip-contrib-extensions/info_spip,v0.20.1,eae5ab340fa4f753dad17c9c8f9ba04c8c93ad9f
2023-11-29,spip-contrib-extensions/info_spip,v0.21.0,cfe3ba668f87695fbdcb0a5aeb8aa8cf364bf015
2024-07-05,spip-contrib-extensions/info_spip,0.22.0,2de01e97e8ae65cb958ed0101529e8b83aa4e222
