prefix,full_path
zless,spip-contrib-extensions/zless
bootstrap,spip-contrib-extensions/bootstrap2
bootstrap3,spip-contrib-extensions/bootstrap3
spipr_doc,spip-contrib-squelettes/spipr-doc
spipr_educ,spip-contrib-squelettes/spipr-educ
