date,full_path,name,sha
2018-12-19,spip-contrib-extensions/formidable,v0,82131067bef61b98515e866090f7bd131296825d
2019-08-06,spip-contrib-extensions/formidable,v1,37709ec3f8667295b34dd0fb69cb31f1ceabf185
2019-08-31,spip-contrib-extensions/formidable,v2,fe0375ef4904a4edce7cbba4031b8937eb199f63
2020-10-15,spip-contrib-extensions/formidable,check_reponse,55ab07047aa581bd23bc8943ecc99cda021dbd40
2021-05-26,spip-contrib-extensions/formidable,v3,cdf8e6979faf8731f0ccb5d4c91924382b9a8a4d
2022-02-06,spip-contrib-extensions/formidable,imposer_un_traitement,d85122fe16b8d3e097f3c8c59180a6af02370b0b
2022-02-13,spip-contrib-extensions/formidable,no_bouton,05219f1cc888d0c6c50fd7413eefde2f7fafe276
2022-07-20,spip-contrib-extensions/formidable,v4,9e16aeb43b83163a4f4b6fa9c4c13f5b182d336a
2023-10-01,spip-contrib-extensions/formidable,issue45_date_effacement,9f8da0797e5eafa4891e0ebd3ca838c2fe626f28
2024-04-17,spip-contrib-extensions/formidable,dev/issues_131_133_boites_liaisons,6a78556b6a2538a734fd4edc8c1df2cc76c2b745
2024-06-05,spip-contrib-extensions/formidable,issue_251_erreur_formulaires_lies,9938e1632ea0216cfd365ec132b552fdf677af95
2024-10-06,spip-contrib-extensions/formidable,formidable_request_ou_base,85d5a6e91539052901c20f31c3faac693bbbf33f
2025-02-12,spip-contrib-extensions/formidable,master,5456fe1f8ca290be57e45b1fe9e2ecb45914d76e
