prefix,full_path
disposition,spip-contrib-extensions/disposition
epilogue,spip-contrib-extensions/epilogue
spipr_dane,spip-contrib-squelettes/spipr-dane
ressourcotheque,spip-contrib-squelettes/ressourcotheque
spipr_doc,spip-contrib-squelettes/spipr-doc
spipr_educ,spip-contrib-squelettes/spipr-educ
sarkaspipr,spip-contrib-squelettes/sarkaspipr
