date,full_path,name,sha
2020-03-23,spip-contrib-extensions/rang,v1.0.15,3328c203a550dbb7be111536363f3a8764a8b106
2020-06-08,spip-contrib-extensions/rang,v1.0.16,64cd631cd55aa871295df4c4741c291ca90fac3d
2020-06-28,spip-contrib-extensions/rang,v1.0.17,7d4ad3e11d521ee363c4a7c1eddcb9352e65ba3f
2020-11-21,spip-contrib-extensions/rang,v1.0.18,79827777605b984b025d772ca15f9a81d5c28621
2021-06-22,spip-contrib-extensions/rang,v2.0.0,2c184714ec0b19f7189b8f6ecc5bd64892d5b1ac
2021-07-23,spip-contrib-extensions/rang,v2.0.1,92f3fac9197cb06cf5143c01d50cf50b073801c5
2021-07-28,spip-contrib-extensions/rang,v2.0.2,6581d916e5e10d14f0890ef3eafe57b5ea58f2ec
2021-09-29,spip-contrib-extensions/rang,v2.0.3,acd1b4e87095e8b30405b2f38b85f66ade496fe2
2021-11-10,spip-contrib-extensions/rang,v2.0.4,b12dfcc9906802520125ff03a9eddd909325ddfa
2022-03-24,spip-contrib-extensions/rang,v2.0.5,c752b640c15863a78ae808740485e0a1e2bbbcdb
2022-05-15,spip-contrib-extensions/rang,v2.0.6,c594ed1bdb177d786bc4885599a20d7f8a4c7f00
2023-08-20,spip-contrib-extensions/rang,v2.0.7,f9275941a04d68fccb8fcd45b557c78ee6d06cdb
2024-02-21,spip-contrib-extensions/rang,v2.0.8,0d6332cf3e826b4ee3025177a0751d4c79921337
2024-07-05,spip-contrib-extensions/rang,2.1.0,47aa18bcdf23e405fe34f50864070ccb01f382ef
