date,full_path,name,sha
2020-04-16,spip-galaxie/contrib.spip.net,gestion_archives,173282ce6d61d369f4dd6a2c49b2b1bae8459e19
2024-04-28,spip-galaxie/contrib.spip.net,issue_4737,e7a103c1151e0bcc0b498ca06a1b3edfeac5554e
2025-02-14,spip-galaxie/contrib.spip.net,master,cd98f589542e422e4d5bcfae4f58c1f54b28c75e
