created,Codage,480,equipement,2024-12-18,3422,Project
pushed new,Codage,480,equipement,2024-12-18,3422,Project
pushed new,Codage,480,equipement,2024-12-18,3422,Project
pushed new,Codage,480,equipement,2025-01-29,3422,Project
pushed to,Codage,480,equipement,2025-01-29,3422,Project
pushed new,Codage,480,equipement,2025-02-07,3422,Project
pushed to,Codage,480,equipement,2025-02-07,3422,Project
pushed new,Codage,480,equipement,2025-02-14,3422,Project
pushed to,Codage,480,equipement,2025-02-14,3422,Project
