date,full_path,name,sha
2017-10-24,spip-contrib-themes/dist_v1_waz,v0.0.9,a8470c05ede72d1dd80b3b3c2ebf07adcc8d78b0
2022-04-19,spip-contrib-themes/dist_v1_waz,v0.0.10,b72d9aa5a3a693788a0e5e372fe0db83691c8b70
2023-06-10,spip-contrib-themes/dist_v1_waz,v0.0.11,43fe46c243971d072c19ebcb5f2755c9250ba8cd
2024-07-05,spip-contrib-themes/dist_v1_waz,0.1.0,86b3542d01ee56d8769562739c6953857216ca02
