date,full_path,name,sha
2017-10-21,spip-contrib-themes/spipr_v1_readable,v2.2.6,2b8ef3e75d42796892bffdca6f824c9eb2211595
2024-07-05,spip-contrib-themes/spipr_v1_readable,2.3.0,6d798dcb6e9de61b730d49699a2e6b9d4b261eb0
