created,Codage,6,JamesRezo,2024-12-09,3415,Project
pushed new,Codage,6,JamesRezo,2024-12-09,3415,Project
pushed new,Codage,6,JamesRezo,2024-12-14,3415,Project
pushed to,Codage,6,JamesRezo,2024-12-14,3415,Project
pushed to,Codage,6,JamesRezo,2024-12-14,3415,Project
