date,full_path,name,sha
2021-04-18,spip-contrib-extensions/taxonomie,v0.5.0,09a51c95e59423c78314293c97483852e48af35f
2022-03-12,spip-contrib-extensions/taxonomie,v1.0.0,9afd8331e13570996a764ada8137b5b0a230b794
2022-06-04,spip-contrib-extensions/taxonomie,v1.0.1,ffbc7a7ec70ad7f4ce7156726167eb8a3986f15f
2023-06-03,spip-contrib-extensions/taxonomie,v1.0.2,66735656c7e8a4fff1f396d8df5be217225a4d32
2024-04-01,spip-contrib-extensions/taxonomie,v1.0.3,0213d9af0e00b4a47a8b188f2698d31b450063c1
2024-07-05,spip-contrib-extensions/taxonomie,1.1.0,a23265c605df2c24bfe79021ab7927aa22e94eee
2025-02-15,spip-contrib-extensions/taxonomie,v1.2.0,f30f59adcaa8ee3fda19940052fa0484b088351c
