date,full_path,name,sha
2019-12-05,spip-contrib-extensions/comments,v1,8c8aec6148e414d588795015acda89e06ffced02
2019-12-05,spip-contrib-extensions/comments,v2,e5e0687da69fb5dcd306165983e1d323f7754f59
2021-05-26,spip-contrib-extensions/comments,v3,66f059fa8ab2345eecf04c9d13ebc782352bdcf6
2024-01-06,spip-contrib-extensions/comments,gh-e7b87f60/12/unknown/master,a5b2b19bfd407947e43d5ec10f6879468490bca0
2025-01-29,spip-contrib-extensions/comments,master,acb30329ba4edf5cccc9657700fa9cfd17557ae7
