date,full_path,name,sha
2019-12-05,spip-contrib-extensions/comments,v2.1.17,e5e0687da69fb5dcd306165983e1d323f7754f59
2020-03-26,spip-contrib-extensions/comments,v3.5.0,f410017feb4516e40d4a4a8141f0d067ac7c5809
2021-05-22,spip-contrib-extensions/comments,v3.5.1,a44fa23e463d4502ed373f8a79f0d676e374e2f5
2021-08-20,spip-contrib-extensions/comments,v4.0.0,eb2210e3201a90ea192c2335fb64104ce0328eab
2022-05-12,spip-contrib-extensions/comments,v4.0.1,f965979fcb846f9e16ecb6fad66f207eb5c44a00
2023-03-08,spip-contrib-extensions/comments,v4.0.2,1209d8e4b63acda506d2551e8d7defcf06449426
2023-12-23,spip-contrib-extensions/comments,v4.0.3,e7b87f60e3b1ab118eb968c30b289a63bf911c83
2024-07-05,spip-contrib-extensions/comments,4.1.0,5acf5e85d7bf17e16508c2c9797a628e3982f7c8
2024-09-30,spip-contrib-extensions/comments,v4.1.2,5599a931b27e6fd672e87a1290ccb70fa9e7ea1e
