date,full_path,name,sha
2020-01-25,spip-contrib-extensions/basicone,v0.1.7,9c1664595c48272a35ffcb22967bf6ea9c3eb4f9
2020-11-02,spip-contrib-extensions/basicone,v1.0.0,f75e1a780f2956dfbb876424723da83e745be022
2020-11-02,spip-contrib-extensions/basicone,v1.0.1,1a5a5f3ad28221b28fa213d801dba9b3e8701f97
2020-11-02,spip-contrib-extensions/basicone,v1.0.2,aca21549d436caec0cc1eb5a9bc5b86e073e99a3
2021-02-04,spip-contrib-extensions/basicone,v1.0.3,aa439af19ce99b91120f66e904a0fc7ba9b4906d
2021-06-15,spip-contrib-extensions/basicone,v2,f26a9e3427f0a022f8321917f4938f752659e471
2021-06-15,spip-contrib-extensions/basicone,v2.0.1,3e9ab2c38dde8fb59bc13f78f5c45826e2d848bf
2024-07-13,spip-contrib-extensions/basicone,2.1.0,8c1d6e438e7d6e2a2bc72e2459c2c3b26f72edd6
