date,full_path,name,sha
2017-04-10,spip-contrib-extensions/formulaire_upload,v1,dcd5acb650b3c58663cd3dec29ad533dc4a02b23
2024-07-13,spip-contrib-extensions/formulaire_upload,master,dffce2f1c8558b592441eece7b239cb696b3d06b
