id,iid,labels,milestone_id,project_id
23437,4869,,,1695
23438,4868,amélioration,1466,1695
23439,4866,bug,1466,1695
23444,4848,amélioration,1466,1695
23445,4847,amélioration,1466,1695
23449,4842,amélioration,1466,1695
23463,4284,amélioration,1471,1695
23464,4283,amélioration,1466,1695
31160,4871,amélioration,,1695
31165,4872,amélioration,,1695
31166,4873,amélioration,,1695
31848,4875,bug,1471,1695
32436,4878,,,1695
