due_date,id,iid,project_id,start_date,state,title
,1463,311,1695,,closed,spip-3.2
,1464,312,1695,,closed,spip-4.0
2025-01-23,1465,313,1695,,active,sites-4.0
2025-01-23,1466,314,1695,,active,sites-4.1
2025-07-21,1471,319,1695,,active,sites-4.2
,1476,491,1695,,closed,< spip-3.2
2025-01-23,1633,492,1695,,active,sites-4.3
2025-01-23,1634,493,1695,,active,sites-4.4
