date,full_path,name,sha
2021-09-03,spip-contrib-extensions/notifications_avancees,v0,479f577e04cf379d8f160ab1d2eeba6ce46facb9
2022-06-21,spip-contrib-extensions/notifications_avancees,issue_10,6dcd36c780291ca7981f1a1f4763a4384deafb38
2023-11-17,spip-contrib-extensions/notifications_avancees,issue_14_suite,17847e3884c7884140a130e32c1195023afd3e6a
2024-07-05,spip-contrib-extensions/notifications_avancees,master,6c5cc40eda74839893ea4c8a7d1f5fb2d1ecb816
