date,full_path,name,sha
2023-06-10,spip-contrib-extensions/select2,v1,cfcfaa982e0500ea6d4b61e1fbc43176b8e5c7f2
2024-04-25,spip-contrib-extensions/select2,dev/issue_14_template_function,ebf9db466693a968cc01d841c18a12ff4752b7fc
2024-07-17,spip-contrib-extensions/select2,master,8dc5b8f5be3b48a32eb01827c19d3959eeb47621
2024-07-18,spip-contrib-extensions/select2,templateResult,a53924c73cb5093bc3ff17cc2d97ce58f134068a
2024-11-28,spip-contrib-extensions/select2,spip_issue_5566_esm,000937ab2cfe17c789f4e8331a4a9fbcd5492a76
