date,full_path,name,sha
2019-10-15,spip-contrib-extensions/select2,v1.0.0,45c1f8950f4beed5fc2d2d0d3b72de41f06de3ab
2019-10-22,spip-contrib-extensions/select2,v1.1.0,d991f3c3c3ef2562f791d63c1a755e64fa8121e1
2020-08-27,spip-contrib-extensions/select2,v1.1.1,b7b0dd441ff10c6a70509a10567782edc642d82f
2021-05-28,spip-contrib-extensions/select2,v1.1.2,6d1c064bcce2ffac04dfdd077b2d1ff4d322cf81
2022-05-04,spip-contrib-extensions/select2,v1.1.3,75527b416808c0b03e62d0b926d9b8b57fb86925
2022-06-07,spip-contrib-extensions/select2,v1.1.4,7f0330cc040b485d10d3bc55f6bd7ec476be836a
2023-03-18,spip-contrib-extensions/select2,v1.1.7,73608b82ff190095dbbb183319574b1042b75ba6
2023-04-18,spip-contrib-extensions/select2,v1.2.0,6c8c4c0953cb025511f39d76f998e5af40dee4c9
2023-05-22,spip-contrib-extensions/select2,2.0.0,a39405044f645307bd8585e954f3fc5d435d6fb6
2023-06-09,spip-contrib-extensions/select2,v1.2.1,a7f75f52f8c105790674a215cc7485f566f8f28f
2023-06-10,spip-contrib-extensions/select2,v1.2.2,cfcfaa982e0500ea6d4b61e1fbc43176b8e5c7f2
2024-07-05,spip-contrib-extensions/select2,2.1.0,9e11613b0079f8490f1364fd19fe2ab463d6ef33
