date,full_path,name,sha
2020-03-04,spip-contrib-extensions/pensebetes,v1.0.9,70759439dc43131340dc706b23888d2e1b437a32
2020-04-21,spip-contrib-extensions/pensebetes,v1.0.10,01821a100583617ce27370dd1adf9c44a38e4ab0
2020-10-27,spip-contrib-extensions/pensebetes,v1.0.11,ff1c0f0276516abb71fa37016155680c61baa6ca
2020-12-05,spip-contrib-extensions/pensebetes,v1.1.0,b712a3a4c6478fd519e6e14c4db950112cb4dbab
2020-12-06,spip-contrib-extensions/pensebetes,v1.1.1,83c7e3aa1cd9176d4c52d542c90908dd1e4edaf0
2020-12-06,spip-contrib-extensions/pensebetes,v1.1.2,2215f438e38ae452e421677175860c3f01a2f465
2020-12-06,spip-contrib-extensions/pensebetes,v1.1.3,06a80614945d27699a6aa85abd4214e1c06d3b36
2021-03-21,spip-contrib-extensions/pensebetes,v1.1.4,a4dcc0a5b9dd66166e27f9dafca9b557168e643c
2021-04-05,spip-contrib-extensions/pensebetes,v1.1.5,0ea4313c8c0bdb3985bb56dc9b03fa6ab4624f25
2021-04-25,spip-contrib-extensions/pensebetes,v1.1.6,7b0f1bc53e61e9cfcd33569f1797538248318f35
2021-07-12,spip-contrib-extensions/pensebetes,v2.0.0,f47668aebe8727cb96e225b3860613dc3d699df4
2021-07-24,spip-contrib-extensions/pensebetes,v2.0.1,5748cf01e3a1fa34d9fad38d6384083a30e981e4
2022-04-16,spip-contrib-extensions/pensebetes,v2.0.2,a55f5559feea84c7050cb864b32b3b0e3e42bba9
2022-04-19,spip-contrib-extensions/pensebetes,v2.0.3,5b7c373173ce8e6d84dece7ab921cd7b6d04440e
2022-05-19,spip-contrib-extensions/pensebetes,v2.0.4,6ced0af564770ad20e42da0b98118af40e78f9a5
2022-06-19,spip-contrib-extensions/pensebetes,v2.0.5,4b7a1a95b272c542de208d7db7957b3a6ad0db47
2022-11-01,spip-contrib-extensions/pensebetes,v2.0.6,b47fcf735d3bc889066b4b0aee14a88b24f5d53c
2023-03-03,spip-contrib-extensions/pensebetes,v2.0.7,621699da7fe7e31df1e66586e50bdb20994383af
2023-03-04,spip-contrib-extensions/pensebetes,v2.0.8,03032c397fbd91478199a32b0a866afb84b6bed8
2023-05-13,spip-contrib-extensions/pensebetes,v2.1.0,b759c45ca7e9867f81568f83a7cc2a28c3409112
2023-05-13,spip-contrib-extensions/pensebetes,v2.1.1,de153abe3d46fc66459653556aabb6f9278c89ff
2023-05-13,spip-contrib-extensions/pensebetes,v2.1.2,f45c7075e667619785f453ff95a9550a40692d64
2023-05-13,spip-contrib-extensions/pensebetes,v2.1.3,397b1bbce06dd2801e158ea7b99eb1a1090e5906
2023-05-14,spip-contrib-extensions/pensebetes,v2.2.0,2470770e2e71660131ba5a281829a0d83a75e2f4
2024-07-05,spip-contrib-extensions/pensebetes,2.3.0,54521bb00daa30f9766e8e6c03384b1071253088
