date,full_path,name,sha
2017-03-26,spip-contrib-themes/dist_v1_roubaix,v1.0.3,7798b5727e673b185dbadd7b1f206ceb147486c8
2022-04-19,spip-contrib-themes/dist_v1_roubaix,v1.0.4,a82494e877701e22a1ea668020709f48816b91db
2023-06-10,spip-contrib-themes/dist_v1_roubaix,v1.0.5,495d054740c142225f3282a72fd14163435061e1
2024-07-05,spip-contrib-themes/dist_v1_roubaix,1.1.0,5280552ea6f76cdb024cba112ea02855a09a4512
