date,full_path,name,sha
2018-12-24,spip-contrib-extensions/coordonnees,v1t,a0a0b87ca5fc552fbda22491f4056a01830d0ab3
2019-10-08,spip-contrib-extensions/coordonnees,v1.4,e5b4f9dca330ba60f3d37cadf7bac14424d220ea
2020-02-06,spip-contrib-extensions/coordonnees,v2,2c4f6e3f5b386dec9bc4df3d7f4a81ed3376d5c8
2020-10-09,spip-contrib-extensions/coordonnees,v2.5,5713e1c1e20392a11fdd8cfec5d22a6b47000841
2021-10-04,spip-contrib-extensions/coordonnees,issue10_verifs_desactivables,eb77894b749fc680c97f063d68689d72574dc1c3
2023-03-24,spip-contrib-extensions/coordonnees,dev/issue_21_sites,ce43210be0695519d04519d3e03220c22c833bcb
2023-05-09,spip-contrib-extensions/coordonnees,v3,ca992124785124db37ac100ee98c27bbbdc6abbc
2024-08-15,spip-contrib-extensions/coordonnees,master,37303f12256fecae8301ded1ca66f172881e781b
