closed_issues_count,id,name,open_issues_count,open_merge_requests_count,project_id,sum
0,1424,duplicate,0,0,1875,0
1,1425,enhancement,2,0,1875,3
0,1426,help wanted,0,0,1875,0
0,1427,invalid,0,0,1875,0
0,1429,wontfix,0,0,1875,0
