commented on,Papotage,18,b_b,2024-10-14,1694,DiffNote
opened,Papotage,6,JamesRezo,2024-10-14,1694,Issue
approved,Codage,18,b_b,2024-10-14,1694,MergeRequest
opened,Codage,6,JamesRezo,2024-10-14,1694,MergeRequest
pushed new,Codage,6,JamesRezo,2024-10-14,1694,Project
accepted,Codage,6,JamesRezo,2024-10-15,1694,MergeRequest
deleted,Codage,6,JamesRezo,2024-10-15,1694,Project
pushed to,Codage,6,JamesRezo,2024-10-15,1694,Project
pushed new,Codage,12,marcimat,2024-11-12,1694,Project
pushed to,Codage,12,marcimat,2024-11-12,1694,Project
commented on,Papotage,430,JLuc,2024-11-23,1694,DiffNote
accepted,Codage,6,JamesRezo,2024-11-23,1694,MergeRequest
approved,Codage,4,maieul,2024-11-23,1694,MergeRequest
approved,Codage,6,JamesRezo,2024-11-23,1694,MergeRequest
opened,Codage,430,JLuc,2024-11-23,1694,MergeRequest
commented on,Papotage,4,maieul,2024-11-23,1694,Note
pushed to,Codage,6,JamesRezo,2024-11-23,1694,Project
pushed new,Codage,6,JamesRezo,2024-11-25,1694,Project
pushed to,Codage,6,JamesRezo,2024-11-25,1694,Project
pushed to,Codage,6,JamesRezo,2024-11-25,1694,Project
commented on,Papotage,18,b_b,2024-12-04,1694,DiffNote
commented on,Papotage,18,b_b,2024-12-04,1694,DiffNote
pushed new,Codage,9,cerdic,2024-12-04,1694,Project
pushed to,Codage,9,cerdic,2024-12-04,1694,Project
opened,Codage,6,JamesRezo,2024-12-11,1694,MergeRequest
pushed new,Codage,6,JamesRezo,2024-12-11,1694,Project
pushed to,Codage,6,JamesRezo,2024-12-15,1694,Project
accepted,Codage,6,JamesRezo,2024-12-16,1694,MergeRequest
approved,Codage,12,marcimat,2024-12-16,1694,MergeRequest
approved,Codage,18,b_b,2024-12-16,1694,MergeRequest
approved,Codage,18,b_b,2024-12-16,1694,MergeRequest
opened,Codage,6,JamesRezo,2024-12-16,1694,MergeRequest
deleted,Codage,6,JamesRezo,2024-12-16,1694,Project
pushed new,Codage,6,JamesRezo,2024-12-16,1694,Project
pushed to,Codage,6,JamesRezo,2024-12-16,1694,Project
pushed to,Codage,6,JamesRezo,2024-12-16,1694,Project
accepted,Codage,6,JamesRezo,2024-12-17,1694,MergeRequest
approved,Codage,12,marcimat,2024-12-17,1694,MergeRequest
deleted,Codage,6,JamesRezo,2024-12-17,1694,Project
pushed to,Codage,12,marcimat,2024-12-17,1694,Project
pushed to,Codage,6,JamesRezo,2024-12-17,1694,Project
commented on,Papotage,18,b_b,2025-01-16,1694,Note
accepted,Codage,4,maieul,2025-01-21,1694,MergeRequest
approved,Codage,14,rastapopoulos,2025-01-21,1694,MergeRequest
opened,Codage,18,b_b,2025-01-21,1694,MergeRequest
deleted,Codage,18,b_b,2025-01-21,1694,Project
pushed new,Codage,18,b_b,2025-01-21,1694,Project
pushed to,Codage,4,maieul,2025-01-21,1694,Project
opened,Papotage,435,Franck,2025-02-02,1694,Issue
commented on,Papotage,12,marcimat,2025-02-02,1694,Note
