due_date,id,iid,project_id,start_date,state,title
,1449,299,1694,,closed,spip-3.2
,1450,300,1694,,closed,spip-4.0
2025-01-23,1451,301,1694,,active,safehtml-3.0
2027-07-21,1452,302,1694,,active,safehtml-3.1
2025-01-23,1457,307,1694,,active,safehtml-3.2
,1462,490,1694,,closed,< spip-3.2
