date,full_path,name,sha
2022-03-16,spip-contrib-extensions/jquery_masonry,v1,9aced06f162d81ae3a138dc3aa0b684b70431673
2024-12-25,spip-contrib-extensions/jquery_masonry,master,a684646e0639368a9834d374737409e583c73e51
