date,full_path,name,sha
2019-03-16,spip-contrib-extensions/onglets_texte,v1.1.5,3d17bcca5a858dde094c6bd0706be9705666095c
2020-01-23,spip-contrib-extensions/onglets_texte,v2.0.8,84f5e10ff1159318e363bf71bccafb212c377c73
2022-08-07,spip-contrib-extensions/onglets_texte,v2.0.10,78e722181fb5d612be58d51db45bbe97fa52308b
2023-03-27,spip-contrib-extensions/onglets_texte,v2.0.11,56168bce34b112b9d2b0fc218c8b8aa2cff6dc00
2023-03-27,spip-contrib-extensions/onglets_texte,v2.0.12,9d094ebcba38df7a27ff3ae404d917007bbf45fc
2024-07-05,spip-contrib-extensions/onglets_texte,2.1.0,640c8c8a804f54887c2e3482fd0b65a956aa1ada
