date,full_path,name,sha
2022-04-26,spip-contrib-extensions/date_inscription,v0,7f9dba615eedbf792a81ad0007325a1e8fd90a8c
2024-10-11,spip-contrib-extensions/date_inscription,master,216c665f037c3e44620ed10a6093580caec55148
