date,full_path,name,sha
2015-11-22,spip-contrib-extensions/nuage,nuage_v2,502054a17011a0df3f19f8548eeba326ef1d6277
2017-04-02,spip-contrib-extensions/nuage,nuage_v1,3cbd4016f4743b9bf7d2420fde5c2587d42070f7
2017-04-02,spip-contrib-extensions/nuage,nuage_v3,0bdff2a17f7f087e1b122c07eab6b58acf17de29
2021-05-10,spip-contrib-extensions/nuage,nuage_v4,591acb554e7be99ce4c7d5213e9bd75b05389f1a
2025-01-29,spip-contrib-extensions/nuage,master,666afb9a1cb11391e9a5a93889f4cb64a71881b7
