date,full_path,name,sha
2011-08-28,spip-contrib-extensions/nuage,variante-1.0,fa208d4aee8684f311b6ac77a0b927fec7608c9b
2017-04-10,spip-contrib-extensions/nuage,1.2,36452a9a5e21f839afc4c2c8367ce8263c5d75ec
2020-02-05,spip-contrib-extensions/nuage,v4.0.7,a38a7ba39b948fba57514f85e1e8d70ae02d7abb
2021-05-10,spip-contrib-extensions/nuage,v4.0.8,591acb554e7be99ce4c7d5213e9bd75b05389f1a
2021-08-10,spip-contrib-extensions/nuage,v5.0.0,57fe0f403193b5d28c10188daf4bb0f9beff6796
2021-12-27,spip-contrib-extensions/nuage,v5.0.1,738481966c3ee6cc84c7ba25b2ce3f9091f51b33
2022-05-12,spip-contrib-extensions/nuage,v5.0.2,69fa92f7fe897beb979926b43b586a5882bd5b7f
2023-06-10,spip-contrib-extensions/nuage,v5.0.3,817c951aef3bd10bf3b65ad265e7c2a2361e2c90
2024-07-05,spip-contrib-extensions/nuage,5.1.0,2e50fbb19459cd5339fe6b74f85f521e191d834d
