pushed new,Codage,18,b_b,2024-10-11,2172,Project
pushed to,Codage,18,b_b,2024-10-11,2172,Project
commented on,Papotage,17,nicod,2024-12-02,2172,DiscussionNote
commented on,Papotage,17,nicod,2024-12-02,2172,DiscussionNote
commented on,Papotage,18,b_b,2024-12-02,2172,DiscussionNote
commented on,Papotage,18,b_b,2024-12-02,2172,DiscussionNote
closed,Papotage,18,b_b,2024-12-02,2172,Issue
opened,Papotage,3,touti,2024-12-02,2172,Issue
commented on,Papotage,18,b_b,2024-12-02,2172,Note
