date,full_path,name,sha
2018-12-24,spip-contrib-extensions/edition_directe,1.0,b2da7672fd7021ff68f639517105ba6755cd3fe9
2018-12-24,spip-contrib-extensions/edition_directe,2.0,bb40d91d39dabf893dab7d32620151acee42cacb
2024-07-13,spip-contrib-extensions/edition_directe,master,b3131c62f106bfe02841efca3903b3c947a73d56
