date,full_path,name,sha
2018-12-24,spip-contrib-extensions/edition_directe,v2.0.4,bb40d91d39dabf893dab7d32620151acee42cacb
2021-03-28,spip-contrib-extensions/edition_directe,v3.3.4,f81cad8afdd8cb510417350ccdfd3346d9654c59
2021-05-15,spip-contrib-extensions/edition_directe,v3.3.5,0fae4539eb034565b668bf5cd5bab97a3a7dbc3f
2022-03-21,spip-contrib-extensions/edition_directe,v3.3.6,0f164c28c67d2a11c4b96f9cef42dcc98342541a
2022-03-26,spip-contrib-extensions/edition_directe,v3.3.7,b342c88896c41140e105b8c654d429c9bbf3442d
2024-07-13,spip-contrib-extensions/edition_directe,3.4.0,b3131c62f106bfe02841efca3903b3c947a73d56
