date,full_path,name,sha
2024-02-06,spip-contrib-extensions/pagination_infinie,correction_readme,6d6ba66586cf16420d664bbe3950ccb01cc9dbbb
2024-07-05,spip-contrib-extensions/pagination_infinie,master,92d1077009e176f59afd48043d31eb8e62996129
