date,full_path,name,sha
2020-10-09,spip-contrib-extensions/newsletters,issue_3,2fee75fcb57734ffb69f513f5f03358179912caa
2021-04-22,spip-contrib-extensions/newsletters,dev/newsletter_url_base,bcb393d2eb265f412111ad52f3d21be9cc06fc52
2021-05-25,spip-contrib-extensions/newsletters,v1,30663e6afe5fe50fdd1578658e70e90bf08227bc
2022-09-25,spip-contrib-extensions/newsletters,newsletter_list_amelioration,ae965fc27971617dbd3d6d86c0b41ea8bd2bff13
2023-03-28,spip-contrib-extensions/newsletters,raccourci_creation_newsletter,2d7fef93bd1cd4849db5b69ba879dcd11e00c0e0
2024-10-27,spip-contrib-extensions/newsletters,master,053045f165a926f0649a5cf56b2fe91de82e0f50
