commented on,Papotage,4,maieul,2024-09-05,2279,DiscussionNote
commented on,Papotage,4,maieul,2024-09-05,2279,DiscussionNote
commented on,Papotage,9,cerdic,2024-09-05,2279,DiscussionNote
opened,Papotage,4,maieul,2024-09-05,2279,Issue
commented on,Papotage,9,cerdic,2024-09-05,2279,Note
opened,Papotage,14,rastapopoulos,2025-02-06,2279,Issue
commented on,Papotage,15,tcharlss,2025-02-06,2279,Note
commented on,Papotage,14,rastapopoulos,2025-02-11,2279,DiscussionNote
commented on,Papotage,9,cerdic,2025-02-11,2279,DiscussionNote
commented on,Papotage,9,cerdic,2025-02-11,2279,DiscussionNote
