date,full_path,name,sha
2021-05-02,spip-contrib-extensions/nomenclatures,v0.8.3,137e0e9e7129f79ef2103717c4c20508323e2702
2021-09-12,spip-contrib-extensions/nomenclatures,v1.0.0,e4500f430dbf6f9de7c081ee71ed451647f6a177
2022-05-15,spip-contrib-extensions/nomenclatures,v1.1.0,2de3922e13a7d69aa334005b2834b0cea8ec8837
2022-06-06,spip-contrib-extensions/nomenclatures,v1.2.0,099ba04c71542f00041689242f0016104b2b9b9a
2022-07-23,spip-contrib-extensions/nomenclatures,v1.3.0,440defd10690d017b6da7d44169c4e8211db3d77
2023-01-02,spip-contrib-extensions/nomenclatures,v1.4.0,1e10fd0055a4542143388bd8e835b383dca762a1
2023-04-30,spip-contrib-extensions/nomenclatures,v2.0.0,16e6660fabce1261357840d56b8201cf92e8fc7d
2023-05-28,spip-contrib-extensions/nomenclatures,v2.0.1,669f6f41d22d675e85ef0cead0994f8830e9006e
2024-01-21,spip-contrib-extensions/nomenclatures,v2.0.2,d8b33fd9e237b616785c6595bcf77257f5c80620
2024-07-20,spip-contrib-extensions/nomenclatures,v2.0.4,f97c0d8fe5e15fed6560bc97d28acf8ef887116d
2024-08-20,spip-contrib-extensions/nomenclatures,v2.0.5,1229f82488c4d23a0fa85ecda72246ea09386949
