access_level,group_id,id,state,username
30,21,107,active,patrice4
30,21,172,active,l.oiseau2nuit
30,21,195,active,teddy.spip
30,21,20,active,cam.lafit
30,21,206,active,pierretux
30,21,22,active,placido
30,21,230,active,jcvilleneuve
30,21,285,active,luc.tech
30,21,289,active,christopheld
30,21,297,active,chankalan
30,21,305,active,guillaume.wauquier
30,21,316,active,julienlfy
30,21,334,active,peetdu
30,21,335,active,Dut
30,21,35,active,arno
30,21,355,active,philippeboussin
30,21,360,active,fa_b
30,21,37,active,booz
30,21,384,active,jeanmarie
30,21,406,active,pierre.laszczak
30,21,416,active,geomaticien
30,21,422,active,christophe.beespip.org
30,21,43,active,RealET
30,21,430,active,JLuc
30,21,431,active,Jack31
30,21,435,active,Franck
30,21,442,active,Yohooo
30,21,443,active,johan
30,21,444,active,eldk
30,21,45,active,george
30,21,453,active,thrax
30,21,458,active,pierr0t
30,21,459,active,Graphie
30,21,462,active,glopglop
30,21,468,active,bricebou
30,21,478,active,JuL_BLoBuL
30,21,480,active,equipement
30,21,481,active,Frank
30,21,487,active,mossad
30,21,492,active,Helem
30,21,503,active,gagz
30,21,505,active,manu0111
30,21,507,active,Plumf
30,21,522,active,cpol
30,21,530,active,Olivier75
30,21,531,active,jlb
30,21,534,active,Neustradamus
30,21,536,active,JMarc_64
30,21,539,active,franck_r
30,21,542,active,pcreach
40,21,10,active,cy.altern
40,21,12,active,marcimat
40,21,13,active,Eric
40,21,14,active,rastapopoulos
40,21,15,active,tcharlss
40,21,16,active,tofulm
40,21,17,active,nicod
40,21,18,active,b_b
40,21,3,active,touti
40,21,4,active,maieul
40,21,5,active,Bennyb
40,21,68,active,erational
40,21,9,active,cerdic
