commented on,Papotage,17,nicod,2024-08-26,1682,DiscussionNote
opened,Papotage,794,maathieu,2024-08-26,1682,Issue
commented on,Papotage,18,b_b,2024-08-26,1682,Note
commented on,Papotage,4,maieul,2024-08-26,1682,Note
commented on,Papotage,794,maathieu,2024-08-26,1682,Note
commented on,Papotage,17,nicod,2024-08-27,1682,DiscussionNote
commented on,Papotage,17,nicod,2024-08-27,1682,DiscussionNote
commented on,Papotage,18,b_b,2024-08-27,1682,DiscussionNote
commented on,Papotage,17,nicod,2024-08-28,1682,DiscussionNote
commented on,Papotage,17,nicod,2024-08-28,1682,DiscussionNote
commented on,Papotage,4,maieul,2024-08-28,1682,DiscussionNote
commented on,Papotage,9,cerdic,2024-08-28,1682,DiscussionNote
commented on,Papotage,9,cerdic,2024-08-28,1682,DiscussionNote
commented on,Papotage,9,cerdic,2024-08-28,1682,DiscussionNote
approved,Codage,17,nicod,2024-08-28,1682,MergeRequest
approved,Codage,18,b_b,2024-08-28,1682,MergeRequest
opened,Codage,9,cerdic,2024-08-28,1682,MergeRequest
commented on,Papotage,17,nicod,2024-08-28,1682,Note
pushed new,Codage,9,cerdic,2024-08-28,1682,Project
closed,Papotage,12,marcimat,2024-10-02,1682,Issue
accepted,Codage,12,marcimat,2024-10-02,1682,MergeRequest
approved,Codage,12,marcimat,2024-10-02,1682,MergeRequest
commented on,Papotage,12,marcimat,2024-10-02,1682,Note
deleted,Codage,9,cerdic,2024-10-02,1682,Project
pushed to,Codage,12,marcimat,2024-10-02,1682,Project
pushed to,Codage,12,marcimat,2024-10-02,1682,Project
pushed to,Codage,12,marcimat,2024-10-02,1682,Project
pushed to,Codage,12,marcimat,2024-10-02,1682,Project
pushed new,Codage,12,marcimat,2024-10-08,1682,Project
pushed to,Codage,12,marcimat,2024-10-08,1682,Project
commented on,Papotage,6,JamesRezo,2024-10-14,1682,DiscussionNote
accepted,Codage,6,JamesRezo,2024-10-14,1682,MergeRequest
approved,Codage,18,b_b,2024-10-14,1682,MergeRequest
approved,Codage,4,maieul,2024-10-14,1682,MergeRequest
opened,Codage,6,JamesRezo,2024-10-14,1682,MergeRequest
commented on,Papotage,18,b_b,2024-10-14,1682,Note
deleted,Codage,6,JamesRezo,2024-10-14,1682,Project
pushed new,Codage,6,JamesRezo,2024-10-14,1682,Project
pushed to,Codage,6,JamesRezo,2024-10-14,1682,Project
pushed to,Codage,6,JamesRezo,2024-10-14,1682,Project
closed,Papotage,22,placido,2024-10-16,1682,Issue
opened,Papotage,22,placido,2024-10-16,1682,Issue
commented on,Papotage,15,tcharlss,2024-10-16,1682,Note
commented on,Papotage,22,placido,2024-10-16,1682,Note
pushed new,Codage,12,marcimat,2024-11-12,1682,Project
pushed to,Codage,12,marcimat,2024-11-12,1682,Project
opened,Codage,22,placido,2024-11-14,1682,MergeRequest
pushed new,Codage,22,placido,2024-11-14,1682,Project
approved,Codage,18,b_b,2024-11-18,1682,MergeRequest
commented on,Papotage,12,marcimat,2024-11-20,1682,Note
commented on,Papotage,22,placido,2024-11-20,1682,Note
pushed to,Codage,22,placido,2024-11-20,1682,Project
pushed to,Codage,22,placido,2024-11-20,1682,Project
accepted,Codage,4,maieul,2024-11-21,1682,MergeRequest
approved,Codage,18,b_b,2024-11-21,1682,MergeRequest
approved,Codage,6,JamesRezo,2024-11-21,1682,MergeRequest
opened,Codage,4,maieul,2024-11-21,1682,MergeRequest
commented on,Papotage,4,maieul,2024-11-21,1682,Note
deleted,Codage,4,maieul,2024-11-21,1682,Project
pushed new,Codage,4,maieul,2024-11-21,1682,Project
pushed to,Codage,4,maieul,2024-11-21,1682,Project
commented on,Papotage,22,placido,2024-11-22,1682,DiscussionNote
commented on,Papotage,6,JamesRezo,2024-11-22,1682,DiscussionNote
approved,Codage,6,JamesRezo,2024-11-22,1682,MergeRequest
pushed to,Codage,22,placido,2024-11-22,1682,Project
commented on,Papotage,12,marcimat,2024-11-25,1682,DiscussionNote
commented on,Papotage,12,marcimat,2024-11-25,1682,DiscussionNote
commented on,Papotage,12,marcimat,2024-11-25,1682,DiscussionNote
commented on,Papotage,22,placido,2024-11-25,1682,DiscussionNote
commented on,Papotage,22,placido,2024-11-25,1682,DiscussionNote
commented on,Papotage,6,JamesRezo,2024-11-25,1682,DiscussionNote
opened,Papotage,43,RealET,2024-11-25,1682,Issue
opened,Codage,43,RealET,2024-11-25,1682,MergeRequest
commented on,Papotage,18,b_b,2024-11-25,1682,Note
pushed to,Codage,22,placido,2024-11-25,1682,Project
commented on,Papotage,43,RealET,2024-11-26,1682,DiffNote
accepted,Codage,6,JamesRezo,2024-11-26,1682,MergeRequest
deleted,Codage,22,placido,2024-11-26,1682,Project
pushed new,Codage,6,JamesRezo,2024-11-26,1682,Project
pushed to,Codage,6,JamesRezo,2024-11-26,1682,Project
pushed to,Codage,6,JamesRezo,2024-11-26,1682,Project
pushed to,Codage,6,JamesRezo,2024-11-26,1682,Project
pushed to,Codage,4,maieul,2024-12-02,1682,Project
pushed new,Codage,12,marcimat,2024-12-03,1682,Project
pushed to,Codage,12,marcimat,2024-12-03,1682,Project
pushed to,Codage,12,marcimat,2024-12-03,1682,Project
commented on,Papotage,14,rastapopoulos,2024-12-04,1682,Note
opened,Codage,6,JamesRezo,2024-12-11,1682,MergeRequest
pushed new,Codage,6,JamesRezo,2024-12-11,1682,Project
commented on,Papotage,4,maieul,2024-12-13,1682,DiscussionNote
pushed to,Codage,6,JamesRezo,2024-12-15,1682,Project
accepted,Codage,6,JamesRezo,2024-12-16,1682,MergeRequest
approved,Codage,18,b_b,2024-12-16,1682,MergeRequest
approved,Codage,18,b_b,2024-12-16,1682,MergeRequest
opened,Codage,6,JamesRezo,2024-12-16,1682,MergeRequest
deleted,Codage,6,JamesRezo,2024-12-16,1682,Project
pushed new,Codage,6,JamesRezo,2024-12-16,1682,Project
pushed to,Codage,6,JamesRezo,2024-12-16,1682,Project
pushed to,Codage,6,JamesRezo,2024-12-16,1682,Project
commented on,Papotage,12,marcimat,2024-12-17,1682,DiscussionNote
commented on,Papotage,12,marcimat,2024-12-17,1682,DiscussionNote
commented on,Papotage,17,nicod,2024-12-17,1682,DiscussionNote
accepted,Codage,6,JamesRezo,2024-12-17,1682,MergeRequest
approved,Codage,12,marcimat,2024-12-17,1682,MergeRequest
commented on,Papotage,17,nicod,2024-12-17,1682,Note
deleted,Codage,6,JamesRezo,2024-12-17,1682,Project
pushed to,Codage,6,JamesRezo,2024-12-17,1682,Project
commented on,Papotage,43,RealET,2024-12-24,1682,DiscussionNote
commented on,Papotage,9,cerdic,2024-12-24,1682,Note
opened,Codage,9,cerdic,2024-12-26,1682,MergeRequest
pushed new,Codage,9,cerdic,2024-12-26,1682,Project
commented on,Papotage,43,RealET,2024-12-27,1682,DiscussionNote
closed,Papotage,43,RealET,2024-12-27,1682,Issue
approved,Codage,17,nicod,2025-01-11,1682,MergeRequest
approved,Codage,18,b_b,2025-01-11,1682,MergeRequest
accepted,Codage,4,maieul,2025-01-21,1682,MergeRequest
approved,Codage,14,rastapopoulos,2025-01-21,1682,MergeRequest
opened,Codage,18,b_b,2025-01-21,1682,MergeRequest
deleted,Codage,18,b_b,2025-01-21,1682,Project
pushed new,Codage,18,b_b,2025-01-21,1682,Project
pushed to,Codage,4,maieul,2025-01-21,1682,Project
commented on,Papotage,12,marcimat,2025-01-30,1682,DiscussionNote
commented on,Papotage,12,marcimat,2025-01-30,1682,DiscussionNote
commented on,Papotage,43,RealET,2025-01-30,1682,DiscussionNote
closed,Codage,43,RealET,2025-01-30,1682,MergeRequest
accepted,Codage,12,marcimat,2025-02-03,1682,MergeRequest
approved,Codage,12,marcimat,2025-02-03,1682,MergeRequest
deleted,Codage,9,cerdic,2025-02-03,1682,Project
pushed to,Codage,12,marcimat,2025-02-03,1682,Project
pushed to,Codage,12,marcimat,2025-02-03,1682,Project
opened,Papotage,430,JLuc,2025-02-07,1682,Issue
opened,Papotage,18,b_b,2025-02-11,1682,Issue
