prefix,full_path
pmb,spip-contrib-extensions/spip-pmb
owncloud,spip-contrib-extensions/owncloud
dsfr_composants,spip-contrib-extensions/dsfr_composants
inscription3,spip-contrib-extensions/inscription
inserer_modeles,spip-contrib-extensions/inserer_modeles
signalement,spip-contrib-extensions/signalement
medias,spip/medias
