date,full_path,name,sha
2021-01-13,spip-contrib-extensions/op_elec,v1.0.0,30431575e5c195f71b32884d36fd2ba01c2be01e
2021-01-16,spip-contrib-extensions/op_elec,v1.0.1,43f53faf57f355f3d44d8def9579c0ca652a167f
2021-02-20,spip-contrib-extensions/op_elec,v1.0.2,521a10191599c080803f77cc28315e93181cea47
2021-03-02,spip-contrib-extensions/op_elec,v1.0.3,49f75cf1509de49b040491517d662b40742f39e8
2021-03-21,spip-contrib-extensions/op_elec,v1.0.4,ecc4b2dffd1aa29d8bc0561afd522fc7e4053f3f
2021-03-21,spip-contrib-extensions/op_elec,v1.0.5,e07064384ebd3164b78542a3e61fa1ca7030991c
2021-03-22,spip-contrib-extensions/op_elec,v1.1.0,95de40ad46b68f460d452975105b5ec61882604b
2021-03-23,spip-contrib-extensions/op_elec,v1.1.1,5ba22712481d4e7abf9288f6340c1fcf51acc89d
2021-03-23,spip-contrib-extensions/op_elec,v1.1.2,0ba17e01e48fab1947af6ba361a8e96b82e97ba7
2021-03-25,spip-contrib-extensions/op_elec,v1.1.3,a291b6abf063d3f83cf87fe45d40a65d9359b29a
2021-04-30,spip-contrib-extensions/op_elec,v1.1.4,142f38ef106b0da567d45592cb703e6fa082cee8
2021-08-06,spip-contrib-extensions/op_elec,v2.0.0,64f65b3a21f8a4faabe3a41d13f80b2fe270081d
