date,full_path,name,sha
2020-12-18,spip-contrib-extensions/horloge_flash,v2.0.5,7eff6de3539f59f7b5e1931539b031a6fae615e8
2021-09-03,spip-contrib-extensions/horloge_flash,v3.0.0,4a8c3bd6f780263d4c99f092dc4116f3e2aa7bda
2023-10-02,spip-contrib-extensions/horloge_flash,v3.0.1,d53b3bd1c2d0fd2948fa853f4cddd02134f7f887
2024-07-05,spip-contrib-extensions/horloge_flash,3.1.0,d958fd75ab2c599bf68ff15076b1b24bca5884c7
