date,full_path,name,sha
2017-11-23,spip-contrib-extensions/adx_menu,v1.23.4,8895d1e2a19f8158a3fb2ce3dcc99dd078f983df
2024-07-13,spip-contrib-extensions/adx_menu,1.24.0,82a62e041099344b4737bff6467dc66bb904dd22
