date,full_path,name,sha
2018-12-24,spip-contrib-extensions/rubrique_preferee,v0,e4b30b51cc55de401454f366b12122eae323ec19
2019-08-31,spip-contrib-extensions/rubrique_preferee,master,3807d67b5ed88044e2947bd62ad21af2b877ee1c
