date,full_path,name,sha
2020-07-13,spip-contrib-squelettes/html5up_escape_velocity,v0.1.1,61812a067c7c32cacfdf344ef9dd0dfaa0ea7fed
2020-07-17,spip-contrib-squelettes/html5up_escape_velocity,v0.1.2,a5ee4b0a67302819fa34508c463c31caeb3693ca
2020-09-14,spip-contrib-squelettes/html5up_escape_velocity,v0.2.0,d489c822553ae9a28f0353f2f1351ca5b09eacc7
2020-10-14,spip-contrib-squelettes/html5up_escape_velocity,v0.3.0,d1e7ebfb2985232421d5cf525cec7eaafe3a583a
2020-10-27,spip-contrib-squelettes/html5up_escape_velocity,v0.4.0,bfaf92d3dbee04c6a2cd73e891e5f2ad597ca1c1
2020-12-28,spip-contrib-squelettes/html5up_escape_velocity,v0.5.0,62f13c968da94914e770289177a3d6f77d5f45f6
2021-01-05,spip-contrib-squelettes/html5up_escape_velocity,v0.5.1,90609ea406c8fd75049466b9bd54b2e5b4f5f74f
2021-01-18,spip-contrib-squelettes/html5up_escape_velocity,v0.6.0,d9e0b48bacfc594118c4470e0acccb94554d5384
2021-09-25,spip-contrib-squelettes/html5up_escape_velocity,v1.0.0,09cb53b315dad17eca8ea87ef47c5dd83640e622
2021-09-27,spip-contrib-squelettes/html5up_escape_velocity,v1.0.1,56a57ce10342cbefeae8f01081f7fe324da4da59
2023-05-22,spip-contrib-squelettes/html5up_escape_velocity,v1.0.2,cd622510005f599e56ff6f437e6c0e00a25ea334
2023-08-31,spip-contrib-squelettes/html5up_escape_velocity,v1.1.0,e13a60ddee37cca73b992b7cabc96fe3b4542122
2023-10-12,spip-contrib-squelettes/html5up_escape_velocity,v1.1.1,08a6f499906f66ecc19874b6e2611a342c0d9ace
2023-10-27,spip-contrib-squelettes/html5up_escape_velocity,v1.1.2,7bacb049d337e58efcaa46be297a6109093c2d04
2024-07-05,spip-contrib-squelettes/html5up_escape_velocity,1.2.0,b9d3663cd0ab906e17d95b4830bfb60d399d3e62
