date,full_path,name,sha
2020-05-05,spip-contrib-extensions/temps_lecture,v1.0.2,0796ba1141875c5277d546a0e8048a12031adf2f
2020-05-20,spip-contrib-extensions/temps_lecture,v1.0.4,53dfa11f5cf8f617290a408336eda24120d0cb6c
2020-05-22,spip-contrib-extensions/temps_lecture,v1.1.0,8edb2ee11db7af8365922cb9693be2ff8a674376
2020-05-22,spip-contrib-extensions/temps_lecture,v1.1.1,976b1e01713bd042a7b32f0d3e4dae69532181f1
2020-05-22,spip-contrib-extensions/temps_lecture,v1.1.2,cc647459ad6bc8fc7d8e930d8a097a3b5d96068b
2020-05-22,spip-contrib-extensions/temps_lecture,v1.2.0,3c78f973688932c4b7ea91d6eb6cfd350be03430
2021-02-25,spip-contrib-extensions/temps_lecture,v1.2.1,6636168f492858626a7221a3d89cb9ff969ebc00
2021-03-22,spip-contrib-extensions/temps_lecture,V1.2.2,c06a917690b9f2f624833d4f81d5651abb89fa12
2021-03-22,spip-contrib-extensions/temps_lecture,V1.2.3,1c4bff1ff03e1a6f4664fac7c3132ec24e543a76
2021-03-24,spip-contrib-extensions/temps_lecture,V1.2.4,c5ed5874f8ad9d0b40f225013cb0f2795b27d62e
2021-07-09,spip-contrib-extensions/temps_lecture,v1.2.5,32fe0d11ab1114e582ae4e0dadb45d485875efc8
2022-02-23,spip-contrib-extensions/temps_lecture,v1.2.6,0a5a04c79077c0c6c4fd2ed56953bdf3feead424
2023-05-14,spip-contrib-extensions/temps_lecture,v1.2.7,9dc9f7bc530ae136050f7b0dc4f66bcf2873e393
2023-06-29,spip-contrib-extensions/temps_lecture,v1.3.0,fa347c8a3608c181fb555475b33b868b626d354f
2023-07-25,spip-contrib-extensions/temps_lecture,v1.3.1,cde13ef7338c5e559ba88d95189918c7df0eb52d
2023-09-08,spip-contrib-extensions/temps_lecture,v1.3.2,2574979ecfe749748d287c36b6db8b86167d5f13
2023-11-25,spip-contrib-extensions/temps_lecture,v1.3.3,58e8ff39141e152dc06502de251a74c4d0635614
2024-07-05,spip-contrib-extensions/temps_lecture,1.4.0,ef107f225f732b30770b74e7c056e2caa90ba9e2
