date,full_path,name,sha
2024-04-18,spip-contrib-squelettes/html5up_future_imperfect,v0.1.0,951db6ced51f9bc911cd153fc865db0c1dac7420
2024-07-03,spip-contrib-squelettes/html5up_future_imperfect,v1.0.0,cf42670a1f9cf43bedbc1fa205f67ef72b68e73e
