date,full_path,name,sha
2018-06-26,spip-contrib-extensions/passe_complexe,v0,aa867e5a704cdfaa5230e647425bc599c336932c
2024-06-20,spip-contrib-extensions/passe_complexe,issue_1-notice-php,ae0850a1cba9e68b3eea36bf7ef9a65b0d30f6e9
2024-07-13,spip-contrib-extensions/passe_complexe,master,98f13881bed74f5e120d69795f04f66e514da82d
