pushed to,Codage,43,RealET,2024-09-25,2050,Project
commented on,Papotage,17,nicod,2024-12-04,2050,DiscussionNote
commented on,Papotage,17,nicod,2024-12-04,2050,Note
commented on,Papotage,17,nicod,2024-12-04,2050,Note
commented on,Papotage,17,nicod,2024-12-04,2050,Note
commented on,Papotage,15,tcharlss,2024-12-05,2050,DiscussionNote
commented on,Papotage,17,nicod,2024-12-06,2050,DiscussionNote
commented on,Papotage,17,nicod,2024-12-11,2050,Note
pushed to,Codage,17,nicod,2024-12-11,2050,Project
pushed to,Codage,17,nicod,2024-12-11,2050,Project
approved,Codage,17,nicod,2024-12-12,2050,MergeRequest
commented on,Papotage,17,nicod,2024-12-12,2050,Note
commented on,Papotage,15,tcharlss,2024-12-17,2050,DiscussionNote
commented on,Papotage,17,nicod,2024-12-17,2050,DiscussionNote
commented on,Papotage,17,nicod,2024-12-17,2050,DiscussionNote
commented on,Papotage,4,maieul,2024-12-17,2050,DiscussionNote
accepted,Codage,17,nicod,2024-12-17,2050,MergeRequest
commented on,Papotage,15,tcharlss,2024-12-17,2050,Note
commented on,Papotage,17,nicod,2024-12-17,2050,Note
commented on,Papotage,17,nicod,2024-12-17,2050,Note
commented on,Papotage,17,nicod,2024-12-17,2050,Note
deleted,Codage,17,nicod,2024-12-17,2050,Project
pushed to,Codage,17,nicod,2024-12-17,2050,Project
pushed to,Codage,17,nicod,2024-12-17,2050,Project
commented on,Papotage,17,nicod,2024-12-20,2050,DiscussionNote
commented on,Papotage,43,RealET,2025-01-04,2050,DiscussionNote
commented on,Papotage,431,Jack31,2025-01-04,2050,DiscussionNote
opened,Papotage,43,RealET,2025-01-04,2050,Issue
accepted,Codage,18,b_b,2025-01-04,2050,MergeRequest
opened,Codage,43,RealET,2025-01-04,2050,MergeRequest
commented on,Papotage,43,RealET,2025-01-04,2050,Note
pushed new,Codage,43,RealET,2025-01-04,2050,Project
pushed to,Codage,18,b_b,2025-01-04,2050,Project
pushed to,Codage,43,RealET,2025-01-04,2050,Project
commented on,Papotage,17,nicod,2025-01-12,2050,DiscussionNote
pushed to,Codage,43,RealET,2025-01-14,2050,Project
closed,Papotage,4,maieul,2025-01-19,2050,Issue
accepted,Codage,4,maieul,2025-01-19,2050,MergeRequest
approved,Codage,43,RealET,2025-01-19,2050,MergeRequest
commented on,Papotage,43,RealET,2025-01-19,2050,Note
deleted,Codage,43,RealET,2025-01-19,2050,Project
pushed to,Codage,4,maieul,2025-01-19,2050,Project
commented on,Papotage,15,tcharlss,2025-01-21,2050,DiscussionNote
commented on,Papotage,17,nicod,2025-01-21,2050,Note
pushed new,Codage,17,nicod,2025-01-21,2050,Project
pushed to,Codage,17,nicod,2025-01-21,2050,Project
commented on,Papotage,431,Jack31,2025-02-04,2050,DiscussionNote
closed,Papotage,431,Jack31,2025-02-04,2050,Issue
