date,full_path,name,sha
2024-06-21,spip-contrib-extensions/h5p,v1.3,f099a041bf4db856160b4e0d156db3401e52990a
2024-06-21,spip-contrib-extensions/h5p,v1.3.0,f099a041bf4db856160b4e0d156db3401e52990a
2024-06-25,spip-contrib-extensions/h5p,v1.3.1,ea42a60bfcf5d025b81869e94282d7566d0779ce
2024-07-03,spip-contrib-extensions/h5p,v1.3.2,67a15dde935c818891184a4534750e87dea11abe
2024-07-05,spip-contrib-extensions/h5p,1.4.0,5b613c56325400fdb44df628868a2e95c95dd7f9
2024-07-09,spip-contrib-extensions/h5p,v1.4.0,3662f61828f6c669f1cb00f8c0e551e904192d9e
2024-07-09,spip-contrib-extensions/h5p,v1.4.1,b102163750f0a1249eba5759bb0a9b2cbf0d60a7
2024-07-09,spip-contrib-extensions/h5p,v1.4.2,b102163750f0a1249eba5759bb0a9b2cbf0d60a7
2024-07-09,spip-contrib-extensions/h5p,v1.4.3,233a42ae35818c4f587137be40fe6efbfebb508a
2024-08-27,spip-contrib-extensions/h5p,v1.4.4,efd6c0ea487484b89878369e33ad3ceef1100c2b
2024-08-30,spip-contrib-extensions/h5p,v1.4.5,672ab3a69e85b893bb3d288fc23aa8237839e84b
2024-09-03,spip-contrib-extensions/h5p,v1.4.6,2a0ae5fa8364f497838dd4641ac58880f1cd407c
2024-09-24,spip-contrib-extensions/h5p,v1.4.7,472c36c5b2fdcb1a247a6cb7cb3f3d1bdf80409e
2024-12-18,spip-contrib-extensions/h5p,v1.4.8,02a82ce4f266bccf39eb73f5dbe63e7b1e5124b3
2025-01-16,spip-contrib-extensions/h5p,v1.5.0,29f817c1f56f2d82b7693f6b17bd30cb949e467f
