date,full_path,name,sha
2017-10-24,spip-contrib-themes/dist_v1_palatinesque,v1.0.1,800f1576494db3d3ee59f7de601c5eb4bd5ac3a8
2022-04-19,spip-contrib-themes/dist_v1_palatinesque,v1.0.2,7e88f59b579570fc7808ef94e0bd0a8c4c91514f
2023-06-10,spip-contrib-themes/dist_v1_palatinesque,v1.0.3,5463c1a754cb814fa84da38c593287c83fa25233
2024-07-05,spip-contrib-themes/dist_v1_palatinesque,1.1.0,89077e8784c7483ccc20099354441e76e4404bd1
