date,full_path,name,sha
2020-04-21,spip-contrib-extensions/dates_outils,v1.1.0,10beccaf4fe5067d87ec24d00d15c26b12a9508a
2021-05-15,spip-contrib-extensions/dates_outils,v1.1.1,692b9b2943ef8af0c5f3c111fdf8ff6b7f6a80f0
2022-05-07,spip-contrib-extensions/dates_outils,v1.1.2,d762a3c827293d8f3943ae7534dd488bd3f3c1a3
2022-05-07,spip-contrib-extensions/dates_outils,v1.1.3,4780891e77b18d9a902a47666481f7decca7a0ec
2024-07-13,spip-contrib-extensions/dates_outils,1.2.0,60909e983634f8c58171a527ca51df54d657233e
