date,full_path,name,sha
2017-04-10,spip-contrib-extensions/menu_babbibel,v2.2.1,b9483c88ed4533dde02fc452d6a8d880e8341052
2017-04-10,spip-contrib-extensions/menu_babbibel,v3.0.2,58103be416191944f43dbb0ca2660ccad3565969
2017-04-12,spip-contrib-extensions/menu_babbibel,stable,08f83b8a11e17808d8fc55735335ca06c42bc05f
2024-07-13,spip-contrib-extensions/menu_babbibel,3.1.0,88dd09a35a769811a6ee25ae82a9ae2abeb2b717
