date,full_path,name,sha
2020-03-23,spip-contrib-squelettes/odaiba,v1.0.7,cfeb5c88952d7c205455c8c40fa87cefbe016cfc
2021-06-22,spip-contrib-squelettes/odaiba,v1.1.0,37a8bb27e8a6eadd3fa66e89e5610d34ee45595f
2022-08-27,spip-contrib-squelettes/odaiba,v1.1.1,7c26dc3491f10d640e702c34e0fd1c032025134e
2022-08-30,spip-contrib-squelettes/odaiba,v1.1.2,78c5b66c31d3eb5e2379af0a6b13bb150d519af4
2023-11-12,spip-contrib-squelettes/odaiba,v1.2.1,cd481a8182af77524f404118b78f08ea82adf68c
2024-06-12,spip-contrib-squelettes/odaiba,v1.2.2,b31cac63844e370f580321983761713e433ff463
