date,full_path,name,sha
2020-02-06,spip-contrib-extensions/tipafriend,v1,158b958f91c6d4a4e5cbc583cd101bef43adace0
2024-07-13,spip-contrib-extensions/tipafriend,master,e2c139589da652aacb3458868d325e580b9d6565
