date,full_path,name,sha
2020-02-06,spip-contrib-extensions/tipafriend,v1.5.1,158b958f91c6d4a4e5cbc583cd101bef43adace0
2020-02-06,spip-contrib-extensions/tipafriend,v1.6.9,8f017235f5433c6bfa0d77b1b785985bb39ddd67
2021-04-09,spip-contrib-extensions/tipafriend,v1.6.10,9111bda1c0ce1669b9f9ecb2e45b84bd890ff61a
2021-11-17,spip-contrib-extensions/tipafriend,v1.6.11,8ed9a0c0f83da7994af9b5c593de7a123f13b741
2024-07-13,spip-contrib-extensions/tipafriend,1.7.0,e2c139589da652aacb3458868d325e580b9d6565
