date,full_path,name,sha
2023-11-05,spip-contrib-extensions/rainette_histo,v1.0.0,ac37ab431d2d68dfbd22123717da7fa2e317470d
2024-07-05,spip-contrib-extensions/rainette_histo,1.1.0,4c049d98e1c02a5ed5d2912a2716c448b12f3195
2025-02-15,spip-contrib-extensions/rainette_histo,v1.2.0,56309da5583c9a8b069420c90011156951b3a48a
