date,full_path,name,sha
2017-10-17,spip-contrib-extensions/menu_anime,v1.1.0,919656e438672593cf003417dc4129ce96548498
2021-07-26,spip-contrib-extensions/menu_anime,v1.1.1,4cb7477ed1505c367a857d928e5f905513ebeaf6
2022-09-11,spip-contrib-extensions/menu_anime,v1.1.2,abd79aa726a757b570ad63a9b648d9fa2d55d1cc
2023-06-22,spip-contrib-extensions/menu_anime,v1.1.3,4978a04509db82b641dce21fa9d8d2f2744bfbea
2024-07-05,spip-contrib-extensions/menu_anime,1.2.0,63a814453727b8bab1d629e78eb989a68b16aabe
