date,full_path,name,sha
2024-03-25,spip/spip,issue_5892,13cd9bcd4590357fce526834e8389feb316c4eea
2024-04-04,spip/spip,feat_debusquer_profile_total_42,f99a7d3c4754928b26f56e937de60511f4823907
2024-10-01,spip/spip,issue_3581,489b303da57ab37a201891991e99ede88d55baa2
2024-10-05,spip/spip,issue_5759bis_pipeline_institution_rubrique,7e51f4c2d3e918268d76017d9d114d745d631905
2025-01-16,spip/spip,4.1,7c22229944e955c98ed46be2e4c0d55612c4d599
2025-01-16,spip/spip,4.2,dbaedf8278c270b0627a86769e1c5dea04062625
2025-02-05,spip/spip,4.3,a8f4cb9e3588b0f2e1cf2a37e71638d103f8968f
2025-02-11,spip/spip,master,8faf52e70fc83dec12a81284520bfb3963117cdf
2025-02-14,spip/spip,4.4,34c023d47b424b5b4daebe8be37e2c4f1142ebc0
