closed_issues_count,id,name,open_issues_count,open_merge_requests_count,project_id,sum
29,1263,APIs,16,0,1696,45
28,1264,authentification,8,0,1696,36
189,1265,base de données,16,0,1696,205
253,1267,code généré,7,0,1696,260
165,1268,compilo,19,0,1696,184
118,1269,css,1,0,1696,119
193,1276,filtres et balises,11,0,1696,204
112,1277,formulaires,6,0,1696,118
2,1278,Inscription,2,0,1696,4
105,1279,installation,6,0,1696,111
46,1281,javascript,5,0,1696,51
25,1282,langues,6,0,1696,31
8,1283,LDAP,3,0,1696,11
71,1284,plugin,1,0,1696,72
7,1285,PostgreSQL,0,0,1696,7
45,1288,traduction,4,0,1696,49
7,1762,dépréciation,4,0,1696,11
0,1818,http,1,0,1696,1
1,1819,sqlite,4,0,1696,5
0,1820,apache-only,1,0,1696,1
1,1821,cache,3,0,1696,4
0,1822,distant,1,0,1696,1
0,1823,team-nomenclature,1,0,1696,1
0,2073,espace privé et plus,7,0,1696,7
