date,full_path,name,sha
2008-12-10,spip/spip,v1.9.2+f,8ed51f6ee7a6d5158f04b995e52e8c205a79965a
2008-12-12,spip/spip,v2.0.0,235be321f30782dcd5c4caa83e40ef03630daa1d
2008-12-18,spip/spip,v2.0.1,c71a3f573595fc1251e99d424875217012d89533
2008-12-23,spip/spip,v2.0.2,7c90b2d4fec9d56d53a60cd32ab953de56fef030
2008-12-24,spip/spip,v1.8.3+b,dc5d667fb15646526915f646ba538e9ec28ba81c
2008-12-24,spip/spip,v1.9.2+g,7cdf9df8b1205fd251333247b8bcd8ab1d435413
2009-01-09,spip/spip,v2.0.3,f7c85df89387df88a7ad0e82a8ef2abb9a4eaabe
2009-02-25,spip/spip,v2.0.5,40bf8703d73582cc559f250bf18d2a4b8fb8cea9
2009-03-16,spip/spip,v2.0.6,8b8204d1432f4f3789b06cced9750e729412a2c6
2009-04-13,spip/spip,v1.9.2+h,7a60fb54fa6222bfd67c98840b3cb9796296df9d
2009-04-13,spip/spip,v2.0.7,72e86a90db9a9da84a3042f38439fed74f365625
2009-05-11,spip/spip,v2.0.8,8c2ce131f784b64e4f3e830949563b455e9b3856
2009-08-06,spip/spip,v1.9.1+i,7f764359c2b7972d1a793b3b7eaec79edb5d4912
2009-08-06,spip/spip,v1.9.2+i,5e7ac3ab9b6d3ab65b677e3771ef58964b50bd5b
2009-08-06,spip/spip,v2.0.9,64707939e715f10e620c5ad044a53deed2597817
2009-10-31,spip/spip,v2.0.10,455fd49dd8c480e64913877d49fb30b25f0cc312
2010-04-10,spip/spip,v2.1.0,0bff172a85a428c0ad3d6d70eb8d9d96efa79f86
2010-05-18,spip/spip,v2.0.11,414efdfde877fad7aeb7a073db4c62c0d488074a
2010-07-29,spip/spip,v2.1.1,4aad05424ade477353a80769c907defc83180393
2010-07-30,spip/spip,v2.0.12,e3373dd665205354e70920aa3b79ae4fd4531720
2010-12-13,spip/spip,v2.1.2,221d0cadca13ff7192ab62c3e3171317cac1b8cb
2010-12-14,spip/spip,v2.1.3,e00a828db48dc2a0ce99171ce0a6df7ebb22b6e0
2010-12-21,spip/spip,v2.1.4,2d2cdedf08b0f6a71fef9764189426578617ab4c
2010-12-21,spip/spip,v2.1.5,0040151f4f43de4416bbd2ede5b983b366c08b17
2011-01-02,spip/spip,v2.1.6,ba77e7015176463677b0ee252aec1bf7e3f1d59d
2011-01-13,spip/spip,v2.0.13,6bd11ac660a3b39dd313c500988493aa3216f6d5
2011-01-13,spip/spip,v2.1.7,f1c5cd52ff56defe36eb84cff477bffd972b4f0f
2011-01-14,spip/spip,v2.1.8,1cdfd4b0f3d8dd05989aa0068e6c8f3649c690a5
2011-03-25,spip/spip,v1.9.2+j,e27033db38136f3020049547877c5ce58c7811d6
2011-03-25,spip/spip,v2.0.14,32d946d9b821647151f7ba07617c45d83188d3db
2011-03-25,spip/spip,v2.1.9,583685cbbf528fd7e638cbb2bb8d58f3d3927ede
2011-04-06,spip/spip,v2.0.15,9267b39545323b7bcdf8b68831ab14b1b5cd2f1d
2011-04-06,spip/spip,v2.1.10,ebb29172023f65f54ec33a826e05f9b49af1fda4
2011-07-03,spip/spip,v3.0.0-alpha.1,21f2bb06f53b9adf4025072cdb38079679350d1e
2011-09-19,spip/spip,v1.9.2+k,fcba4d55c09a96b2f56fb6b1b4eafa7da41a4d33
2011-09-19,spip/spip,v2.0.16,89ed3fa4fca2fb81bbcb2cd1d8a349cfd1aa3d05
2011-09-22,spip/spip,v2.1.11,078791b23be6bb31ab0954b390dde8f2c185146f
2011-09-23,spip/spip,v3.0.0-beta,33d723b6309ca06e15f7dc221502716c61ce2ad7
2011-09-28,spip/spip,v1.9.2+m,60d17db722c653d4e6167ea439556f60887fc463
2011-11-16,spip/spip,v2.0.17,945870649e54e0fde718ad94bcf8f5a4599651b1
2011-11-16,spip/spip,v2.1.12,c1def8b2d48c3e89112d388063683ecf92378c6b
2011-11-17,spip/spip,v1.9.2+n,660c8b017456c9bba21e644ecb47ae0aa17344e3
2012-01-03,spip/spip,v3.0.0-beta.2,3a8c219d9fd17cbf82cbc56500f39f1596d9d96f
2012-04-07,spip/spip,v3.0.0-rc,0086622b668d3bb5201229e6da54ee8228942e28
2012-04-22,spip/spip,v1.9.2+o,3a3f20766eaaf41c6716c6086e3acf355ee36eae
2012-04-22,spip/spip,v2.0.18,97e5626f61864917d54b7a5fe0e9ef034b74b7fe
2012-04-22,spip/spip,v2.1.13,fd1aac4d4ee8bf2e65a7a0553cf4475c76a40c65
2012-05-14,spip/spip,v1.9.2+p,0c7c9902db1cce4d75c245508966b4641fd317e1
2012-05-14,spip/spip,v2.0.19,41235c2ac209d2919451fa2cb0e05f13b75a4caf
2012-05-14,spip/spip,v2.1.14,1a273e1bafdc1790952d782435a33828a110eeb9
2012-05-19,spip/spip,v3.0.0,ab4cca95405aa8b75f15fd084f48f7af28028941
2012-05-20,spip/spip,v3.0.1,b47bf0945326980fb9fe3aecbd24f527e6bf51f0
2012-06-12,spip/spip,v2.0.20,a374a71bb9f53a6faaa9bff6aba9aee91d3e6b1d
2012-06-12,spip/spip,v2.1.15,5a537bc00568ce99dc0622d9a13917bffb8a69d1
2012-06-12,spip/spip,v3.0.2,d116228322f24b3ba50ed4e33d8a38125c2caf73
2012-07-03,spip/spip,v2.0.21,09b4e25537af285ee7ad1faae13a4f31e6c91f73
2012-07-03,spip/spip,v2.1.16,25c6975ea30d8f7720be4b0a9a032678301fe19f
2012-07-03,spip/spip,v3.0.3,676b5c222a2df2bb5da005ab8335aa9d874bc3f0
2012-08-01,spip/spip,v2.0.22,e4bdcbbaa5cbda0ba9d6289a8a78009c0e9e7de2
2012-08-01,spip/spip,v2.1.17,11cd302847314e23704ac0088728cd471ffd49a0
2012-08-01,spip/spip,v3.0.4,379c08c298baa2e16ace1e736e53350227dcc40a
2012-09-13,spip/spip,v2.1.18,7ea872cdd114ef6a5057843d69c15ac5465329da
2012-09-13,spip/spip,v3.0.5,e115958c60e67ce8bff0e328f81a6cef6e7d26e0
2012-09-17,spip/spip,v2.1.19,04448cec560157f1ef6344dd60f19d51f28029d6
2013-03-18,spip/spip,v2.1.20,3a17bb5fd9bf6d7c1c5d3ccb20130c337df3608c
2013-03-18,spip/spip,v3.0.6,c84d4a8f4ae067a93ef240ea836fe1c9ab3c8a76
2013-03-22,spip/spip,v3.0.7,c0a7c8b1fcca0a2b9ecbd68d405bc4e96107076d
2013-04-17,spip/spip,v3.0.8,d79c9f58bb7752f1f71b5f013dbaf3dc7aea73d2
2013-04-21,spip/spip,v2.1.21,74b40e0cdbedd651b632f27be3c6700cb0c8ea13
2013-05-24,spip/spip,v2.0.23,30db8b4408bbea5deb90d4288252dfa900f1b585
2013-05-24,spip/spip,v2.1.22,54e7e119c3ea4f649944752086080c6e48684c15
2013-05-24,spip/spip,v3.0.9,d904225adfb027195aec3c9d2bfdc191552441f6
2013-05-26,spip/spip,v3.0.10,be7ab42ef938e5d0df347c75bc9f80bc3a9b52ad
2013-05-27,spip/spip,v2.1.23,e8e13ec7beb4f026b4e4471d0d72779b344c2bee
2013-08-09,spip/spip,v3.0.11,d54d47d5f610eb083fa7f70a8a0f437537a73dda
2013-11-09,spip/spip,v2.1.24,d2b9ecbf3ce9be7bc5fc4aaeb048d8ff05da9263
2013-11-09,spip/spip,v3.0.12,07aa985b33e4ad7ac1f2551aedcd6439359b9a1e
2013-11-10,spip/spip,v3.0.13,d32a767cb2f82218b4e75eed55d62616b826db41
2014-01-19,spip/spip,v2.0.24,f29a4ce7e9a0aade02dab8ff217f8c06839a9cdf
2014-01-19,spip/spip,v2.1.25,3b3d07dac4f6acb44a44bae782199d53f8651601
2014-01-19,spip/spip,v3.0.14,38df6791526004625fa6cd0c45cb68b0bb278f41
2014-02-21,spip/spip,v3.0.15,a563f32e007ce2a7764d8b98332c13b9a536d92f
2014-03-13,spip/spip,v2.0.25,d9a9e53ca58c3dcc67b131146e334d295fdd0533
2014-03-13,spip/spip,v2.1.26,961542074a25e8f107477c36178ed3afbf7b6437
2014-03-13,spip/spip,v3.0.16,1ac3a0c21f7b3658e792864f55a18db04c0aae8f
2014-08-13,spip/spip,v3.0.17,f07f4f104ec1afda8df5cfb52195f500129cd07a
2014-11-09,spip/spip,v3.1.0-alpha,12026dd28fe70644646fbf193f5522451af4b4b6
2015-04-26,spip/spip,v3.0.18,af16c95ef0be60d2629f0d0b688dd67c1ec42f7c
2015-05-08,spip/spip,v3.0.19,cd5f75ab80645774a8d2d6e8a2596fdcc6a191b9
2015-05-09,spip/spip,v2.1.27,0894573d261e9e31e4215df8412688ba9f714f4a
2015-06-21,spip/spip,v3.1.0-beta,088b6d36cdeb8435417a2f22d86a34f98897e474
2015-06-23,spip/spip,v2.0.26,46a5531adc685f04d4540c2f82bee2ac1b93217f
2015-06-23,spip/spip,v2.1.28,4e14616f82d4ed69180195638b3462b3a9f6fca6
2015-06-23,spip/spip,v3.0.20,108e65b18d400097cbd9477a74b3095c78aedd26
2015-10-31,spip/spip,v3.0.21,152b2bb741e366da88e381166787a911da117150
2015-10-31,spip/spip,v3.1.0-rc,cb3e5d7e71c1b1a1808e3f3c82cd5b9b11b2ebb6
2015-12-03,spip/spip,v3.1.0-rc.2,0d967a7401c221c2be401a524eda459f5bcf7a93
2016-01-06,spip/spip,v3.1.0,8c5f6bf7eab63e1e4e30bba53b0a9a0ab3fb0b8f
2016-03-10,spip/spip,v2.1.29,fa6b51f04467582320a2f600b2a9c03086f9eaed
2016-03-10,spip/spip,v3.0.22,41e57315e21d9ef7a9ff5b81e317775e4143021c
2016-03-10,spip/spip,v3.1.1,27613b9564ac287a1409ad1861fef0dbcf0e3050
2016-09-23,spip/spip,v3.0.23,39272d0bbbfaad4284750ae14de53a2bb6d8d075
2016-09-23,spip/spip,v3.1.2,77954b3f347c1db7c471be7c86c8db79b9e45cbd
2016-09-30,spip/spip,v3.0.24,323981594978499315f899f89b4aa742f926c357
2016-09-30,spip/spip,v3.1.3,8fdde1ce41fb742d8ddfa622acc53c9cd464b7ba
2017-03-06,spip/spip,v2.1.30,874860660a8b6dca51cc95b15b4224148c17c3ce
2017-03-06,spip/spip,v3.0.25,fb02b37c9f6f8972bff2ba8290d52e13dc78f501
2017-03-06,spip/spip,v3.1.4,ecdaf65e7ccc74cdcff4445a323eab875853b72d
2017-03-22,spip/spip,v3.1.0-rc.3,7a70922fc553d15bd038d40031a106f871007852
2017-03-22,spip/spip,v3.2-alpha.1,688c6f0c6b6e8392964686b07a0c9252ea3d41db
2017-03-22,spip/spip,v3.2.0-alpha.1,688c6f0c6b6e8392964686b07a0c9252ea3d41db
2017-05-06,spip/spip,v3.2.0-beta,4408df7a705da3c37c762db297940ba50210852c
2017-06-08,spip/spip,v3.0.26,e954a08ec63e33ad7657351b978b6e80b2169d69
2017-06-08,spip/spip,v3.1.5,b0043eedd78511e95b6cba2f80bf56b7c8acca8c
2017-06-09,spip/spip,v3.2.0-beta.2,d9eb314e4925c8a8a7506c5b76c415e19e87f6d9
2017-06-12,spip/spip,v3.1.6,9c109dd70664d0b1e8d3adde1dba8d3b1685d9a1
2017-06-12,spip/spip,v3.2.0-beta.3,7f61557d973960107ba76baf2ac0e6294baf55fc
2017-10-12,spip/spip,v3.1.7,e7b3cd3d1c206cb3c9aff627270c016755c36e6a
2017-10-12,spip/spip,v3.2.0,d287f1930e1a70d9f80a95ef69c0565ebfd03482
2018-03-16,spip/spip,v3.0.27,daba64e2bc8036318ddaf5d01330559a8791b163
2018-03-16,spip/spip,v3.1.8,f13224adb34c6d08a427a377e16ed869fd44df23
2018-03-16,spip/spip,v3.2.1,73baf5b42d250f8f05bcbd7126461f7be7af7517
2019-01-18,spip/spip,v3.0.28,a039973801fa4965274947422eed7e45f3eee877
2019-01-18,spip/spip,v3.1.9,1e3872cf9cebd4bcd4a6aa0b207a6b121727ad5c
2019-01-18,spip/spip,v3.2.2,9d078ff0ead6bc72ddae3a6806d6f69e39dd7d29
2019-01-21,spip/spip,v3.2.3,3e1caf065268f0b4fa612f440d497ed93648fc6a
2019-04-08,spip/spip,v3.1.10,9861a47ac259e98e29adb7c635bbf802d7d6b869
2019-04-08,spip/spip,v3.2.4,b76af16c1b32a25a8b05eb8496a2409547a3be50
2019-09-16,spip/spip,v3.1.11,7735d12d943595a4037ab19b567b48f831364ed6
2019-09-16,spip/spip,v3.2.5,c2b5b8ed1a9cc7df1a769b4c753d34cdb032a0d8
2019-12-12,spip/spip,v3.1.12,f877b7018f24395ea1820011a0383ea4153a86c5
2019-12-12,spip/spip,v3.2.6,72b09a322c764e10a68b4c26d6ba3d5262b6776e
2019-12-12,spip/spip,v3.2.7,947dd2665470c94fd36ee80ccb71faef24a668dc
2020-09-29,spip/spip,v3.1.13,40b1b5ed7200513fc9bcc4f6fdd70647a2d71484
2020-09-29,spip/spip,v3.2.8,0cb72efbf54729835d148593401157ea04f66c82
2020-10-02,spip/spip,v3.1.14,d2e574be9903e17e856d4247e621dd4e3da40e71
2021-02-12,spip/spip,v3.1.15,dc185da8132d320d84cf41924b5896f1ddadf301
2021-02-12,spip/spip,v3.2.9,c970718a7afce4c9da0a05ee7162cd2b1f75858f
2021-03-26,spip/spip,v3.2.10,0d6db1f219f048acc1c3a10051da42295918246a
2021-03-26,spip/spip,v3.2.11,0390a3454c810e485359f3e31cc29a92a4c6b6db
2021-05-01,spip/spip,v4.0.0-alpha,57d94a59d7c497bfcab0ca0bd961819ac821e878
2021-06-01,spip/spip,v4.0.0-beta,355322b96a90e04aaacdb122c03bb24194e44c85
2021-07-08,spip/spip,v4.0.0,39ea7576e05e9d582d12e779340944d6f5111712
2021-12-14,spip/spip,v3.2.12,f3f5efdca39c380397f697f4ddb76b24bca72262
2021-12-14,spip/spip,v4.0.1,eba8e0bf6b27397f11f248b19685118ff41a8c13
2022-01-24,spip/spip,v4.0.2,b3a3171a3059a108f7a761a377727cce11641a1c
2022-02-01,spip/spip,v4.0.3,78a095afd86d33d649aab610a28f26a2db8eabad
2022-02-02,spip/spip,v3.2.13,2201bb9f55792c1e1409e1e2d81820b68372bf59
2022-02-02,spip/spip,v4.0.4,eb0cc6dd15b0f6623baa97f4edf1f2d7ddf1b29c
2022-02-08,spip/spip,v4.1.0-alpha,7bffd54916d39754c74315516d9ed0d5acbe6fd3
2022-02-18,spip/spip,v4.1.0-beta,b242975ed2bd9e8e8b60b73dad59785ed934f722
2022-03-04,spip/spip,v3.2.14,477a1ca52ce91b2e4d5ac2c585c430a6e37dc4fb
2022-03-04,spip/spip,v4.0.5,67ffdaaa3a12150c16ff5faecba2ddfb80c48167
2022-03-05,spip/spip,v4.1.0-rc,be4122e1334f785bc02fff181e8014fa3adb0620
2022-03-25,spip/spip,v4.1.0,a797bb7a425631b6a7c1bcfcc3ce939823e4d152
2022-04-01,spip/spip,v4.0.6,a25521b40ffc9553675d5a0ebf5d4fb85bb2dec8
2022-04-01,spip/spip,v4.1.1,034ce8f34106c399a3d0b85ac6019348dafb7656
2022-05-20,spip/spip,v3.2.15,de9f08d623abf95ad7c03544dd65b8c50516ff5d
2022-05-20,spip/spip,v4.0.7,37ba4101dd6e0973a1a1e6fc0a853471cca56adc
2022-05-20,spip/spip,v4.1.2,73c781d355e7ddcada416a8e6ed638e6eb3eb18b
2022-07-21,spip/spip,v3.2.16,34872d74b3d89990ca35c0174d904a33c497cdef
2022-07-21,spip/spip,v4.0.8,ebad49aed71c3113e826e6523648b38f50f662a3
2022-07-21,spip/spip,v4.1.3,04c20d8af6932556e405b7693a9d1fc37c4fa281
2022-07-21,spip/spip,v4.1.4,98605c2fceaaf3f34dd7068f0af4e8bb60d4ead2
2022-07-21,spip/spip,v4.1.5,60362615c151415155fce068c75b1cb19005a25c
2023-01-13,spip/spip,v3.2.17,9394e2f04852c290f8da9077d706f4abd7027c9d
2023-01-13,spip/spip,v4.0.9,d07feebfe6a6cf36d8668d575f431669a7f48769
2023-01-13,spip/spip,v4.1.6,8ee36a7960463a26f126b3b8d331b92c998a14f8
2023-01-13,spip/spip,v4.1.7,627fe1fc50ed76dd75cc3aede288435c448bedf8
2023-01-27,spip/spip,v4.2.0-alpha,61ce15cd1201bb40b73086860f0cd9289e0db096
2023-01-28,spip/spip,v4.2.0-alpha2,708239979d97e74e1ed987625760009b76325a2d
2023-02-23,spip/spip,v4.2.0,ecac31e4c3c28ad0d7969b2f44c4e3b6711b0dfc
2023-02-27,spip/spip,v3.2.18,f2c7ff501fdf432e3e5228f6700162f8ad60407a
2023-02-27,spip/spip,v4.0.10,a99abb6b978b8becfc4e4a9631885b36cf84956c
2023-02-27,spip/spip,v4.1.8,cea0950ecc802489624e4c8de6f822b98e7ae5cc
2023-02-27,spip/spip,v4.2.1,30ec4732f441de0d0c6a204a0b089134001b8425
2023-02-28,spip/spip,v3.2.19,a590a9e0751fd00aadd241c149b98c6f396f3ee5
2023-02-28,spip/spip,v4.0.11,be488ad8244786e67d20d5baa8eeab6b42d10f53
2023-02-28,spip/spip,v4.1.9,73ff33e30e81b8b8dd63fc0d17d45ce491cbdcd6
2023-02-28,spip/spip,v4.2.2,ba9f1c8543b638221a35366ad994727f1fb0b612
2023-06-07,spip/spip,v4.1.10,536192d895c051b0859374710fbdd5bf15205e3f
2023-06-07,spip/spip,v4.2.3,b9255defc044ea9fcdd59bb755af0a01244a2c30
2023-07-07,spip/spip,v4.1.11,190e7cd43be2a869562aa090f41befbc06382da2
2023-07-07,spip/spip,v4.2.4,d1569a3a59ccf54444e45d168571687f3079200b
2023-09-01,spip/spip,v4.1.12,92586937c8ede9ef4fb5608f25d0bd0216b6152e
2023-09-01,spip/spip,v4.2.5,5dbe29b51976339f086cf76763c85aa3dc4fbbf1
2023-10-05,spip/spip,v4.2.6,865ac6626f457d9496fa82aa189fee510dee2990
2023-12-18,spip/spip,v4.1.13,79d1d821ad652a575b982baaf12594ab0e6d2638
2023-12-18,spip/spip,v4.2.7,d28408f7ba598949cbcad30f04447003a91f4a56
2024-01-11,spip/spip,v4.1.14,86e60c0ddda816c75091d3740063b4355d99d2d5
2024-01-11,spip/spip,v4.2.8,9cabfaff24ad2852614aa8026b06a9b30c0e3192
2024-01-12,spip/spip,v4.1.15,4cd61d913c0a939140c7bd2b5c0984f7571abf83
2024-02-08,spip/spip,v4.2.9,46de7b3584e33c11eff1903bb0b7595ac910c71b
2024-03-08,spip/spip,v4.2.10,2fcc433f3b24c50ae913cef3ec3f7846033c06b6
2024-04-05,spip/spip,v4.2.11,a7beadb73a72302d063976906be21d44529d71f8
2024-05-07,spip/spip,v4.2.12,20b24c4bf812971a1d944021fe0d1c14182b7792
2024-05-07,spip/spip,v4.3.0-alpha,a7ee6156da011902454520c293f9a4de721cc51b
2024-05-29,spip/spip,v4.1.16,ce1fc2dadf4165f09394ff36a1b6ff19066eb77d
2024-05-29,spip/spip,v4.2.13,77316cb7e8598af98aa58588be345c37bdf0f0b8
2024-05-29,spip/spip,v4.3.0-alpha2,7287f1925df5504343d60d4b86e671e1d4cee4d1
2024-06-07,spip/spip,v4.1.17,0e966a2d8518e43eb77f5c44ea3bf9d3c55e4706
2024-06-07,spip/spip,v4.2.14,c313dc295eb599bf6fe75e0d54e9133642681f5b
2024-06-07,spip/spip,v4.3.0-beta,754cf930661daab66fc7529ae1060b4a1cfaa74e
2024-07-26,spip/spip,v4.2.15,4cbed5e45875e6b3cd60b3005a2dad0e8dcc6f9f
2024-07-26,spip/spip,v4.3.0,d018791680e65c1415b84efdfb89f6c96ba8c34a
2024-08-01,spip/spip,v4.3.1,83f12f5fe3531728fd2690291aa721b97afd663a
2024-08-20,spip/spip,v4.1.18,fd694690b2751f4f22f4c490a6ec7dfdccd7525d
2024-08-20,spip/spip,v4.2.16,53acc3d9bdd53b2b424d816d4739c6a97a2e59c9
2024-08-20,spip/spip,v4.3.2,b4bad21a63ac96a8007fa2de631928cdc650ae3b
2024-10-08,spip/spip,v4.3.3,254e16c6f6c6bc48995ae2f64c2058ab07f98820
2024-11-12,spip/spip,v4.3.4,1461e62e07bb5c4c57915c8bf238eecbbfb35830
2024-12-03,spip/spip,4.4.0-beta,ae3f1eed000b3e5cfc08c4a3e971a6e5ec98e328
2024-12-03,spip/spip,5.0.0-beta,3588be1c983062cc50fe46ab64aa130e4ce7833b
2024-12-03,spip/spip,v4.3.5,e9518c5049c4e374b560706309dbeddd432eaa58
2025-01-16,spip/spip,4.1.19,794a4ebb1ad7e86004efefe65a8bf1bb04e3f7a6
2025-01-16,spip/spip,4.1.20,7c22229944e955c98ed46be2e4c0d55612c4d599
2025-01-16,spip/spip,4.2.17,dbaedf8278c270b0627a86769e1c5dea04062625
2025-01-16,spip/spip,4.3.6,a268e0e00d24dce35c5df4070721e69312621a4a
2025-01-17,spip/spip,4.4.0-beta2,8aff7a91004302aef039d394afeb2fef256001e9
2025-01-17,spip/spip,4.4.0-beta3,2fbf1ebe8431ce9dbc4c130beaecc02b8c9468ce
2025-01-29,spip/spip,4.4.0-beta4,a5862388efc9003c83969e141e1719c1fefe8619
2025-02-14,spip/spip,4.4.0,34c023d47b424b5b4daebe8be37e2c4f1142ebc0
