date,full_path,name,sha
2019-11-07,spip-contrib-extensions/colonne_raccourci,master,2b234e07190d2977f6645222a710f47b16af2925
2021-11-14,spip-contrib-extensions/colonne_raccourci,gh-2b234e07/1/unknown/master,82c397850305a39e547336c40aff8afdc969f045
