date,full_path,name,sha
2020-08-31,spip-contrib-extensions/formidable_tablesorter,v1,7450500c7783419eea677c6e28517b1010c8099b
2022-09-29,spip-contrib-extensions/formidable_tablesorter,grille_question,b297b0fbe0ec1aadf6386354c71d122478c7d37f
2023-06-13,spip-contrib-extensions/formidable_tablesorter,v2,49f73484e62a46c1285853193be6940b2923c3bb
2024-12-31,spip-contrib-extensions/formidable_tablesorter,master,8913bfccd3bf5c376efd63bbf932c286520a3190
