date,full_path,name,sha
2019-11-10,spip-contrib-extensions/formidable_tablesorter,v0.1.0,4557a3766e18158e90181463223d75109d5de83b
2019-11-19,spip-contrib-extensions/formidable_tablesorter,v0.1.1,6b151267756e461647c002439c950c01c40f26c5
2019-11-25,spip-contrib-extensions/formidable_tablesorter,v0.2.0,5c4f9e57ba50814688c2e5ff076934e44cd93178
2019-11-28,spip-contrib-extensions/formidable_tablesorter,v1.0.0,533a3f8d162108c24c5795e8b585c0e55732a8e9
2020-03-05,spip-contrib-extensions/formidable_tablesorter,v1.2.0,8489c934ba152de3d7c791a6314734f56bc2a26f
2021-01-15,spip-contrib-extensions/formidable_tablesorter,v2.0.0,f739a9b5f4af5605f6378615239846a816f94c4d
2021-01-15,spip-contrib-extensions/formidable_tablesorter,v2.0.1,005bf31ae694ef6062e618b41d44654c75557391
2021-02-14,spip-contrib-extensions/formidable_tablesorter,v2.0.2,70c813cce6513d45cee337032929c2c5cc2d0852
2021-03-13,spip-contrib-extensions/formidable_tablesorter,v2.0.3,8a5a93b2bd8c9c9ff2d392dcc75913afce439003
2021-03-31,spip-contrib-extensions/formidable_tablesorter,v2.0.4,98ac6d7333ab15e28fe0853e6d78531ea6c37834
2021-04-14,spip-contrib-extensions/formidable_tablesorter,v2.0.5,beba4461297cba1b3995b7c4202fd72dbede0354
2021-04-15,spip-contrib-extensions/formidable_tablesorter,v2.0.6,ccc1723a44760c0d3d5e0af18b01bca451bf1769
2021-04-20,spip-contrib-extensions/formidable_tablesorter,v2.0.7,374e451622741a6fbb96d52cd16f6a48f6a18fda
2021-05-20,spip-contrib-extensions/formidable_tablesorter,v2.0.8,b88eb6768994f4fcd7c7c730350fbc905a9d11a9
2022-01-07,spip-contrib-extensions/formidable_tablesorter,v2.0.9,015b4ab30045a1e279cefc592a309b8870b0e857
2022-02-06,spip-contrib-extensions/formidable_tablesorter,v2.0.10,4617070a30c7a9bf65b67c14fd8d7f6282e5d001
2022-03-03,spip-contrib-extensions/formidable_tablesorter,v2.0.11,9baaa9299b943ee6c7ab5a1fb411affd423efed5
2022-03-10,spip-contrib-extensions/formidable_tablesorter,v2.0.12,f302c6cefd8ae2413c6dbf3fc95ce265b339a4c9
2022-05-08,spip-contrib-extensions/formidable_tablesorter,v2.0.13,564b390827c3133654c47636648e56bf9af6ce10
2022-05-31,spip-contrib-extensions/formidable_tablesorter,v2.0.14,d8447de68b6a4939a0dc0244cc9d322e2489b505
2022-05-31,spip-contrib-extensions/formidable_tablesorter,v2.0.15,a8328327f0bec465526d3a791eade671648bad2d
2022-06-04,spip-contrib-extensions/formidable_tablesorter,v2.0.16,245ec7cb900e20f910baffc50f7ff7c9adb21336
2022-06-13,spip-contrib-extensions/formidable_tablesorter,v2.0.17,647cb0687f85acc58530fac79f394f91b9bfc63e
2022-09-20,spip-contrib-extensions/formidable_tablesorter,v2.0.18,9401b838ebb4e51c442adc1bd34607590ff93cbd
2022-10-14,spip-contrib-extensions/formidable_tablesorter,v2.0.19,930d4e55143ac199ba470db9e949a6714222fcab
2023-06-13,spip-contrib-extensions/formidable_tablesorter,v2.0.20,49f73484e62a46c1285853193be6940b2923c3bb
2023-10-25,spip-contrib-extensions/formidable_tablesorter,v3.0.0,ab0c73df2677e9dd279709f9fa3901f676d77bc5
2024-02-22,spip-contrib-extensions/formidable_tablesorter,v3.1.0,7299c425b842bfc55f787b7d66b20fa7341576a5
2024-06-09,spip-contrib-extensions/formidable_tablesorter,v3.1.1,7b470d638e3da5800e87e9ce0327e5f070f1ca25
2024-11-16,spip-contrib-extensions/formidable_tablesorter,v4.0.0,d26386f3a5972e07231a306af733a63c75fde367
2024-12-17,spip-contrib-extensions/formidable_tablesorter,4.0.1,fccaa3cf3958cf7427a0924dfc6500dcca603990
2024-12-31,spip-contrib-extensions/formidable_tablesorter,v4.0.2,8913bfccd3bf5c376efd63bbf932c286520a3190
