pushed to,Codage,230,jcvilleneuve,2024-08-17,2687,Project
pushed to,Codage,230,jcvilleneuve,2024-08-17,2687,Project
pushed to,Codage,230,jcvilleneuve,2024-08-17,2687,Project
pushed to,Codage,230,jcvilleneuve,2024-08-18,2687,Project
pushed to,Codage,230,jcvilleneuve,2024-08-20,2687,Project
pushed to,Codage,230,jcvilleneuve,2024-08-22,2687,Project
pushed new,Codage,230,jcvilleneuve,2024-08-24,2687,Project
pushed to,Codage,230,jcvilleneuve,2024-08-24,2687,Project
pushed to,Codage,230,jcvilleneuve,2024-08-25,2687,Project
pushed to,Codage,230,jcvilleneuve,2024-08-25,2687,Project
pushed to,Codage,230,jcvilleneuve,2024-08-26,2687,Project
pushed to,Codage,230,jcvilleneuve,2024-09-26,2687,Project
pushed to,Codage,230,jcvilleneuve,2024-10-03,2687,Project
pushed to,Codage,230,jcvilleneuve,2024-10-09,2687,Project
pushed new,Codage,230,jcvilleneuve,2024-10-10,2687,Project
pushed to,Codage,230,jcvilleneuve,2024-10-10,2687,Project
pushed new,Codage,230,jcvilleneuve,2024-10-11,2687,Project
pushed to,Codage,230,jcvilleneuve,2024-10-11,2687,Project
pushed to,Codage,230,jcvilleneuve,2024-10-11,2687,Project
pushed to,Codage,230,jcvilleneuve,2024-10-11,2687,Project
pushed to,Codage,230,jcvilleneuve,2024-10-12,2687,Project
pushed new,Codage,230,jcvilleneuve,2024-10-14,2687,Project
pushed to,Codage,230,jcvilleneuve,2024-10-14,2687,Project
pushed to,Codage,230,jcvilleneuve,2024-10-22,2687,Project
pushed new,Codage,230,jcvilleneuve,2024-10-23,2687,Project
pushed to,Codage,230,jcvilleneuve,2024-10-23,2687,Project
pushed to,Codage,230,jcvilleneuve,2024-10-23,2687,Project
pushed to,Codage,230,jcvilleneuve,2024-10-28,2687,Project
pushed new,Codage,230,jcvilleneuve,2024-11-11,2687,Project
pushed to,Codage,230,jcvilleneuve,2024-11-11,2687,Project
pushed new,Codage,230,jcvilleneuve,2024-11-13,2687,Project
pushed to,Codage,230,jcvilleneuve,2024-11-13,2687,Project
pushed new,Codage,230,jcvilleneuve,2024-11-16,2687,Project
pushed to,Codage,230,jcvilleneuve,2024-11-16,2687,Project
pushed to,Codage,230,jcvilleneuve,2024-11-21,2687,Project
pushed to,Codage,230,jcvilleneuve,2024-11-22,2687,Project
pushed to,Codage,230,jcvilleneuve,2024-11-22,2687,Project
pushed new,Codage,230,jcvilleneuve,2024-11-28,2687,Project
pushed to,Codage,230,jcvilleneuve,2024-11-28,2687,Project
pushed to,Codage,230,jcvilleneuve,2024-12-04,2687,Project
pushed new,Codage,230,jcvilleneuve,2024-12-16,2687,Project
pushed to,Codage,230,jcvilleneuve,2024-12-16,2687,Project
pushed to,Codage,230,jcvilleneuve,2024-12-16,2687,Project
pushed to,Codage,230,jcvilleneuve,2024-12-28,2687,Project
pushed to,Codage,230,jcvilleneuve,2025-01-02,2687,Project
pushed to,Codage,230,jcvilleneuve,2025-01-02,2687,Project
pushed to,Codage,230,jcvilleneuve,2025-01-02,2687,Project
pushed new,Codage,230,jcvilleneuve,2025-01-07,2687,Project
pushed to,Codage,230,jcvilleneuve,2025-01-07,2687,Project
pushed to,Codage,230,jcvilleneuve,2025-01-07,2687,Project
pushed new,Codage,230,jcvilleneuve,2025-01-08,2687,Project
pushed to,Codage,230,jcvilleneuve,2025-01-08,2687,Project
pushed to,Codage,230,jcvilleneuve,2025-01-08,2687,Project
pushed to,Codage,230,jcvilleneuve,2025-02-12,2687,Project
