date,full_path,name,sha
2017-12-17,spip-contrib-squelettes/escal,escal_v2,1eb698c03f78dbb2321c88f30e21c1d76769371f
2020-03-24,spip-contrib-squelettes/escal,v3.87.91,e4718f53cd3830bb71afc49f2f11eeeadc74efcc
2020-04-05,spip-contrib-squelettes/escal,v4.3.70,ec1da6aa3cd15296fb7186ae5e608940c8122cfc
2020-04-12,spip-contrib-squelettes/escal,v4.3.72,978f0c2408af650ebf4d256b5f74e7b00c75cecd
2020-05-12,spip-contrib-squelettes/escal,v4.3.73,4570c3d710137a902dbc451eab682a89370df303
2020-05-18,spip-contrib-squelettes/escal,v4.3.74,e8fa88d6003f89121dd5dd6469a7279f62da5697
2020-05-19,spip-contrib-squelettes/escal,v4.3.75,e35c1f05cd672f1b736c25ada50e05aeed592248
2020-05-19,spip-contrib-squelettes/escal,v4.3.76,6f58012765992502c7f81ebfcb94a39c740f0d10
2020-05-28,spip-contrib-squelettes/escal,v4.3.77,e4f2b4e6b6c9138801c38697a25a617ed90ddfef
2020-06-04,spip-contrib-squelettes/escal,v4.3.78,6d68847cb06407fe73f4adbfedd70bd0d8ea77b5
2020-06-09,spip-contrib-squelettes/escal,v4.3.79,97a5526eb31cf31ec0ace3999731fa14dfae2f53
2020-07-09,spip-contrib-squelettes/escal,v4.3.80,be34bdec6bce8b005684d7d77277abbfbdd509d1
2020-07-26,spip-contrib-squelettes/escal,v4.3.81,f2722969db899858bb59cf64175abf43b533d2fb
2020-08-05,spip-contrib-squelettes/escal,v4.3.82,b2f643711a221f0174119d98b3779c26901f6502
2020-08-05,spip-contrib-squelettes/escal,v4.3.83,58dd7cf1a107c27930b5fa77be3be4f8abc4a8a6
2020-09-10,spip-contrib-squelettes/escal,v4.3.84,67de6f6979db4a709b5587ca4ff34ededb95c8f0
2020-09-16,spip-contrib-squelettes/escal,v4.3.85,05be114ce52f7fad45d0c4c49fc6c3e42be04a4d
2020-09-18,spip-contrib-squelettes/escal,v4.3.86,ade9cacd0ce56688e6ae38740ac112ee90a01d6b
2020-09-24,spip-contrib-squelettes/escal,v4.3.87,774a2b2c809fc5d1a603d6f481fd31798b643230
2020-10-01,spip-contrib-squelettes/escal,v4.3.88,65bffb598a1be3bf0a47cb0b6a7b22fd62cd0535
2020-10-26,spip-contrib-squelettes/escal,v4.3.89,0cc98e57dd55127a75ad924601e773aeccc9c419
2020-11-03,spip-contrib-squelettes/escal,v4.3.90,dd70a45478c3cc4ae7c34fa299168cfc71e5a6ca
2020-11-10,spip-contrib-squelettes/escal,v4.3.91,692752767354490714df5c15362c1c8eb302eaf7
2020-11-11,spip-contrib-squelettes/escal,v4.3.92,01dee0f5a289974cddcff77587859c857403f7cd
2020-11-18,spip-contrib-squelettes/escal,v4.3.93,cf2cb61194e4bce21ea2dfc3454fa7df37801775
2020-12-02,spip-contrib-squelettes/escal,v4.3.94,36e0b36234411689f26a657dfb6b4a6941676e4b
2020-12-10,spip-contrib-squelettes/escal,v4.3.95,84c703118da2f2b02ea6c8dee3c05711e1d1a9e9
2020-12-25,spip-contrib-squelettes/escal,v4.3.96,fa67d1681d572de3afc42f1ad3d887aa8ce369a5
2020-12-26,spip-contrib-squelettes/escal,v4.3.97,83b49a8758c81b2a849b531b813164126330210b
2021-01-15,spip-contrib-squelettes/escal,v4.3.98,0585e2044756d3295191aa97b8a8ccd3ef11e02c
2021-01-22,spip-contrib-squelettes/escal,v4.3.99,4fb2e92fcad59ac4f0e16b6bb9d6d6b6cab74b72
2021-02-02,spip-contrib-squelettes/escal,v4.4.0,213bc557113a985a12bf31b2dcb6c3ee5e14153a
2021-02-05,spip-contrib-squelettes/escal,v4.4.1,8d8f2954f6dc7a82d83e9d9d6cbc516480a88e33
2021-02-23,spip-contrib-squelettes/escal,v4.4.2,ecc27c9de0552f8c134bf78a3dea08c8db195b0e
2021-02-25,spip-contrib-squelettes/escal,v4.4.3,47af0c3f5b9d1b124962737459d41a55d4fbf4c5
2021-03-02,spip-contrib-squelettes/escal,v4.4.4,43f65266c92a2c0d7ab4cf59b6eab70715465616
2021-03-04,spip-contrib-squelettes/escal,v4.4.5,d1bd4077044d1ed884957fce3344ae3e7dc9f2a2
2021-03-16,spip-contrib-squelettes/escal,v4.4.6,4d5e32c0862981a5e8308e7be943f45cd6224b93
2021-03-24,spip-contrib-squelettes/escal,v4.4.7,aaa017c9153838e8d136f3fb90ed2f4969492b13
2021-03-30,spip-contrib-squelettes/escal,v4.4.8,f73d3cf5d3a654bc09865ef71bf2b884f328539f
2021-04-15,spip-contrib-squelettes/escal,v4.4.9,6a590f19f46cbacc5dbf4abb8af50636a5d198a8
2021-04-16,spip-contrib-squelettes/escal,v4.4.10,b1add40bb1a8e9f13a5daaba2bfd3447ab780094
2021-04-16,spip-contrib-squelettes/escal,v4.4.11,5e1f130680e652555ac7416383c5034b2c2393bf
2021-04-17,spip-contrib-squelettes/escal,v4.4.12,36d44a783b2779e472bbbd7e4af16dcd7492cd73
2021-04-26,spip-contrib-squelettes/escal,v4.4.13,7ea97a5e0440c6e0fbaeea3d20855f72c2f70531
2021-04-27,spip-contrib-squelettes/escal,v4.4.14,bb09e16b0e431cb6e85f9d2ed2272c61494407f4
2021-04-27,spip-contrib-squelettes/escal,v4.4.15,cb410086fbe22be1c4c75dfe5755c4dc9739dc81
2021-04-29,spip-contrib-squelettes/escal,v4.4.16,fc3e6eb8e3ae98af7b4852ab534bec41a9e90b8b
2021-04-29,spip-contrib-squelettes/escal,v4.4.17,b94ba303ba938eecbef6b0245351d0307bd897fd
2021-05-01,spip-contrib-squelettes/escal,v4.4.18,5085ac3e45bfe428fe4f3870ef7ec2c9d269969e
2021-05-03,spip-contrib-squelettes/escal,v4.4.19,a353941c0fa5c1d78a2aea4357503dc08af17d14
2021-05-03,spip-contrib-squelettes/escal,v4.4.20,d094ca0054905a002a4d17655f0eaf2ac1eb805a
2021-06-14,spip-contrib-squelettes/escal,v4.5.0,8ba3c0d951780326b59ae75076374d370933b93c
2021-06-17,spip-contrib-squelettes/escal,v4.5.1,c7b872955815ef83f1d55455967fbd2caf55f8aa
2021-06-30,spip-contrib-squelettes/escal,v4.5.2,8be405858d075a1df79f7bae7e5acaf081352d84
2021-07-01,spip-contrib-squelettes/escal,v4.5.3,a739dfd89695f994346b64d68c56e1ac996b8b3d
2021-07-07,spip-contrib-squelettes/escal,v4.5.4,bb482ee9faa322f561f4fdc66bab23e9f9f0f908
2021-07-08,spip-contrib-squelettes/escal,v4.5.5,c0ead5c0260722b0c3dd60b30f71ea35dae44b6c
2021-07-11,spip-contrib-squelettes/escal,v4.5.6,93b2f581d26661154051dde1b7be162e88d40392
2021-07-13,spip-contrib-squelettes/escal,v4.5.7,f03cff1eb0c2554fbf1d109948a4b0fe2e189696
2021-07-29,spip-contrib-squelettes/escal,v4.5.8,85cd40dbf2723f9117ed4bda01f4b391459a33f4
2021-09-01,spip-contrib-squelettes/escal,v4.5.9,4f8d07b635174f4591861ee9df63ca8a1fc05ffd
2021-09-02,spip-contrib-squelettes/escal,v4.5.10,30d7d1757246bc5d957596986dbd214c75cec1c6
2021-09-27,spip-contrib-squelettes/escal,v4.5.11,b5dc5bc1bfc2e352bb15a209b132be964a703fe9
2021-10-06,spip-contrib-squelettes/escal,v4.5.12,518d48cd889d371a5694f4c32419861024c43669
2021-10-11,spip-contrib-squelettes/escal,v4.5.13,51ba16383a0efa4500dd267f09b802539612fca2
2021-10-19,spip-contrib-squelettes/escal,v4.5.14,1a533fe2338c37059e232fca1b21119ed39108c6
2021-10-24,spip-contrib-squelettes/escal,v4.5.15,6d6b7a3da3438aadf04777b25686462db6a4057d
2021-10-25,spip-contrib-squelettes/escal,v4.5.16,e001aaf173660272755567968d1ef6f4331442f9
2021-11-01,spip-contrib-squelettes/escal,v4.5.17,538212397d71cade0dac2ca6d0c5cad0b69f2f4d
2021-11-04,spip-contrib-squelettes/escal,v4.5.18,b10b276b25ae612999e612ae06cbbfb8555e7fda
2021-11-08,spip-contrib-squelettes/escal,v4.5.19,513eec3f801b824a46fcce0db171aba85a7b47d3
2021-11-15,spip-contrib-squelettes/escal,v4.5.20,444453a532168558ab79d9296b658007cc1f6396
2021-11-16,spip-contrib-squelettes/escal,v4.5.21,e481d3986f8188f3714650cfd835b14238267806
2021-11-19,spip-contrib-squelettes/escal,v4.5.23,28b72eadaba8abef6bc1d2708c34493cf06247fa
2021-12-06,spip-contrib-squelettes/escal,v4.5.24,6d381d25715f61c0c08a7ee847fc2a0d6ce397b6
2022-01-05,spip-contrib-squelettes/escal,v4.5.25,e98f7c53609181ee9abd185c39b0ab4611b05700
2022-01-10,spip-contrib-squelettes/escal,v4.5.26,251db2780ccab4758248fb6a0c4bdb9b0cf06264
2022-01-20,spip-contrib-squelettes/escal,v4.5.27,9ab948bed1e2bf0a645062feb7ddc388c5c16bf4
2022-01-25,spip-contrib-squelettes/escal,v4.5.29,026c8b24bf2230fe693f4765e6bb7cf7b5b25067
2022-01-26,spip-contrib-squelettes/escal,v4.5.30,e3d190a2a9b403601bc3eff7705f5773338b3cc0
2022-01-27,spip-contrib-squelettes/escal,v4.5.31,d1cc5839f8701620422a46ba299a0e7c5a76c69c
2022-02-04,spip-contrib-squelettes/escal,v4.5.32,cbd62a3def394c590b59a0c16cbe85b09f8d04a2
2022-02-07,spip-contrib-squelettes/escal,v4.5.33,b42b7e828aa523bdf339d3601e1e69bc550bd55d
2022-02-10,spip-contrib-squelettes/escal,v4.5.34,10669fdb528621e4c30c7f820fcc040a5954452e
2022-02-15,spip-contrib-squelettes/escal,v4.5.35,e5d55b5857997a9f07e684cb76a872dd6ae444ca
2022-02-16,spip-contrib-squelettes/escal,v4.5.36,3807209daabe0994e2496fd4b9c6e438fd140c47
2022-02-22,spip-contrib-squelettes/escal,v4.5.37,60e508581ebccb7d4d7d51183f71816cd9cdb27a
2022-03-03,spip-contrib-squelettes/escal,v4.5.38,eb71b426a0d382e4d7343f881ecefe0cf33ae0aa
2022-03-04,spip-contrib-squelettes/escal,v4.5.39,0e3fc4d3c99591f9a9a2dab7d478514cfc709627
2022-03-28,spip-contrib-squelettes/escal,v4.5.40,0b4064e0b72587fd562fa80452e4615d59128dae
2022-03-29,spip-contrib-squelettes/escal,v4.5.41,21d72ecc64719de7ae845796c9262e94462a78de
2022-04-01,spip-contrib-squelettes/escal,v4.5.42,62f605e9e65bc0a64dbbe4a7ff91090b23c1cd69
2022-04-01,spip-contrib-squelettes/escal,v4.5.43,c48f24ba0fc4f22ed31ddfc19a75990f28dfe7f1
2022-04-21,spip-contrib-squelettes/escal,v4.5.44,f786dc4867f3fe6bc6437ba45663410fd87ee0f9
2022-04-25,spip-contrib-squelettes/escal,v4.5.45,1144bd82fa26e68dcc6f5a710aa1aa89cd0c7fa3
2022-05-03,spip-contrib-squelettes/escal,v4.5.46,971528a00f908449929929d9a8c00a5f61916830
2022-05-06,spip-contrib-squelettes/escal,v4.5.47,691348c6fdc6ae0e0ee46bde48d956ba74b2e6db
2022-05-27,spip-contrib-squelettes/escal,v4.5.48,3a43d6939c83a8a1dde3c4e5b33bc3e710cbc349
2022-05-27,spip-contrib-squelettes/escal,v4.5.49,ea4fb974e99a51877c63f2cef98eb59898530959
2022-05-31,spip-contrib-squelettes/escal,v4.5.50,2eef7409a3561ed2322d452dbf9668dbfd9bf3ea
2022-06-04,spip-contrib-squelettes/escal,v4.5.51,e48514283becb4fa2a180c78477c9508c6d4a99a
2022-06-07,spip-contrib-squelettes/escal,v4.5.52,9420d5adcb0f33d5b32c13bca3dd4baff091091d
2022-08-02,spip-contrib-squelettes/escal,v4.5.53,c870563869285d2062cbe167261b9551348451e9
2022-08-05,spip-contrib-squelettes/escal,v4.5.54,4d34cbd195e51c8d4a8287539ffdd666dc97d5a5
2022-08-05,spip-contrib-squelettes/escal,v4.5.55,2df04f5826e4de4a41f9b263ac3c831d4b885da8
2022-08-18,spip-contrib-squelettes/escal,v4.5.56,1e60988ff72ac8cfeccb2eb2e46697aee84670e6
2022-08-18,spip-contrib-squelettes/escal,v4.5.57,9e52a0a2811efd2c781e35e7b744ede56357afdc
2022-09-15,spip-contrib-squelettes/escal,v4.5.58,669a2628eebdb3c449e5554ff06b4cb106210c04
2022-10-01,spip-contrib-squelettes/escal,v4.5.59,9eefb307a34d6a846eda5cb38f07b57d9e29296a
2022-10-08,spip-contrib-squelettes/escal,v4.5.61,730ae31fb6792e855d47301000cb299a0c620d63
2022-10-10,spip-contrib-squelettes/escal,v4.5.62,5359364b2a7a8082ede6dd17d3c66d2629486e6c
2022-10-14,spip-contrib-squelettes/escal,v4.5.63,806af5551bfe8bb546217588a2224fabb8e3fffb
2022-10-18,spip-contrib-squelettes/escal,v4.5.64,d52a6b990cdf6c1abf216e74dedc98a37f11ea62
2022-10-26,spip-contrib-squelettes/escal,v4.5.65,080b44c94e30b785334ea3f21941b2532f058538
2022-10-31,spip-contrib-squelettes/escal,v4.5.66,1b2e4ae411d2d521f9bc87090bc277117373931b
2022-11-23,spip-contrib-squelettes/escal,v4.5.67,214f57bf775a9b94778d52a095618f87ba8c280b
2022-11-25,spip-contrib-squelettes/escal,v4.5.68,1e28aee0ae464680d45c8c4230f916966290b61b
2022-11-27,spip-contrib-squelettes/escal,v4.5.69,9a14cb86df11ddc1ff7585c50f2587cb6d56f032
2022-11-29,spip-contrib-squelettes/escal,v4.5.70,dc481d5134b1796010b57e20157c30cfe91b7df4
2022-12-19,spip-contrib-squelettes/escal,v4.5.71,8ba4b21c31dce71a1327d07ab0cccc19c10efb2f
2022-12-19,spip-contrib-squelettes/escal,v4.5.72,efff0fb0a0b85235feff0b09cac1925a35006235
2022-12-22,spip-contrib-squelettes/escal,v4.5.73,5aa1b1095e55a7743490bcb287f79623d79c961c
2023-01-03,spip-contrib-squelettes/escal,v4.5.74,02ad4127ee11a7e0fea2d5466683faa1cd222d02
2023-01-12,spip-contrib-squelettes/escal,v4.5.75,41224ac102e470ce40972e50f4f9ab15a272cedb
2023-01-24,spip-contrib-squelettes/escal,v4.5.76,d6bc84ff3e7122243d42060745b8909c7e35443d
2023-01-30,spip-contrib-squelettes/escal,v4.5.77,bafa4f686244021c754efa25bb0f793a3cea2bf0
2023-02-03,spip-contrib-squelettes/escal,v4.5.78,5b809cf66019dc33648ad6b3be10d5c7b41ff659
2023-02-05,spip-contrib-squelettes/escal,v4.5.79,9c5e13acefc728c7a4fd11ccea76ca3f7382c70b
2023-02-09,spip-contrib-squelettes/escal,v4.5.80,99fbb00330a5ce3279804b9af9c06400497bbba4
2023-02-23,spip-contrib-squelettes/escal,v4.5.81,830204a955691bbbbf70c4c53f48c9e1f835b16b
2023-02-24,spip-contrib-squelettes/escal,v4.5.82,58c04e83eafa61f0cd19a8a29edacdb483ef6bb6
2023-02-26,spip-contrib-squelettes/escal,v4.5.83,6555a8f05ba4230f2e8dc9eeae1a4e3d07903924
2023-03-04,spip-contrib-squelettes/escal,v4.5.84,235ca15a832c4268f1213c1aa255e0b885d626b2
2023-03-06,spip-contrib-squelettes/escal,v4.5.85,f485b8bcb5f506c7f5beee42b3cdbfd747b9f071
2023-03-11,spip-contrib-squelettes/escal,v4.5.86,a829dc3d741ab4f018f3262bc79ef9b6066cc83a
2023-03-21,spip-contrib-squelettes/escal,v4.5.87,93c5356678cbf2fbad2a234e9ca1315622bd8d81
2023-03-29,spip-contrib-squelettes/escal,v4.6.0,3bc3b6d6f732bf83913c564b4dcd412cf9400e5d
2023-03-29,spip-contrib-squelettes/escal,v5.0.0,f94c661ff61084a514ac78225fdf5e3f279a5ae9
2023-04-08,spip-contrib-squelettes/escal,v5.0.1,8ee69a4d7fc4521efdce60135cfa04e1b1d851b5
2023-04-09,spip-contrib-squelettes/escal,v5.0.2,07f6f6e4dca4597143ab5b1bc109d217e37d279b
2023-06-07,spip-contrib-squelettes/escal,v5.0.3,b1b707493d700d33fdf0abee2c317baa25820d5c
2023-06-11,spip-contrib-squelettes/escal,v4.6.1,f12ac55273b7bf89d3910aed8dfa90a9fdf99c7d
2023-06-22,spip-contrib-squelettes/escal,v4.6.2,9bd314788d63f356bcc3ed53200f4e820ba2742b
2023-06-22,spip-contrib-squelettes/escal,v5.0.5,bf2510d0dd073fbb1cfe237e39e25f29087dfe27
2023-07-24,spip-contrib-squelettes/escal,v5.0.6,6ce0a1ac22f9605c86904b72bd4a5f7fedb2430c
2023-09-06,spip-contrib-squelettes/escal,v5.0.7,2dfb7c7036372c632d556131559ea95809c25452
2023-09-06,spip-contrib-squelettes/escal,v5.0.8,ed6bb083f1a227a618954dcdfcb22b609963c86c
2023-10-17,spip-contrib-squelettes/escal,v5.0.9,44cc8bbf25dac1a2a78d08984451a9cbbb738f35
2023-11-02,spip-contrib-squelettes/escal,v5.0.10,fc3aca09d2e15c675e081bfe88118b497413b1e2
2023-11-03,spip-contrib-squelettes/escal,v5.0.11,f80da024ccd3e90c06c26c0da973af6448da29b6
2023-11-21,spip-contrib-squelettes/escal,v5.0.12,18ce2219a870a1ef67fa81de10e2db8ba4ced924
2023-12-12,spip-contrib-squelettes/escal,v5.0.13,0d33201c5033b9b9be02900d45fd8417af2b1f05
2023-12-15,spip-contrib-squelettes/escal,v5.0.14,83ea4d3d1f6739bbb0032c68d912e4a19e661efd
2023-12-15,spip-contrib-squelettes/escal,v5.0.15,766dd9092b448a38212e897465bf45730d8b6c23
2023-12-28,spip-contrib-squelettes/escal,v5.0.16,192ebc1d6bae5cfcf084da51853320f18a73d47d
2024-01-06,spip-contrib-squelettes/escal,v5.0.17,9fb4c004caa1f5f46a197a1b18f665431a32ebe9
2024-01-15,spip-contrib-squelettes/escal,v5.0.18,8cc8b90d900b27003758bca7683b2a03b70f2789
2024-01-19,spip-contrib-squelettes/escal,v5.0.19,893faea0e412607dcc0ec36af271d61145d0654a
2024-02-01,spip-contrib-squelettes/escal,v5.0.20,1bbf0d41dead7c6f18e569dc0a9df962ff33b2b8
2024-02-02,spip-contrib-squelettes/escal,v5.0.21,35cb0506949afcf233bc99467e115c168390f841
2024-02-03,spip-contrib-squelettes/escal,v5.0.22,19e111c72c87f7d3927670cf7a9beb886815b99f
2024-02-08,spip-contrib-squelettes/escal,v5.0.23,e035f698f4843ad82bf1be3855c3dd9b73d51289
2024-02-12,spip-contrib-squelettes/escal,v5.1.0,59bd31f409933844eb1ecc63bc94cad3bb39f80c
2024-02-13,spip-contrib-squelettes/escal,v5.1.1,c86bf83e7cd85388d27275fcddb6bcf1cc30389e
2024-02-15,spip-contrib-squelettes/escal,v5.1.2,3cbf8e8018d90cfa1c0ad3348c1fb3ce3ae11e96
2024-02-18,spip-contrib-squelettes/escal,v5.1.3,31d817d285e9f8837645f0374176a8ea5e562348
2024-05-23,spip-contrib-squelettes/escal,v5.1.4,294ead19320dfdc76bc1190c6c6863299917b5b8
2024-07-05,spip-contrib-squelettes/escal,v5.2.0,e5132ffba40a18e9aab4e336b9b606024411fc12
2024-08-24,spip-contrib-squelettes/escal,v5.2.1,5f155da305f5c643c2ceb998809e369d46d3d58f
2024-10-10,spip-contrib-squelettes/escal,v5.2.2,0c4b7985068f04645a2db71bb0461e03567ad6b7
2024-10-11,spip-contrib-squelettes/escal,v5.2.3,1cc74b2cdddb14c613918d048617ade745558e0c
2024-10-14,spip-contrib-squelettes/escal,v5.2.4,6c7c3426c0926dc11589d383ca1266fa27034960
2024-10-23,spip-contrib-squelettes/escal,v5.2.5,dca05c12acf0036976906472682a994430099e14
2024-11-11,spip-contrib-squelettes/escal,v5.2.6,c24fd7d31e11a3cb525f6b445e4f32d350f03cd7
2024-11-13,spip-contrib-squelettes/escal,v5.2.7,4d3d95b9d7ceac442847b788b8a49019c750af44
2024-11-16,spip-contrib-squelettes/escal,v5.2.8,0a10738041e139bdacafcba935df24791b992a2d
2024-11-28,spip-contrib-squelettes/escal,v5.2.9,1e29b70b0d443c484c702e15a91f5b51a3db939d
2024-12-16,spip-contrib-squelettes/escal,v5.2.10,96af11b042ac09f4946b3430c57881afb40c43a7
2025-01-07,spip-contrib-squelettes/escal,v5.2.11,eccdbfc3a9db3b16993ff76b2c643f5648b5b08f
2025-01-08,spip-contrib-squelettes/escal,v5.2.12,be8c6c8d56151efdbddb9d13e0316857b5d194a8
