date,full_path,name,sha
2022-07-27,spip-contrib-extensions/sitemap_images,v3,0607cd1fcbd5ca2cf4f9e44114b7aafc808b8b57
2024-07-05,spip-contrib-extensions/sitemap_images,master,8e3ae01d57e4dc0d5f2498d96adcc1353fa9fcf2
