date,full_path,name,sha
2019-05-14,spip-contrib-extensions/favicon,v1.1.2,9098e825229332c6e2154d22863ca7bf61d750ed
2021-05-04,spip-contrib-extensions/favicon,v1.2.0,188f61fb4444e5f2aa727c1416e05dffc34e766f
2022-08-23,spip-contrib-extensions/favicon,v1.2.1,793f29029546577d3ae890c9ec7913aa626d74e2
2023-03-28,spip-contrib-extensions/favicon,v1.2.2,7083cf3f95180f2b19c772259bca17727c679933
2024-07-05,spip-contrib-extensions/favicon,1.3.0,54fdc163ed60715a1c2a8b5b3d0000beb4c98848
