opened,Papotage,4,maieul,2024-09-03,2310,Issue
opened,Papotage,43,RealET,2024-09-03,2310,Issue
pushed to,Codage,12,marcimat,2024-10-29,2310,Project
commented on,Papotage,14,rastapopoulos,2025-01-22,2310,DiscussionNote
commented on,Papotage,43,RealET,2025-01-22,2310,DiscussionNote
closed,Papotage,14,rastapopoulos,2025-01-22,2310,Issue
accepted,Codage,14,rastapopoulos,2025-01-22,2310,MergeRequest
approved,Codage,14,rastapopoulos,2025-01-22,2310,MergeRequest
approved,Codage,43,RealET,2025-01-22,2310,MergeRequest
opened,Codage,14,rastapopoulos,2025-01-22,2310,MergeRequest
commented on,Papotage,14,rastapopoulos,2025-01-22,2310,Note
deleted,Codage,14,rastapopoulos,2025-01-22,2310,Project
pushed new,Codage,14,rastapopoulos,2025-01-22,2310,Project
pushed to,Codage,14,rastapopoulos,2025-01-22,2310,Project
commented on,Papotage,18,b_b,2025-01-23,2310,Note
commented on,Papotage,18,b_b,2025-02-04,2310,DiscussionNote
pushed to,Codage,18,b_b,2025-02-04,2310,Project
commented on,Papotage,9,cerdic,2025-02-05,2310,DiscussionNote
approved,Codage,9,cerdic,2025-02-05,2310,MergeRequest
commented on,Papotage,9,cerdic,2025-02-05,2310,Note
commented on,Papotage,18,b_b,2025-02-06,2310,DiscussionNote
closed,Papotage,18,b_b,2025-02-06,2310,Issue
closed,Papotage,18,b_b,2025-02-06,2310,Issue
opened,Papotage,18,b_b,2025-02-06,2310,Issue
accepted,Codage,18,b_b,2025-02-06,2310,MergeRequest
deleted,Codage,18,b_b,2025-02-06,2310,Project
pushed to,Codage,18,b_b,2025-02-06,2310,Project
commented on,Papotage,12,marcimat,2025-02-07,2310,DiscussionNote
commented on,Papotage,12,marcimat,2025-02-07,2310,DiscussionNote
commented on,Papotage,14,rastapopoulos,2025-02-07,2310,DiscussionNote
commented on,Papotage,18,b_b,2025-02-07,2310,DiscussionNote
commented on,Papotage,18,b_b,2025-02-07,2310,DiscussionNote
commented on,Papotage,4,maieul,2025-02-07,2310,DiscussionNote
commented on,Papotage,4,maieul,2025-02-07,2310,DiscussionNote
closed,Papotage,18,b_b,2025-02-07,2310,Issue
closed,Papotage,531,jlb,2025-02-07,2310,Issue
opened,Papotage,43,RealET,2025-02-07,2310,Issue
opened,Codage,12,marcimat,2025-02-07,2310,MergeRequest
opened,Codage,18,b_b,2025-02-07,2310,MergeRequest
commented on,Papotage,12,marcimat,2025-02-07,2310,Note
commented on,Papotage,12,marcimat,2025-02-07,2310,Note
commented on,Papotage,12,marcimat,2025-02-07,2310,Note
commented on,Papotage,12,marcimat,2025-02-07,2310,Note
commented on,Papotage,18,b_b,2025-02-07,2310,Note
commented on,Papotage,18,b_b,2025-02-07,2310,Note
commented on,Papotage,18,b_b,2025-02-07,2310,Note
commented on,Papotage,18,b_b,2025-02-07,2310,Note
commented on,Papotage,18,b_b,2025-02-07,2310,Note
commented on,Papotage,18,b_b,2025-02-07,2310,Note
commented on,Papotage,18,b_b,2025-02-07,2310,Note
commented on,Papotage,18,b_b,2025-02-07,2310,Note
commented on,Papotage,531,jlb,2025-02-07,2310,Note
pushed new,Codage,12,marcimat,2025-02-07,2310,Project
pushed new,Codage,18,b_b,2025-02-07,2310,Project
pushed to,Codage,12,marcimat,2025-02-07,2310,Project
pushed to,Codage,12,marcimat,2025-02-07,2310,Project
pushed to,Codage,18,b_b,2025-02-07,2310,Project
pushed to,Codage,18,b_b,2025-02-07,2310,Project
commented on,Papotage,355,philippeboussin,2025-02-08,2310,DiscussionNote
commented on,Papotage,4,maieul,2025-02-08,2310,DiscussionNote
commented on,Papotage,12,marcimat,2025-02-09,2310,DiscussionNote
commented on,Papotage,14,rastapopoulos,2025-02-09,2310,DiscussionNote
commented on,Papotage,14,rastapopoulos,2025-02-09,2310,DiscussionNote
commented on,Papotage,14,rastapopoulos,2025-02-09,2310,DiscussionNote
commented on,Papotage,18,b_b,2025-02-09,2310,DiscussionNote
commented on,Papotage,18,b_b,2025-02-09,2310,DiscussionNote
commented on,Papotage,4,maieul,2025-02-09,2310,DiscussionNote
commented on,Papotage,4,maieul,2025-02-09,2310,DiscussionNote
commented on,Papotage,4,maieul,2025-02-09,2310,DiscussionNote
commented on,Papotage,9,cerdic,2025-02-11,2310,DiscussionNote
commented on,Papotage,9,cerdic,2025-02-11,2310,DiscussionNote
commented on,Papotage,9,cerdic,2025-02-11,2310,DiscussionNote
commented on,Papotage,9,cerdic,2025-02-11,2310,DiscussionNote
commented on,Papotage,9,cerdic,2025-02-11,2310,DiscussionNote
opened,Papotage,9,cerdic,2025-02-11,2310,Issue
pushed to,Codage,18,b_b,2025-02-11,2310,Project
commented on,Papotage,9,cerdic,2025-02-12,2310,DiscussionNote
commented on,Papotage,14,rastapopoulos,2025-02-13,2310,DiscussionNote
approved,Codage,18,b_b,2025-02-13,2310,MergeRequest
commented on,Papotage,18,b_b,2025-02-13,2310,Note
accepted,Codage,12,marcimat,2025-02-14,2310,MergeRequest
accepted,Codage,18,b_b,2025-02-14,2310,MergeRequest
approved,Codage,18,b_b,2025-02-14,2310,MergeRequest
approved,Codage,22,placido,2025-02-14,2310,MergeRequest
deleted,Codage,12,marcimat,2025-02-14,2310,Project
deleted,Codage,18,b_b,2025-02-14,2310,Project
pushed new,Codage,18,b_b,2025-02-14,2310,Project
pushed to,Codage,12,marcimat,2025-02-14,2310,Project
pushed to,Codage,18,b_b,2025-02-14,2310,Project
pushed to,Codage,18,b_b,2025-02-14,2310,Project
