prefix,full_path
oembed_fake,spip-contrib-extensions/oembed_fake
comarquage,spip-contrib-extensions/comarquage
omeka,spip-contrib-extensions/omeka
accesrestreintvideos,spip-contrib-extensions/acces_restreint_videos
soyezcreateurs,spip-contrib-squelettes/soyezcreateurs
sendagi,spip-contrib-squelettes/sendagi
microedition,spip-contrib-squelettes/microedition
scolaspip,spip-contrib-squelettes/scolaspip
ginza,spip-contrib-squelettes/ginza
spipr_dane,spip-contrib-squelettes/spipr-dane
oshiage,spip-contrib-squelettes/oshiage
odaiba,spip-contrib-squelettes/odaiba
ueno,spip-contrib-squelettes/ueno
kamakura,spip-contrib-squelettes/kamakura
nezu,spip-contrib-squelettes/nezu
