date,full_path,name,sha
2019-03-16,spip-contrib-extensions/seo,v1,b62109c7ae60877e3ecda196d3207d1b8af49ee8
2020-02-05,spip-contrib-extensions/seo,v2,b68246e8a26275c8f6b0faee51127dcc1c18f16e
2023-11-15,spip-contrib-extensions/seo,fix_erreur_squelette,bf9451f7f23f7b73c6f517aff62a041ce034a3e7
2024-07-05,spip-contrib-extensions/seo,master,0a78dd2a0c2e216dd119102c62ee1bc155df2954
