closed,Papotage,20,cam.lafit,2024-08-27,3228,Issue
closed,Papotage,20,cam.lafit,2024-08-27,3228,Issue
commented on,Papotage,20,cam.lafit,2024-08-27,3228,Note
commented on,Papotage,20,cam.lafit,2024-08-30,3228,Note
commented on,Papotage,20,cam.lafit,2024-10-21,3228,Note
commented on,Papotage,12,marcimat,2024-11-05,3228,Note
commented on,Papotage,12,marcimat,2024-11-06,3228,DiscussionNote
commented on,Papotage,18,b_b,2024-11-06,3228,DiscussionNote
commented on,Papotage,20,cam.lafit,2024-11-08,3228,DiscussionNote
