id,iid,labels,milestone_id,project_id
22993,4714,,,1676
22998,4706,,,1676
23000,4703,bug,1256,1676
23001,4702,,,1676
23004,4691,bug,1256,1676
23007,4683,,1256,1676
23012,4546,bug,1256,1676
23014,4487,amélioration,1256,1676
23018,4367,bug,1256,1676
23021,3450,amélioration,1256,1676
31344,4717,amélioration,,1676
31409,4719,amélioration,1256,1676
31679,4721,bug,1619,1676
31883,4724,,,1676
31892,4725,bug,1619,1676
32223,4726,,,1676
32276,4727,amélioration,,1676
32431,4728,bug,1619,1676
