due_date,id,iid,project_id,start_date,state,title
,1253,155,1676,,closed,spip-3.2
,1254,156,1676,,closed,spip-4.0
2025-01-23,1255,157,1676,,active,images-4.0
2025-01-23,1256,158,1676,,active,images-4.1
2025-01-23,1261,163,1676,,active,images-5.0
,1266,478,1676,,closed,< spip-3.2
2025-07-21,1619,479,1676,,active,images-4.2
2025-01-23,1628,480,1676,,active,images-4.3
