date,full_path,name,sha
2009-05-30,spip/images,v1.0,81d7e9ad1cacae6327bd83c2e1e3e2d9abac54b7
2010-03-27,spip/images,v1.0.1,373c8464b821ded111681816b619d465695336e6
2010-04-10,spip/images,spip/2.1,31256838ea6886d84d0243fecbd4e1c3bc395997
2010-07-29,spip/images,spip/2.1.1,bfc50a089e59a2aded8f6902aa79ba206c01e10d
2010-12-14,spip/images,spip/2.1.3,87867fedcec03bc115225d2d89421c1ebf79943a
2010-12-21,spip/images,spip/2.1.4,ae196b648ee64b72233a3ff3690179bf6ff2850b
2010-12-21,spip/images,spip/2.1.5,c1a583e52fad2b63809c00f3f04f996cf393cad2
2011-01-02,spip/images,spip/2.1.6,185cda2b1ceb1370b67c85f9ebba80989208f68d
2011-01-13,spip/images,spip/2.1.7,f64237da08541f055cd9e25d73bbd6ae5fff70b5
2011-01-14,spip/images,spip/2.1.8,a8893df9cb6eff4e26bfdf95b33a570ae34128a9
2011-03-25,spip/images,spip/2.1.9,dd5846a7fbaa33786fa0d2a7ef528e7e0e0a6a63
2011-04-06,spip/images,spip/2.1.10,c6a3446a3b4f6ff251b50e99d915bdaac95c5e38
2011-07-31,spip/images,v1.1.0,108f6bf49ab891bd9ea69f058a2e223024b0c8d2
2011-09-22,spip/images,spip/2.1.11,470aab4411aa9a66c8190d8c3a688965924f5dca
2011-11-16,spip/images,spip/2.1.12,8ef4e1b9e264579914325b0c6fabec78769c5d17
2012-04-22,spip/images,spip/2.1.13,f5006ebeab67afe6105aa996ec77e035e586215f
2012-04-25,spip/images,v1.1.1,f2a7c6e0149ba9e060debcb2f1cfdaace434bfbf
2012-05-14,spip/images,spip/2.1.14,e373549564782a8a472e32c3fd4bafa66ec8fccc
2012-07-03,spip/images,spip/2.1.16,5ee99f616b5b116f159eb5e040a36e6417f2c720
2012-08-01,spip/images,spip/2.1.17,ed89176ae3661fd18fdb93d47cef39b744390e6b
2012-09-13,spip/images,spip/2.1.18,f7cdb204290dda88e6f546836f0afaa44c480563
2012-09-17,spip/images,spip/2.1.19,64f144403e2668d897a95626efc9cb340a4851fa
2013-01-24,spip/images,spip/3.0.0,9ae12758d57d1ce397b6c8d478805c3d31bc41ab
2013-01-24,spip/images,spip/3.0.1,aa096be7515a6fee73f7cbe4dd27f406812f1686
2013-01-24,spip/images,spip/3.0.2,dd4e911916ad646dc7f7c44d557747a2693afe8b
2013-01-24,spip/images,spip/3.0.3,1062c35cb0863c91f58e4295b3fd1094504e7996
2013-01-24,spip/images,spip/3.0.4,61c9f7fede9cf6e893bf8b7b28ebe628397bbac8
2013-01-24,spip/images,spip/3.0.5,7da34409f70725ffd135ec79c8ddb3f46b2cbf03
2013-03-13,spip/images,v1.1.3,7259229ac5d02501da96079d7be22d80ae83b577
2013-03-13,spip/images,v1.1.4,2852eb6dd76fd82dc9c34034cf73fcb8e0013c79
2013-03-18,spip/images,spip/2.1.20,78185f4cc718391d1d66b42e893db04900d120da
2013-03-18,spip/images,spip/3.0.6,a03b8fd3fdd633db1ecbc0c252de6aa3e57132ae
2013-03-22,spip/images,spip/3.0.7,4c96cffe26fc4850bc96ea1229b81bab42364b17
2013-04-17,spip/images,spip/3.0.8,7eb1495948f24c7670f75b6d6bbe9ca0084736a9
2013-04-21,spip/images,spip/2.1.21,8e777b47e3ddc5cbfa090d3af951a62a1203b272
2013-05-24,spip/images,spip/2.1.22,35bd450141e418c42f6a015052e11b79cb56aa5f
2013-05-24,spip/images,spip/3.0.9,0208b327ff87cb4dd2f025ab4043a3cd1c8785c6
2013-05-25,spip/images,v1.1.5,03c7b48f83291a7b0adb2f9d1718d696b88a06c4
2013-05-27,spip/images,spip/2.1.23,96da1a89d5391faeb2dc35c9d7ee243fc889e2b7
2013-05-27,spip/images,spip/3.0.10,13ad0af2ca6581d8deb1cb05719de7992b186cd2
2013-06-28,spip/images,v1.1.6,074e245a307e25a293f36440cc38eaef526a913e
2013-07-06,spip/images,v1.1.7,e6b7e55f6b3e023923b5a35b045c5b7cb16cbad0
2013-08-09,spip/images,spip/3.0.11,38b677e263f3cbc322d32675c239cf8fc337bf70
2013-11-09,spip/images,spip/2.1.24,bce15334e49224a00905ba514ac703d49875285b
2013-11-09,spip/images,spip/3.0.12,837116cf3773a12c67ed7e1916d3bbfd10c978f9
2013-11-10,spip/images,spip/3.0.13,372aed3323153dbbdaf0f34d75f274a265ad8e6d
2014-01-19,spip/images,spip/2.1.25,8898b2223161a6125f8c31becde5869b57d4b717
2014-01-19,spip/images,spip/3.0.14,a1272ea2a6bdb9a373f0820bbe20bfbf3b7d894e
2014-02-02,spip/images,v1.1.8,1e22452ffc76a21b457badf22d778be4e98b69e1
2014-02-21,spip/images,spip/3.0.15,5e23566dc6176ce5f4b2997e438a69cecb8cbff5
2014-03-13,spip/images,spip/2.1.26,da7306c51c2ff65a93609c5375824922e9933a18
2014-03-13,spip/images,spip/3.0.16,6d7e3aaf3bcbfc718fefca984202e896bdf571cd
2014-06-07,spip/images,v1.1.9,afbbd2397134fdb3d38ccab9e5f06cd9fde2e398
2014-08-13,spip/images,spip/3.0.17,8694e72fc3a19e516ffc9b92160a952615e07505
2014-09-24,spip/images,v1.1.10,37509ecc22c4b11da89a3e9722829ecd2fbb7f96
2015-04-26,spip/images,spip/3.0.18,09321eea98ae8ae2b21973aa5859f8c0f9fe73a6
2015-05-08,spip/images,spip/3.0.19,30e965b53f06eadf039170b59c4a5d3f711223af
2015-05-09,spip/images,spip/2.1.27,85395d8499245682715c747356deb34b86a52886
2015-06-23,spip/images,spip/2.1.28,a40c66c9e4805ba4cbe09402d3c7775699792d03
2015-06-23,spip/images,spip/3.0.20,891b9e993137c3b4bde4a42df13079824d52cbf8
2015-10-31,spip/images,spip/3.0.21,f3bee27bcd514a1ac4821cb9f4fdda93acc2e9e8
2015-11-21,spip/images,v1.1.11,3466cf64563a8770b6994e75e8d221c3810bca4e
2015-12-08,spip/images,v1.2.0,b9f82cf483069f1f7e768c098e7ec36eb123d744
2016-01-06,spip/images,spip/3.1.0,fe845d311eb885197660dfe3b1cf23ac32a34965
2016-01-06,spip/images,v1.2.1,aa9a47786aa55e7ec97ff3cfcb633a7bf5643387
2016-03-10,spip/images,spip/2.1.29,e9032c7b3536be1753bda10cf86e5945bd43720d
2016-03-10,spip/images,spip/3.0.22,ceb69f994963bfcbb319a8999c365aafa4bc58a7
2016-03-10,spip/images,spip/3.1.1,3e764c58b8168124f318b014f7fba9f7445ef10a
2016-09-23,spip/images,spip/3.0.23,d4546de85102c55ac88882d0afd8fd35df29f6a8
2016-09-23,spip/images,spip/3.1.2,ab8e0d677d46e40582d611308f823c3357bad97e
2016-09-30,spip/images,spip/3.0.24,3cd1ec336fc8cb2c0c8b56abfa37f88ce0800fea
2016-09-30,spip/images,spip/3.1.3,64ed6701d62801969ab768c9e6849b99e6292802
2017-01-27,spip/images,v2.0.0,3a0a53e5a89194d6ed1a5a6386fddcbe3cafcd3e
2017-03-06,spip/images,spip/2.1.30,81bc6e400d6f67abf9ed133d0b964674a0fb9068
2017-03-06,spip/images,spip/3.0.25,4cec0f4faa7929478f3ab5877c9f8d21e41f24d5
2017-03-06,spip/images,spip/3.1.4,918b81f2377cbe02fdc6109753a2e8da09e87c53
2017-03-17,spip/images,v2.0.1,eeb019109f1b8a797a6df9d7cd0b622e42af4995
2017-06-08,spip/images,spip/3.0.26,086b126d34ee658aaa8f30bbca973d7015bb9bba
2017-06-08,spip/images,spip/3.1.5,30dbaefe2141deb2932f13f6f8303bc8193550a0
2017-06-12,spip/images,spip/3.1.6,2845ca0089a241d13074e6dd0c2ce5dc046eece0
2017-10-08,spip/images,v2.1.0,7d549f74dcc07059df226b88fa40dd42e1f939ff
2017-10-12,spip/images,spip/3.1.7,72c59a3784fba6a25665b860e00b358835a8c831
2017-10-13,spip/images,spip/3.2.0,cce92165ea54e41090efce5a9e6898d760ccb487
2018-02-03,spip/images,v2.1.1,4d8a5a11a7232f66a6518b9ad5ccfae143058850
2018-03-14,spip/images,spip/3.0.27,d3ea45482cff28073605392f63eaa7426aad9bf6
2018-03-14,spip/images,spip/3.1.8,f792c74fcab4718a6d7d906a27341e01ea25f703
2018-03-14,spip/images,spip/3.2.1,82bc762e52424dfaaaf504a5e672057b9568113e
2019-01-18,spip/images,spip/3.0.28,dd2ece98a1e47ace2e9d992edde13ff3a07c4525
2019-01-18,spip/images,spip/3.1.9,4b89587ab80cf587090a31a87c80f10b6ea0a0aa
2019-01-18,spip/images,spip/3.2.2,f2e02ece76c2c15a1c712d08fcd0cf125b46e2d8
2019-01-21,spip/images,spip/3.2.3,d7a3fe28a602517e42187ce87c5c4935aa605be1
2019-04-08,spip/images,spip/3.1.10,791eb0b780415133d076323c7f42f31ed6ade056
2019-04-08,spip/images,spip/3.2.4,beb146f6b25b67f279fceb9892d87eec8caa9ded
2019-06-27,spip/images,v2.1.2,680f956d9aa4bd1ab6f8f9c3f6bcda73e20bbd22
2019-07-18,spip/images,v2.2.0,111c68e98e9d210b00aaeacc8c2da172493b748a
2019-07-18,spip/images,v2.2.1,d8eddef0ddaa6215a2646ed08d5fbe85eff8a6ee
2019-09-16,spip/images,spip/3.1.11,102439b91cc4202cfe735f26539e6a93320d3cd0
2019-09-16,spip/images,spip/3.2.5,adf1d83b8b26ece1dcbd6009eab5b61e1f621359
2019-12-12,spip/images,spip/3.1.12,bb913d6c140e02d199750cee27c7823f0ebf4059
2019-12-12,spip/images,spip/3.2.6,bfe2c5c475ad9f138aaa3170492ed7892eb81d77
2019-12-12,spip/images,spip/3.2.7,b05ae119f49f5e7cf59849290022cce1b73c2f04
2020-01-01,spip/images,spip/3.1.13,ae3b4a77f01a17c7af0ec8640489c8f0cd6d4601
2020-01-01,spip/images,spip/3.1.14,ae3b4a77f01a17c7af0ec8640489c8f0cd6d4601
2020-01-01,spip/images,spip/3.1.15,ae3b4a77f01a17c7af0ec8640489c8f0cd6d4601
2020-01-01,spip/images,spip/3.2.8,190bf90dc441f308f53cc09eca5549080c390dd2
2020-01-01,spip/images,spip/3.2.9,190bf90dc441f308f53cc09eca5549080c390dd2
2021-03-18,spip/images,spip/3.2.10,eb9ace8f520497636885f0d9714b328414ab0fd4
2021-03-18,spip/images,spip/3.2.11,eb9ace8f520497636885f0d9714b328414ab0fd4
2021-05-01,spip/images,spip/4.0.0-alpha,47be3d05714e4869747da825e6ed740a534acd86
2021-05-01,spip/images,v3.0.0,47be3d05714e4869747da825e6ed740a534acd86
2021-06-01,spip/images,spip/4.0.0-beta,c177590c821a275328016f3bfd20f9f6cc0a7edb
2021-06-01,spip/images,v3.0.1,c177590c821a275328016f3bfd20f9f6cc0a7edb
2021-07-08,spip/images,spip/4.0.0,7c18178fe6ad7252e9cbed51f2b8b78794d9b7b5
2021-07-08,spip/images,v3.0.2,7c18178fe6ad7252e9cbed51f2b8b78794d9b7b5
2021-12-14,spip/images,spip/3.2.12,d771440e1dbf5e5d5e0203b45e3711d0f7f90951
2021-12-14,spip/images,spip/4.0.1,d4d85f2a4fb1cc89a9dd97f0c8d252c2c1651c88
2021-12-14,spip/images,spip/4.0.2,d4d85f2a4fb1cc89a9dd97f0c8d252c2c1651c88
2021-12-14,spip/images,spip/4.0.3,d4d85f2a4fb1cc89a9dd97f0c8d252c2c1651c88
2021-12-14,spip/images,v2.0.4,d771440e1dbf5e5d5e0203b45e3711d0f7f90951
2021-12-14,spip/images,v3.0.3,d4d85f2a4fb1cc89a9dd97f0c8d252c2c1651c88
2022-02-08,spip/images,v4.0.0,24daea6ceb626fa0dd94e8945090140b72e5cfea
2022-03-05,spip/images,v4.0.1,c3dbc58cb11200c07de1ea007c8166942c131f9c
2022-03-25,spip/images,v4.0.2,e7520a170ab6ac41d88eecd930799c7903352751
2022-05-20,spip/images,v3.0.4,27473fbe85c50db0851680f60984f6b803bc77fc
2022-05-20,spip/images,v4.0.3,7fa75174d577536d8520ce2bb3e4a2e37259c835
2022-07-21,spip/images,v4.0.4,e722a9403470a9fb38ba06a194c9694d5d28a435
2023-01-27,spip/images,v4.1.0,998066c0f9f9a86ca75ba4af50148b59c61bdafe
2023-09-01,spip/images,v4.1.1,d84f3b6f700739a117d35853c5ad399b4ac66c5c
2024-05-07,spip/images,v4.1.2,6ee7c7e72ab02b6e3343b3eede203a24a8c5599a
2024-05-29,spip/images,v4.1.3,6e1cc516514efd8b5f4583bded93bf9dfffd9f61
2024-05-29,spip/images,v4.2.0,ec6d8b46efb3f5840f99eb7aaa03860911b8a65e
2024-07-26,spip/images,v4.2.1,ce13370d6320274045d2ddc014b21efe8f9a4281
2024-10-08,spip/images,v4.2.2,12bfb70cc10e4ba5cdcfd6cc401bad857a16cc45
2024-11-27,spip/images,4.3.0,0ad6c419d1fc7547fe5cf4e6f8d46538161ff575
2024-11-27,spip/images,5.0.0,24cf098e4a95c3145bb99aa86e4acdd9fe708fd5
2024-12-02,spip/images,v5.0.1,85173739dae0f48b418bdcd8cca53a04df2d7ced
2025-01-17,spip/images,4.3.1,efd7dae1957935aceea7904191fc490f420a97f5
2025-02-14,spip/images,4.3.2,aa9679280fd74ed18a7b86162ee34c8ffdd068ce
