date,full_path,name,sha
2023-05-16,spip-contrib-extensions/calendrier_mini,3.0,011f9de30164ea6c0ffeb7ad302f2ca4087aa77d
2025-01-29,spip-contrib-extensions/calendrier_mini,master,33ab7f98755927e6637d5ce7b8f22bd82cd2da5a
