date,full_path,name,sha
2020-02-12,spip-contrib-extensions/declinaisons,v1,5565f4148c85515eecfbb1e4e06db28d3f88607c
2024-07-13,spip-contrib-extensions/declinaisons,master,827f147bdea096b2b472277e23e6b8abc3af8659
