date,full_path,name,sha
2017-04-10,spip-contrib-extensions/anythingslider,v_0,2f0e0350dea962ef3b94a8c45620393bbcfed9f5
2017-04-10,spip-contrib-extensions/anythingslider,v_1,3dabe74575f06d1b8463267893c4bef6fc7be7f6
2017-10-09,spip-contrib-extensions/anythingslider,v2,3972b4ce092447a34ca42b12d1b9a0f95b24a8ec
2024-07-05,spip-contrib-extensions/anythingslider,master,c9ac1aba61196fc95a137afa6c8ba6a9a47185be
