date,full_path,name,sha
2019-11-11,spip-contrib-extensions/nospam,v1,a958a8b1d0c3922da6ea06534613d4f60ef8f9db
2025-01-29,spip-contrib-extensions/nospam,master,ad4db91dfc90b34227c0fdb253f18658ace2bc78
