date,full_path,name,sha
2017-04-02,spip-contrib-extensions/querypath,v1,c9902f659532e4ebaa6ab7be0a36d4325251fde3
2024-07-05,spip-contrib-extensions/querypath,2.1,8eccb68ac535b33fa5ec51e2f2b2763dcaac3b11
2025-02-05,spip-contrib-extensions/querypath,master,7918fbf0f96330c2df6c92b74a709b9b95aebbcc
