date,full_path,name,sha
2017-10-09,spip-contrib-extensions/querypath,v1.1.2,56f477d952e5870224c29987320d9b4f21c30fc0
2020-05-05,spip-contrib-extensions/querypath,v2.0.0,76ce72d5b02b8654e84aff84a8d587c36d81fac9
2020-05-22,spip-contrib-extensions/querypath,v2.0.2,e7affcb22d1998135990a663c208eb5371ad5fea
2021-02-25,spip-contrib-extensions/querypath,v2.0.3,9cb73262e22f13d1679a79f842991a197ec5693e
2021-11-09,spip-contrib-extensions/querypath,v2.0.4,6fb76620c9cae1187b59a2c5abedaa6a2e885154
2022-09-09,spip-contrib-extensions/querypath,v2.0.5,620cbe6a7334dea85d256ec12b6b184952b42632
2023-06-30,spip-contrib-extensions/querypath,v2.0.6,af70b3db6b0a421d4e853e8d06f626a847762a7b
2024-07-05,spip-contrib-extensions/querypath,2.1.0,8eccb68ac535b33fa5ec51e2f2b2763dcaac3b11
2025-02-05,spip-contrib-extensions/querypath,3.0.0,7918fbf0f96330c2df6c92b74a709b9b95aebbcc
