date,full_path,name,sha
2018-05-27,spip-contrib-extensions/cookiechoices,v1.1.2,69f34e1616a55e9344dbaad60854377f570d5b29
2024-07-13,spip-contrib-extensions/cookiechoices,1.2.0,990d50f52fc5ab87254483669f1bedc010fe7ff8
