date,full_path,name,sha
2024-07-18,spip-league/path,2.0.0,162206ff7797173656776ceb7778fe96ffc97639
2024-11-30,spip-league/path,2.0.1,0f1003c6d0dd55545338f4af58b10539e33cd836
2024-12-21,spip-league/path,2.1.0,1ec4b668d4fad94fd0bc916c19f6f2d96aeb9e85
