date,full_path,name,sha
2020-02-07,spip-contrib-extensions/bigfoot,v1.3.2,df466bd3f2a29f5a519077f3b35f190496184529
2020-12-20,spip-contrib-extensions/bigfoot,v1.3.3,561e5cd7cf1e03383c69fcc44203d5307e368c0f
2021-02-12,spip-contrib-extensions/bigfoot,v1.3.4,3f23fef80840dbbb9a2854aa2d6bafc14aa97424
2021-07-30,spip-contrib-extensions/bigfoot,v1.3.5,1d8c7661fd585bfd9d5c882ed59cb5964cfeb4a1
2022-04-18,spip-contrib-extensions/bigfoot,v1.3.6,73555dee698b44746a72e8f11c73cc02c87afd58
2023-01-30,spip-contrib-extensions/bigfoot,v1.3.7,572e1ab43ea51f482e337f7198392a1aa362c0c7
2024-06-09,spip-contrib-extensions/bigfoot,v1.4.0,e891d29172b200f3c987a8f2abfc3b0405237d70
