date,full_path,name,sha
2017-08-26,spip-contrib-extensions/courtcircuit,v_1,8158ab08c9130731b537c13883ab1ffd979f2479
2021-06-08,spip-contrib-extensions/courtcircuit,v2,8b8f58449e40b0927dbae64377279de664b170aa
2023-06-19,spip-contrib-extensions/courtcircuit,v3,494e67586be69c430e3d9b3c126dde9c6010e393
2024-07-05,spip-contrib-extensions/courtcircuit,master,5392971b517fbdf2a0c536d3872dbb948e6c74e5
