date,full_path,name,sha
2021-04-08,spip-contrib-extensions/couteau_suisse,v1.10.23,03d155b2a994e37b724e149e9588d6259818733f
2021-04-11,spip-contrib-extensions/couteau_suisse,v1.11.01,b166c2a5c469424c5c2c37c0472bf132823242ab
2021-04-24,spip-contrib-extensions/couteau_suisse,v1.11.02,3420479504825d1595068a163a7629319ca4860b
2021-04-29,spip-contrib-extensions/couteau_suisse,v1.11.03,51d4f4cb90a5ffb221314ef16c3a50f6157c7e8c
2021-05-02,spip-contrib-extensions/couteau_suisse,v1.11.04,efbdef8454c43d562a96c388ab13fe6bbb8b5da3
2021-05-12,spip-contrib-extensions/couteau_suisse,v1.11.05,515dad146925ebdf40707103a04ee736dbfb3008
2021-05-18,spip-contrib-extensions/couteau_suisse,v1.11.06,db68682a67cd7a766630b8a3a05a95745aae5a9a
2021-05-30,spip-contrib-extensions/couteau_suisse,v1.11.08,908d8bed7ad2821f9ec5cf52cfe399d8a877159e
2021-05-31,spip-contrib-extensions/couteau_suisse,v1.11.09,951d005503c91df444b59e06bae94e78a40e97b1
2021-06-01,spip-contrib-extensions/couteau_suisse,v1.11.10,d519fedd0ed00f0f4adc9227a28a18e6c9d00538
2021-06-07,spip-contrib-extensions/couteau_suisse,v1.11.11,7029e8d3d0c4b1a869ef769a875f42e35cb8ff55
2021-06-07,spip-contrib-extensions/couteau_suisse,v1.12.00,7e65852790864e73b088fc3f32a4781a31b17235
2021-06-14,spip-contrib-extensions/couteau_suisse,v1.12.01,191137eb88dbd3703da3b1de348b6b666b3aa40c
2021-07-28,spip-contrib-extensions/couteau_suisse,v1.12.03,78e7af5695187bc7de00755cc435967ea69f12ae
2021-08-09,spip-contrib-extensions/couteau_suisse,v1.12.04,04177fdd0e600f7d45f44350fb034457d03e79a9
2021-09-25,spip-contrib-extensions/couteau_suisse,v1.12.05,3855dc4ea304953f2428890af93562cd46964ad9
2022-01-31,spip-contrib-extensions/couteau_suisse,v1.12.06,4dcadb48fa0e5ca764312b2d46f350f0271f630c
2022-02-12,spip-contrib-extensions/couteau_suisse,v1.12.07,028dfb1726afaaeffd72bf713fbb7db84b719698
2022-02-25,spip-contrib-extensions/couteau_suisse,v1.12.08,7f23f6473fe89840004e3c60ea1f2a64a69e3000
2022-05-10,spip-contrib-extensions/couteau_suisse,v1.14.00,c6711119e9ca673896179b9780c754157c01d791
2022-07-12,spip-contrib-extensions/couteau_suisse,v1.14.01,9d2b6783a99c13f6c3ce0599ecd8cbac233589d7
2023-01-17,spip-contrib-extensions/couteau_suisse,v1.14.02,184f367a3d9952923096961a1ab1fe0ad02de1b5
2023-04-10,spip-contrib-extensions/couteau_suisse,v1.14.03,580fb70d2938699c96caea6d9e3f87db6656ca4d
2023-04-24,spip-contrib-extensions/couteau_suisse,v1.14.04,bd7a0982687ed5eee9f897510b1832f5b82b269b
2023-10-18,spip-contrib-extensions/couteau_suisse,v1.14.05,eeed11acfb26536ea395f52ab30fae056e721dca
2023-10-19,spip-contrib-extensions/couteau_suisse,v1.14.06,ab5c8876119e77e7934394de429b07a0c731dbb2
2023-10-20,spip-contrib-extensions/couteau_suisse,v1.14.07,e93c4a532cabd0c519e697bb728db733df8d066b
2023-10-20,spip-contrib-extensions/couteau_suisse,v1.14.08,51c89a4681ec4879c7a04367ae86bc8d23f10f11
2023-10-25,spip-contrib-extensions/couteau_suisse,v1.14.09,c271045060a60f2486b7fb811d809a0c5a954bbf
2023-10-26,spip-contrib-extensions/couteau_suisse,v1.14.10,1d0d1641cfd9978fca2a53316d303e3674e1a712
2023-11-07,spip-contrib-extensions/couteau_suisse,v1.14.11,2eb41a62f7da25eee053d2c62067b12494a41ea2
2023-11-13,spip-contrib-extensions/couteau_suisse,v1.15.00,e38a7dcf3a60523c22459633b7bdf53c9e5090fc
2023-11-18,spip-contrib-extensions/couteau_suisse,v1.15.01,7a934a5ec56eebf871f2c69ae61f2a8d7e18bd22
2023-11-26,spip-contrib-extensions/couteau_suisse,v1.15.02,bbf97cbb07d4aad325043d055667bbf7ed8c7c2b
2024-03-19,spip-contrib-extensions/couteau_suisse,v1.15.03,c3a26c053aea58564aeb627323c0964a33dc60c6
2024-07-05,spip-contrib-extensions/couteau_suisse,1.16.0,65d4fa3017eace294e441091eb37609ac877abf9
2024-08-06,spip-contrib-extensions/couteau_suisse,1.16.1,fc70d608ab9530d5299bd38546c7d859351e4eed
