date,full_path,name,sha
2018-01-14,spip-contrib-extensions/date_creation,v1.0.2,d2ceb68bc8f90ec5ed3066754797054a4985dc31
2022-06-16,spip-contrib-extensions/date_creation,v1.0.3,8ecbf6743070ae83e2c7ee37a1dbf329db40f3ad
2023-07-19,spip-contrib-extensions/date_creation,v1.0.4,febb814e189ddcc24f3af60389b5809441630f2e
2024-07-05,spip-contrib-extensions/date_creation,1.1.0,1c046a10fedf2bac7a8181b9b3472b1b5cb11149
