date,full_path,name,sha
2024-09-30,spip-league/kernel,1.x,f77a9eebd5d1bbb346f7d678d93562d32f6b3ed6
2025-01-06,spip-league/kernel,2.x,174252d9ac22576450c1e5d1f4508446c3e1d13f
2025-01-14,spip-league/kernel,generaliser-flex,5a27159bbdc56ef6467c332899b8b199b8fb76f6
