created,Codage,6,JamesRezo,2024-09-23,3330,Project
pushed new,Codage,6,JamesRezo,2024-09-23,3330,Project
pushed new,Codage,6,JamesRezo,2024-09-24,3330,Project
pushed to,Codage,6,JamesRezo,2024-09-24,3330,Project
pushed to,Codage,6,JamesRezo,2024-09-24,3330,Project
pushed to,Codage,6,JamesRezo,2024-09-24,3330,Project
opened,Codage,6,JamesRezo,2024-09-26,3330,MergeRequest
opened,Codage,6,JamesRezo,2024-09-26,3330,MergeRequest
pushed new,Codage,6,JamesRezo,2024-09-26,3330,Project
pushed new,Codage,6,JamesRezo,2024-09-26,3330,Project
pushed to,Codage,6,JamesRezo,2024-09-26,3330,Project
pushed to,Codage,6,JamesRezo,2024-09-26,3330,Project
pushed to,Codage,6,JamesRezo,2024-09-27,3330,Project
pushed to,Codage,6,JamesRezo,2024-09-27,3330,Project
pushed to,Codage,6,JamesRezo,2024-09-29,3330,Project
pushed to,Codage,6,JamesRezo,2024-09-29,3330,Project
commented on,Papotage,12,marcimat,2024-09-30,3330,DiscussionNote
commented on,Papotage,6,JamesRezo,2024-09-30,3330,DiscussionNote
opened,Papotage,6,JamesRezo,2024-09-30,3330,Issue
accepted,Codage,12,marcimat,2024-09-30,3330,MergeRequest
accepted,Codage,6,JamesRezo,2024-09-30,3330,MergeRequest
approved,Codage,4,maieul,2024-09-30,3330,MergeRequest
commented on,Papotage,12,marcimat,2024-09-30,3330,Note
commented on,Papotage,12,marcimat,2024-09-30,3330,Note
commented on,Papotage,6,JamesRezo,2024-09-30,3330,Note
deleted,Codage,6,JamesRezo,2024-09-30,3330,Project
deleted,Codage,6,JamesRezo,2024-09-30,3330,Project
pushed to,Codage,12,marcimat,2024-09-30,3330,Project
pushed to,Codage,6,JamesRezo,2024-09-30,3330,Project
deleted,Codage,6,JamesRezo,2024-11-27,3330,Project
deleted,Codage,6,JamesRezo,2024-11-27,3330,Project
pushed new,Codage,6,JamesRezo,2024-11-27,3330,Project
pushed new,Codage,6,JamesRezo,2024-11-27,3330,Project
pushed new,Codage,6,JamesRezo,2024-11-27,3330,Project
pushed new,Codage,6,JamesRezo,2024-11-27,3330,Project
pushed to,Codage,6,JamesRezo,2024-11-27,3330,Project
pushed to,Codage,6,JamesRezo,2024-11-28,3330,Project
opened,Codage,6,JamesRezo,2024-11-30,3330,MergeRequest
pushed new,Codage,6,JamesRezo,2024-11-30,3330,Project
pushed new,Codage,6,JamesRezo,2024-11-30,3330,Project
pushed to,Codage,6,JamesRezo,2024-11-30,3330,Project
approved,Codage,12,marcimat,2024-12-03,3330,MergeRequest
accepted,Codage,6,JamesRezo,2024-12-04,3330,MergeRequest
deleted,Codage,6,JamesRezo,2024-12-04,3330,Project
pushed new,Codage,6,JamesRezo,2024-12-04,3330,Project
pushed to,Codage,6,JamesRezo,2024-12-04,3330,Project
opened,Codage,6,JamesRezo,2024-12-20,3330,MergeRequest
pushed new,Codage,6,JamesRezo,2024-12-20,3330,Project
accepted,Codage,6,JamesRezo,2024-12-21,3330,MergeRequest
approved,Codage,12,marcimat,2024-12-21,3330,MergeRequest
commented on,Papotage,12,marcimat,2024-12-21,3330,Note
deleted,Codage,6,JamesRezo,2024-12-21,3330,Project
pushed to,Codage,12,marcimat,2024-12-21,3330,Project
pushed to,Codage,6,JamesRezo,2024-12-21,3330,Project
pushed to,Codage,6,JamesRezo,2024-12-24,3330,Project
pushed to,Codage,6,JamesRezo,2024-12-24,3330,Project
pushed to,Codage,6,JamesRezo,2024-12-25,3330,Project
pushed to,Codage,6,JamesRezo,2024-12-25,3330,Project
accepted,Codage,12,marcimat,2024-12-26,3330,MergeRequest
approved,Codage,6,JamesRezo,2024-12-26,3330,MergeRequest
opened,Codage,12,marcimat,2024-12-26,3330,MergeRequest
deleted,Codage,12,marcimat,2024-12-26,3330,Project
pushed new,Codage,12,marcimat,2024-12-26,3330,Project
pushed to,Codage,12,marcimat,2024-12-26,3330,Project
pushed to,Codage,12,marcimat,2024-12-26,3330,Project
pushed to,Codage,12,marcimat,2024-12-26,3330,Project
pushed to,Codage,12,marcimat,2024-12-26,3330,Project
pushed to,Codage,6,JamesRezo,2024-12-26,3330,Project
accepted,Codage,12,marcimat,2024-12-27,3330,MergeRequest
approved,Codage,6,JamesRezo,2024-12-27,3330,MergeRequest
opened,Codage,12,marcimat,2024-12-27,3330,MergeRequest
deleted,Codage,12,marcimat,2024-12-27,3330,Project
pushed new,Codage,12,marcimat,2024-12-27,3330,Project
pushed to,Codage,12,marcimat,2024-12-27,3330,Project
commented on,Papotage,4,maieul,2025-01-06,3330,Note
commented on,Papotage,6,JamesRezo,2025-01-06,3330,Note
pushed to,Codage,12,marcimat,2025-01-06,3330,Project
pushed to,Codage,12,marcimat,2025-01-06,3330,Project
opened,Codage,6,JamesRezo,2025-01-09,3330,MergeRequest
pushed new,Codage,6,JamesRezo,2025-01-09,3330,Project
pushed to,Codage,6,JamesRezo,2025-01-09,3330,Project
commented on,Papotage,4,maieul,2025-01-11,3330,DiffNote
commented on,Papotage,4,maieul,2025-01-11,3330,DiffNote
commented on,Papotage,6,JamesRezo,2025-01-11,3330,DiffNote
commented on,Papotage,4,maieul,2025-01-11,3330,DiscussionNote
commented on,Papotage,6,JamesRezo,2025-01-11,3330,DiscussionNote
commented on,Papotage,6,JamesRezo,2025-01-11,3330,DiscussionNote
commented on,Papotage,4,maieul,2025-01-11,3330,Note
pushed to,Codage,6,JamesRezo,2025-01-14,3330,Project
