date,full_path,name,sha
2017-04-02,spip-contrib-extensions/xiti,v1.1.0,53f4c0ddf85fbbcf6662f7c7664b250593ebeed3
2017-05-08,spip-contrib-extensions/xiti,v1.8.3,e051b6bb7d0f6b597c22e4ed65e4c4eff606f228
2020-02-05,spip-contrib-extensions/xiti,v2.3.2,9f296a27b0623b41683db55feeb15fc3b166ced0
