date,full_path,name,sha
2017-05-08,spip-contrib-extensions/porte_plume_codes,v1,5239e330507cd234b8c02bf0461fdb8818505d8f
2021-09-28,spip-contrib-extensions/porte_plume_codes,v2,6a0912faf3020785232b0647dc012faa5e9a2f6f
2024-01-02,spip-contrib-extensions/porte_plume_codes,gh-008b256f/2/unknown/master,a82162a4952229d97424a3c6b135f7fc68b580b8
2025-01-29,spip-contrib-extensions/porte_plume_codes,master,3ea8aba0bda837c21d691fa345a15fa99f869800
