date,full_path,name,sha
2021-08-19,spip-contrib-extensions/motpasseexpirable,v3,7f0008db2ae2006cbac4add10bee1c3b632454b0
2024-07-05,spip-contrib-extensions/motpasseexpirable,master,52f9aaaa8e1fce1b88ec856be5822a3d0737720e
