opened,Papotage,12,marcimat,2024-08-28,2121,Issue
accepted,Codage,12,marcimat,2024-08-28,2121,MergeRequest
approved,Codage,14,rastapopoulos,2024-08-28,2121,MergeRequest
approved,Codage,9,cerdic,2024-08-28,2121,MergeRequest
opened,Codage,12,marcimat,2024-08-28,2121,MergeRequest
commented on,Papotage,4,maieul,2024-08-28,2121,Note
deleted,Codage,12,marcimat,2024-08-28,2121,Project
pushed new,Codage,12,marcimat,2024-08-28,2121,Project
pushed to,Codage,12,marcimat,2024-08-28,2121,Project
opened,Papotage,12,marcimat,2024-09-03,2121,Issue
pushed new,Codage,12,marcimat,2024-09-03,2121,Project
pushed to,Codage,12,marcimat,2024-09-03,2121,Project
opened,Codage,12,marcimat,2024-09-04,2121,MergeRequest
commented on,Papotage,12,marcimat,2024-09-04,2121,Note
commented on,Papotage,12,marcimat,2024-09-04,2121,Note
commented on,Papotage,14,rastapopoulos,2024-09-04,2121,Note
pushed new,Codage,12,marcimat,2024-09-04,2121,Project
pushed to,Codage,12,marcimat,2024-09-04,2121,Project
commented on,Papotage,12,marcimat,2024-09-05,2121,DiscussionNote
commented on,Papotage,12,marcimat,2024-09-05,2121,DiscussionNote
commented on,Papotage,14,rastapopoulos,2024-09-05,2121,DiscussionNote
accepted,Codage,12,marcimat,2024-09-05,2121,MergeRequest
accepted,Codage,12,marcimat,2024-09-05,2121,MergeRequest
approved,Codage,14,rastapopoulos,2024-09-05,2121,MergeRequest
approved,Codage,9,cerdic,2024-09-05,2121,MergeRequest
opened,Codage,12,marcimat,2024-09-05,2121,MergeRequest
deleted,Codage,12,marcimat,2024-09-05,2121,Project
deleted,Codage,12,marcimat,2024-09-05,2121,Project
pushed new,Codage,12,marcimat,2024-09-05,2121,Project
pushed to,Codage,12,marcimat,2024-09-05,2121,Project
pushed to,Codage,12,marcimat,2024-09-05,2121,Project
pushed to,Codage,12,marcimat,2024-09-05,2121,Project
pushed to,Codage,12,marcimat,2024-09-05,2121,Project
opened,Codage,12,marcimat,2024-09-06,2121,MergeRequest
commented on,Papotage,12,marcimat,2024-09-06,2121,Note
commented on,Papotage,12,marcimat,2024-09-06,2121,Note
pushed new,Codage,12,marcimat,2024-09-06,2121,Project
commented on,Papotage,12,marcimat,2024-09-09,2121,Note
pushed to,Codage,12,marcimat,2024-09-09,2121,Project
pushed to,Codage,12,marcimat,2024-09-09,2121,Project
pushed to,Codage,12,marcimat,2024-09-09,2121,Project
commented on,Papotage,12,marcimat,2024-09-11,2121,Note
commented on,Papotage,12,marcimat,2024-09-11,2121,Note
pushed to,Codage,12,marcimat,2024-09-11,2121,Project
pushed to,Codage,12,marcimat,2024-09-11,2121,Project
pushed to,Codage,12,marcimat,2024-09-11,2121,Project
approved,Codage,15,tcharlss,2024-09-12,2121,MergeRequest
commented on,Papotage,15,tcharlss,2024-09-12,2121,Note
accepted,Codage,12,marcimat,2024-09-13,2121,MergeRequest
approved,Codage,468,bricebou,2024-09-13,2121,MergeRequest
opened,Codage,12,marcimat,2024-09-13,2121,MergeRequest
commented on,Papotage,468,bricebou,2024-09-13,2121,Note
deleted,Codage,12,marcimat,2024-09-13,2121,Project
pushed new,Codage,12,marcimat,2024-09-13,2121,Project
pushed to,Codage,12,marcimat,2024-09-13,2121,Project
accepted,Codage,12,marcimat,2024-09-16,2121,MergeRequest
deleted,Codage,12,marcimat,2024-09-16,2121,Project
pushed new,Codage,12,marcimat,2024-09-16,2121,Project
pushed new,Codage,12,marcimat,2024-09-16,2121,Project
pushed to,Codage,12,marcimat,2024-09-16,2121,Project
pushed to,Codage,12,marcimat,2024-09-16,2121,Project
pushed to,Codage,12,marcimat,2024-09-16,2121,Project
pushed to,Codage,12,marcimat,2024-09-16,2121,Project
pushed to,Codage,12,marcimat,2024-09-16,2121,Project
approved,Codage,14,rastapopoulos,2024-09-17,2121,MergeRequest
opened,Codage,12,marcimat,2024-09-17,2121,MergeRequest
pushed new,Codage,12,marcimat,2024-09-17,2121,Project
pushed to,Codage,12,marcimat,2024-09-17,2121,Project
pushed to,Codage,12,marcimat,2024-09-17,2121,Project
pushed to,Codage,12,marcimat,2024-09-17,2121,Project
pushed to,Codage,12,marcimat,2024-09-17,2121,Project
closed,Papotage,12,marcimat,2024-10-30,2121,Issue
closed,Papotage,12,marcimat,2024-10-30,2121,Issue
accepted,Codage,12,marcimat,2024-10-30,2121,MergeRequest
approved,Codage,14,rastapopoulos,2024-10-30,2121,MergeRequest
opened,Codage,12,marcimat,2024-10-30,2121,MergeRequest
commented on,Papotage,12,marcimat,2024-10-30,2121,Note
commented on,Papotage,12,marcimat,2024-10-30,2121,Note
commented on,Papotage,12,marcimat,2024-10-30,2121,Note
deleted,Codage,12,marcimat,2024-10-30,2121,Project
pushed new,Codage,12,marcimat,2024-10-30,2121,Project
pushed to,Codage,12,marcimat,2024-10-30,2121,Project
pushed to,Codage,12,marcimat,2024-10-30,2121,Project
opened,Codage,14,rastapopoulos,2024-11-04,2121,MergeRequest
pushed new,Codage,14,rastapopoulos,2024-11-04,2121,Project
commented on,Papotage,14,rastapopoulos,2025-02-05,2121,DiscussionNote
opened,Papotage,9,cerdic,2025-02-05,2121,Issue
approved,Codage,12,marcimat,2025-02-05,2121,MergeRequest
approved,Codage,14,rastapopoulos,2025-02-05,2121,MergeRequest
approved,Codage,9,cerdic,2025-02-05,2121,MergeRequest
opened,Codage,9,cerdic,2025-02-05,2121,MergeRequest
commented on,Papotage,9,cerdic,2025-02-05,2121,Note
commented on,Papotage,9,cerdic,2025-02-05,2121,Note
pushed new,Codage,9,cerdic,2025-02-05,2121,Project
pushed to,Codage,9,cerdic,2025-02-05,2121,Project
commented on,Papotage,14,rastapopoulos,2025-02-06,2121,DiscussionNote
closed,Papotage,14,rastapopoulos,2025-02-06,2121,Issue
opened,Papotage,9,cerdic,2025-02-06,2121,Issue
commented on,Papotage,9,cerdic,2025-02-06,2121,Note
commented on,Papotage,9,cerdic,2025-02-06,2121,Note
commented on,Papotage,14,rastapopoulos,2025-02-11,2121,DiscussionNote
commented on,Papotage,9,cerdic,2025-02-11,2121,DiscussionNote
opened,Papotage,9,cerdic,2025-02-11,2121,Issue
commented on,Papotage,9,cerdic,2025-02-11,2121,Note
commented on,Papotage,9,cerdic,2025-02-11,2121,Note
commented on,Papotage,9,cerdic,2025-02-12,2121,DiscussionNote
commented on,Papotage,9,cerdic,2025-02-12,2121,DiscussionNote
approved,Codage,14,rastapopoulos,2025-02-12,2121,MergeRequest
opened,Codage,9,cerdic,2025-02-12,2121,MergeRequest
commented on,Papotage,9,cerdic,2025-02-12,2121,Note
pushed new,Codage,9,cerdic,2025-02-12,2121,Project
pushed new,Codage,9,cerdic,2025-02-12,2121,Project
pushed to,Codage,9,cerdic,2025-02-12,2121,Project
pushed to,Codage,9,cerdic,2025-02-12,2121,Project
pushed to,Codage,9,cerdic,2025-02-12,2121,Project
