id,iid,labels,milestone_id,project_id,source_branch,source_project_id,target_branch,target_project_id
9415,15,,,2121,fix_notice_php,2121,master,2121
9429,16,,,2121,dev/parent_mot,2121,master,2121
9888,17,,,2121,issue_13,2121,master,2121
9926,18,,,2121,fix_issue_15,2121,master,2121
