opened,Papotage,18,b_b,2024-10-28,1798,Issue
commented on,Papotage,9,cerdic,2024-10-30,1798,Note
commented on,Papotage,9,cerdic,2024-10-30,1798,Note
commented on,Papotage,45,george,2024-11-07,1798,Note
commented on,Papotage,9,cerdic,2024-11-18,1798,DiscussionNote
commented on,Papotage,9,cerdic,2024-11-18,1798,DiscussionNote
commented on,Papotage,9,cerdic,2024-11-18,1798,DiscussionNote
commented on,Papotage,9,cerdic,2024-11-18,1798,DiscussionNote
commented on,Papotage,9,cerdic,2024-11-18,1798,DiscussionNote
closed,Papotage,9,cerdic,2024-11-18,1798,Issue
commented on,Papotage,45,george,2024-11-18,1798,Note
commented on,Papotage,9,cerdic,2024-11-18,1798,Note
commented on,Papotage,9,cerdic,2024-11-18,1798,Note
pushed new,Codage,9,cerdic,2024-11-18,1798,Project
pushed to,Codage,9,cerdic,2024-11-18,1798,Project
