pushed new,Codage,35,arno,2024-09-12,2112,Project
pushed to,Codage,35,arno,2024-09-12,2112,Project
pushed new,Codage,35,arno,2024-12-05,2112,Project
pushed new,Codage,35,arno,2024-12-05,2112,Project
pushed new,Codage,35,arno,2024-12-05,2112,Project
pushed new,Codage,35,arno,2024-12-05,2112,Project
pushed to,Codage,35,arno,2024-12-05,2112,Project
pushed to,Codage,35,arno,2024-12-05,2112,Project
pushed to,Codage,35,arno,2024-12-05,2112,Project
pushed to,Codage,35,arno,2024-12-05,2112,Project
opened,Codage,9,cerdic,2025-01-08,2112,MergeRequest
pushed new,Codage,9,cerdic,2025-01-08,2112,Project
accepted,Codage,35,arno,2025-01-13,2112,MergeRequest
approved,Codage,35,arno,2025-01-13,2112,MergeRequest
deleted,Codage,9,cerdic,2025-01-13,2112,Project
pushed to,Codage,35,arno,2025-01-13,2112,Project
pushed new,Codage,35,arno,2025-01-14,2112,Project
