date,full_path,name,sha
2018-12-24,spip-contrib-extensions/ieconfig,v0.2.7,6deeb933e245babf984194bfe32fb1213e3fa7f3
2019-08-31,spip-contrib-extensions/ieconfig,v1.3.2,c30ce2e8e39c6139b9da5b302ce8c880d1eaa12b
2020-02-05,spip-contrib-extensions/ieconfig,v2.0.10,31ac175ef327f56b931803d555c51fd73c989362
2021-03-21,spip-contrib-extensions/ieconfig,v2.0.11,705d6ba7461c1006111c386f600620e0e79ccead
2021-03-22,spip-contrib-extensions/ieconfig,v1.3.3,b9fd5c5a1fb802c27eb0062ed27bf7b29103aee5
2021-07-14,spip-contrib-extensions/ieconfig,v2.0.12,b2df13879e1a8e4daf374df0d1206552e54f80f7
2022-02-25,spip-contrib-extensions/ieconfig,v2.0.13,9e013008e8b0e0d8746e94f82da425cf9651287e
2022-06-03,spip-contrib-extensions/ieconfig,v2.0.14,06471d2fcd987713913f7d2152b2678a242b9a3a
2023-07-14,spip-contrib-extensions/ieconfig,v2.0.15,dc2a72784073dd97274fe33e732f988fa830585e
2023-11-22,spip-contrib-extensions/ieconfig,v2.0.16,66937ae3762d2378ada637fdb425f0e1be5acf81
2024-07-05,spip-contrib-extensions/ieconfig,2.1.0,0b7ea35863b756653e5cfb27cede647225b9f6bf
