date,full_path,name,sha
2017-05-08,spip-contrib-extensions/en_travaux,v2.0.9,a371d34ea5abdd04412935dab22bfc1dba715b3e
2020-02-05,spip-contrib-extensions/en_travaux,v3.2.4,e7824ad9d2521ad764f3b4e556d31e8005ada7fb
2020-12-09,spip-contrib-extensions/en_travaux,v3.2.7,1d1f6c1f3cb03e7bd8b1c8ea7e6cb3a93fdefa92
2021-07-07,spip-contrib-extensions/en_travaux,v4.0.0,9a7fa447718e79e6742631fd6ce69a4734379821
2021-10-15,spip-contrib-extensions/en_travaux,v4.0.1,6afc0ae13e50471d29777203b9fca5093c4d7979
2022-03-02,spip-contrib-extensions/en_travaux,v4.0.2,aec0b95f2c3cc3fd8ca9e6190d810ebef0307c2c
2023-03-15,spip-contrib-extensions/en_travaux,v5.0.0,43778795f8a8bbbc172637986b9d64f6c3dbee35
2023-03-15,spip-contrib-extensions/en_travaux,v5.0.1,0dd768993baf20f5ae13a9cbb04aa2f690168670
2024-07-05,spip-contrib-extensions/en_travaux,5.1.0,d2f22750df0a1f062783a60b02f0d4c42afa5504
