commented on,Papotage,43,RealET,2024-06-28,2104,DiscussionNote
commented on,Papotage,14,rastapopoulos,2024-06-30,2104,DiscussionNote
pushed new,Codage,6,JamesRezo,2024-07-05,2104,Project
pushed to,Codage,6,JamesRezo,2024-07-05,2104,Project
