date,full_path,name,sha
2019-11-05,spip-contrib-extensions/identite_extra,v1.4.2,aa2ed4631a8940040f4318b0fb743d73ad6f6762
2021-07-14,spip-contrib-extensions/identite_extra,v1.4.3,fc0234ad2ea26ae5a78b98973c865bba7c2f8f46
2021-09-07,spip-contrib-extensions/identite_extra,v1.4.4,0dd70a185b2edb28f3f43625f99313bf0632f548
2021-09-08,spip-contrib-extensions/identite_extra,v1.4.5,b4029ad15da6c03ec74fa0ff94d2728043b35789
2021-09-15,spip-contrib-extensions/identite_extra,v1.4.6,f8819ab93a21a86642b1339b981751cd6391db86
2022-04-24,spip-contrib-extensions/identite_extra,v1.4.7,a95be6713455aaab2bf28300b3fe9b51c0eeae86
2023-05-25,spip-contrib-extensions/identite_extra,v1.4.8,8020f9a3f3b46eb6001b42b623fae3f1209991cf
2024-07-05,spip-contrib-extensions/identite_extra,1.5.0,68d50b5c88feee2a7f0b4b1ced0b6572a452bcae
