date,full_path,name,sha
2019-10-07,spip-contrib-extensions/google_analytics,transport_method,904980407fccb3fa626f8509fd2c6fbf103bfe6a
2021-08-10,spip-contrib-extensions/google_analytics,v0,7605180db54de85eab09d141f89ddecafa8f066d
2022-05-17,spip-contrib-extensions/google_analytics,v1,550660c35ed00c5769abcac91b8026b9884f01b5
2024-07-05,spip-contrib-extensions/google_analytics,master,1071b2bbacaf88d6db0ead5706d68c02f16861bc
