closed,Papotage,13,Eric,2024-06-22,1758,Issue
closed,Papotage,43,RealET,2024-06-22,1758,Issue
accepted,Codage,13,Eric,2024-06-22,1758,MergeRequest
approved,Codage,13,Eric,2024-06-22,1758,MergeRequest
deleted,Codage,43,RealET,2024-06-22,1758,Project
pushed to,Codage,13,Eric,2024-06-22,1758,Project
pushed to,Codage,13,Eric,2024-06-22,1758,Project
pushed new,Codage,13,Eric,2024-06-23,1758,Project
