date,full_path,name,sha
2022-04-18,spip-contrib-extensions/archive_objet,v0.4.0,1fbfad15635ec851551bc6ebd67c96b0b99ba4e2
2022-06-04,spip-contrib-extensions/archive_objet,v0.4.1,a8359b8797ba8ced8c6705178b4b697bb705ce67
2022-08-25,spip-contrib-extensions/archive_objet,v0.4.2,d85ed472a30a295523d154c4150545d170c4a2ce
2024-05-12,spip-contrib-extensions/archive_objet,v0.5.0,a609edfcf32ad3e703d5aaf8ba94960319d29c8d
2024-05-12,spip-contrib-extensions/archive_objet,v0.5.1,d3bddea8047c3d6a073fbe9524d1a125f4ea7462
2024-05-20,spip-contrib-extensions/archive_objet,v0.5.2,8a732bb661139119acf794758d1ee8a162be0022
2024-06-01,spip-contrib-extensions/archive_objet,v0.5.3,3104ba20445ccfbdd7f5771ce0c764dddd83197b
2024-06-17,spip-contrib-extensions/archive_objet,v0.5.4,7cd05de92703e6e7d6a47e92a5d53e69fc3d5eb7
2024-06-23,spip-contrib-extensions/archive_objet,v0.5.5,9a7a1270c7a80bcd9478d19572b1ce1c952f8687
