date,full_path,name,sha
2017-04-02,spip-contrib-extensions/champs_extras_core,v1,d1126c5022644df5adf6fcc363d9e1f2c4757058
2022-02-03,spip-contrib-extensions/champs_extras_core,v3,3ed50461e1ac62f0bdae5f8733cb5982287c9c9e
2024-12-22,spip-contrib-extensions/champs_extras_core,master,7a004577014d11a8cb5f4c43d696fec92802b9df
