date,full_path,name,sha
2017-04-02,spip-contrib-extensions/champs_extras_core,v1.10.1,d1126c5022644df5adf6fcc363d9e1f2c4757058
2020-02-05,spip-contrib-extensions/champs_extras_core,v3.12.4,3f6c3b68f9beb35c8419a5bbba7d950c4ae9b287
2020-04-26,spip-contrib-extensions/champs_extras_core,v3.12.5,22907b66645db1af1c9f2ec8fd0ef90dde7e9df4
2020-05-02,spip-contrib-extensions/champs_extras_core,v3.12.6,016ee6cf0f0c8f83ef838bc0bce4587e2ee6a459
2020-05-12,spip-contrib-extensions/champs_extras_core,v3.12.7,0ca43b35993c56e52dae3b03bb16ca8e6a569d86
2020-06-08,spip-contrib-extensions/champs_extras_core,v3.12.8,be255563fa02f9ed72d414b680bdb053521e66a5
2020-06-23,spip-contrib-extensions/champs_extras_core,v3.12.9,c7a5f75e505d0ed871e0ef9b3c5995acae8aec24
2020-08-27,spip-contrib-extensions/champs_extras_core,v3.13.0,bcc28079860d83b908ad74bd264df1e71e908e21
2020-12-31,spip-contrib-extensions/champs_extras_core,v3.13.1,dfa256a758cde731848593c9a8388a46af997714
2021-01-08,spip-contrib-extensions/champs_extras_core,v3.13.2,0aab04d11806fdfd84c2d0d0a6d72187af15b054
2021-03-25,spip-contrib-extensions/champs_extras_core,v3.14.0,78b22843c0de84222d36d3555c016ba87482705a
2021-03-29,spip-contrib-extensions/champs_extras_core,v3.14.1,0f9a04d847b33ebdfe886f34b42741dd08339120
2021-03-30,spip-contrib-extensions/champs_extras_core,v3.14.2,d15a431aab39f46a6dc81fec0139837071d8a5ae
2021-05-27,spip-contrib-extensions/champs_extras_core,v3.14.3,6e8f4891925f7571028ee62aa7c1428541bd8838
2021-07-01,spip-contrib-extensions/champs_extras_core,v3.14.4,55034c57c168f7e3c40a843ce0949e1cdff187de
2021-07-09,spip-contrib-extensions/champs_extras_core,v4.0.0,c766b4271c511c8a8730e8ed3fa32cc40d5ab8e1
2022-02-03,spip-contrib-extensions/champs_extras_core,v3.15.5,b2c15ac7a6b1827bb81d1458c0ae0e746f357a2b
2022-02-03,spip-contrib-extensions/champs_extras_core,v3.15.6,3ed50461e1ac62f0bdae5f8733cb5982287c9c9e
2022-02-03,spip-contrib-extensions/champs_extras_core,v4.0.1,06eb2a8fcf41ae8a364b53d22f00831bcad66e7b
2022-02-03,spip-contrib-extensions/champs_extras_core,v4.0.2,f98b0c0cb39d78129993b2a92fc83961c4ced565
2022-05-11,spip-contrib-extensions/champs_extras_core,v4.1.0,2ec0b905f94be5bfa744ed9ec53186c4bace5b03
2022-05-18,spip-contrib-extensions/champs_extras_core,v4.1.1,8ee443ea0af3005421b01dfd2d40db672b760b82
2023-03-28,spip-contrib-extensions/champs_extras_core,v4.1.2,4cfc87c6161b0a33198458e4c6082573159be648
2024-07-05,spip-contrib-extensions/champs_extras_core,4.2.0,f9dd33d784bf4f79ee5ba2bf3439888c31f59bea
2024-10-26,spip-contrib-extensions/champs_extras_core,v4.2.1,65b2b8a0eeb927ff54f75a1d5a69b8626e93e8b4
