date,full_path,name,sha
2022-05-20,spip/tw,3.0,40c52ab7004700ca8a8c4daa25b92b851baea143
2024-07-26,spip/tw,3.1,ee0285b16c5a9da9ff6bfc2d19ff9942f4bfcf0c
2025-01-16,spip/tw,3.2,b1cc60bdc5e1422edcdf2ce62e425d8477209bb6
2025-02-05,spip/tw,master,bf92a84631ee989f1a144e0a6bd71a9b06609f3d
2025-02-14,spip/tw,3.3,4f0bed38095e9b8be36f43ff504c3c305270c0b7
