due_date,id,iid,project_id,start_date,state,title
,1546,359,1701,,closed,spip-3.2
,1547,360,1701,,closed,spip-4.0
2025-01-23,1548,361,1701,,active,tw-3.0
2025-01-23,1549,362,1701,,active,tw-3.1
2025-07-21,1554,367,1701,,active,tw-3.2
,1559,495,1701,,closed,< spip-3.2
2025-01-23,1625,496,1701,2024-08-01,active,tw-3.4
2025-01-23,1636,497,1701,2024-10-01,active,tw-3.3
