date,full_path,name,sha
2020-02-05,spip-contrib-extensions/gis_geometries,v1.11.7,e5dac24225d65c4112829ae2c6207ead928da1ba
2020-07-09,spip-contrib-extensions/gis_geometries,v1.11.8,04ab1fbc070cca4670dae2789ec1d29c2cb36259
2020-07-10,spip-contrib-extensions/gis_geometries,v1.11.9,6745a2e6a09679af359978cc97248d1328e42c8e
2021-07-12,spip-contrib-extensions/gis_geometries,v1.11.10,96fae93246838a2adc98e472c2bb89870950be73
2022-04-21,spip-contrib-extensions/gis_geometries,v1.11.11,53396e0a964750681e635c8ce2a7b6e857335060
2023-02-11,spip-contrib-extensions/gis_geometries,v1.11.12,1fdada6f91e300883c8ffc54b6a5d07661211519
2023-04-21,spip-contrib-extensions/gis_geometries,v1.11.13,ecd4c4d0ef3220bd70340f79b1312d3c5f6ab281
2023-04-27,spip-contrib-extensions/gis_geometries,v1.1.14,e80c09a65cbee97cffbb6cee4bf406374d25928c
2024-07-05,spip-contrib-extensions/gis_geometries,1.12.0,df604208defc0db61558b09b6710b9fdefa7016a
2024-10-09,spip-contrib-extensions/gis_geometries,1.13.0,1cad59ff728cfbb1615966b8979479b0fd7aca3c
