date,full_path,name,sha
2023-09-26,spip-contrib-extensions/maquettes_multiples,v3.2.0,becc3f700ecc635d622b26e1ab33a1170d1c5528
2023-11-13,spip-contrib-extensions/maquettes_multiples,v3.3.0,2c440f4413cc6bd9adb0e4307f2ad2ccf3479901
2023-12-19,spip-contrib-extensions/maquettes_multiples,v3.3.1,8760bcf7ce7cab23a1ad52c314b3eb2e919dddea
2024-01-17,spip-contrib-extensions/maquettes_multiples,v3.3.2,69b06ad5bebccce4cc2eef2d149672561ba2f9c1
2024-02-01,spip-contrib-extensions/maquettes_multiples,v3.4.0,16a81b4162a5541e9569864ab3502573319e5fe2
2024-02-01,spip-contrib-extensions/maquettes_multiples,v3.4.1,17677ca4f6266cb8911c14b2b4010e0737d94484
2024-02-03,spip-contrib-extensions/maquettes_multiples,v3.4.2,8779e2b9678706198b3c02e9e525cafd65a015a3
2024-07-05,spip-contrib-extensions/maquettes_multiples,3.5.0,55f7cc5b200444c1ce4f4407f0db6c78219bd63f
2024-07-24,spip-contrib-extensions/maquettes_multiples,v3.5.1,cc24c51437358e09a23caa2f3308cf4dfdded40c
