date,full_path,name,sha
2019-11-26,spip-contrib-extensions/crayons,v1.26.20,e273fb19528ab1e7fa1f346a15753126affa4033
2020-03-30,spip-contrib-extensions/crayons,v2.0.9,0a48d2239eed1911f6c2bbf2b9d252106d5ccce1
2020-06-11,spip-contrib-extensions/crayons,v2.0.13,fb728cf7431b81cc094debdfbd21a8b336d41c7e
2021-01-14,spip-contrib-extensions/crayons,v2.1.2,71d583cf6b32143f5da464e0876f154ce5332409
2021-05-03,spip-contrib-extensions/crayons,v2.2.0,c1d4ff3cef88404ddf577960caa100b582fa1acb
2021-07-05,spip-contrib-extensions/crayons,v2.3.0,195830c795e84817adb1e41a680cd3f447ce10ef
2021-12-24,spip-contrib-extensions/crayons,v2.3.1,c6af5377eefe103fe932de1e8e9cd8b3ee39e62b
2022-04-15,spip-contrib-extensions/crayons,v2.3.2,1ea4c36e03d1e34cd2e0f098d8affaf737d1e9d7
2023-01-26,spip-contrib-extensions/crayons,v2.3.3,172112aca5656336992133ff9c227a564c499fa4
2023-03-15,spip-contrib-extensions/crayons,v3.0.0,5fb27139431c4f8afa5d7c0e2d5804a68049ab7f
2023-06-05,spip-contrib-extensions/crayons,v3.1.0,dc52bbaacc4dbfb8e2f82cfbb1eb7ee46e4d4927
2023-10-11,spip-contrib-extensions/crayons,v3.1.1,75f00b88c30c81434f4e6b2b1e0e2d01b032ee02
2024-06-09,spip-contrib-extensions/crayons,v3.1.2,42cce8d9960a8d88202df4e7aee53ff4f6c7f5e5
2025-01-10,spip-contrib-extensions/crayons,3.1.3,bf4c3dd783f80d2085afa4f3198162b23fa71747
2025-01-27,spip-contrib-extensions/crayons,3.2.0,dde87609ce9e54ed96bd3439345b3c61b21dfcf9
